%!PS-Adobe-2.0
%%Title: myplots.ps: c1
%%Creator: ROOT Version 6.22/08
%%CreationDate: Thu Feb  3 16:07:56 2022
%%Orientation: Portrait
%%DocumentNeededResources: ProcSet (FontSetInit)
%%EndComments
%%BeginProlog
/s {stroke} def /l {lineto} def /m {moveto} def /t {translate} def
/r {rotate} def /rl {roll}  def /R {repeat} def
/d {rlineto} def /rm {rmoveto} def /gr {grestore} def /f {eofill} def
/c {setrgbcolor} def /black {0 setgray} def /sd {setdash} def
/cl {closepath} def /sf {scalefont setfont} def /lw {setlinewidth} def
/box {m dup 0 exch d exch 0 d 0 exch neg d cl} def
/NC{systemdict begin initclip end}def/C{NC box clip newpath}def
/bl {box s} def /bf {gsave box gsave f grestore 1 lw [] 0 sd s grestore} def /Y { 0 exch d} def /X { 0 d} def 
/K {{pop pop 0 moveto} exch kshow} bind def
/ita {/ang 15 def gsave [1 0 ang dup sin exch cos div 1 0 0] concat} def 
/mp {newpath /y exch def /x exch def} def
/side {[w .77 mul w .23 mul] .385 w mul sd w 0 l currentpoint t -144 r} def
/mr {mp x y w2 0 360 arc} def /m24 {mr s} def /m20 {mr f} def
/mb {mp x y w2 add m w2 neg 0 d 0 w neg d w 0 d 0 w d cl} def
/mt {mp x y w2 add m w2 neg w neg d w 0 d cl} def
/w4 {w 4 div} def
/w6 {w 6 div} def
/w8 {w 8 div} def
/m21 {mb f} def /m25 {mb s} def /m22 {mt f} def /m26{mt s} def
/m23 {mp x y w2 sub m w2 w d w neg 0 d cl f} def
/m27 {mp x y w2 add m w3 neg w2 neg d w3 w2 neg d w3 w2 d cl s} def
/m28 {mp x w2 sub y w2 sub w3 add m w3 0 d  0 w3 neg d w3 0 d 0 w3 d w3 0 d  0 w3 d w3 neg 0 d 0 w3 d w3 neg 0 d 0 w3 neg d w3 neg 0 d cl s } def
/m29 {mp gsave x w2 sub y w2 add w3 sub m currentpoint t 4 {side} repeat cl fill gr} def
/m30 {mp gsave x w2 sub y w2 add w3 sub m currentpoint t 4 {side} repeat cl s gr} def
/m31 {mp x y w2 sub m 0 w d x w2 sub y m w 0 d x w2 .707 mul sub y w2 .707 mul add m w 1.44 div w 1.44 div neg d x w2 .707 mul sub y w2 .707 mul sub m w 1.44 div w 1.44 div d s} def
/m32 {mp x y w2 sub m w2 w d w neg 0 d cl s} def
/m33 {mp x y w2 add m w3 neg w2 neg d w3 w2 neg d w3 w2 d cl f} def
/m34 {mp x w2 sub y w2 sub w3 add m w3 0 d  0 w3 neg d w3 0 d 0 w3 d w3 0 d  0 w3 d w3 neg 0 d 0 w3 d w3 neg 0 d 0 w3 neg d w3 neg 0 d cl f } def
/m35 {mp x y w2 add m w2 neg w2 neg d w2 w2 neg d w2 w2 d w2 neg w2 d x y w2 sub m 0 w d x w2 sub y m w 0 d s} def
/m36 {mb x w2 sub y w2 add m w w neg d x w2 sub y w2 sub m w w d s} def
/m37 {mp x y m w4 neg w2 d w4 neg w2 neg d w2 0 d  w4 neg w2 neg d w2 0 d w4 neg w2 d w2 0 d w4 neg w2 d w4 neg w2 neg d cl s} def
/m38 {mp x w4 sub y w2 add m w4 neg w4 neg d 0 w2 neg d w4 w4 neg d w2 0 d w4 w4 d 0 w2 d w4 neg w4 d w2 neg 0 d x y w2 sub m 0 w d x w2 sub y m w 0 d cl s} def
/m39 {mp x y m w4 neg w2 d w4 neg w2 neg d w2 0 d  w4 neg w2 neg d w2 0 d w4 neg w2 d w2 0 d w4 neg w2 d w4 neg w2 neg d cl f} def
/m40 {mp x y m w4 w2 d w4 w4 neg d w2 neg w4 neg d w2 w4 neg d w4 neg w4 neg d w4 neg w2 d w4 neg w2 neg d w4 neg w4 d w2 w4 d w2 neg w4 d w4 w4 d w4 w2 neg d cl s} def
/m41 {mp x y m w4 w2 d w4 w4 neg d w2 neg w4 neg d w2 w4 neg d w4 neg w4 neg d w4 neg w2 d w4 neg w2 neg d w4 neg w4 d w2 w4 d w2 neg w4 d w4 w4 d w4 w2 neg d cl f} def
/m42 {mp x y w2 add m w8 neg w2 -3 4 div mul d w2 -3 4 div mul w8 neg d w2 3 4 div mul w8 neg d w8 w2 -3 4 div mul d w8 w2 3 4 div mul d w2 3 4 div mul w8 d w2 -3 4 div mul w8 d w8 neg w2 3 4 div mul d cl s} def
/m43 {mp x y w2 add m w8 neg w2 -3 4 div mul d w2 -3 4 div mul w8 neg d w2 3 4 div mul w8 neg d w8 w2 -3 4 div mul d w8 w2 3 4 div mul d w2 3 4 div mul w8 d w2 -3 4 div mul w8 d w8 neg w2 3 4 div mul d cl f} def
/m44 {mp x y m w6 neg w2 d w2 2 3 div mul 0 d w6 neg w2 neg d w2 w6 d 0 w2 -2 3 div mul d w2 neg w6 d w6 w2 neg d w2 -2 3 div mul 0 d w6 w2 d w2 neg w6 neg d 0 w2 2 3 div mul d w2 w6 neg d cl s} def
/m45 {mp x y m w6 neg w2 d w2 2 3 div mul 0 d w6 neg w2 neg d w2 w6 d 0 w2 -2 3 div mul d w2 neg w6 d w6 w2 neg d w2 -2 3 div mul 0 d w6 w2 d w2 neg w6 neg d 0 w2 2 3 div mul d w2 w6 neg d cl f} def
/m46 {mp x y w4 add m w4 neg w4 d w4 neg w4 neg d  w4 w4 neg d w4 neg w4 neg d w4 w4 neg d w4 w4 d w4 w4 neg d w4 w4 d w4 neg w4 d w4 w4 d w4 neg w4 d w4 neg w4 neg d cl s} def
/m47 {mp x y w4 add m w4 neg w4 d w4 neg w4 neg d w4 w4 neg d w4 neg w4 neg d  w4 w4 neg d w4 w4 d w4 w4 neg d w4 w4 d w4 neg w4 d w4 w4 d w4 neg w4 d w4 neg w4 neg d cl f} def
/m48 {mp x y w4 add m w4 neg w4 d w4 neg w4 neg d w4 w4 neg d  w4 neg w4 neg d w4 w4 neg d w4 w4 d w4 w4 neg d w4 w4 d w4 neg w4 d w4 w4 d w4 neg w4 d w4 neg w4 neg d  w4 w4 neg d w4 neg w4 neg d w4 neg w4 d w4 w4 d cl f} def
/m49 {mp x w2 sub w3 add y w2 sub w3 add m  0 w3 neg d w3 0 d 0 w3 d w3 0 d 0 w3 d w3 neg 0 d 0 w3 d w3 neg 0 d 0 w3 neg d w3 neg 0 d 0 w3 neg d w3 0 d 0 w3 d w3 0 d 0 w3 neg d w3 neg 0 d cl f } def
/m2 {mp x y w2 sub m 0 w d x w2 sub y m w 0 d s} def
/m5 {mp x w2 .707 mul sub y w2 .707 mul sub m w 1.44 div w 1.44 div d x w2 .707 mul sub y w2 .707 mul add m w 1.44 div w 1.44 div neg d s} def
%%IncludeResource: ProcSet (FontSetInit)
%%IncludeResource: font Times-Roman
%%IncludeResource: font Times-Italic
%%IncludeResource: font Times-Bold
%%IncludeResource: font Times-BoldItalic
%%IncludeResource: font Helvetica
%%IncludeResource: font Helvetica-Oblique
%%IncludeResource: font Helvetica-Bold
%%IncludeResource: font Helvetica-BoldOblique
%%IncludeResource: font Courier
%%IncludeResource: font Courier-Oblique
%%IncludeResource: font Courier-Bold
%%IncludeResource: font Courier-BoldOblique
%%IncludeResource: font Symbol
%%IncludeResource: font ZapfDingbats
/reEncode {exch findfont dup length dict begin {1 index /FID eq  {pop pop} {def} ifelse } forall /Encoding exch def currentdict end dup /FontName get exch definefont pop } def [/Times-Bold /Times-Italic /Times-BoldItalic /Helvetica /Helvetica-Oblique
 /Helvetica-Bold /Helvetica-BoldOblique /Courier /Courier-Oblique /Courier-Bold /Courier-BoldOblique /Times-Roman /AvantGarde-Book /AvantGarde-BookOblique /AvantGarde-Demi /AvantGarde-DemiOblique /Bookman-Demi /Bookman-DemiItalic /Bookman-Light
 /Bookman-LightItalic /Helvetica-Narrow /Helvetica-Narrow-Bold /Helvetica-Narrow-BoldOblique /Helvetica-Narrow-Oblique /NewCenturySchlbk-Roman /NewCenturySchlbk-Bold /NewCenturySchlbk-BoldItalic /NewCenturySchlbk-Italic /Palatino-Bold
 /Palatino-BoldItalic /Palatino-Italic /Palatino-Roman ] {ISOLatin1Encoding reEncode } forall/Zone {/iy exch def /ix exch def  ix 1 sub  2224 mul  1 iy sub  3144 mul t} def
%%EndProlog
%%BeginSetup
%%EndSetup
newpath  gsave  20 28 t .25 .25 scale  gsave 
%%Page: 1 1
 gsave  gsave 
 1 1 Zone
 gsave  0 0 t black[  ] 0 sd 3 lw 1 1 1 c 2268 1763 0 0 bf black 1 1 1 c 2268 1763 0 0 bf black 1 1 1 c 1814 1234 227 353 bf black 1814 1234 227 353 bl 0 0 0.6 c 1 1 1 c black 0 0 0.6 c 227 353 m 680 X 629 Y 45 X 476 Y 46 X -16 Y 45 X -710 Y 46 X 733
 Y 45 X -262 Y 45 X -718 Y 46 X 601 Y 45 X -733 Y 771 X s black 227 353 m 1814 X s 317 395 m -42 Y s 363 374 m -21 Y s 408 374 m -21 Y s 454 374 m -21 Y s 499 374 m -21 Y s 544 395 m -42 Y s 590 374 m -21 Y s 635 374 m -21 Y s 680 374 m -21 Y s 726
 374 m -21 Y s 771 395 m -42 Y s 816 374 m -21 Y s 862 374 m -21 Y s 907 374 m -21 Y s 952 374 m -21 Y s 998 395 m -42 Y s 1043 374 m -21 Y s 1089 374 m -21 Y s 1134 374 m -21 Y s 1179 374 m -21 Y s 1225 395 m -42 Y s 1270 374 m -21 Y s 1315 374 m
 -21 Y s 1361 374 m -21 Y s 1406 374 m -21 Y s 1451 395 m -42 Y s 1497 374 m -21 Y s 1542 374 m -21 Y s 1587 374 m -21 Y s 1633 374 m -21 Y s 1678 395 m -42 Y s 1723 374 m -21 Y s 1769 374 m -21 Y s 1814 374 m -21 Y s 1860 374 m -21 Y s 1905 395 m
 -42 Y s 317 395 m -42 Y s 272 374 m -21 Y s 227 374 m -21 Y s 1905 395 m -42 Y s 1950 374 m -21 Y s 1996 374 m -21 Y s 2041 374 m -21 Y s
 gsave  2268 1763 0 0 C 252.221 295.394 t 0 r /Helvetica findfont 56.8065 sf 0 0 m (3445) show NC gr 
 gsave  2268 1763 0 0 C 479.447 295.394 t 0 r /Helvetica findfont 56.8065 sf 0 0 m (3450) show NC gr 
 gsave  2268 1763 0 0 C 706.673 295.394 t 0 r /Helvetica findfont 56.8065 sf 0 0 m (3455) show NC gr 
 gsave  2268 1763 0 0 C 933.899 295.394 t 0 r /Helvetica findfont 56.8065 sf 0 0 m (3460) show NC gr 
 gsave  2268 1763 0 0 C 1158.85 295.394 t 0 r /Helvetica findfont 56.8065 sf 0 0 m (3465) show NC gr 
 gsave  2268 1763 0 0 C 1386.08 295.394 t 0 r /Helvetica findfont 56.8065 sf 0 0 m (3470) show NC gr 
 gsave  2268 1763 0 0 C 1613.31 295.394 t 0 r /Helvetica findfont 56.8065 sf 0 0 m (3475) show NC gr 
 gsave  2268 1763 0 0 C 1840.53 295.394 t 0 r /Helvetica findfont 56.8065 sf 0 0 m (3480) show NC gr  227 353 m 1234 Y s 251 395 m -24 X s 251 430 m -24 X s 251 460 m -24 X s 251 485 m -24 X s 251 508 m -24 X s 274 528 m -47 X s
 gsave  2268 1763 0 0 C 147.697 508.986 t 0 r /Helvetica findfont 56.8065 sf 0 0 m (10) show NC gr  251 661 m -24 X s 251 739 m -24 X s 251 794 m -24 X s 251 836 m -24 X s 251 871 m -24 X s 251 901 m -24 X s 251 926 m -24 X s 251 949 m -24 X s 274
 969 m -47 X s
 gsave  2268 1763 0 0 C 188.598 967.983 t 0 r /Helvetica findfont 38.6284 sf 0 0 m (2) show NC gr 
 gsave  2268 1763 0 0 C 127.247 942.988 t 0 r /Helvetica findfont 56.8065 sf 0 0 m (10) show NC gr  251 1102 m -24 X s 251 1180 m -24 X s 251 1235 m -24 X s 251 1277 m -24 X s 251 1312 m -24 X s 251 1342 m -24 X s 251 1367 m -24 X s 251 1390 m -24 X
 s 274 1410 m -47 X s
 gsave  2268 1763 0 0 C 188.598 1411.07 t 0 r /Helvetica findfont 38.6284 sf 0 0 m (3) show NC gr 
 gsave  2268 1763 0 0 C 127.247 1383.81 t 0 r /Helvetica findfont 56.8065 sf 0 0 m (10) show NC gr  251 1543 m -24 X s 1 1 1 c black
 gsave  2268 1763 0 0 C 945.261 1679.2 t 0 r /Helvetica findfont 81.8014 sf 0 0 m (BCID_Plot) show NC gr  1 1 1 c 453 282 1769 1367 bf black 1769 1367 m 453 X s 2222 1367 m 282 Y s 2222 1649 m -453 X s 1769 1649 m -282 Y s 1 1 1 c black
 gsave  2268 1763 0 0 C 1854.17 1597.4 t 0 r /Helvetica findfont 61.351 sf 0 0 m (BCID_Plot) show NC gr  1769 1578 m 453 X s
 gsave  2268 1763 0 0 C 1790.54 1522.41 t 0 r /Helvetica findfont 54.5343 sf 0 0 m (Entries ) show NC gr 
 gsave  2268 1763 0 0 C 2065.49 1522.41 t 0 r /Helvetica findfont 54.5343 sf 0 0 m ( 4458) show NC gr 
 gsave  2268 1763 0 0 C 1790.54 1451.97 t 0 r /Helvetica findfont 54.5343 sf 0 0 m (Mean  ) show NC gr 
 gsave  2268 1763 0 0 C 2047.31 1451.97 t 0 r /Helvetica findfont 54.5343 sf 0 0 m (   3461) show NC gr 
 gsave  2268 1763 0 0 C 1790.54 1381.53 t 0 r /Helvetica findfont 54.5343 sf 0 0 m (Std Dev   ) show NC gr 
 gsave  2268 1763 0 0 C 2047.31 1381.53 t 0 r /Helvetica findfont 54.5343 sf 0 0 m (  1.681) show NC gr  1 1 1 c black
 gsave  2268 1763 0 0 C 945.261 1679.2 t 0 r /Helvetica findfont 81.8014 sf 0 0 m (BCID_Plot) show NC gr  gr 
showpage gr 
%%Page: 2 2
 gsave 
 1 1 Zone
 gsave  0 0 t black[  ] 0 sd 3 lw 1 1 1 c 2268 1763 0 0 bf black 1 1 1 c 2268 1763 0 0 bf black 1 1 1 c 1814 1234 227 353 bf black 1814 1234 227 353 bl 0 0 0.6 c 1 1 1 c black 0 0 0.6 c 227 353 m 680 X 193 Y 45 X 919 Y 46 X -18 Y 45 X -715 Y 46 X 731
 Y 45 X -261 Y 45 X -717 Y 46 X 600 Y 45 X -732 Y 771 X s black 227 353 m 1814 X s 317 395 m -42 Y s 363 374 m -21 Y s 408 374 m -21 Y s 454 374 m -21 Y s 499 374 m -21 Y s 544 395 m -42 Y s 590 374 m -21 Y s 635 374 m -21 Y s 680 374 m -21 Y s 726
 374 m -21 Y s 771 395 m -42 Y s 816 374 m -21 Y s 862 374 m -21 Y s 907 374 m -21 Y s 952 374 m -21 Y s 998 395 m -42 Y s 1043 374 m -21 Y s 1089 374 m -21 Y s 1134 374 m -21 Y s 1179 374 m -21 Y s 1225 395 m -42 Y s 1270 374 m -21 Y s 1315 374 m
 -21 Y s 1361 374 m -21 Y s 1406 374 m -21 Y s 1451 395 m -42 Y s 1497 374 m -21 Y s 1542 374 m -21 Y s 1587 374 m -21 Y s 1633 374 m -21 Y s 1678 395 m -42 Y s 1723 374 m -21 Y s 1769 374 m -21 Y s 1814 374 m -21 Y s 1860 374 m -21 Y s 1905 395 m
 -42 Y s 317 395 m -42 Y s 272 374 m -21 Y s 227 374 m -21 Y s 1905 395 m -42 Y s 1950 374 m -21 Y s 1996 374 m -21 Y s 2041 374 m -21 Y s
 gsave  2268 1763 0 0 C 252.221 295.394 t 0 r /Helvetica findfont 56.8065 sf 0 0 m (3445) show NC gr 
 gsave  2268 1763 0 0 C 479.447 295.394 t 0 r /Helvetica findfont 56.8065 sf 0 0 m (3450) show NC gr 
 gsave  2268 1763 0 0 C 706.673 295.394 t 0 r /Helvetica findfont 56.8065 sf 0 0 m (3455) show NC gr 
 gsave  2268 1763 0 0 C 933.899 295.394 t 0 r /Helvetica findfont 56.8065 sf 0 0 m (3460) show NC gr 
 gsave  2268 1763 0 0 C 1158.85 295.394 t 0 r /Helvetica findfont 56.8065 sf 0 0 m (3465) show NC gr 
 gsave  2268 1763 0 0 C 1386.08 295.394 t 0 r /Helvetica findfont 56.8065 sf 0 0 m (3470) show NC gr 
 gsave  2268 1763 0 0 C 1613.31 295.394 t 0 r /Helvetica findfont 56.8065 sf 0 0 m (3475) show NC gr 
 gsave  2268 1763 0 0 C 1840.53 295.394 t 0 r /Helvetica findfont 56.8065 sf 0 0 m (3480) show NC gr  227 353 m 1234 Y s 251 395 m -24 X s 251 430 m -24 X s 251 460 m -24 X s 251 485 m -24 X s 251 508 m -24 X s 274 528 m -47 X s
 gsave  2268 1763 0 0 C 147.697 508.986 t 0 r /Helvetica findfont 56.8065 sf 0 0 m (10) show NC gr  251 660 m -24 X s 251 738 m -24 X s 251 793 m -24 X s 251 836 m -24 X s 251 871 m -24 X s 251 900 m -24 X s 251 926 m -24 X s 251 948 m -24 X s 274
 968 m -47 X s
 gsave  2268 1763 0 0 C 188.598 967.983 t 0 r /Helvetica findfont 38.6284 sf 0 0 m (2) show NC gr 
 gsave  2268 1763 0 0 C 127.247 942.988 t 0 r /Helvetica findfont 56.8065 sf 0 0 m (10) show NC gr  251 1101 m -24 X s 251 1178 m -24 X s 251 1233 m -24 X s 251 1276 m -24 X s 251 1311 m -24 X s 251 1341 m -24 X s 251 1366 m -24 X s 251 1389 m -24 X
 s 274 1409 m -47 X s
 gsave  2268 1763 0 0 C 188.598 1408.8 t 0 r /Helvetica findfont 38.6284 sf 0 0 m (3) show NC gr 
 gsave  2268 1763 0 0 C 127.247 1381.53 t 0 r /Helvetica findfont 56.8065 sf 0 0 m (10) show NC gr  251 1541 m -24 X s 1 1 1 c black
 gsave  2268 1763 0 0 C 981.617 1679.2 t 0 r /Helvetica findfont 81.8014 sf 0 0 m (Set_Plot) show NC gr  1 1 1 c 453 282 1769 1367 bf black 1769 1367 m 453 X s 2222 1367 m 282 Y s 2222 1649 m -453 X s 1769 1649 m -282 Y s 1 1 1 c black
 gsave  2268 1763 0 0 C 1881.43 1597.4 t 0 r /Helvetica findfont 61.351 sf 0 0 m (Set_Plot) show NC gr  1769 1578 m 453 X s
 gsave  2268 1763 0 0 C 1790.54 1522.41 t 0 r /Helvetica findfont 54.5343 sf 0 0 m (Entries ) show NC gr 
 gsave  2268 1763 0 0 C 2065.49 1522.41 t 0 r /Helvetica findfont 54.5343 sf 0 0 m ( 4457) show NC gr 
 gsave  2268 1763 0 0 C 1790.54 1451.97 t 0 r /Helvetica findfont 54.5343 sf 0 0 m (Mean  ) show NC gr 
 gsave  2268 1763 0 0 C 2047.31 1451.97 t 0 r /Helvetica findfont 54.5343 sf 0 0 m (   3461) show NC gr 
 gsave  2268 1763 0 0 C 1790.54 1381.53 t 0 r /Helvetica findfont 54.5343 sf 0 0 m (Std Dev   ) show NC gr 
 gsave  2268 1763 0 0 C 2038.22 1381.53 t 0 r /Helvetica findfont 54.5343 sf 0 0 m (  1.646) show NC gr  1 1 1 c black
 gsave  2268 1763 0 0 C 981.617 1679.2 t 0 r /Helvetica findfont 81.8014 sf 0 0 m (Set_Plot) show NC gr  gr 
showpage gr 
%%Page: 3 3
 gsave 
 1 1 Zone
 gsave  0 0 t black[  ] 0 sd 3 lw 1 1 1 c 2268 1763 0 0 bf black 1 1 1 c 2268 1763 0 0 bf black 1 1 1 c 1814 1234 227 353 bf black 1814 1234 227 353 bl 0 0 0.6 c 1 1 1 c black 0 0 0.6 c 227 353 m 862 X 88 Y 45 X 1065 Y 45 X -445 Y 46 X -532 Y 45 X
 -176 Y 771 X s black 227 353 m 1814 X s 227 395 m -42 Y s 272 374 m -21 Y s 317 374 m -21 Y s 363 374 m -21 Y s 408 374 m -21 Y s 454 395 m -42 Y s 499 374 m -21 Y s 544 374 m -21 Y s 590 374 m -21 Y s 635 374 m -21 Y s 680 395 m -42 Y s 726 374 m
 -21 Y s 771 374 m -21 Y s 816 374 m -21 Y s 862 374 m -21 Y s 907 395 m -42 Y s 952 374 m -21 Y s 998 374 m -21 Y s 1043 374 m -21 Y s 1089 374 m -21 Y s 1134 395 m -42 Y s 1179 374 m -21 Y s 1225 374 m -21 Y s 1270 374 m -21 Y s 1315 374 m -21 Y s
 1361 395 m -42 Y s 1406 374 m -21 Y s 1451 374 m -21 Y s 1497 374 m -21 Y s 1542 374 m -21 Y s 1587 395 m -42 Y s 1633 374 m -21 Y s 1678 374 m -21 Y s 1723 374 m -21 Y s 1769 374 m -21 Y s 1814 395 m -42 Y s 1860 374 m -21 Y s 1905 374 m -21 Y s
 1950 374 m -21 Y s 1996 374 m -21 Y s 2041 395 m -42 Y s
 gsave  2268 1763 0 0 C 209.048 295.394 t 0 r /Helvetica findfont 56.8065 sf 0 0 m (20) show NC gr 
 gsave  2268 1763 0 0 C 177.236 295.394 t 0 r /Symbol findfont 56.8065 sf 0 0 m (-) show NC gr 
 gsave  2268 1763 0 0 C 436.274 295.394 t 0 r /Helvetica findfont 56.8065 sf 0 0 m (15) show NC gr 
 gsave  2268 1763 0 0 C 404.462 295.394 t 0 r /Symbol findfont 56.8065 sf 0 0 m (-) show NC gr 
 gsave  2268 1763 0 0 C 663.5 295.394 t 0 r /Helvetica findfont 56.8065 sf 0 0 m (10) show NC gr 
 gsave  2268 1763 0 0 C 631.689 295.394 t 0 r /Symbol findfont 56.8065 sf 0 0 m (-) show NC gr 
 gsave  2268 1763 0 0 C 906.632 295.394 t 0 r /Helvetica findfont 56.8065 sf 0 0 m (5) show NC gr 
 gsave  2268 1763 0 0 C 874.82 295.394 t 0 r /Symbol findfont 56.8065 sf 0 0 m (-) show NC gr 
 gsave  2268 1763 0 0 C 1117.95 295.394 t 0 r /Helvetica findfont 56.8065 sf 0 0 m (0) show NC gr 
 gsave  2268 1763 0 0 C 1342.91 295.394 t 0 r /Helvetica findfont 56.8065 sf 0 0 m (5) show NC gr 
 gsave  2268 1763 0 0 C 1554.23 295.394 t 0 r /Helvetica findfont 56.8065 sf 0 0 m (10) show NC gr 
 gsave  2268 1763 0 0 C 1781.45 295.394 t 0 r /Helvetica findfont 56.8065 sf 0 0 m (15) show NC gr 
 gsave  2268 1763 0 0 C 2008.68 295.394 t 0 r /Helvetica findfont 56.8065 sf 0 0 m (20) show NC gr  227 353 m 1234 Y s 251 353 m -24 X s 251 376 m -24 X s 251 395 m -24 X s 251 412 m -24 X s 251 427 m -24 X s 274 441 m -47 X s
 gsave  2268 1763 0 0 C 188.598 420.368 t 0 r /Helvetica findfont 56.8065 sf 0 0 m (1) show NC gr  251 529 m -24 X s 251 581 m -24 X s 251 617 m -24 X s 251 646 m -24 X s 251 669 m -24 X s 251 688 m -24 X s 251 705 m -24 X s 251 720 m -24 X s 274 734
 m -47 X s
 gsave  2268 1763 0 0 C 147.697 713.49 t 0 r /Helvetica findfont 56.8065 sf 0 0 m (10) show NC gr  251 822 m -24 X s 251 873 m -24 X s 251 910 m -24 X s 251 938 m -24 X s 251 962 m -24 X s 251 981 m -24 X s 251 998 m -24 X s 251 1013 m -24 X s 274
 1027 m -47 X s
 gsave  2268 1763 0 0 C 188.598 1024.79 t 0 r /Helvetica findfont 38.6284 sf 0 0 m (2) show NC gr 
 gsave  2268 1763 0 0 C 127.247 999.795 t 0 r /Helvetica findfont 56.8065 sf 0 0 m (10) show NC gr  251 1115 m -24 X s 251 1166 m -24 X s 251 1203 m -24 X s 251 1231 m -24 X s 251 1254 m -24 X s 251 1274 m -24 X s 251 1291 m -24 X s 251 1306 m -24 X
 s 274 1319 m -47 X s
 gsave  2268 1763 0 0 C 188.598 1320.18 t 0 r /Helvetica findfont 38.6284 sf 0 0 m (3) show NC gr 
 gsave  2268 1763 0 0 C 127.247 1292.92 t 0 r /Helvetica findfont 56.8065 sf 0 0 m (10) show NC gr  251 1408 m -24 X s 251 1459 m -24 X s 251 1496 m -24 X s 251 1524 m -24 X s 251 1547 m -24 X s 251 1567 m -24 X s 251 1584 m -24 X s 1 1 1 c black
 gsave  2268 1763 0 0 C 933.899 1679.2 t 0 r /Helvetica findfont 81.8014 sf 0 0 m (Offset_Plot) show NC gr  1 1 1 c 453 282 1769 1367 bf black 1769 1367 m 453 X s 2222 1367 m 282 Y s 2222 1649 m -453 X s 1769 1649 m -282 Y s 1 1 1 c black
 gsave  2268 1763 0 0 C 1845.08 1597.4 t 0 r /Helvetica findfont 61.351 sf 0 0 m (Offset_Plot) show NC gr  1769 1578 m 453 X s
 gsave  2268 1763 0 0 C 1790.54 1522.41 t 0 r /Helvetica findfont 49.9897 sf 0 0 m (Entries ) show NC gr 
 gsave  2268 1763 0 0 C 2076.85 1524.69 t 0 r /Helvetica findfont 49.9897 sf 0 0 m ( 4457) show NC gr 
 gsave  2268 1763 0 0 C 1790.54 1451.97 t 0 r /Helvetica findfont 49.9897 sf 0 0 m (Mean  ) show NC gr 
 gsave  2268 1763 0 0 C 2008.68 1454.25 t 0 r /Helvetica findfont 49.9897 sf 0 0 m ( 0.03007) show NC gr 
 gsave  2268 1763 0 0 C 1790.54 1381.53 t 0 r /Helvetica findfont 49.9897 sf 0 0 m (Std Dev   ) show NC gr 
 gsave  2268 1763 0 0 C 2035.95 1383.81 t 0 r /Helvetica findfont 49.9897 sf 0 0 m ( 0.1747) show NC gr  1 1 1 c black
 gsave  2268 1763 0 0 C 933.899 1679.2 t 0 r /Helvetica findfont 81.8014 sf 0 0 m (Offset_Plot) show NC gr  gr showpage
 gr 
%%Trailer
%%Pages:  3
 gr  gr  gr 
%%EOF
