
Processing macro.C+("inputfile/LArDigits_pusleall_00407549.root","EMBC_10","outputs/hist/LArDigits_pusleall_00407549_hist.root","results/LArDigits_pusleall_00407549/latome116.ini","LATOME_ini_file/latome116.ini",false)...

******************** Start to read ini BCID: ********************
input file: LATOME_ini_file/latome116.ini
F0  BCID=0; 
F1  BCID=0; 
F2  BCID=3459; 
F3  BCID=3459; 
F4  BCID=3459; 
F5  BCID=3459; 
F6  BCID=3459; 
F7  BCID=3459; 
F8  BCID=3459; 
F9  BCID=3459; 
F10  BCID=3459; 
F11  BCID=3459; 
F12  BCID=0; 
F13  BCID=0; 
F14  BCID=3459; 
F15  BCID=3459; 
F16  BCID=3459; 
F17  BCID=3459; 
F18  BCID=3459; 
F19  BCID=3459; 
F20  BCID=3459; 
F21  BCID=3459; 
F22  BCID=3459; 
F23  BCID=3459; 
F24  BCID=0; 
F25  BCID=0; 
F26  BCID=3459; 
F27  BCID=3460; 
F28  BCID=3459; 
F29  BCID=3459; 
F30  BCID=3459; 
F31  BCID=3459; 
F32  BCID=3459; 
F33  BCID=3459; 
F34  BCID=3459; 
F35  BCID=3459; 
F36  BCID=0; 
F37  BCID=0; 
F38  BCID=3459; 
F39  BCID=3459; 
F40  BCID=3459; 
F41  BCID=3459; 
F42  BCID=3459; 
F43  BCID=3459; 
F44  BCID=3459; 
F45  BCID=3459; 
F46  BCID=3459; 
F47  BCID=3459; 
48 fibers are read!

******************** Start to read LArId info: ********************
SCname=1H_P1; channelId=954204672; 
SCname=1G_P1; channelId=954204160; 
SCname=2H_P1; channelId=954205696; 
SCname=2G_P1; channelId=954205184; 
SCname=3H_P1; channelId=954206720; 
SCname=3G_P1; channelId=954206208; 
SCname=4H_P1; channelId=954207744; 
SCname=4G_P1; channelId=954207232; 
SCname=5H_P1; channelId=954208768; 
SCname=5G_P1; channelId=954208256; 
SCname=6H_P1; channelId=954209792; 
SCname=6G_P1; channelId=954209280; 
SCname=7H_P1; channelId=954210816; 
SCname=7G_P1; channelId=954210304; 
SCname=8H_P1; channelId=954211840; 
SCname=8G_P1; channelId=954211328; 
SCname=1H_F1; channelId=954220032; 
SCname=1H_F2; channelId=954221056; 
SCname=1H_F3; channelId=954222080; 
SCname=1H_F4; channelId=954223104; 
SCname=2H_F1; channelId=954224128; 
SCname=2H_F2; channelId=954225152; 
SCname=2H_F3; channelId=954226176; 
SCname=2H_F4; channelId=954227200; 
SCname=1G_F1; channelId=954219520; 
SCname=1G_F2; channelId=954220544; 
SCname=1G_F3; channelId=954221568; 
SCname=1G_F4; channelId=954222592; 
SCname=2G_F1; channelId=954223616; 
SCname=2G_F2; channelId=954224640; 
SCname=2G_F3; channelId=954225664; 
SCname=2G_F4; channelId=954226688; 
SCname=3H_F1; channelId=954228224; 
SCname=3H_F2; channelId=954229248; 
SCname=3H_F3; channelId=954230272; 
SCname=3H_F4; channelId=954231296; 
SCname=4H_F1; channelId=954232320; 
SCname=4H_F2; channelId=954233344; 
SCname=4H_F3; channelId=954234368; 
SCname=4H_F4; channelId=954235392; 
SCname=3G_F1; channelId=954227712; 
SCname=3G_F2; channelId=954228736; 
SCname=3G_F3; channelId=954229760; 
SCname=3G_F4; channelId=954230784; 
SCname=4G_F1; channelId=954231808; 
SCname=4G_F2; channelId=954232832; 
SCname=4G_F3; channelId=954233856; 
SCname=4G_F4; channelId=954234880; 
SCname=5H_F1; channelId=954236416; 
SCname=5H_F2; channelId=954237440; 
SCname=5H_F3; channelId=954238464; 
SCname=5H_F4; channelId=954239488; 
SCname=6H_F1; channelId=954240512; 
SCname=6H_F2; channelId=954241536; 
SCname=6H_F3; channelId=954242560; 
SCname=6H_F4; channelId=954243584; 
SCname=5G_F1; channelId=954235904; 
SCname=5G_F2; channelId=954236928; 
SCname=5G_F3; channelId=954237952; 
SCname=5G_F4; channelId=954238976; 
SCname=6G_F1; channelId=954240000; 
SCname=6G_F2; channelId=954241024; 
SCname=6G_F3; channelId=954242048; 
SCname=6G_F4; channelId=954243072; 
SCname=7H_F1; channelId=954244608; 
SCname=7H_F2; channelId=954245632; 
SCname=7H_F3; channelId=954246656; 
SCname=7H_F4; channelId=954247680; 
SCname=8H_F1; channelId=954248704; 
SCname=8H_F2; channelId=954249728; 
SCname=8H_F3; channelId=954250752; 
SCname=8H_F4; channelId=954251776; 
SCname=7G_F1; channelId=954244096; 
SCname=7G_F2; channelId=954245120; 
SCname=7G_F3; channelId=954246144; 
SCname=7G_F4; channelId=954247168; 
SCname=8G_F1; channelId=954248192; 
SCname=8G_F2; channelId=954249216; 
SCname=8G_F3; channelId=954250240; 
SCname=8G_F4; channelId=954251264; 
SCname=1H_B1; channelId=954338816; 
SCname=2H_B1; channelId=954339840; 
SCname=3H_B1; channelId=954340864; 
SCname=4H_B1; channelId=954341888; 
SCname=5H_B1; channelId=954342912; 
SCname=6H_B1; channelId=954343936; 
SCname=7H_B1; channelId=954344960; 
SCname=8H_B1; channelId=954345984; 
SCname=1G_B1; channelId=954338304; 
SCname=2G_B1; channelId=954339328; 
SCname=3G_B1; channelId=954340352; 
SCname=4G_B1; channelId=954341376; 
SCname=5G_B1; channelId=954342400; 
SCname=6G_B1; channelId=954343424; 
SCname=7G_B1; channelId=954344448; 
SCname=8G_B1; channelId=954345472; 
SCname=1H_M1; channelId=954280448; 
SCname=1H_M2; channelId=954281472; 
SCname=1H_M3; channelId=954282496; 
SCname=1H_M4; channelId=954283520; 
SCname=2H_M1; channelId=954284544; 
SCname=2H_M2; channelId=954285568; 
SCname=2H_M3; channelId=954286592; 
SCname=2H_M4; channelId=954287616; 
SCname=3H_M1; channelId=954288640; 
SCname=3H_M2; channelId=954289664; 
SCname=3H_M3; channelId=954290688; 
SCname=3H_M4; channelId=954291712; 
SCname=4H_M1; channelId=954292736; 
SCname=4H_M2; channelId=954293760; 
SCname=4H_M3; channelId=954294784; 
SCname=4H_M4; channelId=954295808; 
SCname=1G_M1; channelId=954279936; 
SCname=1G_M2; channelId=954280960; 
SCname=1G_M3; channelId=954281984; 
SCname=1G_M4; channelId=954283008; 
SCname=2G_M1; channelId=954284032; 
SCname=2G_M2; channelId=954285056; 
SCname=2G_M3; channelId=954286080; 
SCname=2G_M4; channelId=954287104; 
SCname=3G_M1; channelId=954288128; 
SCname=3G_M2; channelId=954289152; 
SCname=3G_M3; channelId=954290176; 
SCname=3G_M4; channelId=954291200; 
SCname=4G_M1; channelId=954292224; 
SCname=4G_M2; channelId=954293248; 
SCname=4G_M3; channelId=954294272; 
SCname=4G_M4; channelId=954295296; 
SCname=5H_M1; channelId=954296832; 
SCname=5H_M2; channelId=954297856; 
SCname=5H_M3; channelId=954298880; 
SCname=5H_M4; channelId=954299904; 
SCname=6H_M1; channelId=954300928; 
SCname=6H_M2; channelId=954301952; 
SCname=6H_M3; channelId=954302976; 
SCname=6H_M4; channelId=954304000; 
SCname=7H_M1; channelId=954305024; 
SCname=7H_M2; channelId=954306048; 
SCname=7H_M3; channelId=954307072; 
SCname=7H_M4; channelId=954308096; 
SCname=8H_M1; channelId=954309120; 
SCname=8H_M2; channelId=954310144; 
SCname=8H_M3; channelId=954311168; 
SCname=8H_M4; channelId=954312192; 
SCname=5G_M1; channelId=954296320; 
SCname=5G_M2; channelId=954297344; 
SCname=5G_M3; channelId=954298368; 
SCname=5G_M4; channelId=954299392; 
SCname=6G_M1; channelId=954300416; 
SCname=6G_M2; channelId=954301440; 
SCname=6G_M3; channelId=954302464; 
SCname=6G_M4; channelId=954303488; 
SCname=7G_M1; channelId=954304512; 
SCname=7G_M2; channelId=954305536; 
SCname=7G_M3; channelId=954306560; 
SCname=7G_M4; channelId=954307584; 
SCname=8G_M1; channelId=954308608; 
SCname=8G_M2; channelId=954309632; 
SCname=8G_M3; channelId=954310656; 
SCname=8G_M4; channelId=954311680; 
SCname=1F_P1; channelId=954728960; 
SCname=1E_P1; channelId=954728448; 
SCname=2F_P1; channelId=954729984; 
SCname=2E_P1; channelId=954729472; 
SCname=3F_P1; channelId=954731008; 
SCname=3E_P1; channelId=954730496; 
SCname=4F_P1; channelId=954732032; 
SCname=4E_P1; channelId=954731520; 
SCname=5F_P1; channelId=954733056; 
SCname=5E_P1; channelId=954732544; 
SCname=6F_P1; channelId=954734080; 
SCname=6E_P1; channelId=954733568; 
SCname=7F_P1; channelId=954735104; 
SCname=7E_P1; channelId=954734592; 
SCname=8F_P1; channelId=954736128; 
SCname=8E_P1; channelId=954735616; 
SCname=1F_F1; channelId=954744320; 
SCname=1F_F2; channelId=954745344; 
SCname=1F_F3; channelId=954746368; 
SCname=1F_F4; channelId=954747392; 
SCname=2F_F1; channelId=954748416; 
SCname=2F_F2; channelId=954749440; 
SCname=2F_F3; channelId=954750464; 
SCname=2F_F4; channelId=954751488; 
SCname=1E_F1; channelId=954743808; 
SCname=1E_F2; channelId=954744832; 
SCname=1E_F3; channelId=954745856; 
SCname=1E_F4; channelId=954746880; 
SCname=2E_F1; channelId=954747904; 
SCname=2E_F2; channelId=954748928; 
SCname=2E_F3; channelId=954749952; 
SCname=2E_F4; channelId=954750976; 
SCname=3F_F1; channelId=954752512; 
SCname=3F_F2; channelId=954753536; 
SCname=3F_F3; channelId=954754560; 
SCname=3F_F4; channelId=954755584; 
SCname=4F_F1; channelId=954756608; 
SCname=4F_F2; channelId=954757632; 
SCname=4F_F3; channelId=954758656; 
SCname=4F_F4; channelId=954759680; 
SCname=3E_F1; channelId=954752000; 
SCname=3E_F2; channelId=954753024; 
SCname=3E_F3; channelId=954754048; 
SCname=3E_F4; channelId=954755072; 
SCname=4E_F1; channelId=954756096; 
SCname=4E_F2; channelId=954757120; 
SCname=4E_F3; channelId=954758144; 
SCname=4E_F4; channelId=954759168; 
SCname=5F_F1; channelId=954760704; 
SCname=5F_F2; channelId=954761728; 
SCname=5F_F3; channelId=954762752; 
SCname=5F_F4; channelId=954763776; 
SCname=6F_F1; channelId=954764800; 
SCname=6F_F2; channelId=954765824; 
SCname=6F_F3; channelId=954766848; 
SCname=6F_F4; channelId=954767872; 
SCname=5E_F1; channelId=954760192; 
SCname=5E_F2; channelId=954761216; 
SCname=5E_F3; channelId=954762240; 
SCname=5E_F4; channelId=954763264; 
SCname=6E_F1; channelId=954764288; 
SCname=6E_F2; channelId=954765312; 
SCname=6E_F3; channelId=954766336; 
SCname=6E_F4; channelId=954767360; 
SCname=7E_F1; channelId=954768384; 
SCname=7E_F2; channelId=954769408; 
SCname=7E_F3; channelId=954770432; 
SCname=7E_F4; channelId=954771456; 
SCname=8E_F1; channelId=954772480; 
SCname=8E_F2; channelId=954773504; 
SCname=8E_F3; channelId=954774528; 
SCname=8E_F4; channelId=954775552; 
SCname=7F_F1; channelId=954768896; 
SCname=7F_F2; channelId=954769920; 
SCname=7F_F3; channelId=954770944; 
SCname=7F_F4; channelId=954771968; 
SCname=8F_F1; channelId=954772992; 
SCname=8F_F2; channelId=954774016; 
SCname=8F_F3; channelId=954775040; 
SCname=8F_F4; channelId=954776064; 
SCname=1F_B1; channelId=954863104; 
SCname=2F_B1; channelId=954864128; 
SCname=3F_B1; channelId=954865152; 
SCname=4F_B1; channelId=954866176; 
SCname=5F_B1; channelId=954867200; 
SCname=6F_B1; channelId=954868224; 
SCname=7F_B1; channelId=954869248; 
SCname=8F_B1; channelId=954870272; 
SCname=1E_B1; channelId=954862592; 
SCname=2E_B1; channelId=954863616; 
SCname=3E_B1; channelId=954864640; 
SCname=4E_B1; channelId=954865664; 
SCname=5E_B1; channelId=954866688; 
SCname=6E_B1; channelId=954867712; 
SCname=7E_B1; channelId=954868736; 
SCname=8E_B1; channelId=954869760; 
SCname=1F_M1; channelId=954804736; 
SCname=1F_M2; channelId=954805760; 
SCname=1F_M3; channelId=954806784; 
SCname=1F_M4; channelId=954807808; 
SCname=2F_M1; channelId=954808832; 
SCname=2F_M2; channelId=954809856; 
SCname=2F_M3; channelId=954810880; 
SCname=2F_M4; channelId=954811904; 
SCname=3F_M1; channelId=954812928; 
SCname=3F_M2; channelId=954813952; 
SCname=3F_M3; channelId=954814976; 
SCname=3F_M4; channelId=954816000; 
SCname=4F_M1; channelId=954817024; 
SCname=4F_M2; channelId=954818048; 
SCname=4F_M3; channelId=954819072; 
SCname=4F_M4; channelId=954820096; 
SCname=1E_M1; channelId=954804224; 
SCname=1E_M2; channelId=954805248; 
SCname=1E_M3; channelId=954806272; 
SCname=1E_M4; channelId=954807296; 
SCname=2E_M1; channelId=954808320; 
SCname=2E_M2; channelId=954809344; 
SCname=2E_M3; channelId=954810368; 
SCname=2E_M4; channelId=954811392; 
SCname=3E_M1; channelId=954812416; 
SCname=3E_M2; channelId=954813440; 
SCname=3E_M3; channelId=954814464; 
SCname=3E_M4; channelId=954815488; 
SCname=4E_M1; channelId=954816512; 
SCname=4E_M2; channelId=954817536; 
SCname=4E_M3; channelId=954818560; 
SCname=4E_M4; channelId=954819584; 
SCname=5F_M1; channelId=954821120; 
SCname=5F_M2; channelId=954822144; 
SCname=5F_M3; channelId=954823168; 
SCname=5F_M4; channelId=954824192; 
SCname=6F_M1; channelId=954825216; 
SCname=6F_M2; channelId=954826240; 
SCname=6F_M3; channelId=954827264; 
SCname=6F_M4; channelId=954828288; 
SCname=7F_M1; channelId=954829312; 
SCname=7F_M2; channelId=954830336; 
SCname=7F_M3; channelId=954831360; 
SCname=7F_M4; channelId=954832384; 
SCname=8F_M1; channelId=954833408; 
SCname=8F_M2; channelId=954834432; 
SCname=8F_M3; channelId=954835456; 
SCname=8F_M4; channelId=954836480; 
SCname=5E_M1; channelId=954820608; 
SCname=5E_M2; channelId=954821632; 
SCname=5E_M3; channelId=954822656; 
SCname=5E_M4; channelId=954823680; 
SCname=6E_M1; channelId=954824704; 
SCname=6E_M2; channelId=954825728; 
SCname=6E_M3; channelId=954826752; 
SCname=6E_M4; channelId=954827776; 
SCname=7E_M1; channelId=954828800; 
SCname=7E_M2; channelId=954829824; 
SCname=7E_M3; channelId=954830848; 
SCname=7E_M4; channelId=954831872; 
SCname=8E_M1; channelId=954832896; 
SCname=8E_M2; channelId=954833920; 
SCname=8E_M3; channelId=954834944; 
SCname=8E_M4; channelId=954835968; 
320 SCs are read!  LATOME is EMBC_10

******************** Start to read SCs info per fiber: ********************
IN F3 1F_B1 2F_B1 4F_B1 3F_B1 6F_B1 5F_B1 8F_B1 7F_B1
IN F4 2F_M2 2F_M1 2F_M4 2F_M3 1F_M3 1F_M4 1F_M1 1F_M2
IN F5 3F_M1 3F_M2 3F_M4 3F_M3 4F_M4 4F_M3 4F_M2 4F_M1
IN F6 6F_F4 6F_F3 6F_F2 6F_F1 5F_F1 5F_F2 5F_F3 5F_F4
IN F7 7F_M1 7F_M2 7F_M3 7F_M4 8F_M3 8F_M4 8F_M2 8F_M1
IN F8 8F_P1 7F_P1 5F_P1 6F_P1 4F_P1 3F_P1 2F_P1 1F_P1
IN F9 5F_M1 5F_M2 5F_M3 5F_M4 6F_M4 6F_M3 6F_M1 6F_M2
IN F10 4F_F1 4F_F2 4F_F4 4F_F3 3F_F4 3F_F3 3F_F2 3F_F1
IN F11 7F_F1 7F_F2 7F_F3 7F_F4 8F_F1 8F_F2 8F_F4 8F_F3
IN F12 2F_F3 2F_F4 2F_F2 2F_F1 1F_F4 1F_F3 1F_F2 1F_F1
IN F15 1E_F2 1E_F1 1E_F4 1E_F3 2E_F1 2E_F2 2E_F3 2E_F4
IN F16 8E_M2 8E_M1 8E_M4 8E_M3 7E_M4 7E_M3 7E_M1 7E_M2
IN F17 3E_F1 3E_F2 3E_F3 3E_F4 4E_F1 4E_F2 4E_F4 4E_F3
IN F18 6E_M3 6E_M4 6E_M1 6E_M2 5E_M2 5E_M1 5E_M4 5E_M3
IN F19 5E_F2 5E_F1 5E_F3 5E_F4 6E_F4 6E_F3 6E_F1 6E_F2
IN F20 3E_M1 3E_M2 3E_M3 3E_M4 4E_M4 4E_M3 4E_M1 4E_M2
IN F21 7E_F2 7E_F1 7E_F3 7E_F4 8E_F2 8E_F1 8E_F4 8E_F3
IN F22 7E_P1 8E_P1 6E_P1 5E_P1 2E_P1 1E_P1 3E_P1 4E_P1
IN F23 1E_M2 1E_M1 1E_M3 1E_M4 2E_M4 2E_M3 2E_M1 2E_M2
IN F24 7E_B1 8E_B1 6E_B1 5E_B1 1E_B1 2E_B1 3E_B1 4E_B1
IN F27 1H_B1 2H_B1 4H_B1 3H_B1 6H_B1 5H_B1 8H_B1 7H_B1
IN F28 2H_M2 2H_M1 2H_M4 2H_M3 1H_M3 1H_M4 1H_M1 1H_M2
IN F29 3H_M1 3H_M2 3H_M4 3H_M3 4H_M4 4H_M3 4H_M2 4H_M1
IN F30 6H_F4 6H_F3 6H_F2 6H_F1 5H_F1 5H_F2 5H_F3 5H_F4
IN F31 7H_M1 7H_M2 7H_M3 7H_M4 8H_M3 8H_M4 8H_M2 8H_M1
IN F32 8H_P1 7H_P1 5H_P1 6H_P1 4H_P1 3H_P1 2H_P1 1H_P1
IN F33 5H_M1 5H_M2 5H_M3 5H_M4 6H_M4 6H_M3 6H_M1 6H_M2
IN F34 4H_F1 4H_F2 4H_F4 4H_F3 3H_F4 3H_F3 3H_F2 3H_F1
IN F35 7H_F1 7H_F2 7H_F3 7H_F4 8H_F1 8H_F2 8H_F4 8H_F3
IN F36 2H_F3 2H_F4 2H_F2 2H_F1 1H_F4 1H_F3 1H_F2 1H_F1
IN F39 1G_F2 1G_F1 1G_F4 1G_F3 2G_F1 2G_F2 2G_F3 2G_F4
IN F40 8G_M2 8G_M1 8G_M4 8G_M3 7G_M4 7G_M3 7G_M1 7G_M2
IN F41 3G_F1 3G_F2 3G_F3 3G_F4 4G_F1 4G_F2 4G_F4 4G_F3
IN F42 6G_M3 6G_M4 6G_M1 6G_M2 5G_M2 5G_M1 5G_M4 5G_M3
IN F43 5G_F2 5G_F1 5G_F3 5G_F4 6G_F4 6G_F3 6G_F1 6G_F2
IN F44 3G_M1 3G_M2 3G_M3 3G_M4 4G_M4 4G_M3 4G_M1 4G_M2
IN F45 7G_F2 7G_F1 7G_F3 7G_F4 8G_F2 8G_F1 8G_F4 8G_F3
IN F46 7G_P1 8G_P1 6G_P1 5G_P1 2G_P1 1G_P1 3G_P1 4G_P1
IN F47 1G_M2 1G_M1 1G_M3 1G_M4 2G_M4 2G_M3 2G_M1 2G_M2
IN F48 7G_B1 8G_B1 6G_B1 5G_B1 1G_B1 2G_B1 3G_B1 4G_B1
40 fibers are connected!

******************** Start to search BCID of peak sampling: ********************
IN F2; 1F_B1=0; 2F_B1=0; 4F_B1=0; 3F_B1=0; 6F_B1=0; 5F_B1=0; 8F_B1=0; 7F_B1=0;  BCID_rms=0; height=847
IN F3; 2F_M2=0; 2F_M1=0; 2F_M4=0; 2F_M3=0; 1F_M3=0; 1F_M4=0; 1F_M1=0; 1F_M2=0;  BCID_rms=0; height=308
IN F4; 3F_M1=0; 3F_M2=0; 3F_M4=0; 3F_M3=0; 4F_M4=0; 4F_M3=0; 4F_M2=0; 4F_M1=0;  BCID_rms=0; height=320
IN F5; 6F_F4=0; 6F_F3=0; 6F_F2=0; 6F_F1=0; 5F_F1=0; 5F_F2=0; 5F_F3=0; 5F_F4=0;  BCID_rms=0; height=304
IN F6; 7F_M1=0; 7F_M2=0; 7F_M3=0; 7F_M4=0; 8F_M3=0; 8F_M4=0; 8F_M2=0; 8F_M1=0;  BCID_rms=0; height=314
IN F7; 8F_P1=0; 7F_P1=0; 5F_P1=0; 6F_P1=0; 4F_P1=0; 3F_P1=0; 2F_P1=0; 1F_P1=0;  BCID_rms=0; height=27
IN F8; 5F_M1=0; 5F_M2=0; 5F_M3=0; 5F_M4=0; 6F_M4=0; 6F_M3=0; 6F_M1=0; 6F_M2=0;  BCID_rms=0; height=299
IN F9; 4F_F1=0; 4F_F2=0; 4F_F4=0; 4F_F3=0; 3F_F4=0; 3F_F3=0; 3F_F2=0; 3F_F1=0;  BCID_rms=0; height=293
IN F10; 7F_F1=0; 7F_F2=0; 7F_F3=0; 7F_F4=0; 8F_F1=0; 8F_F2=0; 8F_F4=0; 8F_F3=0;  BCID_rms=0; height=296
IN F11; 2F_F3=0; 2F_F4=0; 2F_F2=0; 2F_F1=0; 1F_F4=0; 1F_F3=0; 1F_F2=0; 1F_F1=0;  BCID_rms=0; height=280
IN F14; 1E_F2=0; 1E_F1=0; 1E_F4=0; 1E_F3=0; 2E_F1=0; 2E_F2=0; 2E_F3=0; 2E_F4=0;  BCID_rms=0; height=296
IN F15; 8E_M2=0; 8E_M1=0; 8E_M4=0; 8E_M3=0; 7E_M4=0; 7E_M3=0; 7E_M1=0; 7E_M2=0;  BCID_rms=0; height=307
IN F16; 3E_F1=0; 3E_F2=0; 3E_F3=0; 3E_F4=0; 4E_F1=0; 4E_F2=0; 4E_F4=0; 4E_F3=0;  BCID_rms=0; height=296
IN F17; 6E_M3=0; 6E_M4=0; 6E_M1=0; 6E_M2=0; 5E_M2=0; 5E_M1=0; 5E_M4=0; 5E_M3=0;  BCID_rms=0; height=302
IN F18; 5E_F2=0; 5E_F1=0; 5E_F3=0; 5E_F4=0; 6E_F4=0; 6E_F3=0; 6E_F1=0; 6E_F2=0;  BCID_rms=0; height=288
IN F19; 3E_M1=0; 3E_M2=0; 3E_M3=0; 3E_M4=0; 4E_M4=0; 4E_M3=0; 4E_M1=0; 4E_M2=0;  BCID_rms=0; height=303
IN F20; 7E_F2=0; 7E_F1=0; 7E_F3=0; 7E_F4=0; 8E_F2=0; 8E_F1=0; 8E_F4=0; 8E_F3=0;  BCID_rms=0; height=291
IN F21; 7E_P1=0; 8E_P1=0; 6E_P1=0; 5E_P1=0; 2E_P1=0; 1E_P1=0; 3E_P1=0; 4E_P1=0;  BCID_rms=0; height=29
IN F22; 1E_M2=0; 1E_M1=0; 1E_M3=0; 1E_M4=0; 2E_M4=0; 2E_M3=0; 2E_M1=0; 2E_M2=0;  BCID_rms=0; height=328
IN F23; 7E_B1=0; 8E_B1=0; 6E_B1=0; 5E_B1=0; 1E_B1=0; 2E_B1=0; 3E_B1=0; 4E_B1=0;  BCID_rms=0; height=852
IN F26; 1H_B1=0; 2H_B1=0; 4H_B1=0; 3H_B1=0; 6H_B1=0; 5H_B1=0; 8H_B1=0; 7H_B1=0;  BCID_rms=0; height=819
IN F27; 2H_M2=0; 2H_M1=0; 2H_M4=0; 2H_M3=0; 1H_M3=0; 1H_M4=-1; 1H_M1=0; 1H_M2=0;  BCID_rms=0.330719; height=294
IN F28; 3H_M1=0; 3H_M2=0; 3H_M4=0; 3H_M3=0; 4H_M4=0; 4H_M3=0; 4H_M2=0; 4H_M1=0;  BCID_rms=0; height=305
IN F29; 6H_F4=0; 6H_F3=0; 6H_F2=0; 6H_F1=0; 5H_F1=0; 5H_F2=0; 5H_F3=0; 5H_F4=0;  BCID_rms=0; height=303
IN F30; 7H_M1=0; 7H_M2=0; 7H_M3=0; 7H_M4=0; 8H_M3=1; 8H_M4=1; 8H_M2=0; 8H_M1=0;  BCID_rms=0.433013; height=305
IN F31; 8H_P1=0; 7H_P1=0; 5H_P1=0; 6H_P1=0; 4H_P1=0; 3H_P1=0; 2H_P1=0; 1H_P1=0;  BCID_rms=0; height=26
IN F32; 5H_M1=0; 5H_M2=0; 5H_M3=0; 5H_M4=0; 6H_M4=0; 6H_M3=0; 6H_M1=0; 6H_M2=0;  BCID_rms=0; height=299
IN F33; 4H_F1=0; 4H_F2=0; 4H_F4=0; 4H_F3=0; 3H_F4=0; 3H_F3=0; 3H_F2=0; 3H_F1=0;  BCID_rms=0; height=296
IN F34; 7H_F1=0; 7H_F2=0; 7H_F3=0; 7H_F4=0; 8H_F1=0; 8H_F2=0; 8H_F4=0; 8H_F3=0;  BCID_rms=0; height=291
IN F35; 2H_F3=0; 2H_F4=0; 2H_F2=0; 2H_F1=0; 1H_F4=0; 1H_F3=0; 1H_F2=0; 1H_F1=0;  BCID_rms=0; height=275
IN F38; 1G_F2=0; 1G_F1=0; 1G_F4=0; 1G_F3=0; 2G_F1=0; 2G_F2=0; 2G_F3=0; 2G_F4=0;  BCID_rms=0; height=294
IN F39; 8G_M2=0; 8G_M1=0; 8G_M4=0; 8G_M3=0; 7G_M4=0; 7G_M3=0; 7G_M1=0; 7G_M2=0;  BCID_rms=0; height=296
IN F40; 3G_F1=0; 3G_F2=0; 3G_F3=0; 3G_F4=0; 4G_F1=0; 4G_F2=0; 4G_F4=0; 4G_F3=0;  BCID_rms=0; height=287
IN F41; 6G_M3=0; 6G_M4=0; 6G_M1=0; 6G_M2=0; 5G_M2=0; 5G_M1=0; 5G_M4=0; 5G_M3=0;  BCID_rms=0; height=296
IN F42; 5G_F2=0; 5G_F1=0; 5G_F3=0; 5G_F4=0; 6G_F4=0; 6G_F3=0; 6G_F1=0; 6G_F2=0;  BCID_rms=0; height=286
IN F43; 3G_M1=0; 3G_M2=0; 3G_M3=0; 3G_M4=0; 4G_M4=0; 4G_M3=0; 4G_M1=0; 4G_M2=0;  BCID_rms=0; height=286
IN F44; 7G_F2=0; 7G_F1=0; 7G_F3=0; 7G_F4=0; 8G_F2=0; 8G_F1=0; 8G_F4=0; 8G_F3=0;  BCID_rms=0; height=289
IN F45; 7G_P1=0; 8G_P1=0; 6G_P1=0; 5G_P1=0; 2G_P1=0; 1G_P1=0; 3G_P1=0; 4G_P1=0;  BCID_rms=0; height=26
IN F46; 1G_M2=0; 1G_M1=0; 1G_M3=0; 1G_M4=0; 2G_M4=0; 2G_M3=0; 2G_M1=0; 2G_M2=0;  BCID_rms=0; height=309
IN F47; 7G_B1=0; 8G_B1=0; 6G_B1=0; 5G_B1=0; 1G_B1=0; 2G_B1=0; 3G_B1=0; 4G_B1=0;  BCID_rms=0; height=862
