
Processing macro.C+("inputfile/LArDigits_pusleall_00407549.root","EMBC-EMECC_12","outputs/hist/LArDigits_pusleall_00407549_hist.root","results/LArDigits_pusleall_00407549/latome163.ini","LATOME_ini_file/latome163.ini",false)...
input_line_11:2:3: error: use of undeclared identifier 'macro'
 (macro("inputfile/LArDigits_pusleall_00407549.root", "EMBC-EMECC_12", "outputs/hist/LArDigits_pusleall_00407549_hist.root", "results/LArDigits_pusleall_00407549/latome163.ini", "LATOME_ini_file/latome163.ini", false))
  ^
Error in <HandleInterpreterException>: Error evaluating expression (macro("inputfile/LArDigits_pusleall_00407549.root", "EMBC-EMECC_12", "outputs/hist/LArDigits_pusleall_00407549_hist.root", "results/LArDigits_pusleall_00407549/latome163.ini", "LATOME_ini_file/latome163.ini", false)).
Execution of your code was aborted.
