
Processing macro.C+("inputfile/LArDigits_pusleall_408594.root","EMECA_5","outputs/hist/LArDigits_pusleall_408594_hist.root","results/LArDigits_pusleall_408594/latome87.ini","LATOME_ini_file/latome87.ini",false)...
Info in <TUnixSystem::ACLiC>: creating shared library /home/zang/BCID_adjustment/./macro_C.so
In file included from input_line_12:6:
In file included from ././macro.C:1:
/home/zang/BCID_adjustment/tree.C:472:46: error: use of undeclared identifier 'tmp_peakbcid'
              if (abs(SCinfo_list[ksc].mean_samples[tmp_peakbcid]-SCinfo_list[ksc].mean_samples[tmp_peakbcid-1]) <= round((double)mean_SCheight/10.)) tmp_peakbcid=tmp_peakbcid-1;   //add criteria to accept the fluctuation
                                                    ^
/home/zang/BCID_adjustment/tree.C:472:90: error: use of undeclared identifier 'tmp_peakbcid'
              if (abs(SCinfo_list[ksc].mean_samples[tmp_peakbcid]-SCinfo_list[ksc].mean_samples[tmp_peakbcid-1]) <= round((double)mean_SCheight/10.)) tmp_peakbcid=tmp_peakbcid-1;   //add criteria to accept the fluctuation
                                                                                                ^
/home/zang/BCID_adjustment/tree.C:472:124: error: use of undeclared identifier 'mean_SCheight'
              if (abs(SCinfo_list[ksc].mean_samples[tmp_peakbcid]-SCinfo_list[ksc].mean_samples[tmp_peakbcid-1]) <= round((double)mean_SCheight/10.)) tmp_peakbcid=tmp_peakbcid-1;   //add criteria to accept the fluctuation
                                                                                                                                  ^
/home/zang/BCID_adjustment/tree.C:472:144: error: use of undeclared identifier 'tmp_peakbcid'
              if (abs(SCinfo_list[ksc].mean_samples[tmp_peakbcid]-SCinfo_list[ksc].mean_samples[tmp_peakbcid-1]) <= round((double)mean_SCheight/10.)) tmp_peakbcid=tmp_peakbcid-1;   //add criteria to accept the fluctuation
                                                                                                                                                      ^
/home/zang/BCID_adjustment/tree.C:472:157: error: use of undeclared identifier 'tmp_peakbcid'
              if (abs(SCinfo_list[ksc].mean_samples[tmp_peakbcid]-SCinfo_list[ksc].mean_samples[tmp_peakbcid-1]) <= round((double)mean_SCheight/10.)) tmp_peakbcid=tmp_peakbcid-1;   //add criteria to accept the fluctuation
                                                                                                                                                                   ^
/home/zang/BCID_adjustment/tree.C:474:31: error: use of undeclared identifier 'tmp_peakbcid'
              Short_t mean_shiftBCID=tmp_peakbcid - SCinfo_list[ksc].SC_bcidLATOMEHEAD - 2;
                                     ^
/home/zang/BCID_adjustment/tree.C:498:15: error: use of undeclared identifier 'mean_SCheight'
                height_sum+=mean_SCheight; //sum height of all fibers
                            ^
/home/zang/BCID_adjustment/tree.C:513:2: error: expected expression
        else cout <<fiber_list[ifb][isc]<<"; ";
        ^
/home/zang/BCID_adjustment/tree.C:555:3: error: unknown type name 'Shift_rms'
  Shift_rms->Write();
  ^
/home/zang/BCID_adjustment/tree.C:555:12: error: cannot use arrow operator on a type
  Shift_rms->Write();
           ^
/home/zang/BCID_adjustment/tree.C:558:3: error: unknown type name 'outputtxt'
  outputtxt.close();
  ^
/home/zang/BCID_adjustment/tree.C:558:12: error: cannot use dot operator on a type
  outputtxt.close();
           ^
/home/zang/BCID_adjustment/tree.C:559:1: error: extraneous closing brace ('}')
}
^
Error in <ACLiC>: Executing '/usr/bin/rootcling -v0 "--lib-list-prefix=/home/zang/BCID_adjustment/macro_C_ACLiC_map" -f "/home/zang/BCID_adjustment/macro_C_ACLiC_dict.cxx" -I/usr/include/root -I"/usr/share/root" -I"/usr/share/root/cling" -I"/usr/include/root" -D__ACLIC__  "/home/zang/BCID_adjustment/./macro.C" "/home/zang/BCID_adjustment/macro_C_ACLiC_linkdef.h"' failed!
