
Processing macro.C+("inputfile/LArDigits_pusleall_00407554.root","EMBA-EMECA_7","outputs/hist/LArDigits_pusleall_00407554_hist.root","results/LArDigits_pusleall_00407554/latome142.ini","LATOME_ini_file/latome142.ini",false)...

******************** Start to read ini BCID: ********************
input file: LATOME_ini_file/latome142.ini
F0  BCID=3463; 
F1  BCID=3463; 
F2  BCID=0; 
F3  BCID=3460; 
F4  BCID=3460; 
F5  BCID=3460; 
F6  BCID=3460; 
F7  BCID=3460; 
F8  BCID=3460; 
F9  BCID=3460; 
F10  BCID=3460; 
F11  BCID=3460; 
F12  BCID=3463; 
F13  BCID=3463; 
F14  BCID=3460; 
F15  BCID=3460; 
F16  BCID=3460; 
F17  BCID=3460; 
F18  BCID=3460; 
F19  BCID=3460; 
F20  BCID=3460; 
F21  BCID=3460; 
F22  BCID=3460; 
F23  BCID=0; 
F24  BCID=3463; 
F25  BCID=3463; 
F26  BCID=0; 
F27  BCID=3460; 
F28  BCID=3460; 
F29  BCID=3460; 
F30  BCID=3460; 
F31  BCID=3460; 
F32  BCID=3460; 
F33  BCID=3460; 
F34  BCID=3460; 
F35  BCID=3460; 
F36  BCID=3463; 
F37  BCID=3463; 
F38  BCID=3460; 
F39  BCID=3460; 
F40  BCID=3460; 
F41  BCID=3460; 
F42  BCID=3460; 
F43  BCID=3460; 
F44  BCID=3460; 
F45  BCID=3460; 
F46  BCID=3460; 
F47  BCID=0; 
48 fibers are read!

******************** Start to read LArId info: ********************
SCname=9I_P1; channelId=962600960; 
SCname=9J_P1; channelId=962601472; 
SCname=10I_P1; channelId=962601984; 
SCname=10J_P1; channelId=962602496; 
SCname=11I_P1; channelId=962603008; 
SCname=11J_P1; channelId=962603520; 
SCname=12I_P1; channelId=962604032; 
SCname=12J_P1; channelId=962604544; 
SCname=13I_P1; channelId=962605056; 
SCname=13J_P1; channelId=962605568; 
SCname=14I_P1; channelId=962606080; 
SCname=14J_P1; channelId=962606592; 
SCname=15I_P1; channelId=962607104; 
SCname=15J_P1; channelId=962607616; 
SCname=9I_F1; channelId=962640896; 
SCname=9I_F2; channelId=962641920; 
SCname=9I_F3; channelId=962642944; 
SCname=9I_F4; channelId=962643968; 
SCname=10I_F1; channelId=962644992; 
SCname=10I_F2; channelId=962646016; 
SCname=10I_F3; channelId=962647040; 
SCname=10I_F4; channelId=962648064; 
SCname=9J_F1; channelId=962641408; 
SCname=9J_F2; channelId=962642432; 
SCname=9J_F3; channelId=962643456; 
SCname=9J_F4; channelId=962644480; 
SCname=10J_F1; channelId=962645504; 
SCname=10J_F2; channelId=962646528; 
SCname=10J_F3; channelId=962647552; 
SCname=10J_F4; channelId=962648576; 
SCname=11I_F1; channelId=962649088; 
SCname=11I_F2; channelId=962650112; 
SCname=11I_F3; channelId=962651136; 
SCname=11I_F4; channelId=962652160; 
SCname=12I_F1; channelId=962653184; 
SCname=12I_F2; channelId=962654208; 
SCname=12I_F3; channelId=962655232; 
SCname=12I_F4; channelId=962656256; 
SCname=11J_F1; channelId=962649600; 
SCname=11J_F2; channelId=962650624; 
SCname=11J_F3; channelId=962651648; 
SCname=11J_F4; channelId=962652672; 
SCname=12J_F1; channelId=962653696; 
SCname=12J_F2; channelId=962654720; 
SCname=12J_F3; channelId=962655744; 
SCname=12J_F4; channelId=962656768; 
SCname=13I_F1; channelId=962657280; 
SCname=13I_F2; channelId=962658304; 
SCname=13I_F3; channelId=962659328; 
SCname=13I_F4; channelId=962660352; 
SCname=14I_F1; channelId=962661376; 
SCname=14I_F2; channelId=962662400; 
SCname=14I_F3; channelId=962663424; 
SCname=14I_F4; channelId=962664448; 
SCname=13J_F1; channelId=962657792; 
SCname=13J_F2; channelId=962658816; 
SCname=13J_F3; channelId=962659840; 
SCname=13J_F4; channelId=962660864; 
SCname=14J_F1; channelId=962661888; 
SCname=14J_F2; channelId=962662912; 
SCname=14J_F3; channelId=962663936; 
SCname=14J_F4; channelId=962664960; 
SCname=9I_B1; channelId=962735104; 
SCname=10I_B1; channelId=962736128; 
SCname=11I_B1; channelId=962737152; 
SCname=12I_B1; channelId=962738176; 
SCname=13I_B1; channelId=962739200; 
SCname=14I_B1; channelId=962740224; 
SCname=15I_B1; channelId=962665472; 
SCname=15I_B2; channelId=962666496; 
SCname=15I_B3; channelId=962667520; 
SCname=15I_B4; channelId=962725888; 
SCname=9J_B1; channelId=962735616; 
SCname=10J_B1; channelId=962736640; 
SCname=11J_B1; channelId=962737664; 
SCname=12J_B1; channelId=962738688; 
SCname=13J_B1; channelId=962739712; 
SCname=14J_B1; channelId=962740736; 
SCname=15J_B1; channelId=962665984; 
SCname=15J_B2; channelId=962667008; 
SCname=15J_B3; channelId=962668032; 
SCname=15J_B4; channelId=962726400; 
SCname=9I_M1; channelId=962701312; 
SCname=9I_M2; channelId=962702336; 
SCname=9I_M3; channelId=962703360; 
SCname=9I_M4; channelId=962704384; 
SCname=10I_M1; channelId=962705408; 
SCname=10I_M2; channelId=962706432; 
SCname=10I_M3; channelId=962707456; 
SCname=10I_M4; channelId=962708480; 
SCname=11I_M1; channelId=962709504; 
SCname=11I_M2; channelId=962710528; 
SCname=11I_M3; channelId=962711552; 
SCname=11I_M4; channelId=962712576; 
SCname=12I_M1; channelId=962713600; 
SCname=12I_M2; channelId=962714624; 
SCname=12I_M3; channelId=962715648; 
SCname=12I_M4; channelId=962716672; 
SCname=9J_M1; channelId=962701824; 
SCname=9J_M2; channelId=962702848; 
SCname=9J_M3; channelId=962703872; 
SCname=9J_M4; channelId=962704896; 
SCname=10J_M1; channelId=962705920; 
SCname=10J_M2; channelId=962706944; 
SCname=10J_M3; channelId=962707968; 
SCname=10J_M4; channelId=962708992; 
SCname=11J_M1; channelId=962710016; 
SCname=11J_M2; channelId=962711040; 
SCname=11J_M3; channelId=962712064; 
SCname=11J_M4; channelId=962713088; 
SCname=12J_M1; channelId=962714112; 
SCname=12J_M2; channelId=962715136; 
SCname=12J_M3; channelId=962716160; 
SCname=12J_M4; channelId=962717184; 
SCname=13I_M1; channelId=962717696; 
SCname=13I_M2; channelId=962718720; 
SCname=13I_M3; channelId=962719744; 
SCname=13I_M4; channelId=962720768; 
SCname=13J_M1; channelId=962718208; 
SCname=13J_M2; channelId=962719232; 
SCname=13J_M3; channelId=962720256; 
SCname=13J_M4; channelId=962721280; 
SCname=14I_M1; channelId=962721792; 
SCname=14I_M2; channelId=962722816; 
SCname=14I_M3; channelId=962723840; 
SCname=14I_M4; channelId=962724864; 
SCname=14J_M1; channelId=962722304; 
SCname=14J_M2; channelId=962723328; 
SCname=14J_M3; channelId=962724352; 
SCname=14J_M4; channelId=962725376; 
SCname=9K_P1; channelId=963125248; 
SCname=9L_P1; channelId=963125760; 
SCname=10K_P1; channelId=963126272; 
SCname=10L_P1; channelId=963126784; 
SCname=11K_P1; channelId=963127296; 
SCname=11L_P1; channelId=963127808; 
SCname=12K_P1; channelId=963128320; 
SCname=12L_P1; channelId=963128832; 
SCname=13K_P1; channelId=963129344; 
SCname=13L_P1; channelId=963129856; 
SCname=14K_P1; channelId=963130368; 
SCname=14L_P1; channelId=963130880; 
SCname=15K_P1; channelId=963131392; 
SCname=15L_P1; channelId=963131904; 
SCname=9K_F1; channelId=963165184; 
SCname=9K_F2; channelId=963166208; 
SCname=9K_F3; channelId=963167232; 
SCname=9K_F4; channelId=963168256; 
SCname=10K_F1; channelId=963169280; 
SCname=10K_F2; channelId=963170304; 
SCname=10K_F3; channelId=963171328; 
SCname=10K_F4; channelId=963172352; 
SCname=9L_F1; channelId=963165696; 
SCname=9L_F2; channelId=963166720; 
SCname=9L_F3; channelId=963167744; 
SCname=9L_F4; channelId=963168768; 
SCname=10L_F1; channelId=963169792; 
SCname=10L_F2; channelId=963170816; 
SCname=10L_F3; channelId=963171840; 
SCname=10L_F4; channelId=963172864; 
SCname=11K_F1; channelId=963173376; 
SCname=11K_F2; channelId=963174400; 
SCname=11K_F3; channelId=963175424; 
SCname=11K_F4; channelId=963176448; 
SCname=12K_F1; channelId=963177472; 
SCname=12K_F2; channelId=963178496; 
SCname=12K_F3; channelId=963179520; 
SCname=12K_F4; channelId=963180544; 
SCname=11L_F1; channelId=963173888; 
SCname=11L_F2; channelId=963174912; 
SCname=11L_F3; channelId=963175936; 
SCname=11L_F4; channelId=963176960; 
SCname=12L_F1; channelId=963177984; 
SCname=12L_F2; channelId=963179008; 
SCname=12L_F3; channelId=963180032; 
SCname=12L_F4; channelId=963181056; 
SCname=13K_F1; channelId=963181568; 
SCname=13K_F2; channelId=963182592; 
SCname=13K_F3; channelId=963183616; 
SCname=13K_F4; channelId=963184640; 
SCname=14K_F1; channelId=963185664; 
SCname=14K_F2; channelId=963186688; 
SCname=14K_F3; channelId=963187712; 
SCname=14K_F4; channelId=963188736; 
SCname=13L_F1; channelId=963182080; 
SCname=13L_F2; channelId=963183104; 
SCname=13L_F3; channelId=963184128; 
SCname=13L_F4; channelId=963185152; 
SCname=14L_F1; channelId=963186176; 
SCname=14L_F2; channelId=963187200; 
SCname=14L_F3; channelId=963188224; 
SCname=14L_F4; channelId=963189248; 
SCname=9K_B1; channelId=963259392; 
SCname=10K_B1; channelId=963260416; 
SCname=11K_B1; channelId=963261440; 
SCname=12K_B1; channelId=963262464; 
SCname=13K_B1; channelId=963263488; 
SCname=14K_B1; channelId=963264512; 
SCname=15K_B1; channelId=963189760; 
SCname=15K_B2; channelId=963190784; 
SCname=15K_B3; channelId=963191808; 
SCname=15K_B4; channelId=963250176; 
SCname=9L_B1; channelId=963259904; 
SCname=10L_B1; channelId=963260928; 
SCname=11L_B1; channelId=963261952; 
SCname=12L_B1; channelId=963262976; 
SCname=13L_B1; channelId=963264000; 
SCname=14L_B1; channelId=963265024; 
SCname=15L_B1; channelId=963190272; 
SCname=15L_B2; channelId=963191296; 
SCname=15L_B3; channelId=963192320; 
SCname=15L_B4; channelId=963250688; 
SCname=9K_M1; channelId=963225600; 
SCname=9K_M2; channelId=963226624; 
SCname=9K_M3; channelId=963227648; 
SCname=9K_M4; channelId=963228672; 
SCname=10K_M1; channelId=963229696; 
SCname=10K_M2; channelId=963230720; 
SCname=10K_M3; channelId=963231744; 
SCname=10K_M4; channelId=963232768; 
SCname=11K_M1; channelId=963233792; 
SCname=11K_M2; channelId=963234816; 
SCname=11K_M3; channelId=963235840; 
SCname=11K_M4; channelId=963236864; 
SCname=12K_M1; channelId=963237888; 
SCname=12K_M2; channelId=963238912; 
SCname=12K_M3; channelId=963239936; 
SCname=12K_M4; channelId=963240960; 
SCname=9L_M1; channelId=963226112; 
SCname=9L_M2; channelId=963227136; 
SCname=9L_M3; channelId=963228160; 
SCname=9L_M4; channelId=963229184; 
SCname=10L_M1; channelId=963230208; 
SCname=10L_M2; channelId=963231232; 
SCname=10L_M3; channelId=963232256; 
SCname=10L_M4; channelId=963233280; 
SCname=11L_M1; channelId=963234304; 
SCname=11L_M2; channelId=963235328; 
SCname=11L_M3; channelId=963236352; 
SCname=11L_M4; channelId=963237376; 
SCname=12L_M1; channelId=963238400; 
SCname=12L_M2; channelId=963239424; 
SCname=12L_M3; channelId=963240448; 
SCname=12L_M4; channelId=963241472; 
SCname=13K_M1; channelId=963241984; 
SCname=13K_M2; channelId=963243008; 
SCname=13K_M3; channelId=963244032; 
SCname=13K_M4; channelId=963245056; 
SCname=13L_M1; channelId=963242496; 
SCname=13L_M2; channelId=963243520; 
SCname=13L_M3; channelId=963244544; 
SCname=13L_M4; channelId=963245568; 
SCname=14K_M1; channelId=963246080; 
SCname=14K_M2; channelId=963247104; 
SCname=14K_M3; channelId=963248128; 
SCname=14K_M4; channelId=963249152; 
SCname=14L_M1; channelId=963246592; 
SCname=14L_M2; channelId=963247616; 
SCname=14L_M3; channelId=963248640; 
SCname=14L_M4; channelId=963249664; 
SCname=2I_P1; channelId=994578432; 
SCname=2J_P1; channelId=994578944; 
SCname=2K_P1; channelId=994579456; 
SCname=2L_P1; channelId=994579968; 
SCname=1I_F1; channelId=994586624; 
SCname=1J_F1; channelId=994587136; 
SCname=1K_F1; channelId=994587648; 
SCname=1L_F1; channelId=994588160; 
SCname=1I_M1; channelId=994627584; 
SCname=1I_M2; channelId=994635776; 
SCname=1I_M3; channelId=994643968; 
SCname=1I_M4; channelId=994652160; 
SCname=1J_M1; channelId=994628096; 
SCname=1J_M2; channelId=994636288; 
SCname=1J_M3; channelId=994644480; 
SCname=1J_M4; channelId=994652672; 
SCname=1K_M1; channelId=994628608; 
SCname=1K_M2; channelId=994636800; 
SCname=1K_M3; channelId=994644992; 
SCname=1K_M4; channelId=994653184; 
SCname=1L_M1; channelId=994629120; 
SCname=1L_M2; channelId=994637312; 
SCname=1L_M3; channelId=994645504; 
SCname=1L_M4; channelId=994653696; 
SCname=2I_F1; channelId=994594816; 
SCname=2I_F2; channelId=994603008; 
SCname=2I_F3; channelId=994611200; 
SCname=2I_F4; channelId=994619392; 
SCname=2J_F1; channelId=994595328; 
SCname=2J_F2; channelId=994603520; 
SCname=2J_F3; channelId=994611712; 
SCname=2J_F4; channelId=994619904; 
SCname=2K_F1; channelId=994595840; 
SCname=2K_F2; channelId=994604032; 
SCname=2K_F3; channelId=994612224; 
SCname=2K_F4; channelId=994620416; 
SCname=2L_F1; channelId=994596352; 
SCname=2L_F2; channelId=994604544; 
SCname=2L_F3; channelId=994612736; 
SCname=2L_F4; channelId=994620928; 
SCname=2I_B1; channelId=994693120; 
SCname=2J_B1; channelId=994693632; 
SCname=2K_B1; channelId=994694144; 
SCname=2L_B1; channelId=994694656; 
SCname=2I_M1; channelId=994660352; 
SCname=2I_M2; channelId=994668544; 
SCname=2I_M3; channelId=994676736; 
SCname=2I_M4; channelId=994684928; 
SCname=2J_M1; channelId=994660864; 
SCname=2J_M2; channelId=994669056; 
SCname=2J_M3; channelId=994677248; 
SCname=2J_M4; channelId=994685440; 
SCname=2K_M1; channelId=994661376; 
SCname=2K_M2; channelId=994669568; 
SCname=2K_M3; channelId=994677760; 
SCname=2K_M4; channelId=994685952; 
SCname=2L_M1; channelId=994661888; 
SCname=2L_M2; channelId=994670080; 
SCname=2L_M3; channelId=994678272; 
SCname=2L_M4; channelId=994686464; 
320 SCs are read!  LATOME is EMBA_EMECA_7

******************** Start to read SCs info per fiber: ********************
IN F1 2L_F1 2L_F2 2L_F3 2L_F4 2K_F4 2K_F3 2K_F1 2K_F2
IN F2 2J_F2 2J_F1 2J_F3 2J_F4 2I_F3 2I_F4 2I_F1 2I_F2
IN F4 GND 15J_P1 13J_P1 14J_P1 9J_P1 10J_P1 12J_P1 11J_P1
IN F5 13J_M1 13J_M2 13J_M4 13J_M3 14J_M3 14J_M4 14J_M1 14J_M2
IN F6 10J_M1 10J_M2 10J_M3 10J_M4 9J_M4 9J_M3 9J_M2 9J_M1
IN F7 11J_M3 11J_M4 11J_M1 11J_M2 12J_M1 12J_M2 12J_M4 12J_M3
IN F8 12J_F1 12J_F2 12J_F3 12J_F4 11J_F1 11J_F2 11J_F3 11J_F4
IN F9 9J_F2 9J_F1 9J_F4 9J_F3 10J_F2 10J_F1 10J_F4 10J_F3
IN F10 13I_B1 14I_B1 GND GND 9I_B1 10I_B1 11I_B1 12I_B1
IN F11 13J_F4 13J_F3 13J_F1 13J_F2 14J_F1 14J_F2 14J_F4 14J_F3
IN F12 15I_B4 15I_B3 15I_B1 15I_B2 GND GND GND GND
IN F13 2K_M2 2K_M1 2K_M4 2K_M3 2L_M4 2L_M3 2L_M1 2L_M2
IN F14 1J_M1 1J_M2 1J_M3 1J_M4 1I_M1 1I_M2 1I_M3 1I_M4
IN F15 12L_B1 11L_B1 10L_B1 9L_B1 GND GND 13L_B1 14L_B1
IN F16 14K_F2 14K_F1 14K_F4 14K_F3 13K_F4 13K_F3 13K_F1 13K_F2
IN F17 15L_B1 15L_B2 15L_B3 15L_B4 GND GND GND GND
IN F18 14K_P1 13K_P1 GND 15K_P1 11K_P1 12K_P1 9K_P1 10K_P1
IN F19 11K_F2 11K_F1 11K_F3 11K_F4 12K_F1 12K_F2 12K_F4 12K_F3
IN F20 9K_M1 9K_M2 9K_M3 9K_M4 10K_M1 10K_M2 10K_M4 10K_M3
IN F21 9K_F2 9K_F1 9K_F4 9K_F3 10K_F1 10K_F2 10K_F4 10K_F3
IN F22 14K_M4 14K_M3 14K_M1 14K_M2 13K_M4 13K_M3 13K_M1 13K_M2
IN F23 11K_M1 11K_M2 11K_M3 11K_M4 12K_M4 12K_M3 12K_M1 12K_M2
IN F25 GND GND GND GND 1K_F1 1L_F1 1J_F1 1I_F1
IN F26 1K_M1 1K_M2 1K_M3 1K_M4 1L_M1 1L_M2 1L_M4 1L_M3
IN F28 GND 15L_P1 13L_P1 14L_P1 9L_P1 10L_P1 12L_P1 11L_P1
IN F29 13L_M1 13L_M2 13L_M4 13L_M3 14L_M3 14L_M4 14L_M1 14L_M2
IN F30 10L_M1 10L_M2 10L_M3 10L_M4 9L_M4 9L_M3 9L_M2 9L_M1
IN F31 11L_M3 11L_M4 11L_M1 11L_M2 12L_M1 12L_M2 12L_M4 12L_M3
IN F32 12L_F1 12L_F2 12L_F3 12L_F4 11L_F1 11L_F2 11L_F3 11L_F4
IN F33 9L_F2 9L_F1 9L_F4 9L_F3 10L_F2 10L_F1 10L_F4 10L_F3
IN F34 13K_B1 14K_B1 GND GND 9K_B1 10K_B1 11K_B1 12K_B1
IN F35 13L_F4 13L_F3 13L_F1 13L_F2 14L_F1 14L_F2 14L_F4 14L_F3
IN F36 15K_B4 15K_B3 15K_B1 15K_B2 GND GND GND GND
IN F37 2L_P1 2K_P1 2I_P1 2J_P1 2I_B1 2J_B1 2L_B1 2K_B1
IN F38 2J_M1 2J_M2 2J_M3 2J_M4 2I_M1 2I_M2 2I_M3 2I_M4
IN F39 12J_B1 11J_B1 10J_B1 9J_B1 GND GND 13J_B1 14J_B1
IN F40 14I_F2 14I_F1 14I_F4 14I_F3 13I_F4 13I_F3 13I_F1 13I_F2
IN F41 15J_B1 15J_B2 15J_B3 15J_B4 GND GND GND GND
IN F42 14I_P1 13I_P1 GND 15I_P1 11I_P1 12I_P1 9I_P1 10I_P1
IN F43 11I_F2 11I_F1 11I_F3 11I_F4 12I_F1 12I_F2 12I_F4 12I_F3
IN F44 9I_M1 9I_M2 9I_M3 9I_M4 10I_M1 10I_M2 10I_M4 10I_M3
IN F45 9I_F2 9I_F1 9I_F4 9I_F3 10I_F1 10I_F2 10I_F4 10I_F3
IN F46 14I_M4 14I_M3 14I_M1 14I_M2 13I_M4 13I_M3 13I_M1 13I_M2
IN F47 11I_M1 11I_M2 11I_M3 11I_M4 12I_M4 12I_M3 12I_M1 12I_M2
44 fibers are connected!

******************** Start to search BCID of peak sampling: ********************
IN F0; 2L_F1=-1; 2L_F2=-1; 2L_F3=-1; 2L_F4=-1; 2K_F4=-1; 2K_F3=-1; 2K_F1=-1; 2K_F2=-1;  BCID_rms=0; height=296
IN F1; 2J_F2=-1; 2J_F1=-1; 2J_F3=-1; 2J_F4=-1; 2I_F3=-1; 2I_F4=-1; 2I_F1=0; 2I_F2=-1;  BCID_rms=0.330719; height=279
IN F3; GND; 15J_P1=0; 13J_P1=0; 14J_P1=0; 9J_P1=0; 10J_P1=0; 12J_P1=0; 11J_P1=0;  BCID_rms=0; height=26
IN F4; 13J_M1=0; 13J_M2=0; 13J_M4=0; 13J_M3=0; 14J_M3=0; 14J_M4=0; 14J_M1=0; 14J_M2=0;  BCID_rms=0; height=340
IN F5; 10J_M1=0; 10J_M2=0; 10J_M3=0; 10J_M4=0; 9J_M4=0; 9J_M3=0; 9J_M2=0; 9J_M1=0;  BCID_rms=0; height=314
IN F6; 11J_M3=0; 11J_M4=0; 11J_M1=0; 11J_M2=0; 12J_M1=0; 12J_M2=1; 12J_M4=1; 12J_M3=1;  BCID_rms=0.484123; height=301
IN F7; 12J_F1=0; 12J_F2=0; 12J_F3=0; 12J_F4=0; 11J_F1=0; 11J_F2=0; 11J_F3=0; 11J_F4=0;  BCID_rms=0; height=303
IN F8; 9J_F2=0; 9J_F1=0; 9J_F4=0; 9J_F3=0; 10J_F2=0; 10J_F1=0; 10J_F4=0; 10J_F3=0;  BCID_rms=0; height=313
IN F9; 13I_B1=0; 14I_B1=0; GND; GND; 9I_B1=0; 10I_B1=0; 11I_B1=0; 12I_B1=0;  BCID_rms=0; height=192
IN F10; 13J_F4=0; 13J_F3=0; 13J_F1=0; 13J_F2=0; 14J_F1=0; 14J_F2=0; 14J_F4=0; 14J_F3=0;  BCID_rms=0; height=306
IN F11; 15I_B4=0; 15I_B3=0; 15I_B1=0; 15I_B2=0; GND; GND; GND; GND;  BCID_rms=0; height=48
IN F12; 2K_M2=0; 2K_M1=0; 2K_M4=0; 2K_M3=0; 2L_M4=0; 2L_M3=0; 2L_M1=0; 2L_M2=0;  BCID_rms=0; height=421
IN F13; 1J_M1=0; 1J_M2=0; 1J_M3=0; 1J_M4=0; 1I_M1=0; 1I_M2=0; 1I_M3=0; 1I_M4=0;  BCID_rms=0; height=116
IN F14; 12L_B1=0; 11L_B1=0; 10L_B1=0; 9L_B1=0; GND; GND; 13L_B1=0; 14L_B1=0;  BCID_rms=0; height=197
IN F15; 14K_F2=0; 14K_F1=0; 14K_F4=0; 14K_F3=0; 13K_F4=0; 13K_F3=0; 13K_F1=0; 13K_F2=0;  BCID_rms=0; height=318
IN F16; 15L_B1=0; 15L_B2=0; 15L_B3=0; 15L_B4=0; GND; GND; GND; GND;  BCID_rms=0; height=49
IN F17; 14K_P1=0; 13K_P1=0; GND; 15K_P1=0; 11K_P1=0; 12K_P1=0; 9K_P1=0; 10K_P1=0;  BCID_rms=0; height=27
IN F18; 11K_F2=0; 11K_F1=0; 11K_F3=0; 11K_F4=0; 12K_F1=0; 12K_F2=0; 12K_F4=0; 12K_F3=0;  BCID_rms=0; height=312
IN F19; 9K_M1=0; 9K_M2=0; 9K_M3=0; 9K_M4=0; 10K_M1=0; 10K_M2=0; 10K_M4=0; 10K_M3=0;  BCID_rms=0; height=319
IN F20; 9K_F2=0; 9K_F1=0; 9K_F4=0; 9K_F3=0; 10K_F1=0; 10K_F2=0; 10K_F4=0; 10K_F3=0;  BCID_rms=0; height=310
IN F21; 14K_M4=0; 14K_M3=0; 14K_M1=0; 14K_M2=0; 13K_M4=0; 13K_M3=0; 13K_M1=0; 13K_M2=0;  BCID_rms=0; height=336
IN F22; 11K_M1=0; 11K_M2=0; 11K_M3=0; 11K_M4=0; 12K_M4=0; 12K_M3=0; 12K_M1=0; 12K_M2=0;  BCID_rms=0; height=314
IN F24; GND; GND; GND; GND; 1K_F1=0; 1L_F1=0; 1J_F1=0; 1I_F1=0;  BCID_rms=0; height=203
IN F25; 1K_M1=0; 1K_M2=0; 1K_M3=0; 1K_M4=0; 1L_M1=0; 1L_M2=0; 1L_M4=0; 1L_M3=0;  BCID_rms=0; height=114
IN F27; GND; 15L_P1=0; 13L_P1=0; 14L_P1=0; 9L_P1=0; 10L_P1=0; 12L_P1=0; 11L_P1=0;  BCID_rms=0; height=29
IN F28; 13L_M1=0; 13L_M2=0; 13L_M4=0; 13L_M3=0; 14L_M3=0; 14L_M4=0; 14L_M1=0; 14L_M2=0;  BCID_rms=0; height=329
IN F29; 10L_M1=0; 10L_M2=0; 10L_M3=0; 10L_M4=0; 9L_M4=0; 9L_M3=0; 9L_M2=0; 9L_M1=0;  BCID_rms=0; height=309
IN F30; 11L_M3=0; 11L_M4=0; 11L_M1=0; 11L_M2=0; 12L_M1=0; 12L_M2=0; 12L_M4=1; 12L_M3=1;  BCID_rms=0.433013; height=309
IN F31; 12L_F1=0; 12L_F2=0; 12L_F3=0; 12L_F4=0; 11L_F1=0; 11L_F2=0; 11L_F3=0; 11L_F4=0;  BCID_rms=0; height=312
IN F32; 9L_F2=0; 9L_F1=0; 9L_F4=0; 9L_F3=0; 10L_F2=0; 10L_F1=0; 10L_F4=0; 10L_F3=0;  BCID_rms=0; height=317
IN F33; 13K_B1=0; 14K_B1=0; GND; GND; 9K_B1=0; 10K_B1=0; 11K_B1=0; 12K_B1=0;  BCID_rms=0; height=199
IN F34; 13L_F4=0; 13L_F3=0; 13L_F1=0; 13L_F2=0; 14L_F1=0; 14L_F2=0; 14L_F4=0; 14L_F3=0;  BCID_rms=0; height=323
IN F35; 15K_B4=0; 15K_B3=0; 15K_B1=0; 15K_B2=0; GND; GND; GND; GND;  BCID_rms=0; height=47
IN F36; 2L_P1=-1; 2K_P1=-1; 2I_P1=-1; 2J_P1=-1; 2I_B1=0; 2J_B1=-1; 2L_B1=0; 2K_B1=0;  BCID_rms=0.484123; height=235
IN F37; 2J_M1=0; 2J_M2=-1; 2J_M3=0; 2J_M4=-1; 2I_M1=0; 2I_M2=0; 2I_M3=0; 2I_M4=0;  BCID_rms=0.433013; height=404
IN F38; 12J_B1=0; 11J_B1=0; 10J_B1=0; 9J_B1=0; GND; GND; 13J_B1=0; 14J_B1=0;  BCID_rms=0; height=190
IN F39; 14I_F2=0; 14I_F1=0; 14I_F4=0; 14I_F3=0; 13I_F4=0; 13I_F3=0; 13I_F1=0; 13I_F2=0;  BCID_rms=0; height=309
IN F40; 15J_B1=0; 15J_B2=0; 15J_B3=0; 15J_B4=0; GND; GND; GND; GND;  BCID_rms=0; height=47
IN F41; 14I_P1=0; 13I_P1=0; GND; 15I_P1=0; 11I_P1=0; 12I_P1=0; 9I_P1=0; 10I_P1=0;  BCID_rms=0; height=26
IN F42; 11I_F2=0; 11I_F1=0; 11I_F3=0; 11I_F4=0; 12I_F1=0; 12I_F2=0; 12I_F4=0; 12I_F3=0;  BCID_rms=0; height=316
IN F43; 9I_M1=0; 9I_M2=0; 9I_M3=0; 9I_M4=0; 10I_M1=0; 10I_M2=0; 10I_M4=0; 10I_M3=0;  BCID_rms=0; height=311
IN F44; 9I_F2=0; 9I_F1=0; 9I_F4=0; 9I_F3=0; 10I_F1=0; 10I_F2=0; 10I_F4=0; 10I_F3=0;  BCID_rms=0; height=318
IN F45; 14I_M4=0; 14I_M3=0; 14I_M1=0; 14I_M2=0; 13I_M4=0; 13I_M3=0; 13I_M1=0; 13I_M2=0;  BCID_rms=0; height=337
IN F46; 11I_M1=0; 11I_M2=0; 11I_M3=0; 11I_M4=0; 12I_M4=0; 12I_M3=0; 12I_M1=0; 12I_M2=0;  BCID_rms=0; height=314
