
Processing macro.C+("inputfile/LArDigits_pusleall_00407554.root","EMECC-HECC_2","outputs/hist/LArDigits_pusleall_00407554_hist.root","results/LArDigits_pusleall_00407554/latome60.ini","LATOME_ini_file/latome60.ini",false)...

******************** Start to read ini BCID: ********************
input file: LATOME_ini_file/latome60.ini
F0  BCID=0; 
F1  BCID=0; 
F2  BCID=0; 
F3  BCID=0; 
F4  BCID=0; 
F5  BCID=0; 
F6  BCID=3464; 
F7  BCID=3465; 
F8  BCID=3465; 
F9  BCID=3465; 
F10  BCID=3465; 
F11  BCID=3465; 
F12  BCID=0; 
F13  BCID=0; 
F14  BCID=0; 
F15  BCID=0; 
F16  BCID=0; 
F17  BCID=0; 
F18  BCID=3465; 
F19  BCID=3465; 
F20  BCID=3465; 
F21  BCID=3465; 
F22  BCID=3464; 
F23  BCID=3465; 
F24  BCID=0; 
F25  BCID=0; 
F26  BCID=3462; 
F27  BCID=3462; 
F28  BCID=3462; 
F29  BCID=3462; 
F30  BCID=3462; 
F31  BCID=3462; 
F32  BCID=3462; 
F33  BCID=3462; 
F34  BCID=3462; 
F35  BCID=3462; 
F36  BCID=0; 
F37  BCID=0; 
F38  BCID=0; 
F39  BCID=0; 
F40  BCID=0; 
F41  BCID=0; 
F42  BCID=0; 
F43  BCID=0; 
F44  BCID=0; 
F45  BCID=0; 
F46  BCID=0; 
F47  BCID=0; 
48 fibers are read!

******************** Start to read LArId info: ********************
SCname=11P_F1; channelId=978099712; 
SCname=11O_F1; channelId=978099200; 
SCname=11N_F1; channelId=978098688; 
SCname=11M_F1; channelId=978098176; 
SCname=11L_F1; channelId=978097664; 
SCname=11K_F1; channelId=978097152; 
SCname=11J_F1; channelId=978096640; 
SCname=11I_F1; channelId=978096128; 
SCname=11P_B1; channelId=978140672; 
SCname=11O_B1; channelId=978140160; 
SCname=11N_B1; channelId=978139648; 
SCname=11M_B1; channelId=978139136; 
SCname=11L_B1; channelId=978138624; 
SCname=11K_B1; channelId=978138112; 
SCname=11J_B1; channelId=978137600; 
SCname=11I_B1; channelId=978137088; 
SCname=11P_M1; channelId=978107904; 
SCname=11P_M2; channelId=978116096; 
SCname=11P_M3; channelId=978124288; 
SCname=11P_M4; channelId=978132480; 
SCname=11O_M1; channelId=978107392; 
SCname=11O_M2; channelId=978115584; 
SCname=11O_M3; channelId=978123776; 
SCname=11O_M4; channelId=978131968; 
SCname=11N_M1; channelId=978106880; 
SCname=11N_M2; channelId=978115072; 
SCname=11N_M3; channelId=978123264; 
SCname=11N_M4; channelId=978131456; 
SCname=11M_M1; channelId=978106368; 
SCname=11M_M2; channelId=978114560; 
SCname=11M_M3; channelId=978122752; 
SCname=11M_M4; channelId=978130944; 
SCname=11L_M1; channelId=978105856; 
SCname=11L_M2; channelId=978114048; 
SCname=11L_M3; channelId=978122240; 
SCname=11L_M4; channelId=978130432; 
SCname=11K_M1; channelId=978105344; 
SCname=11K_M2; channelId=978113536; 
SCname=11K_M3; channelId=978121728; 
SCname=11K_M4; channelId=978129920; 
SCname=11J_M1; channelId=978104832; 
SCname=11J_M2; channelId=978113024; 
SCname=11J_M3; channelId=978121216; 
SCname=11J_M4; channelId=978129408; 
SCname=11I_M1; channelId=978104320; 
SCname=11I_M2; channelId=978112512; 
SCname=11I_M3; channelId=978120704; 
SCname=11I_M4; channelId=978128896; 
SCname=12H_F1; channelId=978062848; 
SCname=12G_F1; channelId=978062336; 
SCname=13H_F1; channelId=978066944; 
SCname=13G_F1; channelId=978066432; 
SCname=14H_F1; channelId=978071040; 
SCname=14G_F1; channelId=978070528; 
SCname=15H_F1; channelId=978075136; 
SCname=15G_F1; channelId=978074624; 
SCname=12F_F1; channelId=978061824; 
SCname=12E_F1; channelId=978061312; 
SCname=13F_F1; channelId=978065920; 
SCname=13E_F1; channelId=978065408; 
SCname=14F_F1; channelId=978070016; 
SCname=14E_F1; channelId=978069504; 
SCname=15F_F1; channelId=978074112; 
SCname=15E_F1; channelId=978073600; 
SCname=12H_M1; channelId=978079232; 
SCname=12G_M1; channelId=978078720; 
SCname=13H_M1; channelId=978083328; 
SCname=13G_M1; channelId=978082816; 
SCname=14H_M1; channelId=978087424; 
SCname=14G_M1; channelId=978086912; 
SCname=15H_M1; channelId=978091520; 
SCname=15G_M1; channelId=978091008; 
SCname=12F_M1; channelId=978078208; 
SCname=12E_M1; channelId=978077696; 
SCname=13F_M1; channelId=978082304; 
SCname=13E_M1; channelId=978081792; 
SCname=14F_M1; channelId=978086400; 
SCname=14E_M1; channelId=978085888; 
SCname=15F_M1; channelId=978090496; 
SCname=15E_M1; channelId=978089984; 
SCname=2P; channelId=978329088; 
SCname=2O; channelId=978328576; 
SCname=2N; channelId=978328064; 
SCname=2M; channelId=978327552; 
SCname=3P; channelId=978337280; 
SCname=3O; channelId=978336768; 
SCname=3N; channelId=978336256; 
SCname=3M; channelId=978335744; 
SCname=4P; channelId=978345472; 
SCname=4O; channelId=978344960; 
SCname=4N; channelId=978344448; 
SCname=4M; channelId=978343936; 
SCname=5P; channelId=978353664; 
SCname=5O; channelId=978353152; 
SCname=5N; channelId=978352640; 
SCname=5M; channelId=978352128; 
SCname=2L; channelId=978327040; 
SCname=2K; channelId=978326528; 
SCname=2J; channelId=978326016; 
SCname=2I; channelId=978325504; 
SCname=3L; channelId=978335232; 
SCname=3K; channelId=978334720; 
SCname=3J; channelId=978334208; 
SCname=3I; channelId=978333696; 
SCname=4L; channelId=978343424; 
SCname=4K; channelId=978342912; 
SCname=4J; channelId=978342400; 
SCname=4I; channelId=978341888; 
SCname=5L; channelId=978351616; 
SCname=5K; channelId=978351104; 
SCname=5J; channelId=978350592; 
SCname=5I; channelId=978350080; 
SCname=6P; channelId=978361856; 
SCname=6O; channelId=978361344; 
SCname=6N; channelId=978360832; 
SCname=6M; channelId=978360320; 
SCname=7P; channelId=978370048; 
SCname=7O; channelId=978369536; 
SCname=7N; channelId=978369024; 
SCname=7M; channelId=978368512; 
SCname=8P; channelId=978378240; 
SCname=8O; channelId=978377728; 
SCname=8N; channelId=978377216; 
SCname=8M; channelId=978376704; 
SCname=9P; channelId=978386432; 
SCname=9O; channelId=978385920; 
SCname=9N; channelId=978385408; 
SCname=9M; channelId=978384896; 
SCname=6L; channelId=978359808; 
SCname=6K; channelId=978359296; 
SCname=6J; channelId=978358784; 
SCname=6I; channelId=978358272; 
SCname=7L; channelId=978368000; 
SCname=7K; channelId=978367488; 
SCname=7J; channelId=978366976; 
SCname=7I; channelId=978366464; 
SCname=8L; channelId=978376192; 
SCname=8K; channelId=978375680; 
SCname=8J; channelId=978375168; 
SCname=8I; channelId=978374656; 
SCname=9L; channelId=978384384; 
SCname=9K; channelId=978383872; 
SCname=9J; channelId=978383360; 
SCname=9I; channelId=978382848; 
SCname=10P; channelId=978394624; 
SCname=10O; channelId=978394112; 
SCname=10N; channelId=978393600; 
SCname=10M; channelId=978393088; 
SCname=11P; channelId=978402816; 
SCname=11O; channelId=978402304; 
SCname=11N; channelId=978401792; 
SCname=11M; channelId=978401280; 
SCname=12H; channelId=978406912; 
SCname=12G; channelId=978406400; 
SCname=13H; channelId=978411008; 
SCname=13G; channelId=978410496; 
SCname=14H; channelId=978415104; 
SCname=14G; channelId=978414592; 
SCname=15H; channelId=978419200; 
SCname=15G; channelId=978418688; 
SCname=10L; channelId=978392576; 
SCname=10K; channelId=978392064; 
SCname=10J; channelId=978391552; 
SCname=10I; channelId=978391040; 
SCname=11L; channelId=978400768; 
SCname=11K; channelId=978400256; 
SCname=11J; channelId=978399744; 
SCname=11I; channelId=978399232; 
SCname=12F; channelId=978405888; 
SCname=12E; channelId=978405376; 
SCname=13F; channelId=978409984; 
SCname=13E; channelId=978409472; 
SCname=14F; channelId=978414080; 
SCname=14E; channelId=978413568; 
SCname=15F; channelId=978418176; 
SCname=15E; channelId=978417664; 
176 SCs are read!  LATOME is EMECC_HECC_2

******************** Start to read SCs info per fiber: ********************
IN F7 7I 7J 7K 7L 6L 6K 6I 6J
IN F8 13F 13E 13H 13G 12G 12H 12E 12F
IN F9 15H 15G 15F 15E 14E 14F 14G 14H
IN F10 7P 7O 7N 7M 6M 6N 6O 6P
IN F11 11M 11N 11O 11P 11I 11J 11L 11K
IN F12 4I 4J 4K 4L 5I 5J 5K 5L
IN F19 5O 5P 5M 5N 4N 4M 4P 4O
IN F20 8M 8N 8O 8P 8L 8K 8I 8J
IN F21 9J 9I 9L 9K 9P 9O 9M 9N
IN F22 10O 10P 10M 10N 10J 10I 10L 10K
IN F23 2L 2K 2J 2I 2P 2O 2N 2M
IN F24 3K 3L 3J 3I 3M 3N 3O 3P
IN F27 15E_M1 15F_M1 15G_M1 15H_M1 15E_F1 15F_F1 15H_F1 15G_F1
IN F28 14G_F1 14H_F1 14E_F1 14F_F1 14E_M1 14F_M1 14H_M1 14G_M1
IN F29 12G_F1 12H_F1 12E_F1 12F_F1 12F_M1 12E_M1 12H_M1 12G_M1
IN F30 13F_M1 13E_M1 13H_M1 13G_M1 13H_F1 13G_F1 13E_F1 13F_F1
IN F31 11J_M4 11J_M3 11J_M1 11J_M2 11I_M4 11I_M3 11I_M1 11I_M2
IN F32 11M_M2 11M_M1 11M_M4 11M_M3 11N_M4 11N_M3 11N_M1 11N_M2
IN F33 11K_F1 11L_F1 11I_F1 11J_F1 11J_B1 11I_B1 11L_B1 11K_B1
IN F34 11P_B1 11O_B1 11N_B1 11M_B1 11M_F1 11N_F1 11P_F1 11O_F1
IN F35 11K_M1 11K_M2 11K_M4 11K_M3 11L_M4 11L_M3 11L_M2 11L_M1
IN F36 11O_M2 11O_M1 11O_M3 11O_M4 11P_M4 11P_M3 11P_M2 11P_M1
22 fibers are connected!

******************** Start to search BCID of peak sampling: ********************
IN F6; 7I=1; 7J=1; 7K=1; 7L=1; 6L=1; 6K=1; 6I=1; 6J=1;  BCID_rms=0; height=547
IN F7; 13F=0; 13E=0; 13H=0; 13G=0; 12G=0; 12H=0; 12E=0; 12F=0;  BCID_rms=0; height=303
IN F8; 15H=0; 15G=0; 15F=0; 15E=0; 14E=0; 14F=0; 14G=0; 14H=0;  BCID_rms=0; height=198
IN F9; 7P=0; 7O=0; 7N=0; 7M=0; 6M=0; 6N=0; 6O=0; 6P=0;  BCID_rms=0; height=569
IN F10; 11M=0; 11N=0; 11O=0; 11P=0; 11I=0; 11J=0; 11L=0; 11K=0;  BCID_rms=0; height=579
IN F11; 4I=0; 4J=0; 4K=0; 4L=0; 5I=0; 5J=0; 5K=0; 5L=0;  BCID_rms=0; height=1296
IN F18; 5O=0; 5P=0; 5M=0; 5N=0; 4N=0; 4M=0; 4P=0; 4O=0;  BCID_rms=0; height=1347
IN F19; 8M=0; 8N=0; 8O=0; 8P=0; 8L=0; 8K=0; 8I=0; 8J=0;  BCID_rms=0; height=543
IN F20; 9J=0; 9I=0; 9L=0; 9K=0; 9P=0; 9O=0; 9M=0; 9N=0;  BCID_rms=0; height=541
IN F21; 10O=0; 10P=0; 10M=0; 10N=0; 10J=0; 10I=0; 10L=0; 10K=0;  BCID_rms=0; height=568
IN F22; 2L=1; 2K=1; 2J=1; 2I=1; 2P=1; 2O=1; 2N=1; 2M=1;  BCID_rms=0; height=361
IN F23; 3K=0; 3L=0; 3J=0; 3I=0; 3M=0; 3N=0; 3O=0; 3P=0;  BCID_rms=0; height=822
IN F26; 15E_M1=0; 15F_M1=0; 15G_M1=0; 15H_M1=0; 15E_F1=0; 15F_F1=1; 15H_F1=1; 15G_F1=0;  BCID_rms=0.433013; height=64
IN F27; 14G_F1=1; 14H_F1=1; 14E_F1=1; 14F_F1=1; 14E_M1=0; 14F_M1=0; 14H_M1=0; 14G_M1=0;  BCID_rms=0.5; height=131
IN F28; 12G_F1=1; 12H_F1=1; 12E_F1=1; 12F_F1=1; 12F_M1=0; 12E_M1=0; 12H_M1=0; 12G_M1=0;  BCID_rms=0.5; height=133
IN F29; 13F_M1=0; 13E_M1=0; 13H_M1=0; 13G_M1=0; 13H_F1=1; 13G_F1=1; 13E_F1=1; 13F_F1=1;  BCID_rms=0.5; height=126
IN F30; 11J_M4=0; 11J_M3=0; 11J_M1=0; 11J_M2=0; 11I_M4=0; 11I_M3=0; 11I_M1=0; 11I_M2=0;  BCID_rms=0; height=140
IN F31; 11M_M2=0; 11M_M1=0; 11M_M4=0; 11M_M3=1; 11N_M4=0; 11N_M3=0; 11N_M1=0; 11N_M2=0;  BCID_rms=0.330719; height=138
IN F32; 11K_F1=1; 11L_F1=1; 11I_F1=1; 11J_F1=1; 11J_B1=1; 11I_B1=1; 11L_B1=1; 11K_B1=1;  BCID_rms=0; height=344
IN F33; 11P_B1=1; 11O_B1=1; 11N_B1=1; 11M_B1=1; 11M_F1=1; 11N_F1=1; 11P_F1=1; 11O_F1=1;  BCID_rms=0; height=351
IN F34; 11K_M1=0; 11K_M2=0; 11K_M4=0; 11K_M3=0; 11L_M4=0; 11L_M3=0; 11L_M2=0; 11L_M1=0;  BCID_rms=0; height=147
IN F35; 11O_M2=0; 11O_M1=0; 11O_M3=1; 11O_M4=0; 11P_M4=0; 11P_M3=1; 11P_M2=0; 11P_M1=0;  BCID_rms=0.433013; height=142
