
Processing macro.C+("inputfile/LArDigits_v8_new.root","EMECC_6","outputs/hist/LArDigits_v8_new_hist.root","results/LArDigits_v8_new/latome84.ini","LATOME_ini_file/latome84.ini",false)...

******************** Start to read ini BCID: ********************
input file: LATOME_ini_file/latome84.ini
F0  BCID=0; 
F1  BCID=0; 
F2  BCID=3462; 
F3  BCID=3462; 
F4  BCID=3462; 
F5  BCID=3462; 
F6  BCID=3462; 
F7  BCID=3462; 
F8  BCID=3462; 
F9  BCID=3462; 
F10  BCID=3462; 
F11  BCID=3462; 
F12  BCID=0; 
F13  BCID=0; 
F14  BCID=3462; 
F15  BCID=3462; 
F16  BCID=3462; 
F17  BCID=3462; 
F18  BCID=3462; 
F19  BCID=3462; 
F20  BCID=3462; 
F21  BCID=3462; 
F22  BCID=3462; 
F23  BCID=3462; 
F24  BCID=0; 
F25  BCID=0; 
F26  BCID=3462; 
F27  BCID=3462; 
F28  BCID=3462; 
F29  BCID=3462; 
F30  BCID=3462; 
F31  BCID=3462; 
F32  BCID=3462; 
F33  BCID=3462; 
F34  BCID=3462; 
F35  BCID=3462; 
F36  BCID=0; 
F37  BCID=0; 
F38  BCID=3462; 
F39  BCID=3462; 
F40  BCID=3462; 
F41  BCID=3462; 
F42  BCID=3462; 
F43  BCID=3462; 
F44  BCID=3462; 
F45  BCID=3462; 
F46  BCID=3462; 
F47  BCID=3462; 
48 fibers are read!

******************** Start to read LArId info: ********************
SCname=3H_P1; channelId=975177216; 
SCname=3G_P1; channelId=975176704; 
SCname=4H_P1; channelId=975179264; 
SCname=4G_P1; channelId=975178752; 
SCname=3F_P1; channelId=975176192; 
SCname=3E_P1; channelId=975175680; 
SCname=4F_P1; channelId=975178240; 
SCname=4E_P1; channelId=975177728; 
SCname=3H_F1; channelId=975181312; 
SCname=3H_F2; channelId=975183360; 
SCname=3H_F3; channelId=975185408; 
SCname=3H_F4; channelId=975187456; 
SCname=3G_F1; channelId=975180800; 
SCname=3G_F2; channelId=975182848; 
SCname=3G_F3; channelId=975184896; 
SCname=3G_F4; channelId=975186944; 
SCname=3F_F1; channelId=975180288; 
SCname=3F_F2; channelId=975182336; 
SCname=3F_F3; channelId=975184384; 
SCname=3F_F4; channelId=975186432; 
SCname=3E_F1; channelId=975179776; 
SCname=3E_F2; channelId=975181824; 
SCname=3E_F3; channelId=975183872; 
SCname=3E_F4; channelId=975185920; 
SCname=4H_F1; channelId=975189504; 
SCname=4H_F2; channelId=975191552; 
SCname=4H_F3; channelId=975193600; 
SCname=4H_F4; channelId=975195648; 
SCname=4G_F1; channelId=975188992; 
SCname=4G_F2; channelId=975191040; 
SCname=4G_F3; channelId=975193088; 
SCname=4G_F4; channelId=975195136; 
SCname=4F_F1; channelId=975188480; 
SCname=4F_F2; channelId=975190528; 
SCname=4F_F3; channelId=975192576; 
SCname=4F_F4; channelId=975194624; 
SCname=4E_F1; channelId=975187968; 
SCname=4E_F2; channelId=975190016; 
SCname=4E_F3; channelId=975192064; 
SCname=4E_F4; channelId=975194112; 
SCname=5H_F1; channelId=975197696; 
SCname=5H_F2; channelId=975199744; 
SCname=5H_F3; channelId=975201792; 
SCname=5H_F4; channelId=975203840; 
SCname=5H_F5; channelId=975205888; 
SCname=5H_F6; channelId=975207936; 
SCname=5G_F1; channelId=975197184; 
SCname=5G_F2; channelId=975199232; 
SCname=5G_F3; channelId=975201280; 
SCname=5G_F4; channelId=975203328; 
SCname=5G_F5; channelId=975205376; 
SCname=5G_F6; channelId=975207424; 
SCname=5F_F1; channelId=975196672; 
SCname=5F_F2; channelId=975198720; 
SCname=5F_F3; channelId=975200768; 
SCname=5F_F4; channelId=975202816; 
SCname=5F_F5; channelId=975204864; 
SCname=5F_F6; channelId=975206912; 
SCname=5E_F1; channelId=975196160; 
SCname=5E_F2; channelId=975198208; 
SCname=5E_F3; channelId=975200256; 
SCname=5E_F4; channelId=975202304; 
SCname=5E_F5; channelId=975204352; 
SCname=5E_F6; channelId=975206400; 
SCname=6H_F1; channelId=975209984; 
SCname=6H_F2; channelId=975212032; 
SCname=6H_F3; channelId=975214080; 
SCname=6H_F4; channelId=975216128; 
SCname=6H_F5; channelId=975218176; 
SCname=6H_F6; channelId=975220224; 
SCname=6G_F1; channelId=975209472; 
SCname=6G_F2; channelId=975211520; 
SCname=6G_F3; channelId=975213568; 
SCname=6G_F4; channelId=975215616; 
SCname=6G_F5; channelId=975217664; 
SCname=6G_F6; channelId=975219712; 
SCname=6F_F1; channelId=975208960; 
SCname=6F_F2; channelId=975211008; 
SCname=6F_F3; channelId=975213056; 
SCname=6F_F4; channelId=975215104; 
SCname=6F_F5; channelId=975217152; 
SCname=6F_F6; channelId=975219200; 
SCname=6E_F1; channelId=975208448; 
SCname=6E_F2; channelId=975210496; 
SCname=6E_F3; channelId=975212544; 
SCname=6E_F4; channelId=975214592; 
SCname=6E_F5; channelId=975216640; 
SCname=6E_F6; channelId=975218688; 
SCname=7H_F1; channelId=975222272; 
SCname=7H_F2; channelId=975224320; 
SCname=7H_F3; channelId=975226368; 
SCname=7H_F4; channelId=975228416; 
SCname=7G_F1; channelId=975221760; 
SCname=7G_F2; channelId=975223808; 
SCname=7G_F3; channelId=975225856; 
SCname=7G_F4; channelId=975227904; 
SCname=8H_F1; channelId=975230464; 
SCname=8H_F2; channelId=975232512; 
SCname=8H_F3; channelId=975234560; 
SCname=8H_F4; channelId=975236608; 
SCname=8G_F1; channelId=975229952; 
SCname=8G_F2; channelId=975232000; 
SCname=8G_F3; channelId=975234048; 
SCname=8G_F4; channelId=975236096; 
SCname=7F_F1; channelId=975221248; 
SCname=7F_F2; channelId=975223296; 
SCname=7F_F3; channelId=975225344; 
SCname=7F_F4; channelId=975227392; 
SCname=7E_F1; channelId=975220736; 
SCname=7E_F2; channelId=975222784; 
SCname=7E_F3; channelId=975224832; 
SCname=7E_F4; channelId=975226880; 
SCname=8F_F1; channelId=975229440; 
SCname=8F_F2; channelId=975231488; 
SCname=8F_F3; channelId=975233536; 
SCname=8F_F4; channelId=975235584; 
SCname=8E_F1; channelId=975228928; 
SCname=8E_F2; channelId=975230976; 
SCname=8E_F3; channelId=975233024; 
SCname=8E_F4; channelId=975235072; 
SCname=9H_F1; channelId=975238656; 
SCname=9H_F2; channelId=975240704; 
SCname=9H_F3; channelId=975242752; 
SCname=9H_F4; channelId=975244800; 
SCname=9G_F1; channelId=975238144; 
SCname=9G_F2; channelId=975240192; 
SCname=9G_F3; channelId=975242240; 
SCname=9G_F4; channelId=975244288; 
SCname=10H_F1; channelId=975246848; 
SCname=10H_F2; channelId=975248896; 
SCname=10H_F3; channelId=975250944; 
SCname=10H_F4; channelId=975252992; 
SCname=10G_F1; channelId=975246336; 
SCname=10G_F2; channelId=975248384; 
SCname=10G_F3; channelId=975250432; 
SCname=10G_F4; channelId=975252480; 
SCname=9F_F1; channelId=975237632; 
SCname=9F_F2; channelId=975239680; 
SCname=9F_F3; channelId=975241728; 
SCname=9F_F4; channelId=975243776; 
SCname=9E_F1; channelId=975237120; 
SCname=9E_F2; channelId=975239168; 
SCname=9E_F3; channelId=975241216; 
SCname=9E_F4; channelId=975243264; 
SCname=10F_F1; channelId=975245824; 
SCname=10F_F2; channelId=975247872; 
SCname=10F_F3; channelId=975249920; 
SCname=10F_F4; channelId=975251968; 
SCname=10E_F1; channelId=975245312; 
SCname=10E_F2; channelId=975247360; 
SCname=10E_F3; channelId=975249408; 
SCname=10E_F4; channelId=975251456; 
SCname=3H_B1; channelId=975320576; 
SCname=3G_B1; channelId=975320064; 
SCname=3F_B1; channelId=975319552; 
SCname=3E_B1; channelId=975319040; 
SCname=4H_B1; channelId=975322624; 
SCname=4G_B1; channelId=975322112; 
SCname=4F_B1; channelId=975321600; 
SCname=4E_B1; channelId=975321088; 
SCname=5H_B1; channelId=975324672; 
SCname=5G_B1; channelId=975324160; 
SCname=5F_B1; channelId=975323648; 
SCname=5E_B1; channelId=975323136; 
SCname=6H_B1; channelId=975326720; 
SCname=6G_B1; channelId=975326208; 
SCname=6F_B1; channelId=975325696; 
SCname=6E_B1; channelId=975325184; 
SCname=7H_B1; channelId=975328768; 
SCname=7G_B1; channelId=975328256; 
SCname=7F_B1; channelId=975327744; 
SCname=7E_B1; channelId=975327232; 
SCname=8H_B1; channelId=975330816; 
SCname=8G_B1; channelId=975330304; 
SCname=8F_B1; channelId=975329792; 
SCname=8E_B1; channelId=975329280; 
SCname=9H_B1; channelId=975332864; 
SCname=9G_B1; channelId=975332352; 
SCname=9F_B1; channelId=975331840; 
SCname=9E_B1; channelId=975331328; 
SCname=10H_B1; channelId=975334912; 
SCname=10G_B1; channelId=975334400; 
SCname=10F_B1; channelId=975333888; 
SCname=10E_B1; channelId=975333376; 
SCname=3H_M1; channelId=975255040; 
SCname=3H_M2; channelId=975257088; 
SCname=3H_M3; channelId=975259136; 
SCname=3H_M4; channelId=975261184; 
SCname=3G_M1; channelId=975254528; 
SCname=3G_M2; channelId=975256576; 
SCname=3G_M3; channelId=975258624; 
SCname=3G_M4; channelId=975260672; 
SCname=3F_M1; channelId=975254016; 
SCname=3F_M2; channelId=975256064; 
SCname=3F_M3; channelId=975258112; 
SCname=3F_M4; channelId=975260160; 
SCname=3E_M1; channelId=975253504; 
SCname=3E_M2; channelId=975255552; 
SCname=3E_M3; channelId=975257600; 
SCname=3E_M4; channelId=975259648; 
SCname=4H_M1; channelId=975263232; 
SCname=4H_M2; channelId=975265280; 
SCname=4H_M3; channelId=975267328; 
SCname=4H_M4; channelId=975269376; 
SCname=4G_M1; channelId=975262720; 
SCname=4G_M2; channelId=975264768; 
SCname=4G_M3; channelId=975266816; 
SCname=4G_M4; channelId=975268864; 
SCname=4F_M1; channelId=975262208; 
SCname=4F_M2; channelId=975264256; 
SCname=4F_M3; channelId=975266304; 
SCname=4F_M4; channelId=975268352; 
SCname=4E_M1; channelId=975261696; 
SCname=4E_M2; channelId=975263744; 
SCname=4E_M3; channelId=975265792; 
SCname=4E_M4; channelId=975267840; 
SCname=5H_M1; channelId=975271424; 
SCname=5H_M2; channelId=975273472; 
SCname=5H_M3; channelId=975275520; 
SCname=5H_M4; channelId=975277568; 
SCname=5G_M1; channelId=975270912; 
SCname=5G_M2; channelId=975272960; 
SCname=5G_M3; channelId=975275008; 
SCname=5G_M4; channelId=975277056; 
SCname=5F_M1; channelId=975270400; 
SCname=5F_M2; channelId=975272448; 
SCname=5F_M3; channelId=975274496; 
SCname=5F_M4; channelId=975276544; 
SCname=5E_M1; channelId=975269888; 
SCname=5E_M2; channelId=975271936; 
SCname=5E_M3; channelId=975273984; 
SCname=5E_M4; channelId=975276032; 
SCname=6H_M1; channelId=975279616; 
SCname=6H_M2; channelId=975281664; 
SCname=6H_M3; channelId=975283712; 
SCname=6H_M4; channelId=975285760; 
SCname=6G_M1; channelId=975279104; 
SCname=6G_M2; channelId=975281152; 
SCname=6G_M3; channelId=975283200; 
SCname=6G_M4; channelId=975285248; 
SCname=6F_M1; channelId=975278592; 
SCname=6F_M2; channelId=975280640; 
SCname=6F_M3; channelId=975282688; 
SCname=6F_M4; channelId=975284736; 
SCname=6E_M1; channelId=975278080; 
SCname=6E_M2; channelId=975280128; 
SCname=6E_M3; channelId=975282176; 
SCname=6E_M4; channelId=975284224; 
SCname=7H_M1; channelId=975287808; 
SCname=7H_M2; channelId=975289856; 
SCname=7H_M3; channelId=975291904; 
SCname=7H_M4; channelId=975293952; 
SCname=7G_M1; channelId=975287296; 
SCname=7G_M2; channelId=975289344; 
SCname=7G_M3; channelId=975291392; 
SCname=7G_M4; channelId=975293440; 
SCname=7F_M1; channelId=975286784; 
SCname=7F_M2; channelId=975288832; 
SCname=7F_M3; channelId=975290880; 
SCname=7F_M4; channelId=975292928; 
SCname=7E_M1; channelId=975286272; 
SCname=7E_M2; channelId=975288320; 
SCname=7E_M3; channelId=975290368; 
SCname=7E_M4; channelId=975292416; 
SCname=8H_M1; channelId=975296000; 
SCname=8H_M2; channelId=975298048; 
SCname=8H_M3; channelId=975300096; 
SCname=8H_M4; channelId=975302144; 
SCname=8G_M1; channelId=975295488; 
SCname=8G_M2; channelId=975297536; 
SCname=8G_M3; channelId=975299584; 
SCname=8G_M4; channelId=975301632; 
SCname=8F_M1; channelId=975294976; 
SCname=8F_M2; channelId=975297024; 
SCname=8F_M3; channelId=975299072; 
SCname=8F_M4; channelId=975301120; 
SCname=8E_M1; channelId=975294464; 
SCname=8E_M2; channelId=975296512; 
SCname=8E_M3; channelId=975298560; 
SCname=8E_M4; channelId=975300608; 
SCname=9H_M1; channelId=975304192; 
SCname=9H_M2; channelId=975306240; 
SCname=9H_M3; channelId=975308288; 
SCname=9H_M4; channelId=975310336; 
SCname=9G_M1; channelId=975303680; 
SCname=9G_M2; channelId=975305728; 
SCname=9G_M3; channelId=975307776; 
SCname=9G_M4; channelId=975309824; 
SCname=9F_M1; channelId=975303168; 
SCname=9F_M2; channelId=975305216; 
SCname=9F_M3; channelId=975307264; 
SCname=9F_M4; channelId=975309312; 
SCname=9E_M1; channelId=975302656; 
SCname=9E_M2; channelId=975304704; 
SCname=9E_M3; channelId=975306752; 
SCname=9E_M4; channelId=975308800; 
SCname=10H_M1; channelId=975312384; 
SCname=10H_M2; channelId=975314432; 
SCname=10H_M3; channelId=975316480; 
SCname=10H_M4; channelId=975318528; 
SCname=10G_M1; channelId=975311872; 
SCname=10G_M2; channelId=975313920; 
SCname=10G_M3; channelId=975315968; 
SCname=10G_M4; channelId=975318016; 
SCname=10F_M1; channelId=975311360; 
SCname=10F_M2; channelId=975313408; 
SCname=10F_M3; channelId=975315456; 
SCname=10F_M4; channelId=975317504; 
SCname=10E_M1; channelId=975310848; 
SCname=10E_M2; channelId=975312896; 
SCname=10E_M3; channelId=975314944; 
SCname=10E_M4; channelId=975316992; 
312 SCs are read!  LATOME is EMECC_6

******************** Start to read SCs info per fiber: ********************
IN F3 7H_B1 8H_B1 8G_B1 7G_B1 10H_B1 9H_B1 10G_B1 9G_B1
IN F4 4H_M2 4H_M1 4H_M4 4H_M3 4G_M3 4G_M4 4G_M1 4G_M2
IN F5 3G_M1 3G_M2 3G_M4 3G_M3 3H_M4 3H_M3 3H_M2 3H_M1
IN F6 5G_F4 5G_F3 5G_F2 5G_F1 5H_F4 5H_F3 5H_F2 5H_F1
IN F7 6H_M1 6H_M2 6H_M3 6H_M4 6G_M3 6G_M4 6G_M2 6G_M1
IN F8 GND GND GND GND 4G_P1 4H_P1 3G_P1 3H_P1
IN F9 5H_M1 5H_M2 5H_M3 5H_M4 5G_M4 5G_M3 5G_M1 5G_M2
IN F10 4G_F1 4G_F2 4G_F4 4G_F3 4H_F4 4H_F3 4H_F2 4H_F1
IN F11 6H_F2 6H_F1 5H_F6 5H_F5 5G_F5 5G_F6 6G_F2 6G_F1
IN F12 3G_F3 3G_F4 3G_F2 3G_F1 3H_F4 3H_F3 3H_F2 3H_F1
IN F15 4E_B1 3E_B1 4F_B1 3F_B1 6E_B1 5E_B1 5F_B1 6F_B1
IN F16 9G_F2 9G_F1 9G_F4 9G_F3 9H_F4 9H_F3 9H_F1 9H_F2
IN F17 10E_F4 10E_F3 10E_F2 10E_F1 10F_F4 10F_F3 10F_F2 10F_F1
IN F18 6G_F4 6G_F3 6G_F6 6G_F5 6H_F5 6H_F6 6H_F3 6H_F4
IN F19 8H_F3 8H_F4 8H_F2 8H_F1 8G_F1 8G_F2 8G_F4 8G_F3
IN F20 10G_M4 10G_M3 10G_M2 10G_M1 10H_M4 10H_M3 10H_M1 10H_M2
IN F21 7H_F2 7H_F1 7H_F4 7H_F3 7G_F1 7G_F2 7G_F4 7G_F3
IN F22 8H_M4 8H_M3 8H_M1 8H_M2 8G_M4 8G_M3 8G_M1 8G_M2
IN F23 9G_M4 9G_M3 9G_M2 9G_M1 9H_M1 9H_M2 9H_M4 9H_M3
IN F24 7G_M2 7G_M1 7G_M4 7G_M3 7H_M4 7H_M3 7H_M1 7H_M2
IN F27 9E_M1 9E_M2 9E_M4 9E_M3 9F_M3 9F_M4 9F_M1 9F_M2
IN F28 5F_F1 5F_F2 5F_F4 5F_F3 5E_F4 5E_F3 5E_F1 5E_F2
IN F29 10F_M4 10F_M3 10F_M1 10F_M2 10E_M2 10E_M1 10E_M4 10E_M3
IN F30 8E_M4 8E_M3 8E_M2 8E_M1 8F_M1 8F_M2 8F_M3 8F_M4
IN F31 7F_M3 7F_M4 7F_M1 7F_M2 7E_M1 7E_M2 7E_M4 7E_M3
IN F32 8E_F1 8E_F2 8E_F3 8E_F4 8F_F1 8F_F2 8F_F3 8F_F4
IN F33 7F_F2 7F_F1 7F_F4 7F_F3 7E_F2 7E_F1 7E_F4 7E_F3
IN F34 5H_B1 6H_B1 5G_B1 6G_B1 3H_B1 4H_B1 3G_B1 4G_B1
IN F35 9F_F4 9F_F3 9F_F1 9F_F2 9E_F1 9E_F2 9E_F4 9E_F3
IN F36 10G_F4 10G_F3 10G_F1 10G_F2 10H_F1 10H_F2 10H_F4 10H_F3
IN F39 3F_F2 3F_F1 3F_F4 3F_F3 3E_F1 3E_F2 3E_F3 3E_F4
IN F40 5E_M3 5E_M4 5E_M1 5E_M2 5F_M1 5F_M2 5F_M4 5F_M3
IN F41 4F_F1 4F_F2 4F_F3 4F_F4 4E_F1 4E_F2 4E_F4 4E_F3
IN F42 6E_M2 6E_M1 6E_M4 6E_M3 6F_M3 6F_M4 6F_M1 6F_M2
IN F43 5F_F6 5F_F5 6F_F1 6F_F2 5E_F5 5E_F6 6E_F2 6E_F1
IN F44 4F_M4 4F_M3 4F_M2 4F_M1 4E_M4 4E_M3 4E_M1 4E_M2
IN F45 6F_F4 6F_F3 6F_F5 6F_F6 6E_F5 6E_F6 6E_F3 6E_F4
IN F46 GND GND GND GND 3E_P1 3F_P1 4F_P1 4E_P1
IN F47 3F_M2 3F_M1 3F_M3 3F_M4 3E_M4 3E_M3 3E_M1 3E_M2
IN F48 9E_B1 10E_B1 10F_B1 9F_B1 7F_B1 8F_B1 7E_B1 8E_B1
40 fibers are connected!

******************** Start to search BCID of peak sampling: ********************
IN F2; 7H_B1=0; 8H_B1=0; 8G_B1=0; 7G_B1=0; 10H_B1=0; 9H_B1=0; 10G_B1=0; 9G_B1=0;  BCID_rms=0; height=293
IN F3; 4H_M2=0; 4H_M1=0; 4H_M4=0; 4H_M3=0; 4G_M3=0; 4G_M4=0; 4G_M1=0; 4G_M2=0;  BCID_rms=0; height=464
IN F4; 3G_M1=0; 3G_M2=0; 3G_M4=0; 3G_M3=0; 3H_M4=0; 3H_M3=0; 3H_M2=0; 3H_M1=0;  BCID_rms=0; height=465
IN F5; 5G_F4=0; 5G_F3=0; 5G_F2=0; 5G_F1=0; 5H_F4=0; 5H_F3=0; 5H_F2=0; 5H_F1=0;  BCID_rms=0; height=155
IN F6; 6H_M1=0; 6H_M2=0; 6H_M3=0; 6H_M4=0; 6G_M3=0; 6G_M4=0; 6G_M2=0; 6G_M1=0;  BCID_rms=0; height=164
IN F7; GND; GND; GND; GND; 4G_P1=0; 4H_P1=0; 3G_P1=0; 3H_P1=0;  BCID_rms=0; height=298
IN F8; 5H_M1=0; 5H_M2=0; 5H_M3=0; 5H_M4=0; 5G_M4=0; 5G_M3=0; 5G_M1=0; 5G_M2=0;  BCID_rms=0; height=159
IN F9; 4G_F1=0; 4G_F2=0; 4G_F4=0; 4G_F3=0; 4H_F4=0; 4H_F3=0; 4H_F2=0; 4H_F1=0;  BCID_rms=0; height=317
IN F10; 6H_F2=0; 6H_F1=0; 5H_F6=0; 5H_F5=0; 5G_F5=0; 5G_F6=0; 6G_F2=0; 6G_F1=0;  BCID_rms=0; height=155
IN F11; 3G_F3=0; 3G_F4=0; 3G_F2=0; 3G_F1=0; 3H_F4=0; 3H_F3=0; 3H_F2=0; 3H_F1=0;  BCID_rms=0; height=300
IN F14; 4E_B1=0; 3E_B1=0; 4F_B1=0; 3F_B1=0; 6E_B1=0; 5E_B1=0; 5F_B1=0; 6F_B1=0;  BCID_rms=0; height=308
IN F15; 9G_F2=0; 9G_F1=0; 9G_F4=0; 9G_F3=0; 9H_F4=0; 9H_F3=0; 9H_F1=0; 9H_F2=0;  BCID_rms=0; height=149
IN F16; 10E_F4=0; 10E_F3=0; 10E_F2=0; 10E_F1=0; 10F_F4=0; 10F_F3=0; 10F_F2=0; 10F_F1=0;  BCID_rms=0; height=148
IN F17; 6G_F4=0; 6G_F3=0; 6G_F6=0; 6G_F5=0; 6H_F5=0; 6H_F6=0; 6H_F3=0; 6H_F4=0;  BCID_rms=0; height=156
IN F18; 8H_F3=0; 8H_F4=0; 8H_F2=0; 8H_F1=0; 8G_F1=0; 8G_F2=0; 8G_F4=0; 8G_F3=0;  BCID_rms=0; height=154
IN F19; 10G_M4=0; 10G_M3=0; 10G_M2=0; 10G_M1=0; 10H_M4=0; 10H_M3=0; 10H_M1=0; 10H_M2=0;  BCID_rms=0; height=166
IN F20; 7H_F2=0; 7H_F1=0; 7H_F4=0; 7H_F3=0; 7G_F1=0; 7G_F2=0; 7G_F4=0; 7G_F3=0;  BCID_rms=0; height=153
IN F21; 8H_M4=0; 8H_M3=0; 8H_M1=0; 8H_M2=0; 8G_M4=0; 8G_M3=0; 8G_M1=0; 8G_M2=0;  BCID_rms=0; height=166
IN F22; 9G_M4=0; 9G_M3=0; 9G_M2=0; 9G_M1=0; 9H_M1=0; 9H_M2=0; 9H_M4=0; 9H_M3=0;  BCID_rms=0; height=162
IN F23; 7G_M2=0; 7G_M1=0; 7G_M4=0; 7G_M3=0; 7H_M4=0; 7H_M3=0; 7H_M1=0; 7H_M2=0;  BCID_rms=0; height=156
IN F26; 9E_M1= no pulse; 9E_M2=0; 9E_M4=0; 9E_M3=0; 9F_M3=0; 9F_M4=0; 9F_M1=0; 9F_M2=0;  BCID_rms=0; height=166
IN F27; 5F_F1=0; 5F_F2=0; 5F_F4=0; 5F_F3=0; 5E_F4=0; 5E_F3=0; 5E_F1=0; 5E_F2=0;  BCID_rms=0; height=163
IN F28; 10F_M4=0; 10F_M3=0; 10F_M1=0; 10F_M2=0; 10E_M2=0; 10E_M1=0; 10E_M4=0; 10E_M3=0;  BCID_rms=0; height=162
IN F29; 8E_M4=0; 8E_M3=0; 8E_M2=0; 8E_M1=0; 8F_M1=0; 8F_M2=0; 8F_M3=0; 8F_M4=0;  BCID_rms=0; height=164
IN F30; 7F_M3=0; 7F_M4=0; 7F_M1=0; 7F_M2=0; 7E_M1=0; 7E_M2=0; 7E_M4=0; 7E_M3=0;  BCID_rms=0; height=157
IN F31; 8E_F1=0; 8E_F2=0; 8E_F3=0; 8E_F4=0; 8F_F1=0; 8F_F2=0; 8F_F3=0; 8F_F4=0;  BCID_rms=0; height=147
IN F32; 7F_F2=0; 7F_F1=0; 7F_F4=0; 7F_F3=0; 7E_F2=0; 7E_F1=0; 7E_F4=0; 7E_F3=0;  BCID_rms=0; height=154
IN F33; 5H_B1=0; 6H_B1=0; 5G_B1=0; 6G_B1=0; 3H_B1=0; 4H_B1=0; 3G_B1=0; 4G_B1=0;  BCID_rms=0; height=313
IN F34; 9F_F4=0; 9F_F3=0; 9F_F1=0; 9F_F2=0; 9E_F1=0; 9E_F2=0; 9E_F4=0; 9E_F3=0;  BCID_rms=0; height=152
IN F35; 10G_F4=0; 10G_F3=0; 10G_F1=0; 10G_F2=0; 10H_F1=0; 10H_F2=0; 10H_F4=0; 10H_F3=0;  BCID_rms=0; height=152
IN F38; 3F_F2=0; 3F_F1=0; 3F_F4=0; 3F_F3=0; 3E_F1=0; 3E_F2=0; 3E_F3=0; 3E_F4=0;  BCID_rms=0; height=321
IN F39; 5E_M3=0; 5E_M4=0; 5E_M1=0; 5E_M2=0; 5F_M1=0; 5F_M2=0; 5F_M4=0; 5F_M3=0;  BCID_rms=0; height=162
IN F40; 4F_F1=0; 4F_F2=0; 4F_F3=0; 4F_F4=0; 4E_F1=0; 4E_F2=0; 4E_F4=0; 4E_F3=0;  BCID_rms=0; height=315
IN F41; 6E_M2=0; 6E_M1=0; 6E_M4=0; 6E_M3=0; 6F_M3=0; 6F_M4=0; 6F_M1=0; 6F_M2=0;  BCID_rms=0; height=162
IN F42; 5F_F6=0; 5F_F5=0; 6F_F1=0; 6F_F2=0; 5E_F5=0; 5E_F6=0; 6E_F2=0; 6E_F1=0;  BCID_rms=0; height=154
IN F43; 4F_M4=0; 4F_M3=0; 4F_M2=0; 4F_M1=0; 4E_M4=0; 4E_M3=0; 4E_M1=0; 4E_M2=0;  BCID_rms=0; height=468
IN F44; 6F_F4=0; 6F_F3=0; 6F_F5=0; 6F_F6=0; 6E_F5=0; 6E_F6=0; 6E_F3=0; 6E_F4=0;  BCID_rms=0; height=154
IN F45; GND; GND; GND; GND; 3E_P1=0; 3F_P1=0; 4F_P1=0; 4E_P1=0;  BCID_rms=0; height=321
IN F46; 3F_M2=0; 3F_M1=0; 3F_M3=0; 3F_M4=0; 3E_M4=0; 3E_M3=0; 3E_M1=0; 3E_M2=0;  BCID_rms=0; height=466
IN F47; 9E_B1=0; 10E_B1=0; 10F_B1=0; 9F_B1=0; 7F_B1=0; 8F_B1=0; 7E_B1=0; 8E_B1=0;  BCID_rms=0; height=304
