# LATOME input mapping v03.00.00 2021-10-6
# Comments: ATLAS mapping (folder names changed)
# AMCType: EMBEMEC
# Side: C
# QuadrantID: 1
# AMCHashNumber: 3
# CarrierID: 21
# AMCNumberInCarrier: 2

# Input information section
# Number connected LTDBs: 3
# Connected LTDBs: EMB(H08R)  EMB(H09L)  EMECSpec0(C06S0)  
# Number connected input MTPs: 5
# Number connected input fibers: 44
# Input_ID LTDB_MTP_PIN RX_PIN SC1 ... SC8
IN F1   C06S0_01_08 RX01_01  E_2N_M1  E_2N_M2  E_2N_M3  E_2N_M4  E_2M_M4  E_2M_M3  E_2M_M1  E_2M_M2  
IN F2   C06S0_01_07 RX01_02  E_2N_B1  E_2M_B1  E_2O_B1  E_2P_B1  E_2O_P1  E_2P_P1  E_2N_P1  E_2M_P1  
IN F4   H08R_03_09  RX01_04  GND      B_15M_P1 B_13M_P1 B_14M_P1 B_9M_P1  B_10M_P1 B_12M_P1 B_11M_P1 
IN F5   H08R_03_08  RX01_05  B_13M_M1 B_13M_M2 B_13M_M4 B_13M_M3 B_14M_M3 B_14M_M4 B_14M_M1 B_14M_M2 
IN F6   H08R_03_07  RX01_06  B_10M_M1 B_10M_M2 B_10M_M3 B_10M_M4 B_9M_M4  B_9M_M3  B_9M_M2  B_9M_M1  
IN F7   H08R_03_06  RX01_07  B_11M_M3 B_11M_M4 B_11M_M1 B_11M_M2 B_12M_M1 B_12M_M2 B_12M_M4 B_12M_M3 
IN F8   H08R_03_05  RX01_08  B_12M_F1 B_12M_F2 B_12M_F3 B_12M_F4 B_11M_F1 B_11M_F2 B_11M_F3 B_11M_F4 
IN F9   H08R_03_04  RX01_09  B_9M_F2  B_9M_F1  B_9M_F4  B_9M_F3  B_10M_F2 B_10M_F1 B_10M_F4 B_10M_F3 
IN F10  H08R_03_03  RX01_10  B_13N_B1 B_14N_B1 GND      GND      B_9N_B1  B_10N_B1 B_11N_B1 B_12N_B1 
IN F11  H08R_03_02  RX01_11  B_13M_F4 B_13M_F3 B_13M_F1 B_13M_F2 B_14M_F1 B_14M_F2 B_14M_F4 B_14M_F3 
IN F12  H08R_03_01  RX01_12  B_15N_B4 B_15N_B3 B_15N_B1 B_15N_B2 GND      GND      GND      GND      
IN F13  C06S0_01_04 RX02_01  E_2N_F4  E_2N_F3  E_2N_F2  E_2N_F1  E_2M_F1  E_2M_F2  E_2M_F3  E_2M_F4  
IN F14  C06S0_01_03 RX02_02  E_1M_M2  E_1M_M1  E_1M_M4  E_1M_M3  E_1N_M4  E_1N_M3  E_1N_M1  E_1N_M2  
IN F15  H09L_02_10  RX02_03  B_12O_B1 B_11O_B1 B_10O_B1 B_9O_B1  GND      GND      B_13O_B1 B_14O_B1 
IN F16  H09L_02_09  RX02_04  B_14P_F1 B_14P_F2 B_14P_F4 B_14P_F3 B_13P_F4 B_13P_F3 B_13P_F1 B_13P_F2 
IN F17  H09L_02_08  RX02_05  B_15O_B1 B_15O_B2 B_15O_B3 B_15O_B4 GND      GND      GND      GND      
IN F18  H09L_02_07  RX02_06  B_14P_P1 B_13P_P1 GND      B_15P_P1 B_11P_P1 B_12P_P1 B_9P_P1  B_10P_P1 
IN F19  H09L_02_06  RX02_07  B_11P_F2 B_11P_F1 B_11P_F3 B_11P_F4 B_12P_F1 B_12P_F2 B_12P_F4 B_12P_F3 
IN F20  H09L_02_05  RX02_08  B_9P_M1  B_9P_M2  B_9P_M3  B_9P_M4  B_10P_M1 B_10P_M2 B_10P_M4 B_10P_M3 
IN F21  H09L_02_04  RX02_09  B_9P_F2  B_9P_F1  B_9P_F4  B_9P_F3  B_10P_F1 B_10P_F2 B_10P_F4 B_10P_F3 
IN F22  H09L_02_03  RX02_10  B_14P_M4 B_14P_M3 B_14P_M1 B_14P_M2 B_13P_M4 B_13P_M3 B_13P_M1 B_13P_M2 
IN F23  H09L_02_02  RX02_11  B_11P_M1 B_11P_M2 B_11P_M3 B_11P_M4 B_12P_M4 B_12P_M3 B_12P_M1 B_12P_M2 
IN F25  C06S0_01_02 RX03_01  GND      GND      GND      GND      E_1M_F1  E_1N_F1  E_1P_F1  E_1O_F1  
IN F26  C06S0_01_01 RX03_02  E_1O_M2  E_1O_M1  E_1O_M3  E_1O_M4  E_1P_M4  E_1P_M3  E_1P_M2  E_1P_M1  
IN F28  H09L_03_09  RX03_04  GND      B_15O_P1 B_13O_P1 B_14O_P1 B_9O_P1  B_10O_P1 B_12O_P1 B_11O_P1 
IN F29  H09L_03_08  RX03_05  B_13O_M1 B_13O_M2 B_13O_M4 B_13O_M3 B_14O_M3 B_14O_M4 B_14O_M1 B_14O_M2 
IN F30  H09L_03_07  RX03_06  B_10O_M1 B_10O_M2 B_10O_M3 B_10O_M4 B_9O_M4  B_9O_M3  B_9O_M2  B_9O_M1  
IN F31  H09L_03_06  RX03_07  B_11O_M3 B_11O_M4 B_11O_M1 B_11O_M2 B_12O_M1 B_12O_M2 B_12O_M4 B_12O_M3 
IN F32  H09L_03_05  RX03_08  B_12O_F1 B_12O_F2 B_12O_F3 B_12O_F4 B_11O_F1 B_11O_F2 B_11O_F3 B_11O_F4 
IN F33  H09L_03_04  RX03_09  B_9O_F2  B_9O_F1  B_9O_F4  B_9O_F3  B_10O_F2 B_10O_F1 B_10O_F4 B_10O_F3 
IN F34  H09L_03_03  RX03_10  B_13P_B1 B_14P_B1 GND      GND      B_9P_B1  B_10P_B1 B_11P_B1 B_12P_B1 
IN F35  H09L_03_02  RX03_11  B_13O_F4 B_13O_F3 B_13O_F1 B_13O_F2 B_14O_F1 B_14O_F2 B_14O_F4 B_14O_F3 
IN F36  H09L_03_01  RX03_12  B_15P_B4 B_15P_B3 B_15P_B1 B_15P_B2 GND      GND      GND      GND      
IN F37  C06S0_01_06 RX04_01  E_2P_M2  E_2P_M1  E_2P_M3  E_2P_M4  E_2O_M1  E_2O_M2  E_2O_M4  E_2O_M3  
IN F38  C06S0_01_05 RX04_02  E_2O_F1  E_2O_F2  E_2O_F4  E_2O_F3  E_2P_F4  E_2P_F3  E_2P_F1  E_2P_F2  
IN F39  H08R_02_10  RX04_03  B_12M_B1 B_11M_B1 B_10M_B1 B_9M_B1  GND      GND      B_13M_B1 B_14M_B1 
IN F40  H08R_02_09  RX04_04  B_14N_F2 B_14N_F1 B_14N_F4 B_14N_F3 B_13N_F4 B_13N_F3 B_13N_F1 B_13N_F2 
IN F41  H08R_02_08  RX04_05  B_15M_B1 B_15M_B2 B_15M_B3 B_15M_B4 GND      GND      GND      GND      
IN F42  H08R_02_07  RX04_06  B_14N_P1 B_13N_P1 GND      B_15N_P1 B_11N_P1 B_12N_P1 B_9N_P1  B_10N_P1 
IN F43  H08R_02_06  RX04_07  B_11N_F2 B_11N_F1 B_11N_F3 B_11N_F4 B_12N_F1 B_12N_F2 B_12N_F4 B_12N_F3 
IN F44  H08R_02_05  RX04_08  B_9N_M1  B_9N_M2  B_9N_M3  B_9N_M4  B_10N_M1 B_10N_M2 B_10N_M4 B_10N_M3 
IN F45  H08R_02_04  RX04_09  B_9N_F2  B_9N_F1  B_9N_F4  B_9N_F3  B_10N_F1 B_10N_F2 B_10N_F4 B_10N_F3 
IN F46  H08R_02_03  RX04_10  B_14N_M4 B_14N_M3 B_14N_M1 B_14N_M2 B_13N_M4 B_13N_M3 B_13N_M1 B_13N_M2 
IN F47  H08R_02_02  RX04_11  B_11N_M1 B_11N_M2 B_11N_M3 B_11N_M4 B_12N_M4 B_12N_M3 B_12N_M1 B_12N_M2 

# Output information section
# Number connected output fibers: 28 (unique=19)
# Number eFEX fibers: 20 (unique=16)
# Number jFEX fibers: 6 (unique=2)
# Number gFEX fibers: 2 (unique=1)
# hash_ID Type C1 C2 .... 
OUT F2   eFEX   B_15M+E_1M    E_2M          
OUT F3   eFEX   B_13M         B_14M         
OUT F4   eFEX   B_11M         B_12M         
OUT F5   eFEX   B_10M         B_9M          
OUT F6   eFEX   B_10M         B_9M          
OUT F8   eFEX   B_15N+E_1N    E_2N          
OUT F9   eFEX   B_13N         B_14N         
OUT F10  eFEX   B_11N         B_12N         
OUT F11  eFEX   B_10N         B_9N          
OUT F12  eFEX   B_10N         B_9N          
OUT F20  eFEX   B_15O+E_1O    E_2O          
OUT F21  eFEX   B_13O         B_14O         
OUT F22  eFEX   B_11O         B_12O         
OUT F23  eFEX   B_10O         B_9O          
OUT F24  eFEX   B_10O         B_9O          
OUT F32  eFEX   B_15P+E_1P    E_2P          
OUT F33  eFEX   B_13P         B_14P         
OUT F34  eFEX   B_11P         B_12P         
OUT F35  eFEX   B_10P         B_9P          
OUT F36  eFEX   B_10P         B_9P          
OUT F37  jFEX   B_13M         B_13N         B_13O         B_13P         B_14M         B_14N         B_14O         B_14P         B_15M+E_1M    B_15N+E_1N    B_15O+E_1O    B_15P+E_1P    E_2M          E_2N          E_2O          E_2P          
OUT F38  jFEX   B_13M         B_13N         B_13O         B_13P         B_14M         B_14N         B_14O         B_14P         B_15M+E_1M    B_15N+E_1N    B_15O+E_1O    B_15P+E_1P    E_2M          E_2N          E_2O          E_2P          
OUT F39  jFEX   B_13M         B_13N         B_13O         B_13P         B_14M         B_14N         B_14O         B_14P         B_15M+E_1M    B_15N+E_1N    B_15O+E_1O    B_15P+E_1P    E_2M          E_2N          E_2O          E_2P          
OUT F41  jFEX   B_10M         B_10N         B_10O         B_10P         B_11M         B_11N         B_11O         B_11P         B_12M         B_12N         B_12O         B_12P         B_9M          B_9N          B_9O          B_9P          
OUT F42  jFEX   B_10M         B_10N         B_10O         B_10P         B_11M         B_11N         B_11O         B_11P         B_12M         B_12N         B_12O         B_12P         B_9M          B_9N          B_9O          B_9P          
OUT F43  jFEX   B_10M         B_10N         B_10O         B_10P         B_11M         B_11N         B_11O         B_11P         B_12M         B_12N         B_12O         B_12P         B_9M          B_9N          B_9O          B_9P          
OUT F47  gFEX   B_11M+B_12M+B_11N+B_12N  B_11O+B_12O+B_11P+B_12P  B_13M+B_14M+B_13N+B_14N  B_13O+B_14O+B_13P+B_14P  B_15M+B_15N+E_1M+E_2M+E_1N+E_2N  B_15O+B_15P+E_1O+E_2O+E_1P+E_2P  B_9M+B_10M+B_9N+B_10N  B_9O+B_10O+B_9P+B_10P  
OUT F48  gFEX   B_11M+B_12M+B_11N+B_12N  B_11O+B_12O+B_11P+B_12P  B_13M+B_14M+B_13N+B_14N  B_13O+B_14O+B_13P+B_14P  B_15M+B_15N+E_1M+E_2M+E_1N+E_2N  B_15O+B_15P+E_1O+E_2O+E_1P+E_2P  B_9M+B_10M+B_9N+B_10N  B_9O+B_10O+B_9P+B_10P  
