
Processing macro.C+("inputfile/LArDigits_v8_new.root","EMECA_12","outputs/hist/LArDigits_v8_new_hist.root","results/LArDigits_v8_new/latome94.ini","LATOME_ini_file/latome94.ini",false)...
input_line_11:2:3: error: use of undeclared identifier 'macro'
 (macro("inputfile/LArDigits_v8_new.root", "EMECA_12", "outputs/hist/LArDigits_v8_new_hist.root", "results/LArDigits_v8_new/latome94.ini", "LATOME_ini_file/latome94.ini", false))
  ^
Error in <HandleInterpreterException>: Error evaluating expression (macro("inputfile/LArDigits_v8_new.root", "EMECA_12", "outputs/hist/LArDigits_v8_new_hist.root", "results/LArDigits_v8_new/latome94.ini", "LATOME_ini_file/latome94.ini", false)).
Execution of your code was aborted.
