
Processing macro.C+("inputfile/LArDigits_pusleall_00407551.root","EMBC_1","outputs/hist/LArDigits_pusleall_00407551_hist.root","results/LArDigits_pusleall_00407551/latome119.ini","LATOME_ini_file/latome119.ini",false)...

******************** Start to read ini BCID: ********************
input file: LATOME_ini_file/latome119.ini
F0  BCID=0; 
F1  BCID=0; 
F2  BCID=3459; 
F3  BCID=-1; 
F4  BCID=3459; 
F5  BCID=3459; 
F6  BCID=3459; 
F7  BCID=3459; 
F8  BCID=3459; 
F9  BCID=3459; 
F10  BCID=3459; 
F11  BCID=3459; 
F12  BCID=0; 
F13  BCID=0; 
F14  BCID=3459; 
F15  BCID=3459; 
F16  BCID=3459; 
F17  BCID=3459; 
F18  BCID=3459; 
F19  BCID=3460; 
F20  BCID=3459; 
F21  BCID=3459; 
F22  BCID=3459; 
F23  BCID=3459; 
F24  BCID=0; 
F25  BCID=0; 
F26  BCID=3459; 
F27  BCID=3459; 
F28  BCID=3459; 
F29  BCID=3459; 
F30  BCID=3459; 
F31  BCID=3459; 
F32  BCID=3459; 
F33  BCID=3459; 
F34  BCID=3459; 
F35  BCID=3459; 
F36  BCID=0; 
F37  BCID=0; 
F38  BCID=3459; 
F39  BCID=3459; 
F40  BCID=3459; 
F41  BCID=3459; 
F42  BCID=3459; 
F43  BCID=3460; 
F44  BCID=3459; 
F45  BCID=3459; 
F46  BCID=3459; 
F47  BCID=3459; 
48 fibers are read!

******************** Start to read LArId info: ********************
SCname=1D_P1; channelId=946864640; 
SCname=1C_P1; channelId=946864128; 
SCname=2D_P1; channelId=946865664; 
SCname=2C_P1; channelId=946865152; 
SCname=3D_P1; channelId=946866688; 
SCname=3C_P1; channelId=946866176; 
SCname=4D_P1; channelId=946867712; 
SCname=4C_P1; channelId=946867200; 
SCname=5D_P1; channelId=946868736; 
SCname=5C_P1; channelId=946868224; 
SCname=6D_P1; channelId=946869760; 
SCname=6C_P1; channelId=946869248; 
SCname=7D_P1; channelId=946870784; 
SCname=7C_P1; channelId=946870272; 
SCname=8D_P1; channelId=946871808; 
SCname=8C_P1; channelId=946871296; 
SCname=1D_F1; channelId=946880000; 
SCname=1D_F2; channelId=946881024; 
SCname=1D_F3; channelId=946882048; 
SCname=1D_F4; channelId=946883072; 
SCname=2D_F1; channelId=946884096; 
SCname=2D_F2; channelId=946885120; 
SCname=2D_F3; channelId=946886144; 
SCname=2D_F4; channelId=946887168; 
SCname=1C_F1; channelId=946879488; 
SCname=1C_F2; channelId=946880512; 
SCname=1C_F3; channelId=946881536; 
SCname=1C_F4; channelId=946882560; 
SCname=2C_F1; channelId=946883584; 
SCname=2C_F2; channelId=946884608; 
SCname=2C_F3; channelId=946885632; 
SCname=2C_F4; channelId=946886656; 
SCname=3D_F1; channelId=946888192; 
SCname=3D_F2; channelId=946889216; 
SCname=3D_F3; channelId=946890240; 
SCname=3D_F4; channelId=946891264; 
SCname=4D_F1; channelId=946892288; 
SCname=4D_F2; channelId=946893312; 
SCname=4D_F3; channelId=946894336; 
SCname=4D_F4; channelId=946895360; 
SCname=3C_F1; channelId=946887680; 
SCname=3C_F2; channelId=946888704; 
SCname=3C_F3; channelId=946889728; 
SCname=3C_F4; channelId=946890752; 
SCname=4C_F1; channelId=946891776; 
SCname=4C_F2; channelId=946892800; 
SCname=4C_F3; channelId=946893824; 
SCname=4C_F4; channelId=946894848; 
SCname=5D_F1; channelId=946896384; 
SCname=5D_F2; channelId=946897408; 
SCname=5D_F3; channelId=946898432; 
SCname=5D_F4; channelId=946899456; 
SCname=6D_F1; channelId=946900480; 
SCname=6D_F2; channelId=946901504; 
SCname=6D_F3; channelId=946902528; 
SCname=6D_F4; channelId=946903552; 
SCname=5C_F1; channelId=946895872; 
SCname=5C_F2; channelId=946896896; 
SCname=5C_F3; channelId=946897920; 
SCname=5C_F4; channelId=946898944; 
SCname=6C_F1; channelId=946899968; 
SCname=6C_F2; channelId=946900992; 
SCname=6C_F3; channelId=946902016; 
SCname=6C_F4; channelId=946903040; 
SCname=7D_F1; channelId=946904576; 
SCname=7D_F2; channelId=946905600; 
SCname=7D_F3; channelId=946906624; 
SCname=7D_F4; channelId=946907648; 
SCname=8D_F1; channelId=946908672; 
SCname=8D_F2; channelId=946909696; 
SCname=8D_F3; channelId=946910720; 
SCname=8D_F4; channelId=946911744; 
SCname=7C_F1; channelId=946904064; 
SCname=7C_F2; channelId=946905088; 
SCname=7C_F3; channelId=946906112; 
SCname=7C_F4; channelId=946907136; 
SCname=8C_F1; channelId=946908160; 
SCname=8C_F2; channelId=946909184; 
SCname=8C_F3; channelId=946910208; 
SCname=8C_F4; channelId=946911232; 
SCname=1D_B1; channelId=946998784; 
SCname=2D_B1; channelId=946999808; 
SCname=3D_B1; channelId=947000832; 
SCname=4D_B1; channelId=947001856; 
SCname=5D_B1; channelId=947002880; 
SCname=6D_B1; channelId=947003904; 
SCname=7D_B1; channelId=947004928; 
SCname=8D_B1; channelId=947005952; 
SCname=1C_B1; channelId=946998272; 
SCname=2C_B1; channelId=946999296; 
SCname=3C_B1; channelId=947000320; 
SCname=4C_B1; channelId=947001344; 
SCname=5C_B1; channelId=947002368; 
SCname=6C_B1; channelId=947003392; 
SCname=7C_B1; channelId=947004416; 
SCname=8C_B1; channelId=947005440; 
SCname=1D_M1; channelId=946940416; 
SCname=1D_M2; channelId=946941440; 
SCname=1D_M3; channelId=946942464; 
SCname=1D_M4; channelId=946943488; 
SCname=2D_M1; channelId=946944512; 
SCname=2D_M2; channelId=946945536; 
SCname=2D_M3; channelId=946946560; 
SCname=2D_M4; channelId=946947584; 
SCname=3D_M1; channelId=946948608; 
SCname=3D_M2; channelId=946949632; 
SCname=3D_M3; channelId=946950656; 
SCname=3D_M4; channelId=946951680; 
SCname=4D_M1; channelId=946952704; 
SCname=4D_M2; channelId=946953728; 
SCname=4D_M3; channelId=946954752; 
SCname=4D_M4; channelId=946955776; 
SCname=1C_M1; channelId=946939904; 
SCname=1C_M2; channelId=946940928; 
SCname=1C_M3; channelId=946941952; 
SCname=1C_M4; channelId=946942976; 
SCname=2C_M1; channelId=946944000; 
SCname=2C_M2; channelId=946945024; 
SCname=2C_M3; channelId=946946048; 
SCname=2C_M4; channelId=946947072; 
SCname=3C_M1; channelId=946948096; 
SCname=3C_M2; channelId=946949120; 
SCname=3C_M3; channelId=946950144; 
SCname=3C_M4; channelId=946951168; 
SCname=4C_M1; channelId=946952192; 
SCname=4C_M2; channelId=946953216; 
SCname=4C_M3; channelId=946954240; 
SCname=4C_M4; channelId=946955264; 
SCname=5D_M1; channelId=946956800; 
SCname=5D_M2; channelId=946957824; 
SCname=5D_M3; channelId=946958848; 
SCname=5D_M4; channelId=946959872; 
SCname=6D_M1; channelId=946960896; 
SCname=6D_M2; channelId=946961920; 
SCname=6D_M3; channelId=946962944; 
SCname=6D_M4; channelId=946963968; 
SCname=7D_M1; channelId=946964992; 
SCname=7D_M2; channelId=946966016; 
SCname=7D_M3; channelId=946967040; 
SCname=7D_M4; channelId=946968064; 
SCname=8D_M1; channelId=946969088; 
SCname=8D_M2; channelId=946970112; 
SCname=8D_M3; channelId=946971136; 
SCname=8D_M4; channelId=946972160; 
SCname=5C_M1; channelId=946956288; 
SCname=5C_M2; channelId=946957312; 
SCname=5C_M3; channelId=946958336; 
SCname=5C_M4; channelId=946959360; 
SCname=6C_M1; channelId=946960384; 
SCname=6C_M2; channelId=946961408; 
SCname=6C_M3; channelId=946962432; 
SCname=6C_M4; channelId=946963456; 
SCname=7C_M1; channelId=946964480; 
SCname=7C_M2; channelId=946965504; 
SCname=7C_M3; channelId=946966528; 
SCname=7C_M4; channelId=946967552; 
SCname=8C_M1; channelId=946968576; 
SCname=8C_M2; channelId=946969600; 
SCname=8C_M3; channelId=946970624; 
SCname=8C_M4; channelId=946971648; 
SCname=1B_P1; channelId=947388928; 
SCname=1A_P1; channelId=947388416; 
SCname=2B_P1; channelId=947389952; 
SCname=2A_P1; channelId=947389440; 
SCname=3B_P1; channelId=947390976; 
SCname=3A_P1; channelId=947390464; 
SCname=4B_P1; channelId=947392000; 
SCname=4A_P1; channelId=947391488; 
SCname=5B_P1; channelId=947393024; 
SCname=5A_P1; channelId=947392512; 
SCname=6B_P1; channelId=947394048; 
SCname=6A_P1; channelId=947393536; 
SCname=7B_P1; channelId=947395072; 
SCname=7A_P1; channelId=947394560; 
SCname=8B_P1; channelId=947396096; 
SCname=8A_P1; channelId=947395584; 
SCname=1B_F1; channelId=947404288; 
SCname=1B_F2; channelId=947405312; 
SCname=1B_F3; channelId=947406336; 
SCname=1B_F4; channelId=947407360; 
SCname=2B_F1; channelId=947408384; 
SCname=2B_F2; channelId=947409408; 
SCname=2B_F3; channelId=947410432; 
SCname=2B_F4; channelId=947411456; 
SCname=1A_F1; channelId=947403776; 
SCname=1A_F2; channelId=947404800; 
SCname=1A_F3; channelId=947405824; 
SCname=1A_F4; channelId=947406848; 
SCname=2A_F1; channelId=947407872; 
SCname=2A_F2; channelId=947408896; 
SCname=2A_F3; channelId=947409920; 
SCname=2A_F4; channelId=947410944; 
SCname=3B_F1; channelId=947412480; 
SCname=3B_F2; channelId=947413504; 
SCname=3B_F3; channelId=947414528; 
SCname=3B_F4; channelId=947415552; 
SCname=4B_F1; channelId=947416576; 
SCname=4B_F2; channelId=947417600; 
SCname=4B_F3; channelId=947418624; 
SCname=4B_F4; channelId=947419648; 
SCname=3A_F1; channelId=947411968; 
SCname=3A_F2; channelId=947412992; 
SCname=3A_F3; channelId=947414016; 
SCname=3A_F4; channelId=947415040; 
SCname=4A_F1; channelId=947416064; 
SCname=4A_F2; channelId=947417088; 
SCname=4A_F3; channelId=947418112; 
SCname=4A_F4; channelId=947419136; 
SCname=5B_F1; channelId=947420672; 
SCname=5B_F2; channelId=947421696; 
SCname=5B_F3; channelId=947422720; 
SCname=5B_F4; channelId=947423744; 
SCname=6B_F1; channelId=947424768; 
SCname=6B_F2; channelId=947425792; 
SCname=6B_F3; channelId=947426816; 
SCname=6B_F4; channelId=947427840; 
SCname=5A_F1; channelId=947420160; 
SCname=5A_F2; channelId=947421184; 
SCname=5A_F3; channelId=947422208; 
SCname=5A_F4; channelId=947423232; 
SCname=6A_F1; channelId=947424256; 
SCname=6A_F2; channelId=947425280; 
SCname=6A_F3; channelId=947426304; 
SCname=6A_F4; channelId=947427328; 
SCname=7B_F1; channelId=947428864; 
SCname=7B_F2; channelId=947429888; 
SCname=7B_F3; channelId=947430912; 
SCname=7B_F4; channelId=947431936; 
SCname=8B_F1; channelId=947432960; 
SCname=8B_F2; channelId=947433984; 
SCname=8B_F3; channelId=947435008; 
SCname=8B_F4; channelId=947436032; 
SCname=7A_F1; channelId=947428352; 
SCname=7A_F2; channelId=947429376; 
SCname=7A_F3; channelId=947430400; 
SCname=7A_F4; channelId=947431424; 
SCname=8A_F1; channelId=947432448; 
SCname=8A_F2; channelId=947433472; 
SCname=8A_F3; channelId=947434496; 
SCname=8A_F4; channelId=947435520; 
SCname=1B_B1; channelId=947523072; 
SCname=2B_B1; channelId=947524096; 
SCname=3B_B1; channelId=947525120; 
SCname=4B_B1; channelId=947526144; 
SCname=5B_B1; channelId=947527168; 
SCname=6B_B1; channelId=947528192; 
SCname=7B_B1; channelId=947529216; 
SCname=8B_B1; channelId=947530240; 
SCname=1A_B1; channelId=947522560; 
SCname=2A_B1; channelId=947523584; 
SCname=3A_B1; channelId=947524608; 
SCname=4A_B1; channelId=947525632; 
SCname=5A_B1; channelId=947526656; 
SCname=6A_B1; channelId=947527680; 
SCname=7A_B1; channelId=947528704; 
SCname=8A_B1; channelId=947529728; 
SCname=1B_M1; channelId=947464704; 
SCname=1B_M2; channelId=947465728; 
SCname=1B_M3; channelId=947466752; 
SCname=1B_M4; channelId=947467776; 
SCname=2B_M1; channelId=947468800; 
SCname=2B_M2; channelId=947469824; 
SCname=2B_M3; channelId=947470848; 
SCname=2B_M4; channelId=947471872; 
SCname=3B_M1; channelId=947472896; 
SCname=3B_M2; channelId=947473920; 
SCname=3B_M3; channelId=947474944; 
SCname=3B_M4; channelId=947475968; 
SCname=4B_M1; channelId=947476992; 
SCname=4B_M2; channelId=947478016; 
SCname=4B_M3; channelId=947479040; 
SCname=4B_M4; channelId=947480064; 
SCname=1A_M1; channelId=947464192; 
SCname=1A_M2; channelId=947465216; 
SCname=1A_M3; channelId=947466240; 
SCname=1A_M4; channelId=947467264; 
SCname=2A_M1; channelId=947468288; 
SCname=2A_M2; channelId=947469312; 
SCname=2A_M3; channelId=947470336; 
SCname=2A_M4; channelId=947471360; 
SCname=3A_M1; channelId=947472384; 
SCname=3A_M2; channelId=947473408; 
SCname=3A_M3; channelId=947474432; 
SCname=3A_M4; channelId=947475456; 
SCname=4A_M1; channelId=947476480; 
SCname=4A_M2; channelId=947477504; 
SCname=4A_M3; channelId=947478528; 
SCname=4A_M4; channelId=947479552; 
SCname=5B_M1; channelId=947481088; 
SCname=5B_M2; channelId=947482112; 
SCname=5B_M3; channelId=947483136; 
SCname=5B_M4; channelId=947484160; 
SCname=6B_M1; channelId=947485184; 
SCname=6B_M2; channelId=947486208; 
SCname=6B_M3; channelId=947487232; 
SCname=6B_M4; channelId=947488256; 
SCname=7B_M1; channelId=947489280; 
SCname=7B_M2; channelId=947490304; 
SCname=7B_M3; channelId=947491328; 
SCname=7B_M4; channelId=947492352; 
SCname=8B_M1; channelId=947493376; 
SCname=8B_M2; channelId=947494400; 
SCname=8B_M3; channelId=947495424; 
SCname=8B_M4; channelId=947496448; 
SCname=5A_M1; channelId=947480576; 
SCname=5A_M2; channelId=947481600; 
SCname=5A_M3; channelId=947482624; 
SCname=5A_M4; channelId=947483648; 
SCname=6A_M1; channelId=947484672; 
SCname=6A_M2; channelId=947485696; 
SCname=6A_M3; channelId=947486720; 
SCname=6A_M4; channelId=947487744; 
SCname=7A_M1; channelId=947488768; 
SCname=7A_M2; channelId=947489792; 
SCname=7A_M3; channelId=947490816; 
SCname=7A_M4; channelId=947491840; 
SCname=8A_M1; channelId=947492864; 
SCname=8A_M2; channelId=947493888; 
SCname=8A_M3; channelId=947494912; 
SCname=8A_M4; channelId=947495936; 
320 SCs are read!  LATOME is EMBC_1

******************** Start to read SCs info per fiber: ********************
IN F3 1B_B1 2B_B1 4B_B1 3B_B1 6B_B1 5B_B1 8B_B1 7B_B1
IN F4 2B_M2 2B_M1 2B_M4 2B_M3 1B_M3 1B_M4 1B_M1 1B_M2
IN F5 3B_M1 3B_M2 3B_M4 3B_M3 4B_M4 4B_M3 4B_M2 4B_M1
IN F6 6B_F4 6B_F3 6B_F2 6B_F1 5B_F1 5B_F2 5B_F3 5B_F4
IN F7 7B_M1 7B_M2 7B_M3 7B_M4 8B_M3 8B_M4 8B_M2 8B_M1
IN F8 8B_P1 7B_P1 5B_P1 6B_P1 4B_P1 3B_P1 2B_P1 1B_P1
IN F9 5B_M1 5B_M2 5B_M3 5B_M4 6B_M4 6B_M3 6B_M1 6B_M2
IN F10 4B_F1 4B_F2 4B_F4 4B_F3 3B_F4 3B_F3 3B_F2 3B_F1
IN F11 7B_F1 7B_F2 7B_F3 7B_F4 8B_F1 8B_F2 8B_F4 8B_F3
IN F12 2B_F3 2B_F4 2B_F2 2B_F1 1B_F4 1B_F3 1B_F2 1B_F1
IN F15 1A_F2 1A_F1 1A_F4 1A_F3 2A_F1 2A_F2 2A_F3 2A_F4
IN F16 8A_M2 8A_M1 8A_M4 8A_M3 7A_M4 7A_M3 7A_M1 7A_M2
IN F17 3A_F1 3A_F2 3A_F3 3A_F4 4A_F1 4A_F2 4A_F4 4A_F3
IN F18 6A_M3 6A_M4 6A_M1 6A_M2 5A_M2 5A_M1 5A_M4 5A_M3
IN F19 5A_F2 5A_F1 5A_F3 5A_F4 6A_F4 6A_F3 6A_F1 6A_F2
IN F20 3A_M1 3A_M2 3A_M3 3A_M4 4A_M4 4A_M3 4A_M1 4A_M2
IN F21 7A_F2 7A_F1 7A_F3 7A_F4 8A_F2 8A_F1 8A_F4 8A_F3
IN F22 7A_P1 8A_P1 6A_P1 5A_P1 2A_P1 1A_P1 3A_P1 4A_P1
IN F23 1A_M2 1A_M1 1A_M3 1A_M4 2A_M4 2A_M3 2A_M1 2A_M2
IN F24 7A_B1 8A_B1 6A_B1 5A_B1 1A_B1 2A_B1 3A_B1 4A_B1
IN F27 1D_B1 2D_B1 4D_B1 3D_B1 6D_B1 5D_B1 8D_B1 7D_B1
IN F28 2D_M2 2D_M1 2D_M4 2D_M3 1D_M3 1D_M4 1D_M1 1D_M2
IN F29 3D_M1 3D_M2 3D_M4 3D_M3 4D_M4 4D_M3 4D_M2 4D_M1
IN F30 6D_F4 6D_F3 6D_F2 6D_F1 5D_F1 5D_F2 5D_F3 5D_F4
IN F31 7D_M1 7D_M2 7D_M3 7D_M4 8D_M3 8D_M4 8D_M2 8D_M1
IN F32 8D_P1 7D_P1 5D_P1 6D_P1 4D_P1 3D_P1 2D_P1 1D_P1
IN F33 5D_M1 5D_M2 5D_M3 5D_M4 6D_M4 6D_M3 6D_M1 6D_M2
IN F34 4D_F1 4D_F2 4D_F4 4D_F3 3D_F4 3D_F3 3D_F2 3D_F1
IN F35 7D_F1 7D_F2 7D_F3 7D_F4 8D_F1 8D_F2 8D_F4 8D_F3
IN F36 2D_F3 2D_F4 2D_F2 2D_F1 1D_F4 1D_F3 1D_F2 1D_F1
IN F39 1C_F2 1C_F1 1C_F4 1C_F3 2C_F1 2C_F2 2C_F3 2C_F4
IN F40 8C_M2 8C_M1 8C_M4 8C_M3 7C_M4 7C_M3 7C_M1 7C_M2
IN F41 3C_F1 3C_F2 3C_F3 3C_F4 4C_F1 4C_F2 4C_F4 4C_F3
IN F42 6C_M3 6C_M4 6C_M1 6C_M2 5C_M2 5C_M1 5C_M4 5C_M3
IN F43 5C_F2 5C_F1 5C_F3 5C_F4 6C_F4 6C_F3 6C_F1 6C_F2
IN F44 3C_M1 3C_M2 3C_M3 3C_M4 4C_M4 4C_M3 4C_M1 4C_M2
IN F45 7C_F2 7C_F1 7C_F3 7C_F4 8C_F2 8C_F1 8C_F4 8C_F3
IN F46 7C_P1 8C_P1 6C_P1 5C_P1 2C_P1 1C_P1 3C_P1 4C_P1
IN F47 1C_M2 1C_M1 1C_M3 1C_M4 2C_M4 2C_M3 2C_M1 2C_M2
IN F48 7C_B1 8C_B1 6C_B1 5C_B1 1C_B1 2C_B1 3C_B1 4C_B1
40 fibers are connected!

******************** Start to search BCID of peak sampling: ********************
IN F2; 1B_B1=0; 2B_B1=0; 4B_B1=0; 3B_B1=0; 6B_B1=0; 5B_B1=0; 8B_B1=0; 7B_B1=0;  BCID_rms=0; height=835
IN F3; 2B_M2=0; 2B_M1=0; 2B_M4=0; 2B_M3=0; 1B_M3=0; 1B_M4=0; 1B_M1=0; 1B_M2=0;  BCID_rms=0; height=300
IN F4; 3B_M1=0; 3B_M2=0; 3B_M4=0; 3B_M3=0; 4B_M4=0; 4B_M3=0; 4B_M2=0; 4B_M1=0;  BCID_rms=0; height=303
IN F5; 6B_F4=0; 6B_F3=0; 6B_F2=0; 6B_F1=0; 5B_F1=0; 5B_F2=0; 5B_F3=0; 5B_F4=0;  BCID_rms=0; height=302
IN F6; 7B_M1=0; 7B_M2=0; 7B_M3=0; 7B_M4=0; 8B_M3=0; 8B_M4=0; 8B_M2=0; 8B_M1=0;  BCID_rms=0; height=293
IN F7; 8B_P1=0; 7B_P1=0; 5B_P1=0; 6B_P1=0; 4B_P1=0; 3B_P1=0; 2B_P1=0; 1B_P1=0;  BCID_rms=0; height=27
IN F8; 5B_M1=0; 5B_M2=0; 5B_M3=0; 5B_M4=0; 6B_M4=0; 6B_M3=0; 6B_M1=0; 6B_M2=0;  BCID_rms=0; height=285
IN F9; 4B_F1=0; 4B_F2=0; 4B_F4=0; 4B_F3=0; 3B_F4=0; 3B_F3=0; 3B_F2=0; 3B_F1=0;  BCID_rms=0; height=279
IN F10; 7B_F1=0; 7B_F2=0; 7B_F3=0; 7B_F4=0; 8B_F1=0; 8B_F2=0; 8B_F4=0; 8B_F3=0;  BCID_rms=0; height=292
IN F11; 2B_F3=0; 2B_F4=0; 2B_F2=0; 2B_F1=0; 1B_F4=0; 1B_F3=0; 1B_F2=0; 1B_F1=0;  BCID_rms=0; height=259
IN F14; 1A_F2=0; 1A_F1=0; 1A_F4=0; 1A_F3=0; 2A_F1=0; 2A_F2=0; 2A_F3=0; 2A_F4=0;  BCID_rms=0; height=274
IN F15; 8A_M2=0; 8A_M1=0; 8A_M4=0; 8A_M3=0; 7A_M4=0; 7A_M3=0; 7A_M1=0; 7A_M2=0;  BCID_rms=0; height=287
IN F16; 3A_F1=0; 3A_F2=0; 3A_F3=0; 3A_F4=0; 4A_F1=0; 4A_F2=0; 4A_F4=0; 4A_F3=0;  BCID_rms=0; height=278
IN F17; 6A_M3=0; 6A_M4=0; 6A_M1=0; 6A_M2=0; 5A_M2=0; 5A_M1=0; 5A_M4=0; 5A_M3=0;  BCID_rms=0; height=292
IN F18; 5A_F2=0; 5A_F1=0; 5A_F3=0; 5A_F4=0; 6A_F4=0; 6A_F3=0; 6A_F1=0; 6A_F2=0;  BCID_rms=0; height=285
IN F19; 3A_M1=-1; 3A_M2=0; 3A_M3=0; 3A_M4=0; 4A_M4=0; 4A_M3=0; 4A_M1=0; 4A_M2=0;  BCID_rms=0.330719; height=293
IN F20; 7A_F2=0; 7A_F1=0; 7A_F3=0; 7A_F4=0; 8A_F2=0; 8A_F1=0; 8A_F4=0; 8A_F3=0;  BCID_rms=0; height=280
IN F21; 7A_P1=0; 8A_P1=0; 6A_P1=0; 5A_P1=0; 2A_P1=0; 1A_P1=0; 3A_P1=0; 4A_P1=0;  BCID_rms=0; height=27
IN F22; 1A_M2=0; 1A_M1=0; 1A_M3=0; 1A_M4=0; 2A_M4=0; 2A_M3=0; 2A_M1=0; 2A_M2=0;  BCID_rms=0; height=310
IN F23; 7A_B1=0; 8A_B1=0; 6A_B1=0; 5A_B1=0; 1A_B1=0; 2A_B1=0; 3A_B1=0; 4A_B1=0;  BCID_rms=0; height=841
IN F26; 1D_B1=0; 2D_B1=0; 4D_B1=0; 3D_B1=0; 6D_B1=0; 5D_B1=0; 8D_B1=0; 7D_B1=0;  BCID_rms=0; height=821
IN F27; 2D_M2=0; 2D_M1=0; 2D_M4=0; 2D_M3=0; 1D_M3=0; 1D_M4=0; 1D_M1=0; 1D_M2=0;  BCID_rms=0; height=309
IN F28; 3D_M1=0; 3D_M2=0; 3D_M4=0; 3D_M3=0; 4D_M4=0; 4D_M3=0; 4D_M2=0; 4D_M1=0;  BCID_rms=0; height=299
IN F29; 6D_F4=0; 6D_F3=0; 6D_F2=0; 6D_F1=0; 5D_F1=0; 5D_F2=0; 5D_F3=0; 5D_F4=0;  BCID_rms=0; height=300
IN F30; 7D_M1=0; 7D_M2=0; 7D_M3=0; 7D_M4=0; 8D_M3=0; 8D_M4=0; 8D_M2=0; 8D_M1=0;  BCID_rms=0; height=303
IN F31; 8D_P1=0; 7D_P1=0; 5D_P1=0; 6D_P1=0; 4D_P1=0; 3D_P1=0; 2D_P1=0; 1D_P1=0;  BCID_rms=0; height=27
IN F32; 5D_M1=0; 5D_M2=0; 5D_M3=0; 5D_M4=0; 6D_M4=0; 6D_M3=0; 6D_M1=0; 6D_M2=0;  BCID_rms=0; height=281
IN F33; 4D_F1=0; 4D_F2=0; 4D_F4=0; 4D_F3=0; 3D_F4=0; 3D_F3=0; 3D_F2=0; 3D_F1=0;  BCID_rms=0; height=279
IN F34; 7D_F1=0; 7D_F2=0; 7D_F3=0; 7D_F4=0; 8D_F1=0; 8D_F2=0; 8D_F4=0; 8D_F3=0;  BCID_rms=0; height=291
IN F35; 2D_F3=0; 2D_F4=0; 2D_F2=0; 2D_F1=0; 1D_F4=0; 1D_F3=1; 1D_F2=1; 1D_F1=1;  BCID_rms=0.484123; height=266
IN F38; 1C_F2=0; 1C_F1=0; 1C_F4=0; 1C_F3=0; 2C_F1=0; 2C_F2=0; 2C_F3=0; 2C_F4=0;  BCID_rms=0; height=273
IN F39; 8C_M2=0; 8C_M1=0; 8C_M4=0; 8C_M3=0; 7C_M4=0; 7C_M3=0; 7C_M1=0; 7C_M2=0;  BCID_rms=0; height=299
IN F40; 3C_F1=0; 3C_F2=0; 3C_F3=0; 3C_F4=0; 4C_F1=0; 4C_F2=0; 4C_F4=0; 4C_F3=0;  BCID_rms=0; height=281
IN F41; 6C_M3=0; 6C_M4=0; 6C_M1=0; 6C_M2=0; 5C_M2=0; 5C_M1=0; 5C_M4=0; 5C_M3=0;  BCID_rms=0; height=300
IN F42; 5C_F2=0; 5C_F1=0; 5C_F3=0; 5C_F4=0; 6C_F4=0; 6C_F3=0; 6C_F1=0; 6C_F2=0;  BCID_rms=0; height=291
IN F43; 3C_M1=-1; 3C_M2=0; 3C_M3=-1; 3C_M4=-1; 4C_M4=0; 4C_M3=0; 4C_M1=0; 4C_M2=0;  BCID_rms=0.484123; height=284
IN F44; 7C_F2=0; 7C_F1=0; 7C_F3=0; 7C_F4=0; 8C_F2=0; 8C_F1=0; 8C_F4=0; 8C_F3=0;  BCID_rms=0; height=284
IN F45; 7C_P1=0; 8C_P1=0; 6C_P1=0; 5C_P1=0; 2C_P1=0; 1C_P1=0; 3C_P1=0; 4C_P1=0;  BCID_rms=0; height=26
IN F46; 1C_M2=0; 1C_M1=0; 1C_M3=0; 1C_M4=0; 2C_M4=0; 2C_M3=0; 2C_M1=0; 2C_M2=0;  BCID_rms=0; height=306
IN F47; 7C_B1=0; 8C_B1=0; 6C_B1=0; 5C_B1=0; 1C_B1=0; 2C_B1=0; 3C_B1=0; 4C_B1=0;  BCID_rms=0; height=844
