
Processing macro.C+("inputfile/LArDigits_pusleall_408591.root","EMBA_13","outputs/hist/LArDigits_pusleall_408591_hist.root","results/LArDigits_pusleall_408591/latome47.ini","LATOME_ini_file/latome47.ini",false)...

******************** Start to read ini BCID: ********************
input file: LATOME_ini_file/latome47.ini
F0  BCID=0; 
F1  BCID=0; 
F2  BCID=3460; 
F3  BCID=3460; 
F4  BCID=3460; 
F5  BCID=3460; 
F6  BCID=3460; 
F7  BCID=3460; 
F8  BCID=3460; 
F9  BCID=3460; 
F10  BCID=3460; 
F11  BCID=3460; 
F12  BCID=0; 
F13  BCID=0; 
F14  BCID=3460; 
F15  BCID=3460; 
F16  BCID=3460; 
F17  BCID=3460; 
F18  BCID=3460; 
F19  BCID=3460; 
F20  BCID=3460; 
F21  BCID=3460; 
F22  BCID=3460; 
F23  BCID=3460; 
F24  BCID=0; 
F25  BCID=0; 
F26  BCID=3460; 
F27  BCID=3460; 
F28  BCID=3460; 
F29  BCID=3460; 
F30  BCID=3460; 
F31  BCID=3460; 
F32  BCID=3460; 
F33  BCID=3460; 
F34  BCID=3460; 
F35  BCID=3460; 
F36  BCID=0; 
F37  BCID=0; 
F38  BCID=3460; 
F39  BCID=3460; 
F40  BCID=3460; 
F41  BCID=3460; 
F42  BCID=3460; 
F43  BCID=3460; 
F44  BCID=3460; 
F45  BCID=3460; 
F46  BCID=3460; 
F47  BCID=3460; 
48 fibers are read!

******************** Start to read LArId info: ********************
SCname=1A_P1; channelId=968884224; 
SCname=1B_P1; channelId=968884736; 
SCname=2A_P1; channelId=968885248; 
SCname=2B_P1; channelId=968885760; 
SCname=3A_P1; channelId=968886272; 
SCname=3B_P1; channelId=968886784; 
SCname=4A_P1; channelId=968887296; 
SCname=4B_P1; channelId=968887808; 
SCname=5A_P1; channelId=968888320; 
SCname=5B_P1; channelId=968888832; 
SCname=6A_P1; channelId=968889344; 
SCname=6B_P1; channelId=968889856; 
SCname=7A_P1; channelId=968890368; 
SCname=7B_P1; channelId=968890880; 
SCname=8A_P1; channelId=968891392; 
SCname=8B_P1; channelId=968891904; 
SCname=1A_F1; channelId=968899584; 
SCname=1A_F2; channelId=968900608; 
SCname=1A_F3; channelId=968901632; 
SCname=1A_F4; channelId=968902656; 
SCname=2A_F1; channelId=968903680; 
SCname=2A_F2; channelId=968904704; 
SCname=2A_F3; channelId=968905728; 
SCname=2A_F4; channelId=968906752; 
SCname=1B_F1; channelId=968900096; 
SCname=1B_F2; channelId=968901120; 
SCname=1B_F3; channelId=968902144; 
SCname=1B_F4; channelId=968903168; 
SCname=2B_F1; channelId=968904192; 
SCname=2B_F2; channelId=968905216; 
SCname=2B_F3; channelId=968906240; 
SCname=2B_F4; channelId=968907264; 
SCname=3A_F1; channelId=968907776; 
SCname=3A_F2; channelId=968908800; 
SCname=3A_F3; channelId=968909824; 
SCname=3A_F4; channelId=968910848; 
SCname=4A_F1; channelId=968911872; 
SCname=4A_F2; channelId=968912896; 
SCname=4A_F3; channelId=968913920; 
SCname=4A_F4; channelId=968914944; 
SCname=3B_F1; channelId=968908288; 
SCname=3B_F2; channelId=968909312; 
SCname=3B_F3; channelId=968910336; 
SCname=3B_F4; channelId=968911360; 
SCname=4B_F1; channelId=968912384; 
SCname=4B_F2; channelId=968913408; 
SCname=4B_F3; channelId=968914432; 
SCname=4B_F4; channelId=968915456; 
SCname=5A_F1; channelId=968915968; 
SCname=5A_F2; channelId=968916992; 
SCname=5A_F3; channelId=968918016; 
SCname=5A_F4; channelId=968919040; 
SCname=6A_F1; channelId=968920064; 
SCname=6A_F2; channelId=968921088; 
SCname=6A_F3; channelId=968922112; 
SCname=6A_F4; channelId=968923136; 
SCname=5B_F1; channelId=968916480; 
SCname=5B_F2; channelId=968917504; 
SCname=5B_F3; channelId=968918528; 
SCname=5B_F4; channelId=968919552; 
SCname=6B_F1; channelId=968920576; 
SCname=6B_F2; channelId=968921600; 
SCname=6B_F3; channelId=968922624; 
SCname=6B_F4; channelId=968923648; 
SCname=7A_F1; channelId=968924160; 
SCname=7A_F2; channelId=968925184; 
SCname=7A_F3; channelId=968926208; 
SCname=7A_F4; channelId=968927232; 
SCname=8A_F1; channelId=968928256; 
SCname=8A_F2; channelId=968929280; 
SCname=8A_F3; channelId=968930304; 
SCname=8A_F4; channelId=968931328; 
SCname=7B_F1; channelId=968924672; 
SCname=7B_F2; channelId=968925696; 
SCname=7B_F3; channelId=968926720; 
SCname=7B_F4; channelId=968927744; 
SCname=8B_F1; channelId=968928768; 
SCname=8B_F2; channelId=968929792; 
SCname=8B_F3; channelId=968930816; 
SCname=8B_F4; channelId=968931840; 
SCname=1A_B1; channelId=969018368; 
SCname=2A_B1; channelId=969019392; 
SCname=3A_B1; channelId=969020416; 
SCname=4A_B1; channelId=969021440; 
SCname=5A_B1; channelId=969022464; 
SCname=6A_B1; channelId=969023488; 
SCname=7A_B1; channelId=969024512; 
SCname=8A_B1; channelId=969025536; 
SCname=1B_B1; channelId=969018880; 
SCname=2B_B1; channelId=969019904; 
SCname=3B_B1; channelId=969020928; 
SCname=4B_B1; channelId=969021952; 
SCname=5B_B1; channelId=969022976; 
SCname=6B_B1; channelId=969024000; 
SCname=7B_B1; channelId=969025024; 
SCname=8B_B1; channelId=969026048; 
SCname=1A_M1; channelId=968960000; 
SCname=1A_M2; channelId=968961024; 
SCname=1A_M3; channelId=968962048; 
SCname=1A_M4; channelId=968963072; 
SCname=2A_M1; channelId=968964096; 
SCname=2A_M2; channelId=968965120; 
SCname=2A_M3; channelId=968966144; 
SCname=2A_M4; channelId=968967168; 
SCname=3A_M1; channelId=968968192; 
SCname=3A_M2; channelId=968969216; 
SCname=3A_M3; channelId=968970240; 
SCname=3A_M4; channelId=968971264; 
SCname=4A_M1; channelId=968972288; 
SCname=4A_M2; channelId=968973312; 
SCname=4A_M3; channelId=968974336; 
SCname=4A_M4; channelId=968975360; 
SCname=1B_M1; channelId=968960512; 
SCname=1B_M2; channelId=968961536; 
SCname=1B_M3; channelId=968962560; 
SCname=1B_M4; channelId=968963584; 
SCname=2B_M1; channelId=968964608; 
SCname=2B_M2; channelId=968965632; 
SCname=2B_M3; channelId=968966656; 
SCname=2B_M4; channelId=968967680; 
SCname=3B_M1; channelId=968968704; 
SCname=3B_M2; channelId=968969728; 
SCname=3B_M3; channelId=968970752; 
SCname=3B_M4; channelId=968971776; 
SCname=4B_M1; channelId=968972800; 
SCname=4B_M2; channelId=968973824; 
SCname=4B_M3; channelId=968974848; 
SCname=4B_M4; channelId=968975872; 
SCname=5A_M1; channelId=968976384; 
SCname=5A_M2; channelId=968977408; 
SCname=5A_M3; channelId=968978432; 
SCname=5A_M4; channelId=968979456; 
SCname=6A_M1; channelId=968980480; 
SCname=6A_M2; channelId=968981504; 
SCname=6A_M3; channelId=968982528; 
SCname=6A_M4; channelId=968983552; 
SCname=7A_M1; channelId=968984576; 
SCname=7A_M2; channelId=968985600; 
SCname=7A_M3; channelId=968986624; 
SCname=7A_M4; channelId=968987648; 
SCname=8A_M1; channelId=968988672; 
SCname=8A_M2; channelId=968989696; 
SCname=8A_M3; channelId=968990720; 
SCname=8A_M4; channelId=968991744; 
SCname=5B_M1; channelId=968976896; 
SCname=5B_M2; channelId=968977920; 
SCname=5B_M3; channelId=968978944; 
SCname=5B_M4; channelId=968979968; 
SCname=6B_M1; channelId=968980992; 
SCname=6B_M2; channelId=968982016; 
SCname=6B_M3; channelId=968983040; 
SCname=6B_M4; channelId=968984064; 
SCname=7B_M1; channelId=968985088; 
SCname=7B_M2; channelId=968986112; 
SCname=7B_M3; channelId=968987136; 
SCname=7B_M4; channelId=968988160; 
SCname=8B_M1; channelId=968989184; 
SCname=8B_M2; channelId=968990208; 
SCname=8B_M3; channelId=968991232; 
SCname=8B_M4; channelId=968992256; 
SCname=1C_P1; channelId=969408512; 
SCname=1D_P1; channelId=969409024; 
SCname=2C_P1; channelId=969409536; 
SCname=2D_P1; channelId=969410048; 
SCname=3C_P1; channelId=969410560; 
SCname=3D_P1; channelId=969411072; 
SCname=4C_P1; channelId=969411584; 
SCname=4D_P1; channelId=969412096; 
SCname=5C_P1; channelId=969412608; 
SCname=5D_P1; channelId=969413120; 
SCname=6C_P1; channelId=969413632; 
SCname=6D_P1; channelId=969414144; 
SCname=7C_P1; channelId=969414656; 
SCname=7D_P1; channelId=969415168; 
SCname=8C_P1; channelId=969415680; 
SCname=8D_P1; channelId=969416192; 
SCname=1C_F1; channelId=969423872; 
SCname=1C_F2; channelId=969424896; 
SCname=1C_F3; channelId=969425920; 
SCname=1C_F4; channelId=969426944; 
SCname=2C_F1; channelId=969427968; 
SCname=2C_F2; channelId=969428992; 
SCname=2C_F3; channelId=969430016; 
SCname=2C_F4; channelId=969431040; 
SCname=1D_F1; channelId=969424384; 
SCname=1D_F2; channelId=969425408; 
SCname=1D_F3; channelId=969426432; 
SCname=1D_F4; channelId=969427456; 
SCname=2D_F1; channelId=969428480; 
SCname=2D_F2; channelId=969429504; 
SCname=2D_F3; channelId=969430528; 
SCname=2D_F4; channelId=969431552; 
SCname=3C_F1; channelId=969432064; 
SCname=3C_F2; channelId=969433088; 
SCname=3C_F3; channelId=969434112; 
SCname=3C_F4; channelId=969435136; 
SCname=4C_F1; channelId=969436160; 
SCname=4C_F2; channelId=969437184; 
SCname=4C_F3; channelId=969438208; 
SCname=4C_F4; channelId=969439232; 
SCname=3D_F1; channelId=969432576; 
SCname=3D_F2; channelId=969433600; 
SCname=3D_F3; channelId=969434624; 
SCname=3D_F4; channelId=969435648; 
SCname=4D_F1; channelId=969436672; 
SCname=4D_F2; channelId=969437696; 
SCname=4D_F3; channelId=969438720; 
SCname=4D_F4; channelId=969439744; 
SCname=5C_F1; channelId=969440256; 
SCname=5C_F2; channelId=969441280; 
SCname=5C_F3; channelId=969442304; 
SCname=5C_F4; channelId=969443328; 
SCname=6C_F1; channelId=969444352; 
SCname=6C_F2; channelId=969445376; 
SCname=6C_F3; channelId=969446400; 
SCname=6C_F4; channelId=969447424; 
SCname=5D_F1; channelId=969440768; 
SCname=5D_F2; channelId=969441792; 
SCname=5D_F3; channelId=969442816; 
SCname=5D_F4; channelId=969443840; 
SCname=6D_F1; channelId=969444864; 
SCname=6D_F2; channelId=969445888; 
SCname=6D_F3; channelId=969446912; 
SCname=6D_F4; channelId=969447936; 
SCname=7C_F1; channelId=969448448; 
SCname=7C_F2; channelId=969449472; 
SCname=7C_F3; channelId=969450496; 
SCname=7C_F4; channelId=969451520; 
SCname=8C_F1; channelId=969452544; 
SCname=8C_F2; channelId=969453568; 
SCname=8C_F3; channelId=969454592; 
SCname=8C_F4; channelId=969455616; 
SCname=7D_F1; channelId=969448960; 
SCname=7D_F2; channelId=969449984; 
SCname=7D_F3; channelId=969451008; 
SCname=7D_F4; channelId=969452032; 
SCname=8D_F1; channelId=969453056; 
SCname=8D_F2; channelId=969454080; 
SCname=8D_F3; channelId=969455104; 
SCname=8D_F4; channelId=969456128; 
SCname=1C_B1; channelId=969542656; 
SCname=2C_B1; channelId=969543680; 
SCname=3C_B1; channelId=969544704; 
SCname=4C_B1; channelId=969545728; 
SCname=5C_B1; channelId=969546752; 
SCname=6C_B1; channelId=969547776; 
SCname=7C_B1; channelId=969548800; 
SCname=8C_B1; channelId=969549824; 
SCname=1D_B1; channelId=969543168; 
SCname=2D_B1; channelId=969544192; 
SCname=3D_B1; channelId=969545216; 
SCname=4D_B1; channelId=969546240; 
SCname=5D_B1; channelId=969547264; 
SCname=6D_B1; channelId=969548288; 
SCname=7D_B1; channelId=969549312; 
SCname=8D_B1; channelId=969550336; 
SCname=1C_M1; channelId=969484288; 
SCname=1C_M2; channelId=969485312; 
SCname=1C_M3; channelId=969486336; 
SCname=1C_M4; channelId=969487360; 
SCname=2C_M1; channelId=969488384; 
SCname=2C_M2; channelId=969489408; 
SCname=2C_M3; channelId=969490432; 
SCname=2C_M4; channelId=969491456; 
SCname=3C_M1; channelId=969492480; 
SCname=3C_M2; channelId=969493504; 
SCname=3C_M3; channelId=969494528; 
SCname=3C_M4; channelId=969495552; 
SCname=4C_M1; channelId=969496576; 
SCname=4C_M2; channelId=969497600; 
SCname=4C_M3; channelId=969498624; 
SCname=4C_M4; channelId=969499648; 
SCname=1D_M1; channelId=969484800; 
SCname=1D_M2; channelId=969485824; 
SCname=1D_M3; channelId=969486848; 
SCname=1D_M4; channelId=969487872; 
SCname=2D_M1; channelId=969488896; 
SCname=2D_M2; channelId=969489920; 
SCname=2D_M3; channelId=969490944; 
SCname=2D_M4; channelId=969491968; 
SCname=3D_M1; channelId=969492992; 
SCname=3D_M2; channelId=969494016; 
SCname=3D_M3; channelId=969495040; 
SCname=3D_M4; channelId=969496064; 
SCname=4D_M1; channelId=969497088; 
SCname=4D_M2; channelId=969498112; 
SCname=4D_M3; channelId=969499136; 
SCname=4D_M4; channelId=969500160; 
SCname=5C_M1; channelId=969500672; 
SCname=5C_M2; channelId=969501696; 
SCname=5C_M3; channelId=969502720; 
SCname=5C_M4; channelId=969503744; 
SCname=6C_M1; channelId=969504768; 
SCname=6C_M2; channelId=969505792; 
SCname=6C_M3; channelId=969506816; 
SCname=6C_M4; channelId=969507840; 
SCname=7C_M1; channelId=969508864; 
SCname=7C_M2; channelId=969509888; 
SCname=7C_M3; channelId=969510912; 
SCname=7C_M4; channelId=969511936; 
SCname=8C_M1; channelId=969512960; 
SCname=8C_M2; channelId=969513984; 
SCname=8C_M3; channelId=969515008; 
SCname=8C_M4; channelId=969516032; 
SCname=5D_M1; channelId=969501184; 
SCname=5D_M2; channelId=969502208; 
SCname=5D_M3; channelId=969503232; 
SCname=5D_M4; channelId=969504256; 
SCname=6D_M1; channelId=969505280; 
SCname=6D_M2; channelId=969506304; 
SCname=6D_M3; channelId=969507328; 
SCname=6D_M4; channelId=969508352; 
SCname=7D_M1; channelId=969509376; 
SCname=7D_M2; channelId=969510400; 
SCname=7D_M3; channelId=969511424; 
SCname=7D_M4; channelId=969512448; 
SCname=8D_M1; channelId=969513472; 
SCname=8D_M2; channelId=969514496; 
SCname=8D_M3; channelId=969515520; 
SCname=8D_M4; channelId=969516544; 
320 SCs are read!  LATOME is EMBA_13

******************** Start to read SCs info per fiber: ********************
IN F3 1A_B1 2A_B1 4A_B1 3A_B1 6A_B1 5A_B1 8A_B1 7A_B1
IN F4 2A_M2 2A_M1 2A_M4 2A_M3 1A_M3 1A_M4 1A_M1 1A_M2
IN F5 3A_M1 3A_M2 3A_M4 3A_M3 4A_M4 4A_M3 4A_M2 4A_M1
IN F6 6A_F4 6A_F3 6A_F2 6A_F1 5A_F1 5A_F2 5A_F3 5A_F4
IN F7 7A_M1 7A_M2 7A_M3 7A_M4 8A_M3 8A_M4 8A_M2 8A_M1
IN F8 8A_P1 7A_P1 5A_P1 6A_P1 4A_P1 3A_P1 2A_P1 1A_P1
IN F9 5A_M1 5A_M2 5A_M3 5A_M4 6A_M4 6A_M3 6A_M1 6A_M2
IN F10 4A_F1 4A_F2 4A_F4 4A_F3 3A_F4 3A_F3 3A_F2 3A_F1
IN F11 7A_F1 7A_F2 7A_F3 7A_F4 8A_F1 8A_F2 8A_F4 8A_F3
IN F12 2A_F3 2A_F4 2A_F2 2A_F1 1A_F4 1A_F3 1A_F2 1A_F1
IN F15 1B_F2 1B_F1 1B_F4 1B_F3 2B_F1 2B_F2 2B_F3 2B_F4
IN F16 8B_M2 8B_M1 8B_M4 8B_M3 7B_M4 7B_M3 7B_M1 7B_M2
IN F17 3B_F1 3B_F2 3B_F3 3B_F4 4B_F1 4B_F2 4B_F4 4B_F3
IN F18 6B_M3 6B_M4 6B_M1 6B_M2 5B_M2 5B_M1 5B_M4 5B_M3
IN F19 5B_F2 5B_F1 5B_F3 5B_F4 6B_F4 6B_F3 6B_F1 6B_F2
IN F20 3B_M1 3B_M2 3B_M3 3B_M4 4B_M4 4B_M3 4B_M1 4B_M2
IN F21 7B_F2 7B_F1 7B_F3 7B_F4 8B_F2 8B_F1 8B_F4 8B_F3
IN F22 7B_P1 8B_P1 6B_P1 5B_P1 2B_P1 1B_P1 3B_P1 4B_P1
IN F23 1B_M2 1B_M1 1B_M3 1B_M4 2B_M4 2B_M3 2B_M1 2B_M2
IN F24 7B_B1 8B_B1 6B_B1 5B_B1 1B_B1 2B_B1 3B_B1 4B_B1
IN F27 1C_B1 2C_B1 4C_B1 3C_B1 6C_B1 5C_B1 8C_B1 7C_B1
IN F28 2C_M2 2C_M1 2C_M4 2C_M3 1C_M3 1C_M4 1C_M1 1C_M2
IN F29 3C_M1 3C_M2 3C_M4 3C_M3 4C_M4 4C_M3 4C_M2 4C_M1
IN F30 6C_F4 6C_F3 6C_F2 6C_F1 5C_F1 5C_F2 5C_F3 5C_F4
IN F31 7C_M1 7C_M2 7C_M3 7C_M4 8C_M3 8C_M4 8C_M2 8C_M1
IN F32 8C_P1 7C_P1 5C_P1 6C_P1 4C_P1 3C_P1 2C_P1 1C_P1
IN F33 5C_M1 5C_M2 5C_M3 5C_M4 6C_M4 6C_M3 6C_M1 6C_M2
IN F34 4C_F1 4C_F2 4C_F4 4C_F3 3C_F4 3C_F3 3C_F2 3C_F1
IN F35 7C_F1 7C_F2 7C_F3 7C_F4 8C_F1 8C_F2 8C_F4 8C_F3
IN F36 2C_F3 2C_F4 2C_F2 2C_F1 1C_F4 1C_F3 1C_F2 1C_F1
IN F39 1D_F2 1D_F1 1D_F4 1D_F3 2D_F1 2D_F2 2D_F3 2D_F4
IN F40 8D_M2 8D_M1 8D_M4 8D_M3 7D_M4 7D_M3 7D_M1 7D_M2
IN F41 3D_F1 3D_F2 3D_F3 3D_F4 4D_F1 4D_F2 4D_F4 4D_F3
IN F42 6D_M3 6D_M4 6D_M1 6D_M2 5D_M2 5D_M1 5D_M4 5D_M3
IN F43 5D_F2 5D_F1 5D_F3 5D_F4 6D_F4 6D_F3 6D_F1 6D_F2
IN F44 3D_M1 3D_M2 3D_M3 3D_M4 4D_M4 4D_M3 4D_M1 4D_M2
IN F45 7D_F2 7D_F1 7D_F3 7D_F4 8D_F2 8D_F1 8D_F4 8D_F3
IN F46 7D_P1 8D_P1 6D_P1 5D_P1 2D_P1 1D_P1 3D_P1 4D_P1
IN F47 1D_M2 1D_M1 1D_M3 1D_M4 2D_M4 2D_M3 2D_M1 2D_M2
IN F48 7D_B1 8D_B1 6D_B1 5D_B1 1D_B1 2D_B1 3D_B1 4D_B1
40 fibers are connected!
max_event=999

******************** Start to search BCID of peak sampling: ********************
IN F2; 1A_B1=0; 2A_B1=0; 4A_B1=0; 3A_B1=0; 6A_B1=0; 5A_B1=0; 8A_B1=0; 7A_B1=0;  BCID_rms=0
IN F3; 2A_M2=0; 2A_M1=0; 2A_M4=0; 2A_M3=0; 1A_M3=0; 1A_M4=0; 1A_M1=0; 1A_M2=0;  BCID_rms=0
IN F4; 3A_M1=0; 3A_M2=0; 3A_M4=0; 3A_M3=0; 4A_M4=0; 4A_M3=0; 4A_M2=0; 4A_M1=0;  BCID_rms=0
IN F5; 6A_F4=0; 6A_F3=0; 6A_F2=0; 6A_F1=0; 5A_F1=0; 5A_F2=0; 5A_F3=0; 5A_F4=0;  BCID_rms=0
IN F6; 7A_M1=0; 7A_M2=0; 7A_M3=0; 7A_M4=0; 8A_M3=0; 8A_M4=0; 8A_M2=0; 8A_M1=0;  BCID_rms=0
IN F7; 8A_P1=0; 7A_P1=0; 5A_P1=0; 6A_P1=0; 4A_P1=0; 3A_P1=0; 2A_P1=0; 1A_P1=0;  BCID_rms=0
IN F8; 5A_M1=0; 5A_M2=0; 5A_M3=0; 5A_M4=0; 6A_M4=0; 6A_M3=0; 6A_M1=0; 6A_M2=0;  BCID_rms=0
IN F9; 4A_F1=0; 4A_F2=0; 4A_F4=0; 4A_F3=0; 3A_F4=0; 3A_F3=0; 3A_F2=0; 3A_F1=0;  BCID_rms=0
IN F10; 7A_F1=0; 7A_F2=0; 7A_F3=0; 7A_F4=0; 8A_F1=0; 8A_F2=0; 8A_F4=0; 8A_F3=0;  BCID_rms=0
IN F11; 2A_F3=0; 2A_F4=0; 2A_F2=0; 2A_F1=0; 1A_F4=0; 1A_F3=0; 1A_F2=0; 1A_F1=0;  BCID_rms=0
IN F14; 1B_F2=0; 1B_F1=0; 1B_F4=0; 1B_F3=0; 2B_F1=0; 2B_F2=0; 2B_F3=0; 2B_F4=0;  BCID_rms=0
IN F15; 8B_M2=0; 8B_M1=0; 8B_M4=0; 8B_M3=0; 7B_M4=0; 7B_M3=0; 7B_M1=0; 7B_M2=0;  BCID_rms=0
IN F16; 3B_F1=0; 3B_F2=0; 3B_F3=0; 3B_F4=0; 4B_F1=0; 4B_F2=0; 4B_F4=0; 4B_F3=0;  BCID_rms=0
IN F17; 6B_M3=0; 6B_M4=0; 6B_M1=0; 6B_M2=0; 5B_M2=0; 5B_M1=0; 5B_M4=0; 5B_M3=0;  BCID_rms=0
IN F18; 5B_F2=0; 5B_F1=0; 5B_F3=0; 5B_F4=0; 6B_F4=0; 6B_F3=0; 6B_F1=0; 6B_F2=0;  BCID_rms=0
IN F19; 3B_M1=0; 3B_M2=0; 3B_M3=0; 3B_M4=0; 4B_M4=0; 4B_M3=0; 4B_M1=0; 4B_M2=0;  BCID_rms=0
IN F20; 7B_F2=0; 7B_F1=0; 7B_F3=0; 7B_F4=0; 8B_F2=0; 8B_F1=0; 8B_F4=0; 8B_F3=0;  BCID_rms=0
IN F21; 7B_P1=0; 8B_P1=0; 6B_P1=0; 5B_P1=0; 2B_P1=0; 1B_P1=0; 3B_P1=0; 4B_P1=0;  BCID_rms=0
IN F22; 1B_M2=0; 1B_M1=0; 1B_M3=0; 1B_M4=0; 2B_M4=0; 2B_M3=0; 2B_M1=0; 2B_M2=0;  BCID_rms=0
IN F23; 7B_B1=0; 8B_B1=0; 6B_B1=0; 5B_B1=0; 1B_B1=0; 2B_B1=0; 3B_B1=0; 4B_B1=0;  BCID_rms=0
IN F26; 1C_B1=0; 2C_B1=0; 4C_B1=0; 3C_B1=0; 6C_B1=0; 5C_B1=0; 8C_B1=0; 7C_B1=0;  BCID_rms=0
IN F27; 2C_M2=0; 2C_M1=0; 2C_M4=0; 2C_M3=0; 1C_M3=0; 1C_M4=0; 1C_M1=0; 1C_M2=0;  BCID_rms=0
IN F28; 3C_M1=0; 3C_M2=0; 3C_M4=0; 3C_M3=0; 4C_M4=0; 4C_M3=0; 4C_M2=0; 4C_M1=0;  BCID_rms=0
IN F29; 6C_F4=0; 6C_F3=0; 6C_F2=0; 6C_F1=0; 5C_F1=0; 5C_F2=0; 5C_F3=0; 5C_F4=0;  BCID_rms=0
IN F30; 7C_M1=0; 7C_M2=0; 7C_M3=0; 7C_M4=0; 8C_M3=0; 8C_M4=0; 8C_M2=0; 8C_M1=0;  BCID_rms=0
IN F31; 8C_P1=0; 7C_P1=0; 5C_P1=0; 6C_P1=0; 4C_P1=0; 3C_P1=0; 2C_P1=0; 1C_P1=0;  BCID_rms=0
IN F32; 5C_M1=0; 5C_M2=0; 5C_M3=0; 5C_M4=0; 6C_M4=0; 6C_M3=0; 6C_M1=0; 6C_M2=0;  BCID_rms=0
IN F33; 4C_F1=0; 4C_F2=0; 4C_F4=0; 4C_F3=0; 3C_F4=0; 3C_F3=0; 3C_F2=0; 3C_F1=0;  BCID_rms=0
IN F34; 7C_F1=0; 7C_F2=0; 7C_F3=0; 7C_F4=0; 8C_F1=0; 8C_F2=0; 8C_F4=0; 8C_F3=0;  BCID_rms=0
IN F35; 2C_F3=0; 2C_F4=0; 2C_F2=0; 2C_F1=0; 1C_F4=0; 1C_F3=0; 1C_F2=0; 1C_F1=0;  BCID_rms=0
IN F38; 1D_F2=0; 1D_F1=0; 1D_F4=0; 1D_F3=0; 2D_F1=0; 2D_F2=0; 2D_F3=0; 2D_F4=0;  BCID_rms=0
IN F39; 8D_M2=0; 8D_M1=0; 8D_M4=0; 8D_M3=0; 7D_M4=0; 7D_M3=0; 7D_M1=0; 7D_M2=0;  BCID_rms=0
IN F40; 3D_F1=0; 3D_F2=0; 3D_F3=0; 3D_F4=0; 4D_F1=0; 4D_F2=0; 4D_F4=0; 4D_F3=0;  BCID_rms=0
IN F41; 6D_M3=0; 6D_M4=0; 6D_M1=0; 6D_M2=0; 5D_M2=0; 5D_M1=0; 5D_M4=0; 5D_M3=0;  BCID_rms=0
IN F42; 5D_F2=0; 5D_F1=0; 5D_F3=0; 5D_F4=0; 6D_F4=0; 6D_F3=0; 6D_F1=0; 6D_F2=0;  BCID_rms=0
IN F43; 3D_M1=0; 3D_M2=0; 3D_M3=0; 3D_M4=0; 4D_M4=0; 4D_M3=0; 4D_M1=0; 4D_M2=0;  BCID_rms=0
IN F44; 7D_F2=0; 7D_F1=0; 7D_F3=0; 7D_F4=0; 8D_F2=0; 8D_F1=0; 8D_F4=0; 8D_F3=0;  BCID_rms=0
IN F45; 7D_P1=0; 8D_P1=0; 6D_P1=0; 5D_P1=0; 2D_P1=0; 1D_P1=0; 3D_P1=0; 4D_P1=0;  BCID_rms=0
IN F46; 1D_M2=0; 1D_M1=0; 1D_M3=0; 1D_M4=0; 2D_M4=0; 2D_M3=0; 2D_M1=0; 2D_M2=0;  BCID_rms=0
IN F47; 7D_B1=0; 8D_B1=0; 6D_B1=0; 5D_B1=0; 1D_B1=0; 2D_B1=0; 3D_B1=0; 4D_B1=0;  BCID_rms=0
