# LATOME input mapping v03.00.00 2021-10-6
# Comments: ATLAS mapping (folder names changed)
# AMCType: EMBEMEC
# Side: C
# QuadrantID: 3
# AMCHashNumber: 1
# CarrierID: 27
# AMCNumberInCarrier: 4

# Input information section
# Number connected LTDBs: 3
# Connected LTDBs: EMB(H14R)  EMB(H15L)  EMECSpec0(C12S0)  
# Number connected input MTPs: 5
# Number connected input fibers: 44
# Input_ID LTDB_MTP_PIN RX_PIN SC1 ... SC8
IN F1   C12S0_03_08 RX01_01  E_2E_F1  E_2E_F2  E_2E_F3  E_2E_F4  E_2F_F4  E_2F_F3  E_2F_F1  E_2F_F2  
IN F2   C12S0_03_07 RX01_02  E_2G_F2  E_2G_F1  E_2G_F3  E_2G_F4  E_2H_F3  E_2H_F4  E_2H_F1  E_2H_F2  
IN F4   H14R_03_09  RX01_04  GND      B_15E_P1 B_13E_P1 B_14E_P1 B_9E_P1  B_10E_P1 B_12E_P1 B_11E_P1 
IN F5   H14R_03_08  RX01_05  B_13E_M1 B_13E_M2 B_13E_M4 B_13E_M3 B_14E_M3 B_14E_M4 B_14E_M1 B_14E_M2 
IN F6   H14R_03_07  RX01_06  B_10E_M1 B_10E_M2 B_10E_M3 B_10E_M4 B_9E_M4  B_9E_M3  B_9E_M2  B_9E_M1  
IN F7   H14R_03_06  RX01_07  B_11E_M3 B_11E_M4 B_11E_M1 B_11E_M2 B_12E_M1 B_12E_M2 B_12E_M4 B_12E_M3 
IN F8   H14R_03_05  RX01_08  B_12E_F1 B_12E_F2 B_12E_F3 B_12E_F4 B_11E_F1 B_11E_F2 B_11E_F3 B_11E_F4 
IN F9   H14R_03_04  RX01_09  B_9E_F2  B_9E_F1  B_9E_F4  B_9E_F3  B_10E_F2 B_10E_F1 B_10E_F4 B_10E_F3 
IN F10  H14R_03_03  RX01_10  B_13F_B1 B_14F_B1 GND      GND      B_9F_B1  B_10F_B1 B_11F_B1 B_12F_B1 
IN F11  H14R_03_02  RX01_11  B_13E_F4 B_13E_F3 B_13E_F1 B_13E_F2 B_14E_F1 B_14E_F2 B_14E_F4 B_14E_F3 
IN F12  H14R_03_01  RX01_12  B_15F_B4 B_15F_B3 B_15F_B1 B_15F_B2 GND      GND      GND      GND      
IN F13  C12S0_03_04 RX02_01  E_2F_M2  E_2F_M1  E_2F_M4  E_2F_M3  E_2E_M4  E_2E_M3  E_2E_M1  E_2E_M2  
IN F14  C12S0_03_03 RX02_02  E_1G_M1  E_1G_M2  E_1G_M3  E_1G_M4  E_1H_M1  E_1H_M2  E_1H_M3  E_1H_M4  
IN F15  H15L_02_10  RX02_03  B_12G_B1 B_11G_B1 B_10G_B1 B_9G_B1  GND      GND      B_13G_B1 B_14G_B1 
IN F16  H15L_02_09  RX02_04  B_14H_F2 B_14H_F1 B_14H_F4 B_14H_F3 B_13H_F4 B_13H_F3 B_13H_F1 B_13H_F2 
IN F17  H15L_02_08  RX02_05  B_15G_B1 B_15G_B2 B_15G_B3 B_15G_B4 GND      GND      GND      GND      
IN F18  H15L_02_07  RX02_06  B_14H_P1 B_13H_P1 GND      B_15H_P1 B_11H_P1 B_12H_P1 B_9H_P1  B_10H_P1 
IN F19  H15L_02_06  RX02_07  B_11H_F2 B_11H_F1 B_11H_F3 B_11H_F4 B_12H_F1 B_12H_F2 B_12H_F4 B_12H_F3 
IN F20  H15L_02_05  RX02_08  B_9H_M1  B_9H_M2  B_9H_M3  B_9H_M4  B_10H_M1 B_10H_M2 B_10H_M4 B_10H_M3 
IN F21  H15L_02_04  RX02_09  B_9H_F2  B_9H_F1  B_9H_F4  B_9H_F3  B_10H_F1 B_10H_F2 B_10H_F4 B_10H_F3 
IN F22  H15L_02_03  RX02_10  B_14H_M4 B_14H_M3 B_14H_M1 B_14H_M2 B_13H_M4 B_13H_M3 B_13H_M1 B_13H_M2 
IN F23  H15L_02_02  RX02_11  B_11H_M1 B_11H_M2 B_11H_M3 B_11H_M4 B_12H_M4 B_12H_M3 B_12H_M1 B_12H_M2 
IN F25  C12S0_03_02 RX03_01  GND      GND      GND      GND      E_1F_F1  E_1E_F1  E_1G_F1  E_1H_F1  
IN F26  C12S0_03_01 RX03_02  E_1F_M1  E_1F_M2  E_1F_M3  E_1F_M4  E_1E_M1  E_1E_M2  E_1E_M4  E_1E_M3  
IN F28  H15L_03_09  RX03_04  GND      B_15G_P1 B_13G_P1 B_14G_P1 B_9G_P1  B_10G_P1 B_12G_P1 B_11G_P1 
IN F29  H15L_03_08  RX03_05  B_13G_M1 B_13G_M2 B_13G_M4 B_13G_M3 B_14G_M3 B_14G_M4 B_14G_M1 B_14G_M2 
IN F30  H15L_03_07  RX03_06  B_10G_M1 B_10G_M2 B_10G_M3 B_10G_M4 B_9G_M4  B_9G_M3  B_9G_M2  B_9G_M1  
IN F31  H15L_03_06  RX03_07  B_11G_M3 B_11G_M4 B_11G_M1 B_11G_M2 B_12G_M1 B_12G_M2 B_12G_M4 B_12G_M3 
IN F32  H15L_03_05  RX03_08  B_12G_F1 B_12G_F2 B_12G_F3 B_12G_F4 B_11G_F1 B_11G_F2 B_11G_F3 B_11G_F4 
IN F33  H15L_03_04  RX03_09  B_9G_F2  B_9G_F1  B_9G_F4  B_9G_F3  B_10G_F2 B_10G_F1 B_10G_F4 B_10G_F3 
IN F34  H15L_03_03  RX03_10  B_13H_B1 B_14H_B1 GND      GND      B_9H_B1  B_10H_B1 B_11H_B1 B_12H_B1 
IN F35  H15L_03_02  RX03_11  B_13G_F4 B_13G_F3 B_13G_F1 B_13G_F2 B_14G_F1 B_14G_F2 B_14G_F4 B_14G_F3 
IN F36  H15L_03_01  RX03_12  B_15H_B4 B_15H_B3 B_15H_B1 B_15H_B2 GND      GND      GND      GND      
IN F37  C12S0_03_06 RX04_01  E_2E_P1  E_2F_P1  E_2H_P1  E_2G_P1  E_2H_B1  E_2G_B1  E_2E_B1  E_2F_B1  
IN F38  C12S0_03_05 RX04_02  E_2G_M1  E_2G_M2  E_2G_M3  E_2G_M4  E_2H_M1  E_2H_M2  E_2H_M3  E_2H_M4  
IN F39  H14R_02_10  RX04_03  B_12E_B1 B_11E_B1 B_10E_B1 B_9E_B1  GND      GND      B_13E_B1 B_14E_B1 
IN F40  H14R_02_09  RX04_04  B_14F_F2 B_14F_F1 B_14F_F4 B_14F_F3 B_13F_F4 B_13F_F3 B_13F_F1 B_13F_F2 
IN F41  H14R_02_08  RX04_05  B_15E_B1 B_15E_B2 B_15E_B3 B_15E_B4 GND      GND      GND      GND      
IN F42  H14R_02_07  RX04_06  B_14F_P1 B_13F_P1 GND      B_15F_P1 B_11F_P1 B_12F_P1 B_9F_P1  B_10F_P1 
IN F43  H14R_02_06  RX04_07  B_11F_F2 B_11F_F1 B_11F_F3 B_11F_F4 B_12F_F1 B_12F_F2 B_12F_F4 B_12F_F3 
IN F44  H14R_02_05  RX04_08  B_9F_M1  B_9F_M2  B_9F_M3  B_9F_M4  B_10F_M1 B_10F_M2 B_10F_M4 B_10F_M3 
IN F45  H14R_02_04  RX04_09  B_9F_F2  B_9F_F1  B_9F_F4  B_9F_F3  B_10F_F1 B_10F_F2 B_10F_F4 B_10F_F3 
IN F46  H14R_02_03  RX04_10  B_14F_M4 B_14F_M3 B_14F_M1 B_14F_M2 B_13F_M4 B_13F_M3 B_13F_M1 B_13F_M2 
IN F47  H14R_02_02  RX04_11  B_11F_M1 B_11F_M2 B_11F_M3 B_11F_M4 B_12F_M4 B_12F_M3 B_12F_M1 B_12F_M2 

# Output information section
# Number connected output fibers: 28 (unique=19)
# Number eFEX fibers: 20 (unique=16)
# Number jFEX fibers: 6 (unique=2)
# Number gFEX fibers: 2 (unique=1)
# hash_ID Type C1 C2 .... 
OUT F2   eFEX   B_15E+E_1E    E_2E          
OUT F3   eFEX   B_13E         B_14E         
OUT F4   eFEX   B_11E         B_12E         
OUT F5   eFEX   B_10E         B_9E          
OUT F6   eFEX   B_10E         B_9E          
OUT F8   eFEX   B_15F+E_1F    E_2F          
OUT F9   eFEX   B_13F         B_14F         
OUT F10  eFEX   B_11F         B_12F         
OUT F11  eFEX   B_10F         B_9F          
OUT F12  eFEX   B_10F         B_9F          
OUT F20  eFEX   B_15G+E_1G    E_2G          
OUT F21  eFEX   B_13G         B_14G         
OUT F22  eFEX   B_11G         B_12G         
OUT F23  eFEX   B_10G         B_9G          
OUT F24  eFEX   B_10G         B_9G          
OUT F32  eFEX   B_15H+E_1H    E_2H          
OUT F33  eFEX   B_13H         B_14H         
OUT F34  eFEX   B_11H         B_12H         
OUT F35  eFEX   B_10H         B_9H          
OUT F36  eFEX   B_10H         B_9H          
OUT F37  jFEX   B_13E         B_13F         B_13G         B_13H         B_14E         B_14F         B_14G         B_14H         B_15E+E_1E    B_15F+E_1F    B_15G+E_1G    B_15H+E_1H    E_2E          E_2F          E_2G          E_2H          
OUT F38  jFEX   B_13E         B_13F         B_13G         B_13H         B_14E         B_14F         B_14G         B_14H         B_15E+E_1E    B_15F+E_1F    B_15G+E_1G    B_15H+E_1H    E_2E          E_2F          E_2G          E_2H          
OUT F39  jFEX   B_13E         B_13F         B_13G         B_13H         B_14E         B_14F         B_14G         B_14H         B_15E+E_1E    B_15F+E_1F    B_15G+E_1G    B_15H+E_1H    E_2E          E_2F          E_2G          E_2H          
OUT F41  jFEX   B_10E         B_10F         B_10G         B_10H         B_11E         B_11F         B_11G         B_11H         B_12E         B_12F         B_12G         B_12H         B_9E          B_9F          B_9G          B_9H          
OUT F42  jFEX   B_10E         B_10F         B_10G         B_10H         B_11E         B_11F         B_11G         B_11H         B_12E         B_12F         B_12G         B_12H         B_9E          B_9F          B_9G          B_9H          
OUT F43  jFEX   B_10E         B_10F         B_10G         B_10H         B_11E         B_11F         B_11G         B_11H         B_12E         B_12F         B_12G         B_12H         B_9E          B_9F          B_9G          B_9H          
OUT F47  gFEX   B_11E+B_12E+B_11F+B_12F  B_11G+B_12G+B_11H+B_12H  B_13E+B_14E+B_13F+B_14F  B_13G+B_14G+B_13H+B_14H  B_15E+B_15F+E_1E+E_2E+E_1F+E_2F  B_15G+B_15H+E_1G+E_2G+E_1H+E_2H  B_9E+B_10E+B_9F+B_10F  B_9G+B_10G+B_9H+B_10H  
OUT F48  gFEX   B_11E+B_12E+B_11F+B_12F  B_11G+B_12G+B_11H+B_12H  B_13E+B_14E+B_13F+B_14F  B_13G+B_14G+B_13H+B_14H  B_15E+B_15F+E_1E+E_2E+E_1F+E_2F  B_15G+B_15H+E_1G+E_2G+E_1H+E_2H  B_9E+B_10E+B_9F+B_10F  B_9G+B_10G+B_9H+B_10H  
