
Processing Draw.C...
latome101 F26: set_BCID=-1; ini_BCID=3460; height=-9999
latome101 F27: set_BCID=-1; ini_BCID=3460; height=-9999
latome101 F28: set_BCID=-1; ini_BCID=3460; height=-9999
latome101 F29: set_BCID=-1; ini_BCID=3460; height=-9999
latome101 F30: set_BCID=-1; ini_BCID=3460; height=-9999
latome101 F31: set_BCID=-1; ini_BCID=3460; height=-9999
latome101 F32: set_BCID=-1; ini_BCID=3460; height=-9999
latome101 F33: set_BCID=-1; ini_BCID=3460; height=-9999
latome101 F34: set_BCID=-1; ini_BCID=3460; height=-9999
latome101 F35: set_BCID=-1; ini_BCID=3460; height=-9999
latome101 F38: set_BCID=-1; ini_BCID=3460; height=-9999
latome101 F39: set_BCID=-1; ini_BCID=3460; height=-9999
latome101 F40: set_BCID=-1; ini_BCID=3460; height=-9999
latome101 F41: set_BCID=-1; ini_BCID=3460; height=-9999
latome101 F42: set_BCID=-1; ini_BCID=3460; height=-9999
latome101 F43: set_BCID=-1; ini_BCID=3460; height=-9999
latome101 F44: set_BCID=-1; ini_BCID=3460; height=-9999
latome101 F45: set_BCID=-1; ini_BCID=3460; height=-9999
latome101 F46: set_BCID=-1; ini_BCID=3460; height=-9999
latome101 F47: set_BCID=-1; ini_BCID=3460; height=-9999
latome97 F2: set_BCID=-1; ini_BCID=3460; height=-9999
latome97 F3: set_BCID=-1; ini_BCID=3460; height=-9999
latome97 F4: set_BCID=-1; ini_BCID=3460; height=-9999
latome97 F5: set_BCID=-1; ini_BCID=3460; height=-9999
latome97 F6: set_BCID=-1; ini_BCID=3460; height=-9999
latome97 F7: set_BCID=-1; ini_BCID=3460; height=-9999
latome97 F8: set_BCID=-1; ini_BCID=3460; height=-9999
latome97 F9: set_BCID=-1; ini_BCID=3460; height=-9999
latome97 F10: set_BCID=-1; ini_BCID=3460; height=-9999
latome97 F11: set_BCID=-1; ini_BCID=3460; height=-9999
latome97 F14: set_BCID=-1; ini_BCID=3460; height=-9999
latome97 F15: set_BCID=-1; ini_BCID=3460; height=-9999
latome97 F16: set_BCID=-1; ini_BCID=3460; height=-9999
latome97 F17: set_BCID=-1; ini_BCID=3460; height=-9999
latome97 F18: set_BCID=-1; ini_BCID=3460; height=-9999
latome97 F19: set_BCID=-1; ini_BCID=3460; height=-9999
latome97 F20: set_BCID=-1; ini_BCID=3460; height=-9999
latome97 F21: set_BCID=-1; ini_BCID=3460; height=-9999
latome97 F22: set_BCID=-1; ini_BCID=3460; height=-9999
latome97 F23: set_BCID=-1; ini_BCID=3460; height=-9999
latome139 F3: set_BCID=-1; ini_BCID=3460; height=-9999
latome139 F4: set_BCID=-1; ini_BCID=3460; height=-9999
latome139 F5: set_BCID=-1; ini_BCID=3460; height=-9999
latome139 F6: set_BCID=-1; ini_BCID=3460; height=-9999
latome139 F7: set_BCID=-1; ini_BCID=3460; height=-9999
latome139 F8: set_BCID=-1; ini_BCID=3460; height=-9999
latome139 F9: set_BCID=-1; ini_BCID=3460; height=-9999
latome139 F10: set_BCID=-1; ini_BCID=3460; height=-9999
latome139 F11: set_BCID=-1; ini_BCID=3460; height=-9999
latome139 F38: set_BCID=-1; ini_BCID=3460; height=-9999
latome139 F39: set_BCID=-1; ini_BCID=3460; height=-9999
latome139 F40: set_BCID=-1; ini_BCID=3460; height=-9999
latome139 F41: set_BCID=-1; ini_BCID=3460; height=-9999
latome139 F42: set_BCID=-1; ini_BCID=3460; height=-9999
latome139 F43: set_BCID=-1; ini_BCID=3460; height=-9999
latome139 F44: set_BCID=-1; ini_BCID=3460; height=-9999
latome139 F45: set_BCID=-1; ini_BCID=3460; height=-9999
latome139 F46: set_BCID=-1; ini_BCID=3460; height=-9999
latome102 F2: set_BCID=-1; ini_BCID=3460; height=-9999
latome102 F3: set_BCID=-1; ini_BCID=3460; height=-9999
latome102 F4: set_BCID=-1; ini_BCID=3460; height=-9999
latome102 F5: set_BCID=-1; ini_BCID=3460; height=-9999
latome102 F6: set_BCID=-1; ini_BCID=3460; height=-9999
latome102 F7: set_BCID=-1; ini_BCID=3460; height=-9999
latome102 F8: set_BCID=-1; ini_BCID=3460; height=-9999
latome102 F9: set_BCID=-1; ini_BCID=3460; height=-9999
latome102 F10: set_BCID=-1; ini_BCID=3460; height=-9999
latome102 F11: set_BCID=-1; ini_BCID=3460; height=-9999
latome102 F14: set_BCID=-1; ini_BCID=3460; height=-9999
latome102 F15: set_BCID=-1; ini_BCID=3460; height=-9999
latome102 F16: set_BCID=-1; ini_BCID=3460; height=-9999
latome102 F17: set_BCID=-1; ini_BCID=3460; height=-9999
latome102 F18: set_BCID=-1; ini_BCID=3460; height=-9999
latome102 F19: set_BCID=-1; ini_BCID=3460; height=-9999
latome102 F20: set_BCID=-1; ini_BCID=3460; height=-9999
latome102 F21: set_BCID=-1; ini_BCID=3460; height=-9999
latome102 F22: set_BCID=-1; ini_BCID=3460; height=-9999
latome102 F23: set_BCID=-1; ini_BCID=3460; height=-9999
latome145 F14: set_BCID=-1; ini_BCID=3460; height=-9999
latome145 F15: set_BCID=-1; ini_BCID=3460; height=-9999
latome145 F16: set_BCID=-1; ini_BCID=3460; height=-9999
latome145 F17: set_BCID=-1; ini_BCID=3460; height=-9999
latome145 F18: set_BCID=-1; ini_BCID=3460; height=-9999
latome145 F19: set_BCID=-1; ini_BCID=3460; height=-9999
latome145 F20: set_BCID=-1; ini_BCID=3460; height=-9999
latome145 F21: set_BCID=-1; ini_BCID=3460; height=-9999
latome145 F22: set_BCID=-1; ini_BCID=3460; height=-9999
latome145 F27: set_BCID=-1; ini_BCID=3460; height=-9999
latome145 F28: set_BCID=-1; ini_BCID=3460; height=-9999
latome145 F29: set_BCID=-1; ini_BCID=3460; height=-9999
latome145 F30: set_BCID=-1; ini_BCID=3460; height=-9999
latome145 F31: set_BCID=-1; ini_BCID=3460; height=-9999
latome145 F32: set_BCID=-1; ini_BCID=3460; height=-9999
latome145 F33: set_BCID=-1; ini_BCID=3460; height=-9999
latome145 F34: set_BCID=-1; ini_BCID=3460; height=-9999
latome145 F35: set_BCID=-1; ini_BCID=3460; height=-9999
latome96 F26: set_BCID=-1; ini_BCID=3460; height=-9999
latome96 F27: set_BCID=-1; ini_BCID=3460; height=-9999
latome96 F28: set_BCID=-1; ini_BCID=3460; height=-9999
latome96 F29: set_BCID=-1; ini_BCID=3460; height=-9999
latome96 F30: set_BCID=-1; ini_BCID=3460; height=-9999
latome96 F31: set_BCID=-1; ini_BCID=3460; height=-9999
latome96 F32: set_BCID=-1; ini_BCID=3460; height=-9999
latome96 F33: set_BCID=-1; ini_BCID=3460; height=-9999
latome96 F34: set_BCID=-1; ini_BCID=3460; height=-9999
latome96 F35: set_BCID=-1; ini_BCID=3460; height=-9999
latome96 F38: set_BCID=-1; ini_BCID=3460; height=-9999
latome96 F39: set_BCID=-1; ini_BCID=3460; height=-9999
latome96 F40: set_BCID=-1; ini_BCID=3460; height=-9999
latome96 F41: set_BCID=-1; ini_BCID=3460; height=-9999
latome96 F42: set_BCID=-1; ini_BCID=3460; height=-9999
latome96 F43: set_BCID=-1; ini_BCID=3460; height=-9999
latome96 F44: set_BCID=-1; ini_BCID=3460; height=-9999
latome96 F45: set_BCID=-1; ini_BCID=3460; height=-9999
latome96 F46: set_BCID=-1; ini_BCID=3460; height=-9999
latome96 F47: set_BCID=-1; ini_BCID=3460; height=-9999
latome146 F3: set_BCID=-1; ini_BCID=3460; height=-9999
latome146 F4: set_BCID=-1; ini_BCID=3460; height=-9999
latome146 F5: set_BCID=-1; ini_BCID=3460; height=-9999
latome146 F6: set_BCID=-1; ini_BCID=3460; height=-9999
latome146 F7: set_BCID=-1; ini_BCID=3460; height=-9999
latome146 F8: set_BCID=-1; ini_BCID=3460; height=-9999
latome146 F9: set_BCID=-1; ini_BCID=3460; height=-9999
latome146 F10: set_BCID=-1; ini_BCID=3460; height=-9999
latome146 F11: set_BCID=-1; ini_BCID=3459; height=-9999
latome146 F38: set_BCID=-1; ini_BCID=3460; height=-9999
latome146 F39: set_BCID=-1; ini_BCID=3460; height=-9999
latome146 F40: set_BCID=-1; ini_BCID=3460; height=-9999
latome146 F41: set_BCID=-1; ini_BCID=3460; height=-9999
latome146 F42: set_BCID=-1; ini_BCID=3460; height=-9999
latome146 F43: set_BCID=-1; ini_BCID=3460; height=-9999
latome146 F44: set_BCID=-1; ini_BCID=3460; height=-9999
latome146 F45: set_BCID=-1; ini_BCID=3460; height=-9999
latome146 F46: set_BCID=-1; ini_BCID=3460; height=-9999
latome138 F14: set_BCID=-1; ini_BCID=3460; height=-9999
latome138 F15: set_BCID=-1; ini_BCID=3460; height=-9999
latome138 F16: set_BCID=-1; ini_BCID=3460; height=-9999
latome138 F17: set_BCID=-1; ini_BCID=3460; height=-9999
latome138 F18: set_BCID=-1; ini_BCID=3460; height=-9999
latome138 F19: set_BCID=-1; ini_BCID=3460; height=-9999
latome138 F20: set_BCID=-1; ini_BCID=3460; height=-9999
latome138 F21: set_BCID=-1; ini_BCID=3460; height=-9999
latome138 F22: set_BCID=-1; ini_BCID=3460; height=-9999
latome138 F27: set_BCID=-1; ini_BCID=3460; height=-9999
latome138 F28: set_BCID=-1; ini_BCID=3460; height=-9999
latome138 F29: set_BCID=-1; ini_BCID=3460; height=-9999
latome138 F30: set_BCID=-1; ini_BCID=3461; height=-9999
latome138 F31: set_BCID=-1; ini_BCID=3460; height=-9999
latome138 F32: set_BCID=-1; ini_BCID=3460; height=-9999
latome138 F33: set_BCID=-1; ini_BCID=3460; height=-9999
latome138 F34: set_BCID=-1; ini_BCID=3460; height=-9999
latome138 F35: set_BCID=-1; ini_BCID=3460; height=-9999
latome86 F44: set_BCID=-1; ini_BCID=3462; height=-9999
