
Processing macro.C+("inputfile/LArDigits_v8.root","EMBC_4","outputs/hist/LArDigits_v8_hist.root","results/LArDigits_v8/latome122.ini","LATOME_ini_file/latome122.ini",false)...

******************** Start to read ini BCID: ********************
input file: LATOME_ini_file/latome122.ini
F0  BCID=0; 
F1  BCID=0; 
F2  BCID=3459; 
F3  BCID=3459; 
F4  BCID=3459; 
F5  BCID=3459; 
F6  BCID=3459; 
F7  BCID=3459; 
F8  BCID=3460; 
F9  BCID=3460; 
F10  BCID=3459; 
F11  BCID=3460; 
F12  BCID=0; 
F13  BCID=0; 
F14  BCID=3459; 
F15  BCID=3459; 
F16  BCID=3459; 
F17  BCID=3459; 
F18  BCID=3459; 
F19  BCID=3459; 
F20  BCID=3459; 
F21  BCID=3459; 
F22  BCID=3459; 
F23  BCID=3459; 
F24  BCID=0; 
F25  BCID=0; 
F26  BCID=3459; 
F27  BCID=3459; 
F28  BCID=3459; 
F29  BCID=3459; 
F30  BCID=3459; 
F31  BCID=3459; 
F32  BCID=3459; 
F33  BCID=3459; 
F34  BCID=3459; 
F35  BCID=3459; 
F36  BCID=0; 
F37  BCID=0; 
F38  BCID=3459; 
F39  BCID=3459; 
F40  BCID=3459; 
F41  BCID=3459; 
F42  BCID=3459; 
F43  BCID=3459; 
F44  BCID=3459; 
F45  BCID=3459; 
F46  BCID=3459; 
F47  BCID=3459; 
48 fibers are read!

******************** Start to read LArId info: ********************
SCname=1P_P1; channelId=943718912; 
SCname=1O_P1; channelId=943718400; 
SCname=2P_P1; channelId=943719936; 
SCname=2O_P1; channelId=943719424; 
SCname=3P_P1; channelId=943720960; 
SCname=3O_P1; channelId=943720448; 
SCname=4P_P1; channelId=943721984; 
SCname=4O_P1; channelId=943721472; 
SCname=5P_P1; channelId=943723008; 
SCname=5O_P1; channelId=943722496; 
SCname=6P_P1; channelId=943724032; 
SCname=6O_P1; channelId=943723520; 
SCname=7P_P1; channelId=943725056; 
SCname=7O_P1; channelId=943724544; 
SCname=8P_P1; channelId=943726080; 
SCname=8O_P1; channelId=943725568; 
SCname=1P_F1; channelId=943734272; 
SCname=1P_F2; channelId=943735296; 
SCname=1P_F3; channelId=943736320; 
SCname=1P_F4; channelId=943737344; 
SCname=2P_F1; channelId=943738368; 
SCname=2P_F2; channelId=943739392; 
SCname=2P_F3; channelId=943740416; 
SCname=2P_F4; channelId=943741440; 
SCname=1O_F1; channelId=943733760; 
SCname=1O_F2; channelId=943734784; 
SCname=1O_F3; channelId=943735808; 
SCname=1O_F4; channelId=943736832; 
SCname=2O_F1; channelId=943737856; 
SCname=2O_F2; channelId=943738880; 
SCname=2O_F3; channelId=943739904; 
SCname=2O_F4; channelId=943740928; 
SCname=3P_F1; channelId=943742464; 
SCname=3P_F2; channelId=943743488; 
SCname=3P_F3; channelId=943744512; 
SCname=3P_F4; channelId=943745536; 
SCname=4P_F1; channelId=943746560; 
SCname=4P_F2; channelId=943747584; 
SCname=4P_F3; channelId=943748608; 
SCname=4P_F4; channelId=943749632; 
SCname=3O_F1; channelId=943741952; 
SCname=3O_F2; channelId=943742976; 
SCname=3O_F3; channelId=943744000; 
SCname=3O_F4; channelId=943745024; 
SCname=4O_F1; channelId=943746048; 
SCname=4O_F2; channelId=943747072; 
SCname=4O_F3; channelId=943748096; 
SCname=4O_F4; channelId=943749120; 
SCname=5P_F1; channelId=943750656; 
SCname=5P_F2; channelId=943751680; 
SCname=5P_F3; channelId=943752704; 
SCname=5P_F4; channelId=943753728; 
SCname=6P_F1; channelId=943754752; 
SCname=6P_F2; channelId=943755776; 
SCname=6P_F3; channelId=943756800; 
SCname=6P_F4; channelId=943757824; 
SCname=5O_F1; channelId=943750144; 
SCname=5O_F2; channelId=943751168; 
SCname=5O_F3; channelId=943752192; 
SCname=5O_F4; channelId=943753216; 
SCname=6O_F1; channelId=943754240; 
SCname=6O_F2; channelId=943755264; 
SCname=6O_F3; channelId=943756288; 
SCname=6O_F4; channelId=943757312; 
SCname=7P_F1; channelId=943758848; 
SCname=7P_F2; channelId=943759872; 
SCname=7P_F3; channelId=943760896; 
SCname=7P_F4; channelId=943761920; 
SCname=8P_F1; channelId=943762944; 
SCname=8P_F2; channelId=943763968; 
SCname=8P_F3; channelId=943764992; 
SCname=8P_F4; channelId=943766016; 
SCname=7O_F1; channelId=943758336; 
SCname=7O_F2; channelId=943759360; 
SCname=7O_F3; channelId=943760384; 
SCname=7O_F4; channelId=943761408; 
SCname=8O_F1; channelId=943762432; 
SCname=8O_F2; channelId=943763456; 
SCname=8O_F3; channelId=943764480; 
SCname=8O_F4; channelId=943765504; 
SCname=1P_B1; channelId=943853056; 
SCname=2P_B1; channelId=943854080; 
SCname=3P_B1; channelId=943855104; 
SCname=4P_B1; channelId=943856128; 
SCname=5P_B1; channelId=943857152; 
SCname=6P_B1; channelId=943858176; 
SCname=7P_B1; channelId=943859200; 
SCname=8P_B1; channelId=943860224; 
SCname=1O_B1; channelId=943852544; 
SCname=2O_B1; channelId=943853568; 
SCname=3O_B1; channelId=943854592; 
SCname=4O_B1; channelId=943855616; 
SCname=5O_B1; channelId=943856640; 
SCname=6O_B1; channelId=943857664; 
SCname=7O_B1; channelId=943858688; 
SCname=8O_B1; channelId=943859712; 
SCname=1P_M1; channelId=943794688; 
SCname=1P_M2; channelId=943795712; 
SCname=1P_M3; channelId=943796736; 
SCname=1P_M4; channelId=943797760; 
SCname=2P_M1; channelId=943798784; 
SCname=2P_M2; channelId=943799808; 
SCname=2P_M3; channelId=943800832; 
SCname=2P_M4; channelId=943801856; 
SCname=3P_M1; channelId=943802880; 
SCname=3P_M2; channelId=943803904; 
SCname=3P_M3; channelId=943804928; 
SCname=3P_M4; channelId=943805952; 
SCname=4P_M1; channelId=943806976; 
SCname=4P_M2; channelId=943808000; 
SCname=4P_M3; channelId=943809024; 
SCname=4P_M4; channelId=943810048; 
SCname=1O_M1; channelId=943794176; 
SCname=1O_M2; channelId=943795200; 
SCname=1O_M3; channelId=943796224; 
SCname=1O_M4; channelId=943797248; 
SCname=2O_M1; channelId=943798272; 
SCname=2O_M2; channelId=943799296; 
SCname=2O_M3; channelId=943800320; 
SCname=2O_M4; channelId=943801344; 
SCname=3O_M1; channelId=943802368; 
SCname=3O_M2; channelId=943803392; 
SCname=3O_M3; channelId=943804416; 
SCname=3O_M4; channelId=943805440; 
SCname=4O_M1; channelId=943806464; 
SCname=4O_M2; channelId=943807488; 
SCname=4O_M3; channelId=943808512; 
SCname=4O_M4; channelId=943809536; 
SCname=5P_M1; channelId=943811072; 
SCname=5P_M2; channelId=943812096; 
SCname=5P_M3; channelId=943813120; 
SCname=5P_M4; channelId=943814144; 
SCname=6P_M1; channelId=943815168; 
SCname=6P_M2; channelId=943816192; 
SCname=6P_M3; channelId=943817216; 
SCname=6P_M4; channelId=943818240; 
SCname=7P_M1; channelId=943819264; 
SCname=7P_M2; channelId=943820288; 
SCname=7P_M3; channelId=943821312; 
SCname=7P_M4; channelId=943822336; 
SCname=8P_M1; channelId=943823360; 
SCname=8P_M2; channelId=943824384; 
SCname=8P_M3; channelId=943825408; 
SCname=8P_M4; channelId=943826432; 
SCname=5O_M1; channelId=943810560; 
SCname=5O_M2; channelId=943811584; 
SCname=5O_M3; channelId=943812608; 
SCname=5O_M4; channelId=943813632; 
SCname=6O_M1; channelId=943814656; 
SCname=6O_M2; channelId=943815680; 
SCname=6O_M3; channelId=943816704; 
SCname=6O_M4; channelId=943817728; 
SCname=7O_M1; channelId=943818752; 
SCname=7O_M2; channelId=943819776; 
SCname=7O_M3; channelId=943820800; 
SCname=7O_M4; channelId=943821824; 
SCname=8O_M1; channelId=943822848; 
SCname=8O_M2; channelId=943823872; 
SCname=8O_M3; channelId=943824896; 
SCname=8O_M4; channelId=943825920; 
SCname=1N_P1; channelId=944243200; 
SCname=1M_P1; channelId=944242688; 
SCname=2N_P1; channelId=944244224; 
SCname=2M_P1; channelId=944243712; 
SCname=3N_P1; channelId=944245248; 
SCname=3M_P1; channelId=944244736; 
SCname=4N_P1; channelId=944246272; 
SCname=4M_P1; channelId=944245760; 
SCname=5N_P1; channelId=944247296; 
SCname=5M_P1; channelId=944246784; 
SCname=6N_P1; channelId=944248320; 
SCname=6M_P1; channelId=944247808; 
SCname=7N_P1; channelId=944249344; 
SCname=7M_P1; channelId=944248832; 
SCname=8N_P1; channelId=944250368; 
SCname=8M_P1; channelId=944249856; 
SCname=1N_F1; channelId=944258560; 
SCname=1N_F2; channelId=944259584; 
SCname=1N_F3; channelId=944260608; 
SCname=1N_F4; channelId=944261632; 
SCname=2N_F1; channelId=944262656; 
SCname=2N_F2; channelId=944263680; 
SCname=2N_F3; channelId=944264704; 
SCname=2N_F4; channelId=944265728; 
SCname=1M_F1; channelId=944258048; 
SCname=1M_F2; channelId=944259072; 
SCname=1M_F3; channelId=944260096; 
SCname=1M_F4; channelId=944261120; 
SCname=2M_F1; channelId=944262144; 
SCname=2M_F2; channelId=944263168; 
SCname=2M_F3; channelId=944264192; 
SCname=2M_F4; channelId=944265216; 
SCname=3N_F1; channelId=944266752; 
SCname=3N_F2; channelId=944267776; 
SCname=3N_F3; channelId=944268800; 
SCname=3N_F4; channelId=944269824; 
SCname=4N_F1; channelId=944270848; 
SCname=4N_F2; channelId=944271872; 
SCname=4N_F3; channelId=944272896; 
SCname=4N_F4; channelId=944273920; 
SCname=3M_F1; channelId=944266240; 
SCname=3M_F2; channelId=944267264; 
SCname=3M_F3; channelId=944268288; 
SCname=3M_F4; channelId=944269312; 
SCname=4M_F1; channelId=944270336; 
SCname=4M_F2; channelId=944271360; 
SCname=4M_F3; channelId=944272384; 
SCname=4M_F4; channelId=944273408; 
SCname=5N_F1; channelId=944274944; 
SCname=5N_F2; channelId=944275968; 
SCname=5N_F3; channelId=944276992; 
SCname=5N_F4; channelId=944278016; 
SCname=6N_F1; channelId=944279040; 
SCname=6N_F2; channelId=944280064; 
SCname=6N_F3; channelId=944281088; 
SCname=6N_F4; channelId=944282112; 
SCname=5M_F1; channelId=944274432; 
SCname=5M_F2; channelId=944275456; 
SCname=5M_F3; channelId=944276480; 
SCname=5M_F4; channelId=944277504; 
SCname=6M_F1; channelId=944278528; 
SCname=6M_F2; channelId=944279552; 
SCname=6M_F3; channelId=944280576; 
SCname=6M_F4; channelId=944281600; 
SCname=7N_F1; channelId=944283136; 
SCname=7N_F2; channelId=944284160; 
SCname=7N_F3; channelId=944285184; 
SCname=7N_F4; channelId=944286208; 
SCname=8N_F1; channelId=944287232; 
SCname=8N_F2; channelId=944288256; 
SCname=8N_F3; channelId=944289280; 
SCname=8N_F4; channelId=944290304; 
SCname=7M_F1; channelId=944282624; 
SCname=7M_F2; channelId=944283648; 
SCname=7M_F3; channelId=944284672; 
SCname=7M_F4; channelId=944285696; 
SCname=8M_F1; channelId=944286720; 
SCname=8M_F2; channelId=944287744; 
SCname=8M_F3; channelId=944288768; 
SCname=8M_F4; channelId=944289792; 
SCname=1N_B1; channelId=944377344; 
SCname=2N_B1; channelId=944378368; 
SCname=3N_B1; channelId=944379392; 
SCname=4N_B1; channelId=944380416; 
SCname=5N_B1; channelId=944381440; 
SCname=6N_B1; channelId=944382464; 
SCname=7N_B1; channelId=944383488; 
SCname=8N_B1; channelId=944384512; 
SCname=1M_B1; channelId=944376832; 
SCname=2M_B1; channelId=944377856; 
SCname=3M_B1; channelId=944378880; 
SCname=4M_B1; channelId=944379904; 
SCname=5M_B1; channelId=944380928; 
SCname=6M_B1; channelId=944381952; 
SCname=7M_B1; channelId=944382976; 
SCname=8M_B1; channelId=944384000; 
SCname=1N_M1; channelId=944318976; 
SCname=1N_M2; channelId=944320000; 
SCname=1N_M3; channelId=944321024; 
SCname=1N_M4; channelId=944322048; 
SCname=2N_M1; channelId=944323072; 
SCname=2N_M2; channelId=944324096; 
SCname=2N_M3; channelId=944325120; 
SCname=2N_M4; channelId=944326144; 
SCname=3N_M1; channelId=944327168; 
SCname=3N_M2; channelId=944328192; 
SCname=3N_M3; channelId=944329216; 
SCname=3N_M4; channelId=944330240; 
SCname=4N_M1; channelId=944331264; 
SCname=4N_M2; channelId=944332288; 
SCname=4N_M3; channelId=944333312; 
SCname=4N_M4; channelId=944334336; 
SCname=1M_M1; channelId=944318464; 
SCname=1M_M2; channelId=944319488; 
SCname=1M_M3; channelId=944320512; 
SCname=1M_M4; channelId=944321536; 
SCname=2M_M1; channelId=944322560; 
SCname=2M_M2; channelId=944323584; 
SCname=2M_M3; channelId=944324608; 
SCname=2M_M4; channelId=944325632; 
SCname=3M_M1; channelId=944326656; 
SCname=3M_M2; channelId=944327680; 
SCname=3M_M3; channelId=944328704; 
SCname=3M_M4; channelId=944329728; 
SCname=4M_M1; channelId=944330752; 
SCname=4M_M2; channelId=944331776; 
SCname=4M_M3; channelId=944332800; 
SCname=4M_M4; channelId=944333824; 
SCname=5N_M1; channelId=944335360; 
SCname=5N_M2; channelId=944336384; 
SCname=5N_M3; channelId=944337408; 
SCname=5N_M4; channelId=944338432; 
SCname=6N_M1; channelId=944339456; 
SCname=6N_M2; channelId=944340480; 
SCname=6N_M3; channelId=944341504; 
SCname=6N_M4; channelId=944342528; 
SCname=7N_M1; channelId=944343552; 
SCname=7N_M2; channelId=944344576; 
SCname=7N_M3; channelId=944345600; 
SCname=7N_M4; channelId=944346624; 
SCname=8N_M1; channelId=944347648; 
SCname=8N_M2; channelId=944348672; 
SCname=8N_M3; channelId=944349696; 
SCname=8N_M4; channelId=944350720; 
SCname=5M_M1; channelId=944334848; 
SCname=5M_M2; channelId=944335872; 
SCname=5M_M3; channelId=944336896; 
SCname=5M_M4; channelId=944337920; 
SCname=6M_M1; channelId=944338944; 
SCname=6M_M2; channelId=944339968; 
SCname=6M_M3; channelId=944340992; 
SCname=6M_M4; channelId=944342016; 
SCname=7M_M1; channelId=944343040; 
SCname=7M_M2; channelId=944344064; 
SCname=7M_M3; channelId=944345088; 
SCname=7M_M4; channelId=944346112; 
SCname=8M_M1; channelId=944347136; 
SCname=8M_M2; channelId=944348160; 
SCname=8M_M3; channelId=944349184; 
SCname=8M_M4; channelId=944350208; 
320 SCs are read!  LATOME is EMBC_4

******************** Start to read SCs info per fiber: ********************
IN F3 1N_B1 2N_B1 4N_B1 3N_B1 6N_B1 5N_B1 8N_B1 7N_B1
IN F4 2N_M2 2N_M1 2N_M4 2N_M3 1N_M3 1N_M4 1N_M1 1N_M2
IN F5 3N_M1 3N_M2 3N_M4 3N_M3 4N_M4 4N_M3 4N_M2 4N_M1
IN F6 6N_F4 6N_F3 6N_F2 6N_F1 5N_F1 5N_F2 5N_F3 5N_F4
IN F7 7N_M1 7N_M2 7N_M3 7N_M4 8N_M3 8N_M4 8N_M2 8N_M1
IN F8 8N_P1 7N_P1 5N_P1 6N_P1 4N_P1 3N_P1 2N_P1 1N_P1
IN F9 5N_M1 5N_M2 5N_M3 5N_M4 6N_M4 6N_M3 6N_M1 6N_M2
IN F10 4N_F1 4N_F2 4N_F4 4N_F3 3N_F4 3N_F3 3N_F2 3N_F1
IN F11 7N_F1 7N_F2 7N_F3 7N_F4 8N_F1 8N_F2 8N_F4 8N_F3
IN F12 2N_F3 2N_F4 2N_F2 2N_F1 1N_F4 1N_F3 1N_F2 1N_F1
IN F15 1M_F2 1M_F1 1M_F4 1M_F3 2M_F1 2M_F2 2M_F3 2M_F4
IN F16 8M_M2 8M_M1 8M_M4 8M_M3 7M_M4 7M_M3 7M_M1 7M_M2
IN F17 3M_F1 3M_F2 3M_F3 3M_F4 4M_F1 4M_F2 4M_F4 4M_F3
IN F18 6M_M3 6M_M4 6M_M1 6M_M2 5M_M2 5M_M1 5M_M4 5M_M3
IN F19 5M_F2 5M_F1 5M_F3 5M_F4 6M_F4 6M_F3 6M_F1 6M_F2
IN F20 3M_M1 3M_M2 3M_M3 3M_M4 4M_M4 4M_M3 4M_M1 4M_M2
IN F21 7M_F2 7M_F1 7M_F3 7M_F4 8M_F2 8M_F1 8M_F4 8M_F3
IN F22 7M_P1 8M_P1 6M_P1 5M_P1 2M_P1 1M_P1 3M_P1 4M_P1
IN F23 1M_M2 1M_M1 1M_M3 1M_M4 2M_M4 2M_M3 2M_M1 2M_M2
IN F24 7M_B1 8M_B1 6M_B1 5M_B1 1M_B1 2M_B1 3M_B1 4M_B1
IN F27 1P_B1 2P_B1 4P_B1 3P_B1 6P_B1 5P_B1 8P_B1 7P_B1
IN F28 2P_M2 2P_M1 2P_M4 2P_M3 1P_M3 1P_M4 1P_M1 1P_M2
IN F29 3P_M1 3P_M2 3P_M4 3P_M3 4P_M4 4P_M3 4P_M2 4P_M1
IN F30 6P_F4 6P_F3 6P_F2 6P_F1 5P_F1 5P_F2 5P_F3 5P_F4
IN F31 7P_M1 7P_M2 7P_M3 7P_M4 8P_M3 8P_M4 8P_M2 8P_M1
IN F32 8P_P1 7P_P1 5P_P1 6P_P1 4P_P1 3P_P1 2P_P1 1P_P1
IN F33 5P_M1 5P_M2 5P_M3 5P_M4 6P_M4 6P_M3 6P_M1 6P_M2
IN F34 4P_F1 4P_F2 4P_F4 4P_F3 3P_F4 3P_F3 3P_F2 3P_F1
IN F35 7P_F1 7P_F2 7P_F3 7P_F4 8P_F1 8P_F2 8P_F4 8P_F3
IN F36 2P_F3 2P_F4 2P_F2 2P_F1 1P_F4 1P_F3 1P_F2 1P_F1
IN F39 1O_F2 1O_F1 1O_F4 1O_F3 2O_F1 2O_F2 2O_F3 2O_F4
IN F40 8O_M2 8O_M1 8O_M4 8O_M3 7O_M4 7O_M3 7O_M1 7O_M2
IN F41 3O_F1 3O_F2 3O_F3 3O_F4 4O_F1 4O_F2 4O_F4 4O_F3
IN F42 6O_M3 6O_M4 6O_M1 6O_M2 5O_M2 5O_M1 5O_M4 5O_M3
IN F43 5O_F2 5O_F1 5O_F3 5O_F4 6O_F4 6O_F3 6O_F1 6O_F2
IN F44 3O_M1 3O_M2 3O_M3 3O_M4 4O_M4 4O_M3 4O_M1 4O_M2
IN F45 7O_F2 7O_F1 7O_F3 7O_F4 8O_F2 8O_F1 8O_F4 8O_F3
IN F46 7O_P1 8O_P1 6O_P1 5O_P1 2O_P1 1O_P1 3O_P1 4O_P1
IN F47 1O_M2 1O_M1 1O_M3 1O_M4 2O_M4 2O_M3 2O_M1 2O_M2
IN F48 7O_B1 8O_B1 6O_B1 5O_B1 1O_B1 2O_B1 3O_B1 4O_B1
40 fibers are connected!

******************** Start to search BCID of peak sampling: ********************
IN F2; 1N_B1=0; 2N_B1=0; 4N_B1=0; 3N_B1=0; 6N_B1=0; 5N_B1=0; 8N_B1=0; 7N_B1=0;  BCID_rms=0; height=838
IN F3; 2N_M2=0; 2N_M1=0; 2N_M4=0; 2N_M3=0; 1N_M3=0; 1N_M4=0; 1N_M1=0; 1N_M2=0;  BCID_rms=0; height=313
IN F4; 3N_M1=0; 3N_M2=0; 3N_M4=0; 3N_M3=0; 4N_M4=0; 4N_M3=0; 4N_M2=0; 4N_M1=0;  BCID_rms=0; height=309
IN F5; 6N_F4=0; 6N_F3=0; 6N_F2=0; 6N_F1=0; 5N_F1=0; 5N_F2=0; 5N_F3=0; 5N_F4=0;  BCID_rms=0; height=310
IN F6; 7N_M1=0; 7N_M2=0; 7N_M3=0; 7N_M4=0; 8N_M3=0; 8N_M4=0; 8N_M2=0; 8N_M1=0;  BCID_rms=0; height=298
IN F7; 8N_P1=0; 7N_P1=0; 5N_P1=0; 6N_P1=0; 4N_P1=0; 3N_P1=0; 2N_P1=0; 1N_P1=0;  BCID_rms=0; height=28
IN F8; 5N_M1=-1; 5N_M2=-1; 5N_M3=-1; 5N_M4=-1; 6N_M4=-1; 6N_M3=-1; 6N_M1=-1; 6N_M2=-1;  BCID_rms=0; height=294
IN F9; 4N_F1=-1; 4N_F2=-1; 4N_F4=-1; 4N_F3=-1; 3N_F4=-1; 3N_F3=-1; 3N_F2=-1; 3N_F1=-1;  BCID_rms=0; height=293
IN F10; 7N_F1=0; 7N_F2=0; 7N_F3=0; 7N_F4=0; 8N_F1=0; 8N_F2=0; 8N_F4=0; 8N_F3=0;  BCID_rms=0; height=293
IN F11; 2N_F3=-1; 2N_F4=-1; 2N_F2=-1; 2N_F1=-1; 1N_F4=-1; 1N_F3=-1; 1N_F2=-1; 1N_F1=-1;  BCID_rms=0; height=287
IN F14; 1M_F2=0; 1M_F1=0; 1M_F4=0; 1M_F3=0; 2M_F1=0; 2M_F2=0; 2M_F3=0; 2M_F4=0;  BCID_rms=0; height=301
IN F15; 8M_M2=0; 8M_M1=0; 8M_M4=0; 8M_M3=0; 7M_M4=0; 7M_M3=0; 7M_M1=0; 7M_M2=0;  BCID_rms=0; height=308
IN F16; 3M_F1=0; 3M_F2=0; 3M_F3=0; 3M_F4=0; 4M_F1=0; 4M_F2=0; 4M_F4=0; 4M_F3=0;  BCID_rms=0; height=293
IN F17; 6M_M3=0; 6M_M4=0; 6M_M1=0; 6M_M2=0; 5M_M2=0; 5M_M1=0; 5M_M4=0; 5M_M3=0;  BCID_rms=0; height=302
IN F18; 5M_F2=0; 5M_F1=0; 5M_F3=0; 5M_F4=0; 6M_F4=0; 6M_F3=0; 6M_F1=0; 6M_F2=0;  BCID_rms=0; height=299
IN F19; 3M_M1=0; 3M_M2=0; 3M_M3=0; 3M_M4=0; 4M_M4=0; 4M_M3=0; 4M_M1=0; 4M_M2=0;  BCID_rms=0; height=297
IN F20; 7M_F2=0; 7M_F1=0; 7M_F3=0; 7M_F4=0; 8M_F2=0; 8M_F1=0; 8M_F4=0; 8M_F3=0;  BCID_rms=0; height=294
IN F21; 7M_P1=0; 8M_P1=0; 6M_P1=0; 5M_P1=0; 2M_P1=0; 1M_P1=0; 3M_P1=0; 4M_P1=0;  BCID_rms=0; height=29
IN F22; 1M_M2=0; 1M_M1=0; 1M_M3=0; 1M_M4=0; 2M_M4=0; 2M_M3=0; 2M_M1=0; 2M_M2=0;  BCID_rms=0; height=316
IN F23; 7M_B1=0; 8M_B1=0; 6M_B1=0; 5M_B1=0; 1M_B1=0; 2M_B1=0; 3M_B1=0; 4M_B1=0;  BCID_rms=0; height=811
IN F26; 1P_B1=0; 2P_B1=0; 4P_B1=0; 3P_B1=0; 6P_B1=0; 5P_B1=0; 8P_B1=0; 7P_B1=0;  BCID_rms=0; height=822
IN F27; 2P_M2=0; 2P_M1=0; 2P_M4=0; 2P_M3=0; 1P_M3=0; 1P_M4=0; 1P_M1=0; 1P_M2=0;  BCID_rms=0; height=328
IN F28; 3P_M1=0; 3P_M2=0; 3P_M4=0; 3P_M3=0; 4P_M4=0; 4P_M3=0; 4P_M2=0; 4P_M1=0;  BCID_rms=0; height=317
IN F29; 6P_F4=0; 6P_F3=0; 6P_F2=0; 6P_F1=0; 5P_F1=0; 5P_F2=0; 5P_F3=0; 5P_F4=0;  BCID_rms=0; height=304
IN F30; 7P_M1=0; 7P_M2=0; 7P_M3=0; 7P_M4=0; 8P_M3=0; 8P_M4=0; 8P_M2=0; 8P_M1=0;  BCID_rms=0; height=296
IN F31; 8P_P1=0; 7P_P1=0; 5P_P1=0; 6P_P1=0; 4P_P1=0; 3P_P1=0; 2P_P1=0; 1P_P1=0;  BCID_rms=0; height=26
IN F32; 5P_M1=0; 5P_M2=0; 5P_M3=0; 5P_M4=0; 6P_M4=0; 6P_M3=0; 6P_M1=0; 6P_M2=0;  BCID_rms=0; height=302
IN F33; 4P_F1=0; 4P_F2=0; 4P_F4=0; 4P_F3=0; 3P_F4=0; 3P_F3=0; 3P_F2=0; 3P_F1=0;  BCID_rms=0; height=304
IN F34; 7P_F1=0; 7P_F2=0; 7P_F3=0; 7P_F4=0; 8P_F1=0; 8P_F2=0; 8P_F4=0; 8P_F3=0;  BCID_rms=0; height=309
IN F35; 2P_F3=0; 2P_F4=0; 2P_F2=0; 2P_F1=0; 1P_F4=0; 1P_F3=0; 1P_F2=0; 1P_F1=0;  BCID_rms=0; height=301
IN F38; 1O_F2=0; 1O_F1=0; 1O_F4=0; 1O_F3=0; 2O_F1=0; 2O_F2=0; 2O_F3=0; 2O_F4=0;  BCID_rms=0; height=294
IN F39; 8O_M2=0; 8O_M1=0; 8O_M4=0; 8O_M3=0; 7O_M4=0; 7O_M3=0; 7O_M1=0; 7O_M2=0;  BCID_rms=0; height=297
IN F40; 3O_F1=0; 3O_F2=0; 3O_F3=0; 3O_F4=0; 4O_F1=0; 4O_F2=0; 4O_F4=0; 4O_F3=0;  BCID_rms=0; height=304
IN F41; 6O_M3=0; 6O_M4=0; 6O_M1=0; 6O_M2=0; 5O_M2=0; 5O_M1=0; 5O_M4=0; 5O_M3=0;  BCID_rms=0; height=293
IN F42; 5O_F2=0; 5O_F1=0; 5O_F3=0; 5O_F4=0; 6O_F4=0; 6O_F3=0; 6O_F1=0; 6O_F2=0;  BCID_rms=0; height=309
IN F43; 3O_M1=0; 3O_M2=0; 3O_M3=0; 3O_M4=0; 4O_M4=0; 4O_M3=0; 4O_M1=0; 4O_M2=0;  BCID_rms=0; height=307
IN F44; 7O_F2=0; 7O_F1=0; 7O_F3=0; 7O_F4=0; 8O_F2=0; 8O_F1=0; 8O_F4=0; 8O_F3=0;  BCID_rms=0; height=294
IN F45; 7O_P1=0; 8O_P1=0; 6O_P1=0; 5O_P1=0; 2O_P1=0; 1O_P1=0; 3O_P1=0; 4O_P1=0;  BCID_rms=0; height=26
IN F46; 1O_M2=0; 1O_M1=0; 1O_M3=0; 1O_M4=0; 2O_M4=0; 2O_M3=0; 2O_M1=0; 2O_M2=0;  BCID_rms=0; height=328
IN F47; 7O_B1=0; 8O_B1=0; 6O_B1=0; 5O_B1=0; 1O_B1=0; 2O_B1=0; 3O_B1=0; 4O_B1=0;  BCID_rms=0; height=807
