
Processing macro.C+("inputfile/LArDigits_v8.root","EMBC-EMECC_15","outputs/hist/LArDigits_v8_hist.root","results/LArDigits_v8/latome166.ini","LATOME_ini_file/latome166.ini",false)...

******************** Start to read ini BCID: ********************
input file: LATOME_ini_file/latome166.ini
F0  BCID=3462; 
F1  BCID=3462; 
F2  BCID=0; 
F3  BCID=3459; 
F4  BCID=3459; 
F5  BCID=3459; 
F6  BCID=3460; 
F7  BCID=3459; 
F8  BCID=3459; 
F9  BCID=3459; 
F10  BCID=3459; 
F11  BCID=3459; 
F12  BCID=3462; 
F13  BCID=3462; 
F14  BCID=3459; 
F15  BCID=3459; 
F16  BCID=3459; 
F17  BCID=3459; 
F18  BCID=3459; 
F19  BCID=3460; 
F20  BCID=3459; 
F21  BCID=3460; 
F22  BCID=3460; 
F23  BCID=0; 
F24  BCID=3463; 
F25  BCID=3462; 
F26  BCID=0; 
F27  BCID=3459; 
F28  BCID=3460; 
F29  BCID=3460; 
F30  BCID=3460; 
F31  BCID=3459; 
F32  BCID=3459; 
F33  BCID=3459; 
F34  BCID=3459; 
F35  BCID=3459; 
F36  BCID=3462; 
F37  BCID=3462; 
F38  BCID=3459; 
F39  BCID=3459; 
F40  BCID=3459; 
F41  BCID=3459; 
F42  BCID=3459; 
F43  BCID=3459; 
F44  BCID=3459; 
F45  BCID=3459; 
F46  BCID=3460; 
F47  BCID=0; 
48 fibers are read!

******************** Start to read LArId info: ********************
SCname=9L_P1; channelId=948969984; 
SCname=9K_P1; channelId=948969472; 
SCname=10L_P1; channelId=948971008; 
SCname=10K_P1; channelId=948970496; 
SCname=11L_P1; channelId=948972032; 
SCname=11K_P1; channelId=948971520; 
SCname=12L_P1; channelId=948973056; 
SCname=12K_P1; channelId=948972544; 
SCname=13L_P1; channelId=948974080; 
SCname=13K_P1; channelId=948973568; 
SCname=14L_P1; channelId=948975104; 
SCname=14K_P1; channelId=948974592; 
SCname=15L_P1; channelId=948976128; 
SCname=15K_P1; channelId=948975616; 
SCname=9L_F1; channelId=949009920; 
SCname=9L_F2; channelId=949010944; 
SCname=9L_F3; channelId=949011968; 
SCname=9L_F4; channelId=949012992; 
SCname=10L_F1; channelId=949014016; 
SCname=10L_F2; channelId=949015040; 
SCname=10L_F3; channelId=949016064; 
SCname=10L_F4; channelId=949017088; 
SCname=9K_F1; channelId=949009408; 
SCname=9K_F2; channelId=949010432; 
SCname=9K_F3; channelId=949011456; 
SCname=9K_F4; channelId=949012480; 
SCname=10K_F1; channelId=949013504; 
SCname=10K_F2; channelId=949014528; 
SCname=10K_F3; channelId=949015552; 
SCname=10K_F4; channelId=949016576; 
SCname=11L_F1; channelId=949018112; 
SCname=11L_F2; channelId=949019136; 
SCname=11L_F3; channelId=949020160; 
SCname=11L_F4; channelId=949021184; 
SCname=12L_F1; channelId=949022208; 
SCname=12L_F2; channelId=949023232; 
SCname=12L_F3; channelId=949024256; 
SCname=12L_F4; channelId=949025280; 
SCname=11K_F1; channelId=949017600; 
SCname=11K_F2; channelId=949018624; 
SCname=11K_F3; channelId=949019648; 
SCname=11K_F4; channelId=949020672; 
SCname=12K_F1; channelId=949021696; 
SCname=12K_F2; channelId=949022720; 
SCname=12K_F3; channelId=949023744; 
SCname=12K_F4; channelId=949024768; 
SCname=13L_F1; channelId=949026304; 
SCname=13L_F2; channelId=949027328; 
SCname=13L_F3; channelId=949028352; 
SCname=13L_F4; channelId=949029376; 
SCname=14L_F1; channelId=949030400; 
SCname=14L_F2; channelId=949031424; 
SCname=14L_F3; channelId=949032448; 
SCname=14L_F4; channelId=949033472; 
SCname=13K_F1; channelId=949025792; 
SCname=13K_F2; channelId=949026816; 
SCname=13K_F3; channelId=949027840; 
SCname=13K_F4; channelId=949028864; 
SCname=14K_F1; channelId=949029888; 
SCname=14K_F2; channelId=949030912; 
SCname=14K_F3; channelId=949031936; 
SCname=14K_F4; channelId=949032960; 
SCname=9L_B1; channelId=949104128; 
SCname=10L_B1; channelId=949105152; 
SCname=11L_B1; channelId=949106176; 
SCname=12L_B1; channelId=949107200; 
SCname=13L_B1; channelId=949108224; 
SCname=14L_B1; channelId=949109248; 
SCname=15L_B1; channelId=949034496; 
SCname=15L_B2; channelId=949035520; 
SCname=15L_B3; channelId=949036544; 
SCname=15L_B4; channelId=949094912; 
SCname=9K_B1; channelId=949103616; 
SCname=10K_B1; channelId=949104640; 
SCname=11K_B1; channelId=949105664; 
SCname=12K_B1; channelId=949106688; 
SCname=13K_B1; channelId=949107712; 
SCname=14K_B1; channelId=949108736; 
SCname=15K_B1; channelId=949033984; 
SCname=15K_B2; channelId=949035008; 
SCname=15K_B3; channelId=949036032; 
SCname=15K_B4; channelId=949094400; 
SCname=9L_M1; channelId=949070336; 
SCname=9L_M2; channelId=949071360; 
SCname=9L_M3; channelId=949072384; 
SCname=9L_M4; channelId=949073408; 
SCname=10L_M1; channelId=949074432; 
SCname=10L_M2; channelId=949075456; 
SCname=10L_M3; channelId=949076480; 
SCname=10L_M4; channelId=949077504; 
SCname=11L_M1; channelId=949078528; 
SCname=11L_M2; channelId=949079552; 
SCname=11L_M3; channelId=949080576; 
SCname=11L_M4; channelId=949081600; 
SCname=12L_M1; channelId=949082624; 
SCname=12L_M2; channelId=949083648; 
SCname=12L_M3; channelId=949084672; 
SCname=12L_M4; channelId=949085696; 
SCname=9K_M1; channelId=949069824; 
SCname=9K_M2; channelId=949070848; 
SCname=9K_M3; channelId=949071872; 
SCname=9K_M4; channelId=949072896; 
SCname=10K_M1; channelId=949073920; 
SCname=10K_M2; channelId=949074944; 
SCname=10K_M3; channelId=949075968; 
SCname=10K_M4; channelId=949076992; 
SCname=11K_M1; channelId=949078016; 
SCname=11K_M2; channelId=949079040; 
SCname=11K_M3; channelId=949080064; 
SCname=11K_M4; channelId=949081088; 
SCname=12K_M1; channelId=949082112; 
SCname=12K_M2; channelId=949083136; 
SCname=12K_M3; channelId=949084160; 
SCname=12K_M4; channelId=949085184; 
SCname=13L_M1; channelId=949086720; 
SCname=13L_M2; channelId=949087744; 
SCname=13L_M3; channelId=949088768; 
SCname=13L_M4; channelId=949089792; 
SCname=13K_M1; channelId=949086208; 
SCname=13K_M2; channelId=949087232; 
SCname=13K_M3; channelId=949088256; 
SCname=13K_M4; channelId=949089280; 
SCname=14L_M1; channelId=949090816; 
SCname=14L_M2; channelId=949091840; 
SCname=14L_M3; channelId=949092864; 
SCname=14L_M4; channelId=949093888; 
SCname=14K_M1; channelId=949090304; 
SCname=14K_M2; channelId=949091328; 
SCname=14K_M3; channelId=949092352; 
SCname=14K_M4; channelId=949093376; 
SCname=9J_P1; channelId=949494272; 
SCname=9I_P1; channelId=949493760; 
SCname=10J_P1; channelId=949495296; 
SCname=10I_P1; channelId=949494784; 
SCname=11J_P1; channelId=949496320; 
SCname=11I_P1; channelId=949495808; 
SCname=12J_P1; channelId=949497344; 
SCname=12I_P1; channelId=949496832; 
SCname=13J_P1; channelId=949498368; 
SCname=13I_P1; channelId=949497856; 
SCname=14J_P1; channelId=949499392; 
SCname=14I_P1; channelId=949498880; 
SCname=15J_P1; channelId=949500416; 
SCname=15I_P1; channelId=949499904; 
SCname=9J_F1; channelId=949534208; 
SCname=9J_F2; channelId=949535232; 
SCname=9J_F3; channelId=949536256; 
SCname=9J_F4; channelId=949537280; 
SCname=10J_F1; channelId=949538304; 
SCname=10J_F2; channelId=949539328; 
SCname=10J_F3; channelId=949540352; 
SCname=10J_F4; channelId=949541376; 
SCname=9I_F1; channelId=949533696; 
SCname=9I_F2; channelId=949534720; 
SCname=9I_F3; channelId=949535744; 
SCname=9I_F4; channelId=949536768; 
SCname=10I_F1; channelId=949537792; 
SCname=10I_F2; channelId=949538816; 
SCname=10I_F3; channelId=949539840; 
SCname=10I_F4; channelId=949540864; 
SCname=11J_F1; channelId=949542400; 
SCname=11J_F2; channelId=949543424; 
SCname=11J_F3; channelId=949544448; 
SCname=11J_F4; channelId=949545472; 
SCname=12J_F1; channelId=949546496; 
SCname=12J_F2; channelId=949547520; 
SCname=12J_F3; channelId=949548544; 
SCname=12J_F4; channelId=949549568; 
SCname=11I_F1; channelId=949541888; 
SCname=11I_F2; channelId=949542912; 
SCname=11I_F3; channelId=949543936; 
SCname=11I_F4; channelId=949544960; 
SCname=12I_F1; channelId=949545984; 
SCname=12I_F2; channelId=949547008; 
SCname=12I_F3; channelId=949548032; 
SCname=12I_F4; channelId=949549056; 
SCname=13J_F1; channelId=949550592; 
SCname=13J_F2; channelId=949551616; 
SCname=13J_F3; channelId=949552640; 
SCname=13J_F4; channelId=949553664; 
SCname=14J_F1; channelId=949554688; 
SCname=14J_F2; channelId=949555712; 
SCname=14J_F3; channelId=949556736; 
SCname=14J_F4; channelId=949557760; 
SCname=13I_F1; channelId=949550080; 
SCname=13I_F2; channelId=949551104; 
SCname=13I_F3; channelId=949552128; 
SCname=13I_F4; channelId=949553152; 
SCname=14I_F1; channelId=949554176; 
SCname=14I_F2; channelId=949555200; 
SCname=14I_F3; channelId=949556224; 
SCname=14I_F4; channelId=949557248; 
SCname=9J_B1; channelId=949628416; 
SCname=10J_B1; channelId=949629440; 
SCname=11J_B1; channelId=949630464; 
SCname=12J_B1; channelId=949631488; 
SCname=13J_B1; channelId=949632512; 
SCname=14J_B1; channelId=949633536; 
SCname=15J_B1; channelId=949558784; 
SCname=15J_B2; channelId=949559808; 
SCname=15J_B3; channelId=949560832; 
SCname=15J_B4; channelId=949619200; 
SCname=9I_B1; channelId=949627904; 
SCname=10I_B1; channelId=949628928; 
SCname=11I_B1; channelId=949629952; 
SCname=12I_B1; channelId=949630976; 
SCname=13I_B1; channelId=949632000; 
SCname=14I_B1; channelId=949633024; 
SCname=15I_B1; channelId=949558272; 
SCname=15I_B2; channelId=949559296; 
SCname=15I_B3; channelId=949560320; 
SCname=15I_B4; channelId=949618688; 
SCname=9J_M1; channelId=949594624; 
SCname=9J_M2; channelId=949595648; 
SCname=9J_M3; channelId=949596672; 
SCname=9J_M4; channelId=949597696; 
SCname=10J_M1; channelId=949598720; 
SCname=10J_M2; channelId=949599744; 
SCname=10J_M3; channelId=949600768; 
SCname=10J_M4; channelId=949601792; 
SCname=11J_M1; channelId=949602816; 
SCname=11J_M2; channelId=949603840; 
SCname=11J_M3; channelId=949604864; 
SCname=11J_M4; channelId=949605888; 
SCname=12J_M1; channelId=949606912; 
SCname=12J_M2; channelId=949607936; 
SCname=12J_M3; channelId=949608960; 
SCname=12J_M4; channelId=949609984; 
SCname=9I_M1; channelId=949594112; 
SCname=9I_M2; channelId=949595136; 
SCname=9I_M3; channelId=949596160; 
SCname=9I_M4; channelId=949597184; 
SCname=10I_M1; channelId=949598208; 
SCname=10I_M2; channelId=949599232; 
SCname=10I_M3; channelId=949600256; 
SCname=10I_M4; channelId=949601280; 
SCname=11I_M1; channelId=949602304; 
SCname=11I_M2; channelId=949603328; 
SCname=11I_M3; channelId=949604352; 
SCname=11I_M4; channelId=949605376; 
SCname=12I_M1; channelId=949606400; 
SCname=12I_M2; channelId=949607424; 
SCname=12I_M3; channelId=949608448; 
SCname=12I_M4; channelId=949609472; 
SCname=13J_M1; channelId=949611008; 
SCname=13J_M2; channelId=949612032; 
SCname=13J_M3; channelId=949613056; 
SCname=13J_M4; channelId=949614080; 
SCname=13I_M1; channelId=949610496; 
SCname=13I_M2; channelId=949611520; 
SCname=13I_M3; channelId=949612544; 
SCname=13I_M4; channelId=949613568; 
SCname=14J_M1; channelId=949615104; 
SCname=14J_M2; channelId=949616128; 
SCname=14J_M3; channelId=949617152; 
SCname=14J_M4; channelId=949618176; 
SCname=14I_M1; channelId=949614592; 
SCname=14I_M2; channelId=949615616; 
SCname=14I_M3; channelId=949616640; 
SCname=14I_M4; channelId=949617664; 
SCname=2L_P1; channelId=980948480; 
SCname=2K_P1; channelId=980947968; 
SCname=2J_P1; channelId=980947456; 
SCname=2I_P1; channelId=980946944; 
SCname=1L_F1; channelId=980956672; 
SCname=1K_F1; channelId=980956160; 
SCname=1J_F1; channelId=980955648; 
SCname=1I_F1; channelId=980955136; 
SCname=1L_M1; channelId=980997632; 
SCname=1L_M2; channelId=981005824; 
SCname=1L_M3; channelId=981014016; 
SCname=1L_M4; channelId=981022208; 
SCname=1K_M1; channelId=980997120; 
SCname=1K_M2; channelId=981005312; 
SCname=1K_M3; channelId=981013504; 
SCname=1K_M4; channelId=981021696; 
SCname=1J_M1; channelId=980996608; 
SCname=1J_M2; channelId=981004800; 
SCname=1J_M3; channelId=981012992; 
SCname=1J_M4; channelId=981021184; 
SCname=1I_M1; channelId=980996096; 
SCname=1I_M2; channelId=981004288; 
SCname=1I_M3; channelId=981012480; 
SCname=1I_M4; channelId=981020672; 
SCname=2L_F1; channelId=980964864; 
SCname=2L_F2; channelId=980973056; 
SCname=2L_F3; channelId=980981248; 
SCname=2L_F4; channelId=980989440; 
SCname=2K_F1; channelId=980964352; 
SCname=2K_F2; channelId=980972544; 
SCname=2K_F3; channelId=980980736; 
SCname=2K_F4; channelId=980988928; 
SCname=2J_F1; channelId=980963840; 
SCname=2J_F2; channelId=980972032; 
SCname=2J_F3; channelId=980980224; 
SCname=2J_F4; channelId=980988416; 
SCname=2I_F1; channelId=980963328; 
SCname=2I_F2; channelId=980971520; 
SCname=2I_F3; channelId=980979712; 
SCname=2I_F4; channelId=980987904; 
SCname=2L_B1; channelId=981063168; 
SCname=2K_B1; channelId=981062656; 
SCname=2J_B1; channelId=981062144; 
SCname=2I_B1; channelId=981061632; 
SCname=2L_M1; channelId=981030400; 
SCname=2L_M2; channelId=981038592; 
SCname=2L_M3; channelId=981046784; 
SCname=2L_M4; channelId=981054976; 
SCname=2K_M1; channelId=981029888; 
SCname=2K_M2; channelId=981038080; 
SCname=2K_M3; channelId=981046272; 
SCname=2K_M4; channelId=981054464; 
SCname=2J_M1; channelId=981029376; 
SCname=2J_M2; channelId=981037568; 
SCname=2J_M3; channelId=981045760; 
SCname=2J_M4; channelId=981053952; 
SCname=2I_M1; channelId=981028864; 
SCname=2I_M2; channelId=981037056; 
SCname=2I_M3; channelId=981045248; 
SCname=2I_M4; channelId=981053440; 
320 SCs are read!  LATOME is EMBC_EMECC_15

******************** Start to read SCs info per fiber: ********************
IN F1 2I_F2 2I_F1 2I_F4 2I_F3 2J_F4 2J_F3 2J_F2 2J_F1
IN F2 2I_M2 2I_M1 2I_M4 2I_M3 2J_M1 2J_M2 2J_M4 2J_M3
IN F4 GND 15I_P1 13I_P1 14I_P1 9I_P1 10I_P1 12I_P1 11I_P1
IN F5 13I_M1 13I_M2 13I_M4 13I_M3 14I_M3 14I_M4 14I_M1 14I_M2
IN F6 10I_M1 10I_M2 10I_M3 10I_M4 9I_M4 9I_M3 9I_M2 9I_M1
IN F7 11I_M3 11I_M4 11I_M1 11I_M2 12I_M1 12I_M2 12I_M4 12I_M3
IN F8 12I_F1 12I_F2 12I_F3 12I_F4 11I_F1 11I_F2 11I_F3 11I_F4
IN F9 9I_F2 9I_F1 9I_F4 9I_F3 10I_F2 10I_F1 10I_F4 10I_F3
IN F10 13J_B1 14J_B1 GND GND 9J_B1 10J_B1 11J_B1 12J_B1
IN F11 13I_F4 13I_F3 13I_F1 13I_F2 14I_F1 14I_F2 14I_F4 14I_F3
IN F12 15J_B4 15J_B3 15J_B1 15J_B2 GND GND GND GND
IN F13 1J_M4 1J_M3 1J_M1 1J_M2 1I_M4 1I_M3 1I_M1 1I_M2
IN F14 2L_P1 2K_P1 2I_P1 2J_P1 2K_B1 2L_B1 2I_B1 2J_B1
IN F15 12K_B1 11K_B1 10K_B1 9K_B1 GND GND 13K_B1 14K_B1
IN F16 14L_F2 14L_F1 14L_F4 14L_F3 13L_F4 13L_F3 13L_F1 13L_F2
IN F17 15K_B1 15K_B2 15K_B3 15K_B4 GND GND GND GND
IN F18 14L_P1 13L_P1 GND 15L_P1 11L_P1 12L_P1 9L_P1 10L_P1
IN F19 11L_F2 11L_F1 11L_F3 11L_F4 12L_F1 12L_F2 12L_F4 12L_F3
IN F20 9L_M1 9L_M2 9L_M3 9L_M4 10L_M1 10L_M2 10L_M4 10L_M3
IN F21 9L_F2 9L_F1 9L_F4 9L_F3 10L_F1 10L_F2 10L_F4 10L_F3
IN F22 14L_M4 14L_M3 14L_M1 14L_M2 13L_M4 13L_M3 13L_M1 13L_M2
IN F23 11L_M1 11L_M2 11L_M3 11L_M4 12L_M4 12L_M3 12L_M1 12L_M2
IN F25 1K_F1 1L_F1 1I_F1 1J_F1 GND GND GND GND
IN F26 1K_M1 1K_M2 1K_M4 1K_M3 1L_M4 1L_M3 1L_M2 1L_M1
IN F28 GND 15K_P1 13K_P1 14K_P1 9K_P1 10K_P1 12K_P1 11K_P1
IN F29 13K_M1 13K_M2 13K_M4 13K_M3 14K_M3 14K_M4 14K_M1 14K_M2
IN F30 10K_M1 10K_M2 10K_M3 10K_M4 9K_M4 9K_M3 9K_M2 9K_M1
IN F31 11K_M3 11K_M4 11K_M1 11K_M2 12K_M1 12K_M2 12K_M4 12K_M3
IN F32 12K_F1 12K_F2 12K_F3 12K_F4 11K_F1 11K_F2 11K_F3 11K_F4
IN F33 9K_F2 9K_F1 9K_F4 9K_F3 10K_F2 10K_F1 10K_F4 10K_F3
IN F34 13L_B1 14L_B1 GND GND 9L_B1 10L_B1 11L_B1 12L_B1
IN F35 13K_F4 13K_F3 13K_F1 13K_F2 14K_F1 14K_F2 14K_F4 14K_F3
IN F36 15L_B4 15L_B3 15L_B1 15L_B2 GND GND GND GND
IN F37 2K_M2 2K_M1 2K_M4 2K_M3 2L_M3 2L_M4 2L_M1 2L_M2
IN F38 2K_F2 2K_F1 2K_F3 2K_F4 2L_F1 2L_F2 2L_F4 2L_F3
IN F39 12I_B1 11I_B1 10I_B1 9I_B1 GND GND 13I_B1 14I_B1
IN F40 14J_F2 14J_F1 14J_F4 14J_F3 13J_F4 13J_F3 13J_F1 13J_F2
IN F41 15I_B1 15I_B2 15I_B3 15I_B4 GND GND GND GND
IN F42 14J_P1 13J_P1 GND 15J_P1 11J_P1 12J_P1 9J_P1 10J_P1
IN F43 11J_F2 11J_F1 11J_F3 11J_F4 12J_F1 12J_F2 12J_F4 12J_F3
IN F44 9J_M1 9J_M2 9J_M3 9J_M4 10J_M1 10J_M2 10J_M4 10J_M3
IN F45 9J_F2 9J_F1 9J_F4 9J_F3 10J_F1 10J_F2 10J_F4 10J_F3
IN F46 14J_M4 14J_M3 14J_M1 14J_M2 13J_M4 13J_M3 13J_M1 13J_M2
IN F47 11J_M1 11J_M2 11J_M3 11J_M4 12J_M4 12J_M3 12J_M1 12J_M2
44 fibers are connected!

******************** Start to search BCID of peak sampling: ********************
IN F0; 2I_F2=0; 2I_F1=0; 2I_F4=0; 2I_F3=0; 2J_F4=0; 2J_F3=0; 2J_F2=0; 2J_F1=0;  BCID_rms=0; height=321
IN F1; 2I_M2=0; 2I_M1=0; 2I_M4=0; 2I_M3=0; 2J_M1=0; 2J_M2=0; 2J_M4=0; 2J_M3=0;  BCID_rms=0; height=423
IN F3; GND; 15I_P1=0; 13I_P1=0; 14I_P1=0; 9I_P1=0; 10I_P1=0; 12I_P1=0; 11I_P1=0;  BCID_rms=0; height=29
IN F4; 13I_M1=0; 13I_M2=0; 13I_M4=0; 13I_M3=0; 14I_M3=0; 14I_M4=0; 14I_M1=0; 14I_M2=0;  BCID_rms=0; height=349
IN F5; 10I_M1=0; 10I_M2=0; 10I_M3=0; 10I_M4=0; 9I_M4=0; 9I_M3=0; 9I_M2=0; 9I_M1=0;  BCID_rms=0; height=326
IN F6; 11I_M3=-1; 11I_M4=-1; 11I_M1=-1; 11I_M2=-1; 12I_M1=-1; 12I_M2=-1; 12I_M4=-1; 12I_M3=-1;  BCID_rms=0; height=323
IN F7; 12I_F1=0; 12I_F2=0; 12I_F3=0; 12I_F4=0; 11I_F1=0; 11I_F2=0; 11I_F3=0; 11I_F4=0;  BCID_rms=0; height=306
IN F8; 9I_F2=0; 9I_F1=0; 9I_F4=0; 9I_F3=0; 10I_F2=0; 10I_F1=0; 10I_F4=0; 10I_F3=0;  BCID_rms=0; height=320
IN F9; 13J_B1=0; 14J_B1=0; GND; GND; 9J_B1=0; 10J_B1=0; 11J_B1=0; 12J_B1=0;  BCID_rms=0; height=212
IN F10; 13I_F4=0; 13I_F3=0; 13I_F1=0; 13I_F2=0; 14I_F1=0; 14I_F2=0; 14I_F4=0; 14I_F3=0;  BCID_rms=0; height=309
IN F11; 15J_B4=0; 15J_B3=-1; 15J_B1=-1; 15J_B2=-1; GND; GND; GND; GND;  BCID_rms=0.433013; height=47
IN F12; 1J_M4=1; 1J_M3=1; 1J_M1=0; 1J_M2=1; 1I_M4=1; 1I_M3=1; 1I_M1=0; 1I_M2=1;  BCID_rms=0.433013; height=109
IN F13; 2L_P1=0; 2K_P1=0; 2I_P1=0; 2J_P1=0; 2K_B1=0; 2L_B1=0; 2I_B1=0; 2J_B1=0;  BCID_rms=0; height=477
IN F14; 12K_B1=0; 11K_B1=0; 10K_B1=0; 9K_B1=0; GND; GND; 13K_B1=0; 14K_B1=0;  BCID_rms=0; height=206
IN F15; 14L_F2=0; 14L_F1=0; 14L_F4=0; 14L_F3=0; 13L_F4=0; 13L_F3=0; 13L_F1=0; 13L_F2=0;  BCID_rms=0; height=321
IN F16; 15K_B1=0; 15K_B2=0; 15K_B3=0; 15K_B4=0; GND; GND; GND; GND;  BCID_rms=0; height=46
IN F17; 14L_P1=0; 13L_P1=0; GND; 15L_P1=0; 11L_P1=0; 12L_P1=0; 9L_P1=0; 10L_P1=0;  BCID_rms=0; height=25
IN F18; 11L_F2=0; 11L_F1=0; 11L_F3=0; 11L_F4=0; 12L_F1=0; 12L_F2=0; 12L_F4=0; 12L_F3=0;  BCID_rms=0; height=299
IN F19; 9L_M1=-1; 9L_M2=-1; 9L_M3=-1; 9L_M4=-1; 10L_M1=-1; 10L_M2=-1; 10L_M4=-1; 10L_M3=-1;  BCID_rms=0; height=313
IN F20; 9L_F2=0; 9L_F1=0; 9L_F4=0; 9L_F3=0; 10L_F1=0; 10L_F2=0; 10L_F4=0; 10L_F3=0;  BCID_rms=0; height=302
IN F21; 14L_M4=-1; 14L_M3=-1; 14L_M1=-1; 14L_M2=-1; 13L_M4=-1; 13L_M3=-1; 13L_M1=-1; 13L_M2=-1;  BCID_rms=0; height=349
IN F22; 11L_M1=-1; 11L_M2=-1; 11L_M3=-1; 11L_M4=-1; 12L_M4=-1; 12L_M3=-1; 12L_M1=-1; 12L_M2=-1;  BCID_rms=0; height=315
IN F24; 1K_F1=0; 1L_F1=0; 1I_F1=0; 1J_F1=0; GND; GND; GND; GND;  BCID_rms=0; height=200
IN F25; 1K_M1=0; 1K_M2=1; 1K_M4=1; 1K_M3=1; 1L_M4=1; 1L_M3=1; 1L_M2=1; 1L_M1=0;  BCID_rms=0.433013; height=108
IN F27; GND; 15K_P1=0; 13K_P1=0; 14K_P1=0; 9K_P1=0; 10K_P1=0; 12K_P1=0; 11K_P1=0;  BCID_rms=0; height=26
IN F28; 13K_M1=-1; 13K_M2=-1; 13K_M4=-1; 13K_M3=-1; 14K_M3=-1; 14K_M4=-1; 14K_M1=-1; 14K_M2=-1;  BCID_rms=0; height=345
IN F29; 10K_M1=-1; 10K_M2=-1; 10K_M3=-1; 10K_M4=-1; 9K_M4=-1; 9K_M3=-1; 9K_M2=-1; 9K_M1=-1;  BCID_rms=0; height=312
IN F30; 11K_M3=-1; 11K_M4=-1; 11K_M1=-1; 11K_M2=-1; 12K_M1=-1; 12K_M2=-1; 12K_M4=-1; 12K_M3=-1;  BCID_rms=0; height=310
IN F31; 12K_F1=0; 12K_F2=0; 12K_F3=0; 12K_F4=0; 11K_F1=0; 11K_F2=0; 11K_F3=0; 11K_F4=0;  BCID_rms=0; height=303
IN F32; 9K_F2=0; 9K_F1=0; 9K_F4=0; 9K_F3=0; 10K_F2=0; 10K_F1=0; 10K_F4=0; 10K_F3=0;  BCID_rms=0; height=310
IN F33; 13L_B1=0; 14L_B1=0; GND; GND; 9L_B1=0; 10L_B1=0; 11L_B1=0; 12L_B1=0;  BCID_rms=0; height=207
IN F34; 13K_F4=0; 13K_F3=0; 13K_F1=0; 13K_F2=0; 14K_F1=0; 14K_F2=0; 14K_F4=0; 14K_F3=0;  BCID_rms=0; height=318
IN F35; 15L_B4=0; 15L_B3=0; 15L_B1=0; 15L_B2=-1; GND; GND; GND; GND;  BCID_rms=0.433013; height=49
IN F36; 2K_M2=0; 2K_M1=0; 2K_M4=0; 2K_M3=0; 2L_M3=0; 2L_M4=0; 2L_M1=0; 2L_M2=0;  BCID_rms=0; height=421
IN F37; 2K_F2=0; 2K_F1=0; 2K_F3=0; 2K_F4=0; 2L_F1=0; 2L_F2=0; 2L_F4=0; 2L_F3=0;  BCID_rms=0; height=315
IN F38; 12I_B1=0; 11I_B1=0; 10I_B1=0; 9I_B1=0; GND; GND; 13I_B1=0; 14I_B1=0;  BCID_rms=0; height=200
IN F39; 14J_F2=0; 14J_F1=0; 14J_F4=0; 14J_F3=0; 13J_F4=0; 13J_F3=0; 13J_F1=0; 13J_F2=0;  BCID_rms=0; height=311
IN F40; 15I_B1=0; 15I_B2=0; 15I_B3=0; 15I_B4=0; GND; GND; GND; GND;  BCID_rms=0; height=48
IN F41; 14J_P1=0; 13J_P1=0; GND; 15J_P1=0; 11J_P1=0; 12J_P1=0; 9J_P1=0; 10J_P1=0;  BCID_rms=0; height=29
IN F42; 11J_F2=0; 11J_F1=0; 11J_F3=0; 11J_F4=0; 12J_F1=0; 12J_F2=0; 12J_F4=0; 12J_F3=0;  BCID_rms=0; height=313
IN F43; 9J_M1=0; 9J_M2=0; 9J_M3=0; 9J_M4=0; 10J_M1=0; 10J_M2=0; 10J_M4=0; 10J_M3=0;  BCID_rms=0; height=319
IN F44; 9J_F2=0; 9J_F1=0; 9J_F4=0; 9J_F3=0; 10J_F1=0; 10J_F2=0; 10J_F4=0; 10J_F3=0;  BCID_rms=0; height=315
IN F45; 14J_M4=0; 14J_M3=0; 14J_M1=0; 14J_M2=0; 13J_M4=0; 13J_M3=0; 13J_M1=0; 13J_M2=0;  BCID_rms=0; height=338
IN F46; 11J_M1=-1; 11J_M2=-1; 11J_M3=-1; 11J_M4=-1; 12J_M4=-1; 12J_M3=-1; 12J_M1=-1; 12J_M2=-1;  BCID_rms=0; height=324
