
Processing macro.C+("inputfile/LArDigits_pulseall_408678.root","EMBC_11","outputs/hist/LArDigits_pulseall_408678/EMBC_11_hist.root","results/LArDigits_pulseall_408678/latome117.ini","LATOME_ini_file/latome117.ini",false)...

******************** Start to read ini BCID: ********************
input file: LATOME_ini_file/latome117.ini
F0  BCID=0; 
F1  BCID=0; 
F2  BCID=3459; 
F3  BCID=3459; 
F4  BCID=3459; 
F5  BCID=3459; 
F6  BCID=3459; 
F7  BCID=3459; 
F8  BCID=3459; 
F9  BCID=3459; 
F10  BCID=3459; 
F11  BCID=3459; 
F12  BCID=0; 
F13  BCID=0; 
F14  BCID=3459; 
F15  BCID=3459; 
F16  BCID=3459; 
F17  BCID=3459; 
F18  BCID=3459; 
F19  BCID=3459; 
F20  BCID=3459; 
F21  BCID=3459; 
F22  BCID=3459; 
F23  BCID=3459; 
F24  BCID=0; 
F25  BCID=0; 
F26  BCID=3459; 
F27  BCID=3459; 
F28  BCID=3459; 
F29  BCID=3459; 
F30  BCID=3459; 
F31  BCID=3459; 
F32  BCID=3459; 
F33  BCID=3459; 
F34  BCID=3459; 
F35  BCID=3459; 
F36  BCID=0; 
F37  BCID=0; 
F38  BCID=3459; 
F39  BCID=3459; 
F40  BCID=3459; 
F41  BCID=3459; 
F42  BCID=3459; 
F43  BCID=3459; 
F44  BCID=3459; 
F45  BCID=3459; 
F46  BCID=3459; 
F47  BCID=3459; 
48 fibers are read!

******************** Start to read LArId info: ********************
SCname=1L_P1; channelId=953156096; 
SCname=1K_P1; channelId=953155584; 
SCname=2L_P1; channelId=953157120; 
SCname=2K_P1; channelId=953156608; 
SCname=3L_P1; channelId=953158144; 
SCname=3K_P1; channelId=953157632; 
SCname=4L_P1; channelId=953159168; 
SCname=4K_P1; channelId=953158656; 
SCname=5L_P1; channelId=953160192; 
SCname=5K_P1; channelId=953159680; 
SCname=6L_P1; channelId=953161216; 
SCname=6K_P1; channelId=953160704; 
SCname=7L_P1; channelId=953162240; 
SCname=7K_P1; channelId=953161728; 
SCname=8L_P1; channelId=953163264; 
SCname=8K_P1; channelId=953162752; 
SCname=1L_F1; channelId=953171456; 
SCname=1L_F2; channelId=953172480; 
SCname=1L_F3; channelId=953173504; 
SCname=1L_F4; channelId=953174528; 
SCname=2L_F1; channelId=953175552; 
SCname=2L_F2; channelId=953176576; 
SCname=2L_F3; channelId=953177600; 
SCname=2L_F4; channelId=953178624; 
SCname=1K_F1; channelId=953170944; 
SCname=1K_F2; channelId=953171968; 
SCname=1K_F3; channelId=953172992; 
SCname=1K_F4; channelId=953174016; 
SCname=2K_F1; channelId=953175040; 
SCname=2K_F2; channelId=953176064; 
SCname=2K_F3; channelId=953177088; 
SCname=2K_F4; channelId=953178112; 
SCname=3L_F1; channelId=953179648; 
SCname=3L_F2; channelId=953180672; 
SCname=3L_F3; channelId=953181696; 
SCname=3L_F4; channelId=953182720; 
SCname=4L_F1; channelId=953183744; 
SCname=4L_F2; channelId=953184768; 
SCname=4L_F3; channelId=953185792; 
SCname=4L_F4; channelId=953186816; 
SCname=3K_F1; channelId=953179136; 
SCname=3K_F2; channelId=953180160; 
SCname=3K_F3; channelId=953181184; 
SCname=3K_F4; channelId=953182208; 
SCname=4K_F1; channelId=953183232; 
SCname=4K_F2; channelId=953184256; 
SCname=4K_F3; channelId=953185280; 
SCname=4K_F4; channelId=953186304; 
SCname=5L_F1; channelId=953187840; 
SCname=5L_F2; channelId=953188864; 
SCname=5L_F3; channelId=953189888; 
SCname=5L_F4; channelId=953190912; 
SCname=6L_F1; channelId=953191936; 
SCname=6L_F2; channelId=953192960; 
SCname=6L_F3; channelId=953193984; 
SCname=6L_F4; channelId=953195008; 
SCname=5K_F1; channelId=953187328; 
SCname=5K_F2; channelId=953188352; 
SCname=5K_F3; channelId=953189376; 
SCname=5K_F4; channelId=953190400; 
SCname=6K_F1; channelId=953191424; 
SCname=6K_F2; channelId=953192448; 
SCname=6K_F3; channelId=953193472; 
SCname=6K_F4; channelId=953194496; 
SCname=7L_F1; channelId=953196032; 
SCname=7L_F2; channelId=953197056; 
SCname=7L_F3; channelId=953198080; 
SCname=7L_F4; channelId=953199104; 
SCname=8L_F1; channelId=953200128; 
SCname=8L_F2; channelId=953201152; 
SCname=8L_F3; channelId=953202176; 
SCname=8L_F4; channelId=953203200; 
SCname=7K_F1; channelId=953195520; 
SCname=7K_F2; channelId=953196544; 
SCname=7K_F3; channelId=953197568; 
SCname=7K_F4; channelId=953198592; 
SCname=8K_F1; channelId=953199616; 
SCname=8K_F2; channelId=953200640; 
SCname=8K_F3; channelId=953201664; 
SCname=8K_F4; channelId=953202688; 
SCname=1L_B1; channelId=953290240; 
SCname=2L_B1; channelId=953291264; 
SCname=3L_B1; channelId=953292288; 
SCname=4L_B1; channelId=953293312; 
SCname=5L_B1; channelId=953294336; 
SCname=6L_B1; channelId=953295360; 
SCname=7L_B1; channelId=953296384; 
SCname=8L_B1; channelId=953297408; 
SCname=1K_B1; channelId=953289728; 
SCname=2K_B1; channelId=953290752; 
SCname=3K_B1; channelId=953291776; 
SCname=4K_B1; channelId=953292800; 
SCname=5K_B1; channelId=953293824; 
SCname=6K_B1; channelId=953294848; 
SCname=7K_B1; channelId=953295872; 
SCname=8K_B1; channelId=953296896; 
SCname=1L_M1; channelId=953231872; 
SCname=1L_M2; channelId=953232896; 
SCname=1L_M3; channelId=953233920; 
SCname=1L_M4; channelId=953234944; 
SCname=2L_M1; channelId=953235968; 
SCname=2L_M2; channelId=953236992; 
SCname=2L_M3; channelId=953238016; 
SCname=2L_M4; channelId=953239040; 
SCname=3L_M1; channelId=953240064; 
SCname=3L_M2; channelId=953241088; 
SCname=3L_M3; channelId=953242112; 
SCname=3L_M4; channelId=953243136; 
SCname=4L_M1; channelId=953244160; 
SCname=4L_M2; channelId=953245184; 
SCname=4L_M3; channelId=953246208; 
SCname=4L_M4; channelId=953247232; 
SCname=1K_M1; channelId=953231360; 
SCname=1K_M2; channelId=953232384; 
SCname=1K_M3; channelId=953233408; 
SCname=1K_M4; channelId=953234432; 
SCname=2K_M1; channelId=953235456; 
SCname=2K_M2; channelId=953236480; 
SCname=2K_M3; channelId=953237504; 
SCname=2K_M4; channelId=953238528; 
SCname=3K_M1; channelId=953239552; 
SCname=3K_M2; channelId=953240576; 
SCname=3K_M3; channelId=953241600; 
SCname=3K_M4; channelId=953242624; 
SCname=4K_M1; channelId=953243648; 
SCname=4K_M2; channelId=953244672; 
SCname=4K_M3; channelId=953245696; 
SCname=4K_M4; channelId=953246720; 
SCname=5L_M1; channelId=953248256; 
SCname=5L_M2; channelId=953249280; 
SCname=5L_M3; channelId=953250304; 
SCname=5L_M4; channelId=953251328; 
SCname=6L_M1; channelId=953252352; 
SCname=6L_M2; channelId=953253376; 
SCname=6L_M3; channelId=953254400; 
SCname=6L_M4; channelId=953255424; 
SCname=7L_M1; channelId=953256448; 
SCname=7L_M2; channelId=953257472; 
SCname=7L_M3; channelId=953258496; 
SCname=7L_M4; channelId=953259520; 
SCname=8L_M1; channelId=953260544; 
SCname=8L_M2; channelId=953261568; 
SCname=8L_M3; channelId=953262592; 
SCname=8L_M4; channelId=953263616; 
SCname=5K_M1; channelId=953247744; 
SCname=5K_M2; channelId=953248768; 
SCname=5K_M3; channelId=953249792; 
SCname=5K_M4; channelId=953250816; 
SCname=6K_M1; channelId=953251840; 
SCname=6K_M2; channelId=953252864; 
SCname=6K_M3; channelId=953253888; 
SCname=6K_M4; channelId=953254912; 
SCname=7K_M1; channelId=953255936; 
SCname=7K_M2; channelId=953256960; 
SCname=7K_M3; channelId=953257984; 
SCname=7K_M4; channelId=953259008; 
SCname=8K_M1; channelId=953260032; 
SCname=8K_M2; channelId=953261056; 
SCname=8K_M3; channelId=953262080; 
SCname=8K_M4; channelId=953263104; 
SCname=1J_P1; channelId=953680384; 
SCname=1I_P1; channelId=953679872; 
SCname=2J_P1; channelId=953681408; 
SCname=2I_P1; channelId=953680896; 
SCname=3J_P1; channelId=953682432; 
SCname=3I_P1; channelId=953681920; 
SCname=4J_P1; channelId=953683456; 
SCname=4I_P1; channelId=953682944; 
SCname=5J_P1; channelId=953684480; 
SCname=5I_P1; channelId=953683968; 
SCname=6J_P1; channelId=953685504; 
SCname=6I_P1; channelId=953684992; 
SCname=7J_P1; channelId=953686528; 
SCname=7I_P1; channelId=953686016; 
SCname=8J_P1; channelId=953687552; 
SCname=8I_P1; channelId=953687040; 
SCname=1J_F1; channelId=953695744; 
SCname=1J_F2; channelId=953696768; 
SCname=1J_F3; channelId=953697792; 
SCname=1J_F4; channelId=953698816; 
SCname=2J_F1; channelId=953699840; 
SCname=2J_F2; channelId=953700864; 
SCname=2J_F3; channelId=953701888; 
SCname=2J_F4; channelId=953702912; 
SCname=1I_F1; channelId=953695232; 
SCname=1I_F2; channelId=953696256; 
SCname=1I_F3; channelId=953697280; 
SCname=1I_F4; channelId=953698304; 
SCname=2I_F1; channelId=953699328; 
SCname=2I_F2; channelId=953700352; 
SCname=2I_F3; channelId=953701376; 
SCname=2I_F4; channelId=953702400; 
SCname=3J_F1; channelId=953703936; 
SCname=3J_F2; channelId=953704960; 
SCname=3J_F3; channelId=953705984; 
SCname=3J_F4; channelId=953707008; 
SCname=4J_F1; channelId=953708032; 
SCname=4J_F2; channelId=953709056; 
SCname=4J_F3; channelId=953710080; 
SCname=4J_F4; channelId=953711104; 
SCname=3I_F1; channelId=953703424; 
SCname=3I_F2; channelId=953704448; 
SCname=3I_F3; channelId=953705472; 
SCname=3I_F4; channelId=953706496; 
SCname=4I_F1; channelId=953707520; 
SCname=4I_F2; channelId=953708544; 
SCname=4I_F3; channelId=953709568; 
SCname=4I_F4; channelId=953710592; 
SCname=5J_F1; channelId=953712128; 
SCname=5J_F2; channelId=953713152; 
SCname=5J_F3; channelId=953714176; 
SCname=5J_F4; channelId=953715200; 
SCname=6J_F1; channelId=953716224; 
SCname=6J_F2; channelId=953717248; 
SCname=6J_F3; channelId=953718272; 
SCname=6J_F4; channelId=953719296; 
SCname=5I_F1; channelId=953711616; 
SCname=5I_F2; channelId=953712640; 
SCname=5I_F3; channelId=953713664; 
SCname=5I_F4; channelId=953714688; 
SCname=6I_F1; channelId=953715712; 
SCname=6I_F2; channelId=953716736; 
SCname=6I_F3; channelId=953717760; 
SCname=6I_F4; channelId=953718784; 
SCname=7J_F1; channelId=953720320; 
SCname=7J_F2; channelId=953721344; 
SCname=7J_F3; channelId=953722368; 
SCname=7J_F4; channelId=953723392; 
SCname=8J_F1; channelId=953724416; 
SCname=8J_F2; channelId=953725440; 
SCname=8J_F3; channelId=953726464; 
SCname=8J_F4; channelId=953727488; 
SCname=7I_F1; channelId=953719808; 
SCname=7I_F2; channelId=953720832; 
SCname=7I_F3; channelId=953721856; 
SCname=7I_F4; channelId=953722880; 
SCname=8I_F1; channelId=953723904; 
SCname=8I_F2; channelId=953724928; 
SCname=8I_F3; channelId=953725952; 
SCname=8I_F4; channelId=953726976; 
SCname=1J_B1; channelId=953814528; 
SCname=2J_B1; channelId=953815552; 
SCname=3J_B1; channelId=953816576; 
SCname=4J_B1; channelId=953817600; 
SCname=5J_B1; channelId=953818624; 
SCname=6J_B1; channelId=953819648; 
SCname=7J_B1; channelId=953820672; 
SCname=8J_B1; channelId=953821696; 
SCname=1I_B1; channelId=953814016; 
SCname=2I_B1; channelId=953815040; 
SCname=3I_B1; channelId=953816064; 
SCname=4I_B1; channelId=953817088; 
SCname=5I_B1; channelId=953818112; 
SCname=6I_B1; channelId=953819136; 
SCname=7I_B1; channelId=953820160; 
SCname=8I_B1; channelId=953821184; 
SCname=1J_M1; channelId=953756160; 
SCname=1J_M2; channelId=953757184; 
SCname=1J_M3; channelId=953758208; 
SCname=1J_M4; channelId=953759232; 
SCname=2J_M1; channelId=953760256; 
SCname=2J_M2; channelId=953761280; 
SCname=2J_M3; channelId=953762304; 
SCname=2J_M4; channelId=953763328; 
SCname=3J_M1; channelId=953764352; 
SCname=3J_M2; channelId=953765376; 
SCname=3J_M3; channelId=953766400; 
SCname=3J_M4; channelId=953767424; 
SCname=4J_M1; channelId=953768448; 
SCname=4J_M2; channelId=953769472; 
SCname=4J_M3; channelId=953770496; 
SCname=4J_M4; channelId=953771520; 
SCname=1I_M1; channelId=953755648; 
SCname=1I_M2; channelId=953756672; 
SCname=1I_M3; channelId=953757696; 
SCname=1I_M4; channelId=953758720; 
SCname=2I_M1; channelId=953759744; 
SCname=2I_M2; channelId=953760768; 
SCname=2I_M3; channelId=953761792; 
SCname=2I_M4; channelId=953762816; 
SCname=3I_M1; channelId=953763840; 
SCname=3I_M2; channelId=953764864; 
SCname=3I_M3; channelId=953765888; 
SCname=3I_M4; channelId=953766912; 
SCname=4I_M1; channelId=953767936; 
SCname=4I_M2; channelId=953768960; 
SCname=4I_M3; channelId=953769984; 
SCname=4I_M4; channelId=953771008; 
SCname=5J_M1; channelId=953772544; 
SCname=5J_M2; channelId=953773568; 
SCname=5J_M3; channelId=953774592; 
SCname=5J_M4; channelId=953775616; 
SCname=6J_M1; channelId=953776640; 
SCname=6J_M2; channelId=953777664; 
SCname=6J_M3; channelId=953778688; 
SCname=6J_M4; channelId=953779712; 
SCname=7J_M1; channelId=953780736; 
SCname=7J_M2; channelId=953781760; 
SCname=7J_M3; channelId=953782784; 
SCname=7J_M4; channelId=953783808; 
SCname=8J_M1; channelId=953784832; 
SCname=8J_M2; channelId=953785856; 
SCname=8J_M3; channelId=953786880; 
SCname=8J_M4; channelId=953787904; 
SCname=5I_M1; channelId=953772032; 
SCname=5I_M2; channelId=953773056; 
SCname=5I_M3; channelId=953774080; 
SCname=5I_M4; channelId=953775104; 
SCname=6I_M1; channelId=953776128; 
SCname=6I_M2; channelId=953777152; 
SCname=6I_M3; channelId=953778176; 
SCname=6I_M4; channelId=953779200; 
SCname=7I_M1; channelId=953780224; 
SCname=7I_M2; channelId=953781248; 
SCname=7I_M3; channelId=953782272; 
SCname=7I_M4; channelId=953783296; 
SCname=8I_M1; channelId=953784320; 
SCname=8I_M2; channelId=953785344; 
SCname=8I_M3; channelId=953786368; 
SCname=8I_M4; channelId=953787392; 
320 SCs are read!  LATOME is EMBC_11

******************** Start to read SCs info per fiber: ********************
IN F3 1J_B1 2J_B1 4J_B1 3J_B1 6J_B1 5J_B1 8J_B1 7J_B1
IN F4 2J_M2 2J_M1 2J_M4 2J_M3 1J_M3 1J_M4 1J_M1 1J_M2
IN F5 3J_M1 3J_M2 3J_M4 3J_M3 4J_M4 4J_M3 4J_M2 4J_M1
IN F6 6J_F4 6J_F3 6J_F2 6J_F1 5J_F1 5J_F2 5J_F3 5J_F4
IN F7 7J_M1 7J_M2 7J_M3 7J_M4 8J_M3 8J_M4 8J_M2 8J_M1
IN F8 8J_P1 7J_P1 5J_P1 6J_P1 4J_P1 3J_P1 2J_P1 1J_P1
IN F9 5J_M1 5J_M2 5J_M3 5J_M4 6J_M4 6J_M3 6J_M1 6J_M2
IN F10 4J_F1 4J_F2 4J_F4 4J_F3 3J_F4 3J_F3 3J_F2 3J_F1
IN F11 7J_F1 7J_F2 7J_F3 7J_F4 8J_F1 8J_F2 8J_F4 8J_F3
IN F12 2J_F3 2J_F4 2J_F2 2J_F1 1J_F4 1J_F3 1J_F2 1J_F1
IN F15 1I_F2 1I_F1 1I_F4 1I_F3 2I_F1 2I_F2 2I_F3 2I_F4
IN F16 8I_M2 8I_M1 8I_M4 8I_M3 7I_M4 7I_M3 7I_M1 7I_M2
IN F17 3I_F1 3I_F2 3I_F3 3I_F4 4I_F1 4I_F2 4I_F4 4I_F3
IN F18 6I_M3 6I_M4 6I_M1 6I_M2 5I_M2 5I_M1 5I_M4 5I_M3
IN F19 5I_F2 5I_F1 5I_F3 5I_F4 6I_F4 6I_F3 6I_F1 6I_F2
IN F20 3I_M1 3I_M2 3I_M3 3I_M4 4I_M4 4I_M3 4I_M1 4I_M2
IN F21 7I_F2 7I_F1 7I_F3 7I_F4 8I_F2 8I_F1 8I_F4 8I_F3
IN F22 7I_P1 8I_P1 6I_P1 5I_P1 2I_P1 1I_P1 3I_P1 4I_P1
IN F23 1I_M2 1I_M1 1I_M3 1I_M4 2I_M4 2I_M3 2I_M1 2I_M2
IN F24 7I_B1 8I_B1 6I_B1 5I_B1 1I_B1 2I_B1 3I_B1 4I_B1
IN F27 1L_B1 2L_B1 4L_B1 3L_B1 6L_B1 5L_B1 8L_B1 7L_B1
IN F28 2L_M2 2L_M1 2L_M4 2L_M3 1L_M3 1L_M4 1L_M1 1L_M2
IN F29 3L_M1 3L_M2 3L_M4 3L_M3 4L_M4 4L_M3 4L_M2 4L_M1
IN F30 6L_F4 6L_F3 6L_F2 6L_F1 5L_F1 5L_F2 5L_F3 5L_F4
IN F31 7L_M1 7L_M2 7L_M3 7L_M4 8L_M3 8L_M4 8L_M2 8L_M1
IN F32 8L_P1 7L_P1 5L_P1 6L_P1 4L_P1 3L_P1 2L_P1 1L_P1
IN F33 5L_M1 5L_M2 5L_M3 5L_M4 6L_M4 6L_M3 6L_M1 6L_M2
IN F34 4L_F1 4L_F2 4L_F4 4L_F3 3L_F4 3L_F3 3L_F2 3L_F1
IN F35 7L_F1 7L_F2 7L_F3 7L_F4 8L_F1 8L_F2 8L_F4 8L_F3
IN F36 2L_F3 2L_F4 2L_F2 2L_F1 1L_F4 1L_F3 1L_F2 1L_F1
IN F39 1K_F2 1K_F1 1K_F4 1K_F3 2K_F1 2K_F2 2K_F3 2K_F4
IN F40 8K_M2 8K_M1 8K_M4 8K_M3 7K_M4 7K_M3 7K_M1 7K_M2
IN F41 3K_F1 3K_F2 3K_F3 3K_F4 4K_F1 4K_F2 4K_F4 4K_F3
IN F42 6K_M3 6K_M4 6K_M1 6K_M2 5K_M2 5K_M1 5K_M4 5K_M3
IN F43 5K_F2 5K_F1 5K_F3 5K_F4 6K_F4 6K_F3 6K_F1 6K_F2
IN F44 3K_M1 3K_M2 3K_M3 3K_M4 4K_M4 4K_M3 4K_M1 4K_M2
IN F45 7K_F2 7K_F1 7K_F3 7K_F4 8K_F2 8K_F1 8K_F4 8K_F3
IN F46 7K_P1 8K_P1 6K_P1 5K_P1 2K_P1 1K_P1 3K_P1 4K_P1
IN F47 1K_M2 1K_M1 1K_M3 1K_M4 2K_M4 2K_M3 2K_M1 2K_M2
IN F48 7K_B1 8K_B1 6K_B1 5K_B1 1K_B1 2K_B1 3K_B1 4K_B1
40 fibers are connected!
max_event=689

******************** Start to search BCID of peak sampling: ********************
IN F2; 1J_B1=0; 2J_B1=0; 4J_B1=0; 3J_B1=0; 6J_B1=0; 5J_B1=0; 8J_B1=0; 7J_B1=0;  BCID_rms=0
IN F3; 2J_M2=0; 2J_M1=0; 2J_M4=0; 2J_M3=0; 1J_M3=0; 1J_M4=0; 1J_M1=0; 1J_M2=0;  BCID_rms=0
IN F4; 3J_M1=0; 3J_M2=0; 3J_M4=0; 3J_M3=0; 4J_M4=0; 4J_M3=0; 4J_M2=0; 4J_M1=0;  BCID_rms=0
IN F5; 6J_F4=0; 6J_F3=0; 6J_F2=0; 6J_F1=0; 5J_F1=0; 5J_F2=0; 5J_F3=0; 5J_F4=0;  BCID_rms=0
IN F6; 7J_M1=0; 7J_M2=0; 7J_M3=0; 7J_M4=0; 8J_M3=0; 8J_M4=0; 8J_M2=0; 8J_M1=0;  BCID_rms=0
IN F7; 8J_P1=0; 7J_P1=0; 5J_P1=0; 6J_P1=0; 4J_P1=0; 3J_P1=0; 2J_P1=0; 1J_P1=0;  BCID_rms=0
IN F8; 5J_M1=0; 5J_M2=0; 5J_M3=0; 5J_M4=0; 6J_M4=0; 6J_M3=0; 6J_M1=0; 6J_M2=0;  BCID_rms=0
IN F9; 4J_F1=0; 4J_F2=0; 4J_F4=0; 4J_F3=0; 3J_F4=0; 3J_F3=0; 3J_F2=0; 3J_F1=0;  BCID_rms=0
IN F10; 7J_F1=0; 7J_F2=0; 7J_F3=0; 7J_F4=0; 8J_F1=0; 8J_F2=0; 8J_F4=0; 8J_F3=0;  BCID_rms=0
IN F11; 2J_F3=0; 2J_F4=0; 2J_F2=0; 2J_F1=0; 1J_F4=0; 1J_F3=0; 1J_F2=0; 1J_F1=0;  BCID_rms=0
IN F14; 1I_F2=0; 1I_F1=0; 1I_F4=0; 1I_F3=0; 2I_F1=0; 2I_F2=0; 2I_F3=0; 2I_F4=0;  BCID_rms=0
IN F15; 8I_M2=0; 8I_M1=0; 8I_M4=0; 8I_M3=0; 7I_M4=0; 7I_M3=0; 7I_M1=0; 7I_M2=0;  BCID_rms=0
IN F16; 3I_F1=0; 3I_F2=0; 3I_F3=0; 3I_F4=0; 4I_F1=0; 4I_F2=0; 4I_F4=0; 4I_F3=0;  BCID_rms=0
IN F17; 6I_M3=0; 6I_M4=0; 6I_M1=0; 6I_M2=0; 5I_M2=0; 5I_M1=0; 5I_M4=0; 5I_M3=0;  BCID_rms=0
IN F18; 5I_F2=0; 5I_F1=0; 5I_F3=0; 5I_F4=0; 6I_F4=0; 6I_F3=0; 6I_F1=0; 6I_F2=0;  BCID_rms=0
IN F19; 3I_M1=0; 3I_M2=0; 3I_M3=0; 3I_M4=0; 4I_M4=1; 4I_M3=0; 4I_M1=0; 4I_M2=0;  BCID_rms=0.330719
IN F20; 7I_F2=0; 7I_F1=0; 7I_F3=0; 7I_F4=0; 8I_F2=0; 8I_F1=0; 8I_F4=0; 8I_F3=0;  BCID_rms=0
IN F21; 7I_P1=0; 8I_P1=0; 6I_P1=0; 5I_P1=0; 2I_P1=0; 1I_P1=0; 3I_P1=0; 4I_P1=0;  BCID_rms=0
IN F22; 1I_M2=0; 1I_M1=0; 1I_M3=0; 1I_M4=0; 2I_M4=0; 2I_M3=0; 2I_M1=0; 2I_M2=0;  BCID_rms=0
IN F23; 7I_B1=0; 8I_B1=0; 6I_B1=0; 5I_B1=0; 1I_B1=0; 2I_B1=0; 3I_B1=0; 4I_B1=0;  BCID_rms=0
IN F26; 1L_B1=0; 2L_B1=0; 4L_B1=0; 3L_B1=0; 6L_B1=0; 5L_B1=0; 8L_B1=0; 7L_B1=0;  BCID_rms=0
IN F27; 2L_M2=0; 2L_M1=0; 2L_M4=0; 2L_M3=0; 1L_M3=0; 1L_M4=0; 1L_M1=0; 1L_M2=0;  BCID_rms=0
IN F28; 3L_M1=0; 3L_M2=0; 3L_M4=0; 3L_M3=0; 4L_M4=0; 4L_M3=0; 4L_M2=0; 4L_M1=0;  BCID_rms=0
IN F29; 6L_F4=0; 6L_F3=0; 6L_F2=0; 6L_F1=0; 5L_F1=0; 5L_F2=0; 5L_F3=0; 5L_F4=0;  BCID_rms=0
IN F30; 7L_M1=0; 7L_M2=0; 7L_M3=0; 7L_M4=0; 8L_M3=0; 8L_M4=0; 8L_M2=0; 8L_M1=0;  BCID_rms=0
IN F31; 8L_P1=0; 7L_P1=0; 5L_P1=0; 6L_P1=0; 4L_P1=0; 3L_P1=0; 2L_P1=0; 1L_P1=0;  BCID_rms=0
IN F32; 5L_M1=0; 5L_M2=0; 5L_M3=0; 5L_M4=0; 6L_M4=0; 6L_M3=0; 6L_M1=0; 6L_M2=0;  BCID_rms=0
IN F33; 4L_F1=0; 4L_F2=0; 4L_F4=0; 4L_F3=0; 3L_F4=0; 3L_F3=0; 3L_F2=0; 3L_F1=0;  BCID_rms=0
IN F34; 7L_F1=0; 7L_F2=0; 7L_F3=0; 7L_F4=0; 8L_F1=0; 8L_F2=0; 8L_F4=0; 8L_F3=0;  BCID_rms=0
IN F35; 2L_F3=0; 2L_F4=0; 2L_F2=0; 2L_F1=0; 1L_F4=0; 1L_F3=0; 1L_F2=0; 1L_F1=0;  BCID_rms=0
IN F38; 1K_F2=0; 1K_F1=0; 1K_F4=0; 1K_F3=0; 2K_F1=0; 2K_F2=0; 2K_F3=0; 2K_F4=0;  BCID_rms=0
IN F39; 8K_M2=0; 8K_M1=0; 8K_M4=0; 8K_M3=0; 7K_M4=0; 7K_M3=0; 7K_M1=0; 7K_M2=0;  BCID_rms=0
IN F40; 3K_F1=0; 3K_F2=0; 3K_F3=0; 3K_F4=0; 4K_F1=0; 4K_F2=0; 4K_F4=0; 4K_F3=0;  BCID_rms=0
IN F41; 6K_M3=0; 6K_M4=0; 6K_M1=0; 6K_M2=0; 5K_M2=0; 5K_M1=0; 5K_M4=0; 5K_M3=0;  BCID_rms=0
IN F42; 5K_F2=0; 5K_F1=0; 5K_F3=0; 5K_F4=0; 6K_F4=0; 6K_F3=0; 6K_F1=0; 6K_F2=0;  BCID_rms=0
IN F43; 3K_M1=0; 3K_M2=0; 3K_M3=0; 3K_M4=0; 4K_M4=0; 4K_M3=0; 4K_M1=0; 4K_M2=0;  BCID_rms=0
IN F44; 7K_F2=0; 7K_F1=0; 7K_F3=0; 7K_F4=0; 8K_F2=0; 8K_F1=0; 8K_F4=0; 8K_F3=0;  BCID_rms=0
IN F45; 7K_P1=0; 8K_P1=0; 6K_P1=0; 5K_P1=0; 2K_P1=0; 1K_P1=0; 3K_P1=0; 4K_P1=0;  BCID_rms=0
IN F46; 1K_M2=0; 1K_M1=0; 1K_M3=0; 1K_M4=0; 2K_M4=0; 2K_M3=0; 2K_M1=0; 2K_M2=0;  BCID_rms=0
IN F47; 7K_B1=0; 8K_B1=0; 6K_B1=0; 5K_B1=0; 1K_B1=0; 2K_B1=0; 3K_B1=0; 4K_B1=0;  BCID_rms=0
