
Processing macro.C+("inputfile/LArDigits_pulseall_408678.root","FCALA_1","outputs/hist/LArDigits_pulseall_408678/FCALA_1_hist.root","results/LArDigits_pulseall_408678/latome123.ini","LATOME_ini_file/latome123.ini",true)...
This is for FCal calibration!

******************** Start to read ini BCID: ********************
input file: LATOME_ini_file/latome123.ini
F0  BCID=0; 
F1  BCID=0; 
F2  BCID=0; 
F3  BCID=3458; 
F4  BCID=3458; 
F5  BCID=3458; 
F6  BCID=3458; 
F7  BCID=0; 
F8  BCID=3458; 
F9  BCID=0; 
F10  BCID=3458; 
F11  BCID=3459; 
F12  BCID=0; 
F13  BCID=0; 
F14  BCID=0; 
F15  BCID=3458; 
F16  BCID=3458; 
F17  BCID=0; 
F18  BCID=3458; 
F19  BCID=3458; 
F20  BCID=3458; 
F21  BCID=3458; 
F22  BCID=3458; 
F23  BCID=3458; 
F24  BCID=0; 
F25  BCID=0; 
F26  BCID=3458; 
F27  BCID=0; 
F28  BCID=3458; 
F29  BCID=3458; 
F30  BCID=3458; 
F31  BCID=0; 
F32  BCID=3458; 
F33  BCID=0; 
F34  BCID=3458; 
F35  BCID=3458; 
F36  BCID=0; 
F37  BCID=0; 
F38  BCID=0; 
F39  BCID=3458; 
F40  BCID=3459; 
F41  BCID=3458; 
F42  BCID=3458; 
F43  BCID=3458; 
F44  BCID=3459; 
F45  BCID=0; 
F46  BCID=3458; 
F47  BCID=0; 
48 fibers are read!

******************** Start to read LArId info: ********************
SCname=1A_1_F1; channelId=993001472; 
SCname=2A_3_F1; channelId=993026048; 
SCname=2A_2_F1; channelId=993017856; 
SCname=2A_1_F1; channelId=993009664; 
SCname=3A_4_F1; channelId=993058816; 
SCname=3A_3_F1; channelId=993050624; 
SCname=3A_2_F1; channelId=993042432; 
SCname=3A_1_F1; channelId=993034240; 
SCname=4A_4_F1; channelId=993091584; 
SCname=4A_3_F1; channelId=993083392; 
SCname=4A_2_F1; channelId=993075200; 
SCname=4A_1_F1; channelId=993067008; 
SCname=1B_1_F1; channelId=993001984; 
SCname=2B_3_F1; channelId=993026560; 
SCname=2B_2_F1; channelId=993018368; 
SCname=2B_1_F1; channelId=993010176; 
SCname=3B_4_F1; channelId=993059328; 
SCname=3B_3_F1; channelId=993051136; 
SCname=3B_2_F1; channelId=993042944; 
SCname=3B_1_F1; channelId=993034752; 
SCname=4B_4_F1; channelId=993092096; 
SCname=4B_3_F1; channelId=993083904; 
SCname=4B_2_F1; channelId=993075712; 
SCname=4B_1_F1; channelId=993067520; 
SCname=1C_1_F1; channelId=993002496; 
SCname=2C_3_F1; channelId=993027072; 
SCname=2C_2_F1; channelId=993018880; 
SCname=2C_1_F1; channelId=993010688; 
SCname=3C_4_F1; channelId=993059840; 
SCname=3C_3_F1; channelId=993051648; 
SCname=3C_2_F1; channelId=993043456; 
SCname=3C_1_F1; channelId=993035264; 
SCname=4C_4_F1; channelId=993092608; 
SCname=4C_3_F1; channelId=993084416; 
SCname=4C_2_F1; channelId=993076224; 
SCname=4C_1_F1; channelId=993068032; 
SCname=1D_1_F1; channelId=993003008; 
SCname=2D_3_F1; channelId=993027584; 
SCname=2D_2_F1; channelId=993019392; 
SCname=2D_1_F1; channelId=993011200; 
SCname=3D_4_F1; channelId=993060352; 
SCname=3D_3_F1; channelId=993052160; 
SCname=3D_2_F1; channelId=993043968; 
SCname=3D_1_F1; channelId=993035776; 
SCname=4D_4_F1; channelId=993093120; 
SCname=4D_3_F1; channelId=993084928; 
SCname=4D_2_F1; channelId=993076736; 
SCname=4D_1_F1; channelId=993068544; 
SCname=1E_1_F1; channelId=993003520; 
SCname=2E_3_F1; channelId=993028096; 
SCname=2E_2_F1; channelId=993019904; 
SCname=2E_1_F1; channelId=993011712; 
SCname=3E_4_F1; channelId=993060864; 
SCname=3E_3_F1; channelId=993052672; 
SCname=3E_2_F1; channelId=993044480; 
SCname=3E_1_F1; channelId=993036288; 
SCname=4E_4_F1; channelId=993093632; 
SCname=4E_3_F1; channelId=993085440; 
SCname=4E_2_F1; channelId=993077248; 
SCname=4E_1_F1; channelId=993069056; 
SCname=1F_1_F1; channelId=993004032; 
SCname=2F_3_F1; channelId=993028608; 
SCname=2F_2_F1; channelId=993020416; 
SCname=2F_1_F1; channelId=993012224; 
SCname=3F_4_F1; channelId=993061376; 
SCname=3F_3_F1; channelId=993053184; 
SCname=3F_2_F1; channelId=993044992; 
SCname=3F_1_F1; channelId=993036800; 
SCname=4F_4_F1; channelId=993094144; 
SCname=4F_3_F1; channelId=993085952; 
SCname=4F_2_F1; channelId=993077760; 
SCname=4F_1_F1; channelId=993069568; 
SCname=1G_1_F1; channelId=993004544; 
SCname=2G_3_F1; channelId=993029120; 
SCname=2G_2_F1; channelId=993020928; 
SCname=2G_1_F1; channelId=993012736; 
SCname=3G_4_F1; channelId=993061888; 
SCname=3G_3_F1; channelId=993053696; 
SCname=3G_2_F1; channelId=993045504; 
SCname=3G_1_F1; channelId=993037312; 
SCname=4G_4_F1; channelId=993094656; 
SCname=4G_3_F1; channelId=993086464; 
SCname=4G_2_F1; channelId=993078272; 
SCname=4G_1_F1; channelId=993070080; 
SCname=1H_1_F1; channelId=993005056; 
SCname=2H_3_F1; channelId=993029632; 
SCname=2H_2_F1; channelId=993021440; 
SCname=2H_1_F1; channelId=993013248; 
SCname=3H_4_F1; channelId=993062400; 
SCname=3H_3_F1; channelId=993054208; 
SCname=3H_2_F1; channelId=993046016; 
SCname=3H_1_F1; channelId=993037824; 
SCname=4H_4_F1; channelId=993095168; 
SCname=4H_3_F1; channelId=993086976; 
SCname=4H_2_F1; channelId=993078784; 
SCname=4H_1_F1; channelId=993070592; 
SCname=1I_1_F1; channelId=993005568; 
SCname=2I_3_F1; channelId=993030144; 
SCname=2I_2_F1; channelId=993021952; 
SCname=2I_1_F1; channelId=993013760; 
SCname=3I_4_F1; channelId=993062912; 
SCname=3I_3_F1; channelId=993054720; 
SCname=3I_2_F1; channelId=993046528; 
SCname=3I_1_F1; channelId=993038336; 
SCname=4I_4_F1; channelId=993095680; 
SCname=4I_3_F1; channelId=993087488; 
SCname=4I_2_F1; channelId=993079296; 
SCname=4I_1_F1; channelId=993071104; 
SCname=1J_1_F1; channelId=993006080; 
SCname=2J_3_F1; channelId=993030656; 
SCname=2J_2_F1; channelId=993022464; 
SCname=2J_1_F1; channelId=993014272; 
SCname=3J_4_F1; channelId=993063424; 
SCname=3J_3_F1; channelId=993055232; 
SCname=3J_2_F1; channelId=993047040; 
SCname=3J_1_F1; channelId=993038848; 
SCname=4J_4_F1; channelId=993096192; 
SCname=4J_3_F1; channelId=993088000; 
SCname=4J_2_F1; channelId=993079808; 
SCname=4J_1_F1; channelId=993071616; 
SCname=1K_1_F1; channelId=993006592; 
SCname=2K_3_F1; channelId=993031168; 
SCname=2K_2_F1; channelId=993022976; 
SCname=2K_1_F1; channelId=993014784; 
SCname=3K_4_F1; channelId=993063936; 
SCname=3K_3_F1; channelId=993055744; 
SCname=3K_2_F1; channelId=993047552; 
SCname=3K_1_F1; channelId=993039360; 
SCname=4K_4_F1; channelId=993096704; 
SCname=4K_3_F1; channelId=993088512; 
SCname=4K_2_F1; channelId=993080320; 
SCname=4K_1_F1; channelId=993072128; 
SCname=1L_1_F1; channelId=993007104; 
SCname=2L_3_F1; channelId=993031680; 
SCname=2L_2_F1; channelId=993023488; 
SCname=2L_1_F1; channelId=993015296; 
SCname=3L_4_F1; channelId=993064448; 
SCname=3L_3_F1; channelId=993056256; 
SCname=3L_2_F1; channelId=993048064; 
SCname=3L_1_F1; channelId=993039872; 
SCname=4L_4_F1; channelId=993097216; 
SCname=4L_3_F1; channelId=993089024; 
SCname=4L_2_F1; channelId=993080832; 
SCname=4L_1_F1; channelId=993072640; 
SCname=1M_1_F1; channelId=993007616; 
SCname=2M_3_F1; channelId=993032192; 
SCname=2M_2_F1; channelId=993024000; 
SCname=2M_1_F1; channelId=993015808; 
SCname=3M_4_F1; channelId=993064960; 
SCname=3M_3_F1; channelId=993056768; 
SCname=3M_2_F1; channelId=993048576; 
SCname=3M_1_F1; channelId=993040384; 
SCname=4M_4_F1; channelId=993097728; 
SCname=4M_3_F1; channelId=993089536; 
SCname=4M_2_F1; channelId=993081344; 
SCname=4M_1_F1; channelId=993073152; 
SCname=1N_1_F1; channelId=993008128; 
SCname=2N_3_F1; channelId=993032704; 
SCname=2N_2_F1; channelId=993024512; 
SCname=2N_1_F1; channelId=993016320; 
SCname=3N_4_F1; channelId=993065472; 
SCname=3N_3_F1; channelId=993057280; 
SCname=3N_2_F1; channelId=993049088; 
SCname=3N_1_F1; channelId=993040896; 
SCname=4N_4_F1; channelId=993098240; 
SCname=4N_3_F1; channelId=993090048; 
SCname=4N_2_F1; channelId=993081856; 
SCname=4N_1_F1; channelId=993073664; 
SCname=1O_1_F1; channelId=993008640; 
SCname=2O_3_F1; channelId=993033216; 
SCname=2O_2_F1; channelId=993025024; 
SCname=2O_1_F1; channelId=993016832; 
SCname=3O_4_F1; channelId=993065984; 
SCname=3O_3_F1; channelId=993057792; 
SCname=3O_2_F1; channelId=993049600; 
SCname=3O_1_F1; channelId=993041408; 
SCname=4O_4_F1; channelId=993098752; 
SCname=4O_3_F1; channelId=993090560; 
SCname=4O_2_F1; channelId=993082368; 
SCname=4O_1_F1; channelId=993074176; 
SCname=1P_1_F1; channelId=993009152; 
SCname=2P_3_F1; channelId=993033728; 
SCname=2P_2_F1; channelId=993025536; 
SCname=2P_1_F1; channelId=993017344; 
SCname=3P_4_F1; channelId=993066496; 
SCname=3P_3_F1; channelId=993058304; 
SCname=3P_2_F1; channelId=993050112; 
SCname=3P_1_F1; channelId=993041920; 
SCname=4P_4_F1; channelId=993099264; 
SCname=4P_3_F1; channelId=993091072; 
SCname=4P_2_F1; channelId=993082880; 
SCname=4P_1_F1; channelId=993074688; 
192 SCs are read!  LATOME is FCALA_1

******************** Start to read SCs info per fiber: ********************
IN F4 4M_3_F1 4M_4_F1 4M_1_F1 4M_2_F1 2O_2_F1 2O_1_F1 1O_1_F1 2O_3_F1
IN F5 4O_3_F1 4O_4_F1 3O_1_F1 3O_2_F1 3O_3_F1 3O_4_F1 4O_2_F1 4O_1_F1
IN F6 GND GND GND GND 3A_1_F1 3A_2_F1 3A_3_F1 3A_4_F1
IN F7 3C_1_F1 3C_2_F1 3C_3_F1 3C_4_F1 4C_3_F1 4C_4_F1 4C_2_F1 4C_1_F1
IN F9 1F_1_F1 2F_3_F1 2F_2_F1 2F_1_F1 3D_4_F1 3D_3_F1 3D_1_F1 3D_2_F1
IN F11 4A_1_F1 4A_2_F1 4A_3_F1 4A_4_F1 GND GND GND GND
IN F12 GND GND GND GND 2A_1_F1 2A_2_F1 2A_3_F1 1A_1_F1
IN F16 GND GND GND GND 3K_1_F1 3K_2_F1 3K_4_F1 3K_3_F1
IN F17 3L_1_F1 3L_2_F1 3L_3_F1 3L_4_F1 GND GND GND GND
IN F19 3M_3_F1 3M_4_F1 2M_2_F1 2M_1_F1 1M_1_F1 2M_3_F1 3M_1_F1 3M_2_F1
IN F20 3E_1_F1 3E_2_F1 3E_3_F1 3E_4_F1 4E_1_F1 4E_2_F1 4E_4_F1 4E_3_F1
IN F21 3B_2_F1 3B_1_F1 3B_4_F1 3B_3_F1 GND GND GND GND
IN F22 2H_1_F1 2H_2_F1 1H_1_F1 2H_3_F1 3F_4_F1 3F_3_F1 3F_1_F1 3F_2_F1
IN F23 1E_1_F1 2E_3_F1 2E_2_F1 2E_1_F1 4D_4_F1 4D_3_F1 4D_1_F1 4D_2_F1
IN F24 4F_2_F1 4F_1_F1 4F_4_F1 4F_3_F1 2G_1_F1 2G_2_F1 1G_1_F1 2G_3_F1
IN F27 3I_4_F1 3I_3_F1 3I_1_F1 3I_2_F1 2L_3_F1 1L_1_F1 2L_1_F1 2L_2_F1
IN F29 1K_1_F1 2K_3_F1 2K_1_F1 2K_2_F1 4I_3_F1 4I_4_F1 4I_1_F1 4I_2_F1
IN F30 3G_1_F1 3G_2_F1 3G_3_F1 3G_4_F1 2J_1_F1 2J_2_F1 2J_3_F1 1J_1_F1
IN F31 4J_2_F1 4J_1_F1 4J_4_F1 4J_3_F1 3J_4_F1 3J_3_F1 3J_1_F1 3J_2_F1
IN F33 4N_3_F1 4N_4_F1 2N_2_F1 2N_1_F1 4N_2_F1 4N_1_F1 1N_1_F1 2N_3_F1
IN F35 4L_1_F1 4L_2_F1 4L_4_F1 4L_3_F1 2D_1_F1 2D_2_F1 1D_1_F1 2D_3_F1
IN F36 GND GND GND GND 4K_4_F1 4K_3_F1 4K_1_F1 4K_2_F1
IN F40 4G_2_F1 4G_1_F1 4G_4_F1 4G_3_F1 2I_1_F1 2I_2_F1 1I_1_F1 2I_3_F1
IN F41 GND GND GND GND 2B_1_F1 2B_2_F1 1B_1_F1 2B_3_F1
IN F42 3H_3_F1 3H_4_F1 3H_1_F1 3H_2_F1 4H_2_F1 4H_1_F1 4H_4_F1 4H_3_F1
IN F43 GND GND GND GND 4B_1_F1 4B_2_F1 4B_4_F1 4B_3_F1
IN F44 1P_1_F1 2P_3_F1 4P_1_F1 4P_2_F1 4P_4_F1 4P_3_F1 2P_2_F1 2P_1_F1
IN F45 GND GND GND GND 2C_2_F1 2C_1_F1 1C_1_F1 2C_3_F1
IN F47 3N_3_F1 3N_4_F1 3N_2_F1 3N_1_F1 3P_1_F1 3P_2_F1 3P_4_F1 3P_3_F1
29 fibers are connected!
max_event=689

******************** Start to search BCID of peak sampling: ********************
IN F3; 4M_3_F1=1; 4M_4_F1=1; 4M_1_F1=1; 4M_2_F1=1; 2O_2_F1=1; 2O_1_F1=2; 1O_1_F1=2; 2O_3_F1=1;  BCID_rms=0.433013
IN F4; 4O_3_F1=1; 4O_4_F1=1; 3O_1_F1=1; 3O_2_F1=1; 3O_3_F1=1; 3O_4_F1=1; 4O_2_F1=1; 4O_1_F1=1;  BCID_rms=0
IN F5; GND; GND; GND; GND; 3A_1_F1=1; 3A_2_F1=1; 3A_3_F1=1; 3A_4_F1=1;  BCID_rms=0
IN F6; 3C_1_F1=1; 3C_2_F1=1; 3C_3_F1=1; 3C_4_F1=1; 4C_3_F1=1; 4C_4_F1=1; 4C_2_F1=1; 4C_1_F1=1;  BCID_rms=0
IN F8; 1F_1_F1=2; 2F_3_F1=1; 2F_2_F1=1; 2F_1_F1=2; 3D_4_F1=1; 3D_3_F1=1; 3D_1_F1=1; 3D_2_F1=1;  BCID_rms=0.433013
IN F10; 4A_1_F1=1; 4A_2_F1=1; 4A_3_F1=1; 4A_4_F1=1; GND; GND; GND; GND;  BCID_rms=0
IN F11; GND; GND; GND; GND; 2A_1_F1=1; 2A_2_F1=0; 2A_3_F1=0; 1A_1_F1=1;  BCID_rms=0.5
IN F15; GND; GND; GND; GND; 3K_1_F1=1; 3K_2_F1=1; 3K_4_F1=1; 3K_3_F1=1;  BCID_rms=0
IN F16; 3L_1_F1=1; 3L_2_F1=1; 3L_3_F1=1; 3L_4_F1=1; GND; GND; GND; GND;  BCID_rms=0
IN F18; 3M_3_F1=1; 3M_4_F1=1; 2M_2_F1=1; 2M_1_F1=1; 1M_1_F1=2; 2M_3_F1=1; 3M_1_F1=1; 3M_2_F1=1;  BCID_rms=0.330719
IN F19; 3E_1_F1=1; 3E_2_F1=1; 3E_3_F1=1; 3E_4_F1=1; 4E_1_F1=1; 4E_2_F1=1; 4E_4_F1=1; 4E_3_F1=1;  BCID_rms=0
IN F20; 3B_2_F1=1; 3B_1_F1=1; 3B_4_F1=1; 3B_3_F1=1; GND; GND; GND; GND;  BCID_rms=0
IN F21; 2H_1_F1=2; 2H_2_F1=1; 1H_1_F1=2; 2H_3_F1=1; 3F_4_F1=1; 3F_3_F1=1; 3F_1_F1=1; 3F_2_F1=1;  BCID_rms=0.433013
IN F22; 1E_1_F1=2; 2E_3_F1=1; 2E_2_F1=1; 2E_1_F1=2; 4D_4_F1=1; 4D_3_F1=1; 4D_1_F1=1; 4D_2_F1=1;  BCID_rms=0.433013
IN F23; 4F_2_F1=1; 4F_1_F1=1; 4F_4_F1=1; 4F_3_F1=1; 2G_1_F1=2; 2G_2_F1=1; 1G_1_F1=2; 2G_3_F1=1;  BCID_rms=0.433013
IN F26; 3I_4_F1=1; 3I_3_F1=1; 3I_1_F1=1; 3I_2_F1=1; 2L_3_F1=1; 1L_1_F1=2; 2L_1_F1=1; 2L_2_F1=1;  BCID_rms=0.330719
IN F28; 1K_1_F1=2; 2K_3_F1=1; 2K_1_F1=2; 2K_2_F1=1; 4I_3_F1=1; 4I_4_F1=1; 4I_1_F1=1; 4I_2_F1=1;  BCID_rms=0.433013
IN F29; 3G_1_F1=1; 3G_2_F1=1; 3G_3_F1=1; 3G_4_F1=1; 2J_1_F1=1; 2J_2_F1=1; 2J_3_F1=1; 1J_1_F1=2;  BCID_rms=0.330719
IN F30; 4J_2_F1=1; 4J_1_F1=1; 4J_4_F1=1; 4J_3_F1=1; 3J_4_F1=1; 3J_3_F1=1; 3J_1_F1=1; 3J_2_F1=1;  BCID_rms=0
IN F32; 4N_3_F1=1; 4N_4_F1=1; 2N_2_F1=1; 2N_1_F1=1; 4N_2_F1=1; 4N_1_F1=1; 1N_1_F1=1; 2N_3_F1=1;  BCID_rms=0
IN F34; 4L_1_F1=1; 4L_2_F1=1; 4L_4_F1=1; 4L_3_F1=1; 2D_1_F1=1; 2D_2_F1=1; 1D_1_F1=2; 2D_3_F1=1;  BCID_rms=0.330719
IN F35; GND; GND; GND; GND; 4K_4_F1=1; 4K_3_F1=1; 4K_1_F1=1; 4K_2_F1=1;  BCID_rms=0
IN F39; 4G_2_F1=1; 4G_1_F1=1; 4G_4_F1=1; 4G_3_F1=1; 2I_1_F1=1; 2I_2_F1=1; 1I_1_F1=2; 2I_3_F1=1;  BCID_rms=0.330719
IN F40; GND; GND; GND; GND; 2B_1_F1=1; 2B_2_F1=0; 1B_1_F1=1; 2B_3_F1=0;  BCID_rms=0.5
IN F41; 3H_3_F1=1; 3H_4_F1=1; 3H_1_F1=1; 3H_2_F1=1; 4H_2_F1=1; 4H_1_F1=1; 4H_4_F1=1; 4H_3_F1=1;  BCID_rms=0
IN F42; GND; GND; GND; GND; 4B_1_F1=1; 4B_2_F1=1; 4B_4_F1=1; 4B_3_F1=1;  BCID_rms=0
IN F43; 1P_1_F1=2; 2P_3_F1=1; 4P_1_F1=1; 4P_2_F1=1; 4P_4_F1=1; 4P_3_F1=1; 2P_2_F1=1; 2P_1_F1=1;  BCID_rms=0.330719
IN F44; GND; GND; GND; GND; 2C_2_F1=0; 2C_1_F1=1; 1C_1_F1=1; 2C_3_F1=0;  BCID_rms=0.5
IN F46; 3N_3_F1=1; 3N_4_F1=1; 3N_2_F1=1; 3N_1_F1=1; 3P_1_F1=1; 3P_2_F1=1; 3P_4_F1=1; 3P_3_F1=1;  BCID_rms=0
