
Processing macro.C+("inputfile/LArDigits_pusleall_00407557.root","EMBA-EMECA_16","outputs/hist/LArDigits_pusleall_00407557_hist.root","results/LArDigits_pusleall_00407557/latome151.ini","LATOME_ini_file/latome151.ini",false)...

******************** Start to read ini BCID: ********************
input file: LATOME_ini_file/latome151.ini
F0  BCID=3463; 
F1  BCID=3463; 
F2  BCID=0; 
F3  BCID=3460; 
F4  BCID=3460; 
F5  BCID=3460; 
F6  BCID=3460; 
F7  BCID=3460; 
F8  BCID=3460; 
F9  BCID=3460; 
F10  BCID=3460; 
F11  BCID=3459; 
F12  BCID=3463; 
F13  BCID=3463; 
F14  BCID=3460; 
F15  BCID=3460; 
F16  BCID=3460; 
F17  BCID=3460; 
F18  BCID=3460; 
F19  BCID=3460; 
F20  BCID=3460; 
F21  BCID=3460; 
F22  BCID=3460; 
F23  BCID=0; 
F24  BCID=3464; 
F25  BCID=3463; 
F26  BCID=0; 
F27  BCID=3460; 
F28  BCID=3460; 
F29  BCID=3460; 
F30  BCID=3460; 
F31  BCID=3460; 
F32  BCID=3460; 
F33  BCID=3460; 
F34  BCID=3460; 
F35  BCID=3460; 
F36  BCID=3463; 
F37  BCID=3463; 
F38  BCID=3460; 
F39  BCID=3460; 
F40  BCID=3460; 
F41  BCID=3460; 
F42  BCID=3460; 
F43  BCID=3460; 
F44  BCID=3460; 
F45  BCID=3460; 
F46  BCID=3460; 
F47  BCID=0; 
48 fibers are read!

******************** Start to read LArId info: ********************
SCname=9M_P1; channelId=972038144; 
SCname=9N_P1; channelId=972038656; 
SCname=10M_P1; channelId=972039168; 
SCname=10N_P1; channelId=972039680; 
SCname=11M_P1; channelId=972040192; 
SCname=11N_P1; channelId=972040704; 
SCname=12M_P1; channelId=972041216; 
SCname=12N_P1; channelId=972041728; 
SCname=13M_P1; channelId=972042240; 
SCname=13N_P1; channelId=972042752; 
SCname=14M_P1; channelId=972043264; 
SCname=14N_P1; channelId=972043776; 
SCname=15M_P1; channelId=972044288; 
SCname=15N_P1; channelId=972044800; 
SCname=9M_F1; channelId=972078080; 
SCname=9M_F2; channelId=972079104; 
SCname=9M_F3; channelId=972080128; 
SCname=9M_F4; channelId=972081152; 
SCname=10M_F1; channelId=972082176; 
SCname=10M_F2; channelId=972083200; 
SCname=10M_F3; channelId=972084224; 
SCname=10M_F4; channelId=972085248; 
SCname=9N_F1; channelId=972078592; 
SCname=9N_F2; channelId=972079616; 
SCname=9N_F3; channelId=972080640; 
SCname=9N_F4; channelId=972081664; 
SCname=10N_F1; channelId=972082688; 
SCname=10N_F2; channelId=972083712; 
SCname=10N_F3; channelId=972084736; 
SCname=10N_F4; channelId=972085760; 
SCname=11M_F1; channelId=972086272; 
SCname=11M_F2; channelId=972087296; 
SCname=11M_F3; channelId=972088320; 
SCname=11M_F4; channelId=972089344; 
SCname=12M_F1; channelId=972090368; 
SCname=12M_F2; channelId=972091392; 
SCname=12M_F3; channelId=972092416; 
SCname=12M_F4; channelId=972093440; 
SCname=11N_F1; channelId=972086784; 
SCname=11N_F2; channelId=972087808; 
SCname=11N_F3; channelId=972088832; 
SCname=11N_F4; channelId=972089856; 
SCname=12N_F1; channelId=972090880; 
SCname=12N_F2; channelId=972091904; 
SCname=12N_F3; channelId=972092928; 
SCname=12N_F4; channelId=972093952; 
SCname=13M_F1; channelId=972094464; 
SCname=13M_F2; channelId=972095488; 
SCname=13M_F3; channelId=972096512; 
SCname=13M_F4; channelId=972097536; 
SCname=14M_F1; channelId=972098560; 
SCname=14M_F2; channelId=972099584; 
SCname=14M_F3; channelId=972100608; 
SCname=14M_F4; channelId=972101632; 
SCname=13N_F1; channelId=972094976; 
SCname=13N_F2; channelId=972096000; 
SCname=13N_F3; channelId=972097024; 
SCname=13N_F4; channelId=972098048; 
SCname=14N_F1; channelId=972099072; 
SCname=14N_F2; channelId=972100096; 
SCname=14N_F3; channelId=972101120; 
SCname=14N_F4; channelId=972102144; 
SCname=9M_B1; channelId=972172288; 
SCname=10M_B1; channelId=972173312; 
SCname=11M_B1; channelId=972174336; 
SCname=12M_B1; channelId=972175360; 
SCname=13M_B1; channelId=972176384; 
SCname=14M_B1; channelId=972177408; 
SCname=15M_B1; channelId=972102656; 
SCname=15M_B2; channelId=972103680; 
SCname=15M_B3; channelId=972104704; 
SCname=15M_B4; channelId=972163072; 
SCname=9N_B1; channelId=972172800; 
SCname=10N_B1; channelId=972173824; 
SCname=11N_B1; channelId=972174848; 
SCname=12N_B1; channelId=972175872; 
SCname=13N_B1; channelId=972176896; 
SCname=14N_B1; channelId=972177920; 
SCname=15N_B1; channelId=972103168; 
SCname=15N_B2; channelId=972104192; 
SCname=15N_B3; channelId=972105216; 
SCname=15N_B4; channelId=972163584; 
SCname=9M_M1; channelId=972138496; 
SCname=9M_M2; channelId=972139520; 
SCname=9M_M3; channelId=972140544; 
SCname=9M_M4; channelId=972141568; 
SCname=10M_M1; channelId=972142592; 
SCname=10M_M2; channelId=972143616; 
SCname=10M_M3; channelId=972144640; 
SCname=10M_M4; channelId=972145664; 
SCname=11M_M1; channelId=972146688; 
SCname=11M_M2; channelId=972147712; 
SCname=11M_M3; channelId=972148736; 
SCname=11M_M4; channelId=972149760; 
SCname=12M_M1; channelId=972150784; 
SCname=12M_M2; channelId=972151808; 
SCname=12M_M3; channelId=972152832; 
SCname=12M_M4; channelId=972153856; 
SCname=9N_M1; channelId=972139008; 
SCname=9N_M2; channelId=972140032; 
SCname=9N_M3; channelId=972141056; 
SCname=9N_M4; channelId=972142080; 
SCname=10N_M1; channelId=972143104; 
SCname=10N_M2; channelId=972144128; 
SCname=10N_M3; channelId=972145152; 
SCname=10N_M4; channelId=972146176; 
SCname=11N_M1; channelId=972147200; 
SCname=11N_M2; channelId=972148224; 
SCname=11N_M3; channelId=972149248; 
SCname=11N_M4; channelId=972150272; 
SCname=12N_M1; channelId=972151296; 
SCname=12N_M2; channelId=972152320; 
SCname=12N_M3; channelId=972153344; 
SCname=12N_M4; channelId=972154368; 
SCname=13M_M1; channelId=972154880; 
SCname=13M_M2; channelId=972155904; 
SCname=13M_M3; channelId=972156928; 
SCname=13M_M4; channelId=972157952; 
SCname=13N_M1; channelId=972155392; 
SCname=13N_M2; channelId=972156416; 
SCname=13N_M3; channelId=972157440; 
SCname=13N_M4; channelId=972158464; 
SCname=14M_M1; channelId=972158976; 
SCname=14M_M2; channelId=972160000; 
SCname=14M_M3; channelId=972161024; 
SCname=14M_M4; channelId=972162048; 
SCname=14N_M1; channelId=972159488; 
SCname=14N_M2; channelId=972160512; 
SCname=14N_M3; channelId=972161536; 
SCname=14N_M4; channelId=972162560; 
SCname=9O_P1; channelId=972562432; 
SCname=9P_P1; channelId=972562944; 
SCname=10O_P1; channelId=972563456; 
SCname=10P_P1; channelId=972563968; 
SCname=11O_P1; channelId=972564480; 
SCname=11P_P1; channelId=972564992; 
SCname=12O_P1; channelId=972565504; 
SCname=12P_P1; channelId=972566016; 
SCname=13O_P1; channelId=972566528; 
SCname=13P_P1; channelId=972567040; 
SCname=14O_P1; channelId=972567552; 
SCname=14P_P1; channelId=972568064; 
SCname=15O_P1; channelId=972568576; 
SCname=15P_P1; channelId=972569088; 
SCname=9O_F1; channelId=972602368; 
SCname=9O_F2; channelId=972603392; 
SCname=9O_F3; channelId=972604416; 
SCname=9O_F4; channelId=972605440; 
SCname=10O_F1; channelId=972606464; 
SCname=10O_F2; channelId=972607488; 
SCname=10O_F3; channelId=972608512; 
SCname=10O_F4; channelId=972609536; 
SCname=9P_F1; channelId=972602880; 
SCname=9P_F2; channelId=972603904; 
SCname=9P_F3; channelId=972604928; 
SCname=9P_F4; channelId=972605952; 
SCname=10P_F1; channelId=972606976; 
SCname=10P_F2; channelId=972608000; 
SCname=10P_F3; channelId=972609024; 
SCname=10P_F4; channelId=972610048; 
SCname=11O_F1; channelId=972610560; 
SCname=11O_F2; channelId=972611584; 
SCname=11O_F3; channelId=972612608; 
SCname=11O_F4; channelId=972613632; 
SCname=12O_F1; channelId=972614656; 
SCname=12O_F2; channelId=972615680; 
SCname=12O_F3; channelId=972616704; 
SCname=12O_F4; channelId=972617728; 
SCname=11P_F1; channelId=972611072; 
SCname=11P_F2; channelId=972612096; 
SCname=11P_F3; channelId=972613120; 
SCname=11P_F4; channelId=972614144; 
SCname=12P_F1; channelId=972615168; 
SCname=12P_F2; channelId=972616192; 
SCname=12P_F3; channelId=972617216; 
SCname=12P_F4; channelId=972618240; 
SCname=13O_F1; channelId=972618752; 
SCname=13O_F2; channelId=972619776; 
SCname=13O_F3; channelId=972620800; 
SCname=13O_F4; channelId=972621824; 
SCname=14O_F1; channelId=972622848; 
SCname=14O_F2; channelId=972623872; 
SCname=14O_F3; channelId=972624896; 
SCname=14O_F4; channelId=972625920; 
SCname=13P_F1; channelId=972619264; 
SCname=13P_F2; channelId=972620288; 
SCname=13P_F3; channelId=972621312; 
SCname=13P_F4; channelId=972622336; 
SCname=14P_F1; channelId=972623360; 
SCname=14P_F2; channelId=972624384; 
SCname=14P_F3; channelId=972625408; 
SCname=14P_F4; channelId=972626432; 
SCname=9O_B1; channelId=972696576; 
SCname=10O_B1; channelId=972697600; 
SCname=11O_B1; channelId=972698624; 
SCname=12O_B1; channelId=972699648; 
SCname=13O_B1; channelId=972700672; 
SCname=14O_B1; channelId=972701696; 
SCname=15O_B1; channelId=972626944; 
SCname=15O_B2; channelId=972627968; 
SCname=15O_B3; channelId=972628992; 
SCname=15O_B4; channelId=972687360; 
SCname=9P_B1; channelId=972697088; 
SCname=10P_B1; channelId=972698112; 
SCname=11P_B1; channelId=972699136; 
SCname=12P_B1; channelId=972700160; 
SCname=13P_B1; channelId=972701184; 
SCname=14P_B1; channelId=972702208; 
SCname=15P_B1; channelId=972627456; 
SCname=15P_B2; channelId=972628480; 
SCname=15P_B3; channelId=972629504; 
SCname=15P_B4; channelId=972687872; 
SCname=9O_M1; channelId=972662784; 
SCname=9O_M2; channelId=972663808; 
SCname=9O_M3; channelId=972664832; 
SCname=9O_M4; channelId=972665856; 
SCname=10O_M1; channelId=972666880; 
SCname=10O_M2; channelId=972667904; 
SCname=10O_M3; channelId=972668928; 
SCname=10O_M4; channelId=972669952; 
SCname=11O_M1; channelId=972670976; 
SCname=11O_M2; channelId=972672000; 
SCname=11O_M3; channelId=972673024; 
SCname=11O_M4; channelId=972674048; 
SCname=12O_M1; channelId=972675072; 
SCname=12O_M2; channelId=972676096; 
SCname=12O_M3; channelId=972677120; 
SCname=12O_M4; channelId=972678144; 
SCname=9P_M1; channelId=972663296; 
SCname=9P_M2; channelId=972664320; 
SCname=9P_M3; channelId=972665344; 
SCname=9P_M4; channelId=972666368; 
SCname=10P_M1; channelId=972667392; 
SCname=10P_M2; channelId=972668416; 
SCname=10P_M3; channelId=972669440; 
SCname=10P_M4; channelId=972670464; 
SCname=11P_M1; channelId=972671488; 
SCname=11P_M2; channelId=972672512; 
SCname=11P_M3; channelId=972673536; 
SCname=11P_M4; channelId=972674560; 
SCname=12P_M1; channelId=972675584; 
SCname=12P_M2; channelId=972676608; 
SCname=12P_M3; channelId=972677632; 
SCname=12P_M4; channelId=972678656; 
SCname=13O_M1; channelId=972679168; 
SCname=13O_M2; channelId=972680192; 
SCname=13O_M3; channelId=972681216; 
SCname=13O_M4; channelId=972682240; 
SCname=13P_M1; channelId=972679680; 
SCname=13P_M2; channelId=972680704; 
SCname=13P_M3; channelId=972681728; 
SCname=13P_M4; channelId=972682752; 
SCname=14O_M1; channelId=972683264; 
SCname=14O_M2; channelId=972684288; 
SCname=14O_M3; channelId=972685312; 
SCname=14O_M4; channelId=972686336; 
SCname=14P_M1; channelId=972683776; 
SCname=14P_M2; channelId=972684800; 
SCname=14P_M3; channelId=972685824; 
SCname=14P_M4; channelId=972686848; 
SCname=2M_P1; channelId=1000871936; 
SCname=2N_P1; channelId=1000872448; 
SCname=2O_P1; channelId=1000872960; 
SCname=2P_P1; channelId=1000873472; 
SCname=1M_F1; channelId=1000880128; 
SCname=1N_F1; channelId=1000880640; 
SCname=1O_F1; channelId=1000881152; 
SCname=1P_F1; channelId=1000881664; 
SCname=1M_M1; channelId=1000921088; 
SCname=1M_M2; channelId=1000929280; 
SCname=1M_M3; channelId=1000937472; 
SCname=1M_M4; channelId=1000945664; 
SCname=1N_M1; channelId=1000921600; 
SCname=1N_M2; channelId=1000929792; 
SCname=1N_M3; channelId=1000937984; 
SCname=1N_M4; channelId=1000946176; 
SCname=1O_M1; channelId=1000922112; 
SCname=1O_M2; channelId=1000930304; 
SCname=1O_M3; channelId=1000938496; 
SCname=1O_M4; channelId=1000946688; 
SCname=1P_M1; channelId=1000922624; 
SCname=1P_M2; channelId=1000930816; 
SCname=1P_M3; channelId=1000939008; 
SCname=1P_M4; channelId=1000947200; 
SCname=2M_F1; channelId=1000888320; 
SCname=2M_F2; channelId=1000896512; 
SCname=2M_F3; channelId=1000904704; 
SCname=2M_F4; channelId=1000912896; 
SCname=2N_F1; channelId=1000888832; 
SCname=2N_F2; channelId=1000897024; 
SCname=2N_F3; channelId=1000905216; 
SCname=2N_F4; channelId=1000913408; 
SCname=2O_F1; channelId=1000889344; 
SCname=2O_F2; channelId=1000897536; 
SCname=2O_F3; channelId=1000905728; 
SCname=2O_F4; channelId=1000913920; 
SCname=2P_F1; channelId=1000889856; 
SCname=2P_F2; channelId=1000898048; 
SCname=2P_F3; channelId=1000906240; 
SCname=2P_F4; channelId=1000914432; 
SCname=2M_B1; channelId=1000986624; 
SCname=2N_B1; channelId=1000987136; 
SCname=2O_B1; channelId=1000987648; 
SCname=2P_B1; channelId=1000988160; 
SCname=2M_M1; channelId=1000953856; 
SCname=2M_M2; channelId=1000962048; 
SCname=2M_M3; channelId=1000970240; 
SCname=2M_M4; channelId=1000978432; 
SCname=2N_M1; channelId=1000954368; 
SCname=2N_M2; channelId=1000962560; 
SCname=2N_M3; channelId=1000970752; 
SCname=2N_M4; channelId=1000978944; 
SCname=2O_M1; channelId=1000954880; 
SCname=2O_M2; channelId=1000963072; 
SCname=2O_M3; channelId=1000971264; 
SCname=2O_M4; channelId=1000979456; 
SCname=2P_M1; channelId=1000955392; 
SCname=2P_M2; channelId=1000963584; 
SCname=2P_M3; channelId=1000971776; 
SCname=2P_M4; channelId=1000979968; 
320 SCs are read!  LATOME is EMBA_EMECA_16

******************** Start to read SCs info per fiber: ********************
IN F1 2P_M4 2P_M3 2P_M1 2P_M2 2O_M3 2O_M4 2O_M1 2O_M2
IN F2 2M_M1 2M_M2 2M_M4 2M_M3 2N_M2 2N_M1 2N_M4 2N_M3
IN F4 GND 15N_P1 13N_P1 14N_P1 9N_P1 10N_P1 12N_P1 11N_P1
IN F5 13N_M1 13N_M2 13N_M4 13N_M3 14N_M3 14N_M4 14N_M1 14N_M2
IN F6 10N_M1 10N_M2 10N_M3 10N_M4 9N_M4 9N_M3 9N_M2 9N_M1
IN F7 11N_M3 11N_M4 11N_M1 11N_M2 12N_M1 12N_M2 12N_M4 12N_M3
IN F8 12N_F1 12N_F2 12N_F3 12N_F4 11N_F1 11N_F2 11N_F3 11N_F4
IN F9 9N_F2 9N_F1 9N_F4 9N_F3 10N_F2 10N_F1 10N_F4 10N_F3
IN F10 13M_B1 14M_B1 GND GND 9M_B1 10M_B1 11M_B1 12M_B1
IN F11 13N_F4 13N_F3 13N_F1 13N_F2 14N_F1 14N_F2 14N_F4 14N_F3
IN F12 15M_B4 15M_B3 15M_B1 15M_B2 GND GND GND GND
IN F13 2M_B1 2N_B1 2O_B1 2P_B1 2M_P1 2N_P1 2O_P1 2P_P1
IN F14 1M_M1 1M_M2 1M_M3 1M_M4 1N_M1 1N_M2 1N_M4 1N_M3
IN F15 12P_B1 11P_B1 10P_B1 9P_B1 GND GND 13P_B1 14P_B1
IN F16 14O_F2 14O_F1 14O_F4 14O_F3 13O_F4 13O_F3 13O_F1 13O_F2
IN F17 15P_B1 15P_B2 15P_B3 15P_B4 GND GND GND GND
IN F18 14O_P1 13O_P1 GND 15O_P1 11O_P1 12O_P1 9O_P1 10O_P1
IN F19 11O_F2 11O_F1 11O_F3 11O_F4 12O_F1 12O_F2 12O_F4 12O_F3
IN F20 9O_M1 9O_M2 9O_M3 9O_M4 10O_M1 10O_M2 10O_M4 10O_M3
IN F21 9O_F2 9O_F1 9O_F4 9O_F3 10O_F1 10O_F2 10O_F4 10O_F3
IN F22 14O_M4 14O_M3 14O_M1 14O_M2 13O_M4 13O_M3 13O_M1 13O_M2
IN F23 11O_M1 11O_M2 11O_M3 11O_M4 12O_M4 12O_M3 12O_M1 12O_M2
IN F25 1O_M1 1O_M2 1O_M3 1O_M4 1P_M4 1P_M3 1P_M1 1P_M2
IN F26 GND GND GND GND 1P_F1 1O_F1 1N_F1 1M_F1
IN F28 GND 15P_P1 13P_P1 14P_P1 9P_P1 10P_P1 12P_P1 11P_P1
IN F29 13P_M1 13P_M2 13P_M4 13P_M3 14P_M3 14P_M4 14P_M1 14P_M2
IN F30 10P_M1 10P_M2 10P_M3 10P_M4 9P_M4 9P_M3 9P_M2 9P_M1
IN F31 11P_M3 11P_M4 11P_M1 11P_M2 12P_M1 12P_M2 12P_M4 12P_M3
IN F32 12P_F1 12P_F2 12P_F3 12P_F4 11P_F1 11P_F2 11P_F3 11P_F4
IN F33 9P_F2 9P_F1 9P_F4 9P_F3 10P_F2 10P_F1 10P_F4 10P_F3
IN F34 13O_B1 14O_B1 GND GND 9O_B1 10O_B1 11O_B1 12O_B1
IN F35 13P_F4 13P_F3 13P_F1 13P_F2 14P_F1 14P_F2 14P_F4 14P_F3
IN F36 15O_B4 15O_B3 15O_B1 15O_B2 GND GND GND GND
IN F37 2P_F4 2P_F3 2P_F2 2P_F1 2O_F1 2O_F2 2O_F3 2O_F4
IN F38 2M_F3 2M_F4 2M_F1 2M_F2 2N_F3 2N_F4 2N_F1 2N_F2
IN F39 12N_B1 11N_B1 10N_B1 9N_B1 GND GND 13N_B1 14N_B1
IN F40 14M_F2 14M_F1 14M_F4 14M_F3 13M_F4 13M_F3 13M_F1 13M_F2
IN F41 15N_B1 15N_B2 15N_B3 15N_B4 GND GND GND GND
IN F42 14M_P1 13M_P1 GND 15M_P1 11M_P1 12M_P1 9M_P1 10M_P1
IN F43 11M_F2 11M_F1 11M_F3 11M_F4 12M_F1 12M_F2 12M_F4 12M_F3
IN F44 9M_M1 9M_M2 9M_M3 9M_M4 10M_M1 10M_M2 10M_M4 10M_M3
IN F45 9M_F2 9M_F1 9M_F4 9M_F3 10M_F1 10M_F2 10M_F4 10M_F3
IN F46 14M_M4 14M_M3 14M_M1 14M_M2 13M_M4 13M_M3 13M_M1 13M_M2
IN F47 11M_M1 11M_M2 11M_M3 11M_M4 12M_M4 12M_M3 12M_M1 12M_M2
44 fibers are connected!

******************** Start to search BCID of peak sampling: ********************
IN F0; 2P_M4=0; 2P_M3=0; 2P_M1=0; 2P_M2=0; 2O_M3=0; 2O_M4=0; 2O_M1=0; 2O_M2=0;  BCID_rms=0; height=438
IN F1; 2M_M1=0; 2M_M2=0; 2M_M4=0; 2M_M3=0; 2N_M2=0; 2N_M1=0; 2N_M4=0; 2N_M3=0;  BCID_rms=0; height=439
IN F3; GND; 15N_P1=0; 13N_P1=0; 14N_P1=0; 9N_P1=0; 10N_P1=0; 12N_P1=0; 11N_P1=0;  BCID_rms=0; height=27
IN F4; 13N_M1=0; 13N_M2=0; 13N_M4=0; 13N_M3=0; 14N_M3=0; 14N_M4=0; 14N_M1=0; 14N_M2=0;  BCID_rms=0; height=338
IN F5; 10N_M1=0; 10N_M2=0; 10N_M3=0; 10N_M4=0; 9N_M4=0; 9N_M3=0; 9N_M2=0; 9N_M1=0;  BCID_rms=0; height=321
IN F6; 11N_M3=0; 11N_M4=0; 11N_M1=0; 11N_M2=0; 12N_M1=0; 12N_M2=0; 12N_M4=1; 12N_M3=0;  BCID_rms=0.330719; height=305
IN F7; 12N_F1=0; 12N_F2=0; 12N_F3=0; 12N_F4=0; 11N_F1=0; 11N_F2=0; 11N_F3=0; 11N_F4=0;  BCID_rms=0; height=295
IN F8; 9N_F2=0; 9N_F1=0; 9N_F4=0; 9N_F3=0; 10N_F2=0; 10N_F1=0; 10N_F4=0; 10N_F3=0;  BCID_rms=0; height=313
IN F9; 13M_B1=0; 14M_B1=0; GND; GND; 9M_B1=0; 10M_B1=0; 11M_B1=0; 12M_B1=0;  BCID_rms=0; height=194
IN F10; 13N_F4=0; 13N_F3=0; 13N_F1=0; 13N_F2=0; 14N_F1=0; 14N_F2=0; 14N_F4=0; 14N_F3=0;  BCID_rms=0; height=310
IN F11; 15M_B4=1; 15M_B3=1; 15M_B1=1; 15M_B2=1; GND; GND; GND; GND;  BCID_rms=0; height=47
IN F12; 2M_B1=0; 2N_B1=0; 2O_B1=0; 2P_B1=0; 2M_P1=-1; 2N_P1=-1; 2O_P1=-1; 2P_P1=-1;  BCID_rms=0.5; height=459
IN F13; 1M_M1=0; 1M_M2=0; 1M_M3=0; 1M_M4=0; 1N_M1=0; 1N_M2=0; 1N_M4=0; 1N_M3=0;  BCID_rms=0; height=108
IN F14; 12P_B1=0; 11P_B1=0; 10P_B1=0; 9P_B1=0; GND; GND; 13P_B1=0; 14P_B1=0;  BCID_rms=0; height=200
IN F15; 14O_F2=0; 14O_F1=0; 14O_F4=0; 14O_F3=0; 13O_F4=0; 13O_F3=0; 13O_F1=0; 13O_F2=0;  BCID_rms=0; height=323
IN F16; 15P_B1=0; 15P_B2=0; 15P_B3=0; 15P_B4=0; GND; GND; GND; GND;  BCID_rms=0; height=48
IN F17; 14O_P1=0; 13O_P1=0; GND; 15O_P1=0; 11O_P1=0; 12O_P1=0; 9O_P1=0; 10O_P1=0;  BCID_rms=0; height=29
IN F18; 11O_F2=0; 11O_F1=0; 11O_F3=0; 11O_F4=0; 12O_F1=0; 12O_F2=0; 12O_F4=0; 12O_F3=0;  BCID_rms=0; height=318
IN F19; 9O_M1=0; 9O_M2=0; 9O_M3=0; 9O_M4=0; 10O_M1=1; 10O_M2=0; 10O_M4=0; 10O_M3=0;  BCID_rms=0.330719; height=303
IN F20; 9O_F2=0; 9O_F1=0; 9O_F4=0; 9O_F3=0; 10O_F1=0; 10O_F2=0; 10O_F4=0; 10O_F3=0;  BCID_rms=0; height=311
IN F21; 14O_M4=0; 14O_M3=0; 14O_M1=0; 14O_M2=0; 13O_M4=1; 13O_M3=1; 13O_M1=0; 13O_M2=0;  BCID_rms=0.433013; height=341
IN F22; 11O_M1=0; 11O_M2=0; 11O_M3=0; 11O_M4=0; 12O_M4=0; 12O_M3=1; 12O_M1=1; 12O_M2=0;  BCID_rms=0.433013; height=317
IN F24; 1O_M1=-1; 1O_M2=-1; 1O_M3=-1; 1O_M4=-1; 1P_M4=-1; 1P_M3=-1; 1P_M1=-1; 1P_M2=-1;  BCID_rms=0; height=110
IN F25; GND; GND; GND; GND; 1P_F1=0; 1O_F1=0; 1N_F1=0; 1M_F1=0;  BCID_rms=0; height=199
IN F27; GND; 15P_P1=0; 13P_P1=0; 14P_P1=0; 9P_P1=0; 10P_P1=0; 12P_P1=0; 11P_P1=0;  BCID_rms=0; height=28
IN F28; 13P_M1=0; 13P_M2=1; 13P_M4=1; 13P_M3=1; 14P_M3=0; 14P_M4=0; 14P_M1=1; 14P_M2=0;  BCID_rms=0.5; height=349
IN F29; 10P_M1=1; 10P_M2=0; 10P_M3=0; 10P_M4=1; 9P_M4=0; 9P_M3=0; 9P_M2=0; 9P_M1=0;  BCID_rms=0.433013; height=316
IN F30; 11P_M3=1; 11P_M4=1; 11P_M1=1; 11P_M2=1; 12P_M1=1; 12P_M2=1; 12P_M4=1; 12P_M3=1;  BCID_rms=0; height=301
IN F31; 12P_F1=0; 12P_F2=0; 12P_F3=0; 12P_F4=0; 11P_F1=0; 11P_F2=0; 11P_F3=0; 11P_F4=0;  BCID_rms=0; height=307
IN F32; 9P_F2=0; 9P_F1=0; 9P_F4=0; 9P_F3=0; 10P_F2=0; 10P_F1=0; 10P_F4=0; 10P_F3=0;  BCID_rms=0; height=311
IN F33; 13O_B1=0; 14O_B1=0; GND; GND; 9O_B1=0; 10O_B1=0; 11O_B1=0; 12O_B1=0;  BCID_rms=0; height=209
IN F34; 13P_F4=0; 13P_F3=0; 13P_F1=0; 13P_F2=0; 14P_F1=0; 14P_F2=0; 14P_F4=0; 14P_F3=0;  BCID_rms=0; height=312
IN F35; 15O_B4=0; 15O_B3=0; 15O_B1=0; 15O_B2=-1; GND; GND; GND; GND;  BCID_rms=0.433013; height=49
IN F36; 2P_F4=0; 2P_F3=0; 2P_F2=0; 2P_F1=0; 2O_F1=0; 2O_F2=0; 2O_F3=0; 2O_F4=0;  BCID_rms=0; height=303
IN F37; 2M_F3=0; 2M_F4=0; 2M_F1=0; 2M_F2=0; 2N_F3=0; 2N_F4=0; 2N_F1=0; 2N_F2=0;  BCID_rms=0; height=295
IN F38; 12N_B1=0; 11N_B1=0; 10N_B1=0; 9N_B1=0; GND; GND; 13N_B1=0; 14N_B1=0;  BCID_rms=0; height=192
IN F39; 14M_F2=0; 14M_F1=0; 14M_F4=0; 14M_F3=0; 13M_F4=0; 13M_F3=0; 13M_F1=0; 13M_F2=0;  BCID_rms=0; height=314
IN F40; 15N_B1=0; 15N_B2=0; 15N_B3=0; 15N_B4=0; GND; GND; GND; GND;  BCID_rms=0; height=48
IN F41; 14M_P1=0; 13M_P1=0; GND; 15M_P1=0; 11M_P1=0; 12M_P1=0; 9M_P1=0; 10M_P1=0;  BCID_rms=0; height=26
IN F42; 11M_F2=0; 11M_F1=0; 11M_F3=0; 11M_F4=0; 12M_F1=0; 12M_F2=0; 12M_F4=0; 12M_F3=0;  BCID_rms=0; height=307
IN F43; 9M_M1=0; 9M_M2=0; 9M_M3=0; 9M_M4=0; 10M_M1=0; 10M_M2=0; 10M_M4=0; 10M_M3=0;  BCID_rms=0; height=316
IN F44; 9M_F2=0; 9M_F1=0; 9M_F4=0; 9M_F3=0; 10M_F1=0; 10M_F2=0; 10M_F4=0; 10M_F3=0;  BCID_rms=0; height=307
IN F45; 14M_M4=0; 14M_M3=0; 14M_M1=0; 14M_M2=0; 13M_M4=0; 13M_M3=0; 13M_M1=0; 13M_M2=0;  BCID_rms=0; height=339
IN F46; 11M_M1=0; 11M_M2=0; 11M_M3=0; 11M_M4=0; 12M_M4=0; 12M_M3=0; 12M_M1=0; 12M_M2=0;  BCID_rms=0; height=315
