
Processing macro.C+("inputfile/LArDigits_pusleall_00407557.root","EMBA-EMECA_10","outputs/hist/LArDigits_pusleall_00407557_hist.root","results/LArDigits_pusleall_00407557/latome145.ini","LATOME_ini_file/latome145.ini",false)...

******************** Start to read ini BCID: ********************
input file: LATOME_ini_file/latome145.ini
F0  BCID=3462; 
F1  BCID=3463; 
F2  BCID=0; 
F3  BCID=3460; 
F4  BCID=3461; 
F5  BCID=3461; 
F6  BCID=3461; 
F7  BCID=3460; 
F8  BCID=3460; 
F9  BCID=3460; 
F10  BCID=3460; 
F11  BCID=3460; 
F12  BCID=3463; 
F13  BCID=3463; 
F14  BCID=3460; 
F15  BCID=3460; 
F16  BCID=3460; 
F17  BCID=3460; 
F18  BCID=3460; 
F19  BCID=3460; 
F20  BCID=3460; 
F21  BCID=3460; 
F22  BCID=3460; 
F23  BCID=0; 
F24  BCID=3463; 
F25  BCID=3463; 
F26  BCID=0; 
F27  BCID=3460; 
F28  BCID=3460; 
F29  BCID=3460; 
F30  BCID=3460; 
F31  BCID=3460; 
F32  BCID=3460; 
F33  BCID=3460; 
F34  BCID=3460; 
F35  BCID=3460; 
F36  BCID=3463; 
F37  BCID=3463; 
F38  BCID=3460; 
F39  BCID=3460; 
F40  BCID=3460; 
F41  BCID=3460; 
F42  BCID=3460; 
F43  BCID=3460; 
F44  BCID=3460; 
F45  BCID=3460; 
F46  BCID=3460; 
F47  BCID=0; 
48 fibers are read!

******************** Start to read LArId info: ********************
SCname=9E_P1; channelId=965746688; 
SCname=9F_P1; channelId=965747200; 
SCname=10E_P1; channelId=965747712; 
SCname=10F_P1; channelId=965748224; 
SCname=11E_P1; channelId=965748736; 
SCname=11F_P1; channelId=965749248; 
SCname=12E_P1; channelId=965749760; 
SCname=12F_P1; channelId=965750272; 
SCname=13E_P1; channelId=965750784; 
SCname=13F_P1; channelId=965751296; 
SCname=14E_P1; channelId=965751808; 
SCname=14F_P1; channelId=965752320; 
SCname=15E_P1; channelId=965752832; 
SCname=15F_P1; channelId=965753344; 
SCname=9E_F1; channelId=965786624; 
SCname=9E_F2; channelId=965787648; 
SCname=9E_F3; channelId=965788672; 
SCname=9E_F4; channelId=965789696; 
SCname=10E_F1; channelId=965790720; 
SCname=10E_F2; channelId=965791744; 
SCname=10E_F3; channelId=965792768; 
SCname=10E_F4; channelId=965793792; 
SCname=9F_F1; channelId=965787136; 
SCname=9F_F2; channelId=965788160; 
SCname=9F_F3; channelId=965789184; 
SCname=9F_F4; channelId=965790208; 
SCname=10F_F1; channelId=965791232; 
SCname=10F_F2; channelId=965792256; 
SCname=10F_F3; channelId=965793280; 
SCname=10F_F4; channelId=965794304; 
SCname=11E_F1; channelId=965794816; 
SCname=11E_F2; channelId=965795840; 
SCname=11E_F3; channelId=965796864; 
SCname=11E_F4; channelId=965797888; 
SCname=12E_F1; channelId=965798912; 
SCname=12E_F2; channelId=965799936; 
SCname=12E_F3; channelId=965800960; 
SCname=12E_F4; channelId=965801984; 
SCname=11F_F1; channelId=965795328; 
SCname=11F_F2; channelId=965796352; 
SCname=11F_F3; channelId=965797376; 
SCname=11F_F4; channelId=965798400; 
SCname=12F_F1; channelId=965799424; 
SCname=12F_F2; channelId=965800448; 
SCname=12F_F3; channelId=965801472; 
SCname=12F_F4; channelId=965802496; 
SCname=13E_F1; channelId=965803008; 
SCname=13E_F2; channelId=965804032; 
SCname=13E_F3; channelId=965805056; 
SCname=13E_F4; channelId=965806080; 
SCname=14E_F1; channelId=965807104; 
SCname=14E_F2; channelId=965808128; 
SCname=14E_F3; channelId=965809152; 
SCname=14E_F4; channelId=965810176; 
SCname=13F_F1; channelId=965803520; 
SCname=13F_F2; channelId=965804544; 
SCname=13F_F3; channelId=965805568; 
SCname=13F_F4; channelId=965806592; 
SCname=14F_F1; channelId=965807616; 
SCname=14F_F2; channelId=965808640; 
SCname=14F_F3; channelId=965809664; 
SCname=14F_F4; channelId=965810688; 
SCname=9E_B1; channelId=965880832; 
SCname=10E_B1; channelId=965881856; 
SCname=11E_B1; channelId=965882880; 
SCname=12E_B1; channelId=965883904; 
SCname=13E_B1; channelId=965884928; 
SCname=14E_B1; channelId=965885952; 
SCname=15E_B1; channelId=965811200; 
SCname=15E_B2; channelId=965812224; 
SCname=15E_B3; channelId=965813248; 
SCname=15E_B4; channelId=965871616; 
SCname=9F_B1; channelId=965881344; 
SCname=10F_B1; channelId=965882368; 
SCname=11F_B1; channelId=965883392; 
SCname=12F_B1; channelId=965884416; 
SCname=13F_B1; channelId=965885440; 
SCname=14F_B1; channelId=965886464; 
SCname=15F_B1; channelId=965811712; 
SCname=15F_B2; channelId=965812736; 
SCname=15F_B3; channelId=965813760; 
SCname=15F_B4; channelId=965872128; 
SCname=9E_M1; channelId=965847040; 
SCname=9E_M2; channelId=965848064; 
SCname=9E_M3; channelId=965849088; 
SCname=9E_M4; channelId=965850112; 
SCname=10E_M1; channelId=965851136; 
SCname=10E_M2; channelId=965852160; 
SCname=10E_M3; channelId=965853184; 
SCname=10E_M4; channelId=965854208; 
SCname=11E_M1; channelId=965855232; 
SCname=11E_M2; channelId=965856256; 
SCname=11E_M3; channelId=965857280; 
SCname=11E_M4; channelId=965858304; 
SCname=12E_M1; channelId=965859328; 
SCname=12E_M2; channelId=965860352; 
SCname=12E_M3; channelId=965861376; 
SCname=12E_M4; channelId=965862400; 
SCname=9F_M1; channelId=965847552; 
SCname=9F_M2; channelId=965848576; 
SCname=9F_M3; channelId=965849600; 
SCname=9F_M4; channelId=965850624; 
SCname=10F_M1; channelId=965851648; 
SCname=10F_M2; channelId=965852672; 
SCname=10F_M3; channelId=965853696; 
SCname=10F_M4; channelId=965854720; 
SCname=11F_M1; channelId=965855744; 
SCname=11F_M2; channelId=965856768; 
SCname=11F_M3; channelId=965857792; 
SCname=11F_M4; channelId=965858816; 
SCname=12F_M1; channelId=965859840; 
SCname=12F_M2; channelId=965860864; 
SCname=12F_M3; channelId=965861888; 
SCname=12F_M4; channelId=965862912; 
SCname=13E_M1; channelId=965863424; 
SCname=13E_M2; channelId=965864448; 
SCname=13E_M3; channelId=965865472; 
SCname=13E_M4; channelId=965866496; 
SCname=13F_M1; channelId=965863936; 
SCname=13F_M2; channelId=965864960; 
SCname=13F_M3; channelId=965865984; 
SCname=13F_M4; channelId=965867008; 
SCname=14E_M1; channelId=965867520; 
SCname=14E_M2; channelId=965868544; 
SCname=14E_M3; channelId=965869568; 
SCname=14E_M4; channelId=965870592; 
SCname=14F_M1; channelId=965868032; 
SCname=14F_M2; channelId=965869056; 
SCname=14F_M3; channelId=965870080; 
SCname=14F_M4; channelId=965871104; 
SCname=9G_P1; channelId=966270976; 
SCname=9H_P1; channelId=966271488; 
SCname=10G_P1; channelId=966272000; 
SCname=10H_P1; channelId=966272512; 
SCname=11G_P1; channelId=966273024; 
SCname=11H_P1; channelId=966273536; 
SCname=12G_P1; channelId=966274048; 
SCname=12H_P1; channelId=966274560; 
SCname=13G_P1; channelId=966275072; 
SCname=13H_P1; channelId=966275584; 
SCname=14G_P1; channelId=966276096; 
SCname=14H_P1; channelId=966276608; 
SCname=15G_P1; channelId=966277120; 
SCname=15H_P1; channelId=966277632; 
SCname=9G_F1; channelId=966310912; 
SCname=9G_F2; channelId=966311936; 
SCname=9G_F3; channelId=966312960; 
SCname=9G_F4; channelId=966313984; 
SCname=10G_F1; channelId=966315008; 
SCname=10G_F2; channelId=966316032; 
SCname=10G_F3; channelId=966317056; 
SCname=10G_F4; channelId=966318080; 
SCname=9H_F1; channelId=966311424; 
SCname=9H_F2; channelId=966312448; 
SCname=9H_F3; channelId=966313472; 
SCname=9H_F4; channelId=966314496; 
SCname=10H_F1; channelId=966315520; 
SCname=10H_F2; channelId=966316544; 
SCname=10H_F3; channelId=966317568; 
SCname=10H_F4; channelId=966318592; 
SCname=11G_F1; channelId=966319104; 
SCname=11G_F2; channelId=966320128; 
SCname=11G_F3; channelId=966321152; 
SCname=11G_F4; channelId=966322176; 
SCname=12G_F1; channelId=966323200; 
SCname=12G_F2; channelId=966324224; 
SCname=12G_F3; channelId=966325248; 
SCname=12G_F4; channelId=966326272; 
SCname=11H_F1; channelId=966319616; 
SCname=11H_F2; channelId=966320640; 
SCname=11H_F3; channelId=966321664; 
SCname=11H_F4; channelId=966322688; 
SCname=12H_F1; channelId=966323712; 
SCname=12H_F2; channelId=966324736; 
SCname=12H_F3; channelId=966325760; 
SCname=12H_F4; channelId=966326784; 
SCname=13G_F1; channelId=966327296; 
SCname=13G_F2; channelId=966328320; 
SCname=13G_F3; channelId=966329344; 
SCname=13G_F4; channelId=966330368; 
SCname=14G_F1; channelId=966331392; 
SCname=14G_F2; channelId=966332416; 
SCname=14G_F3; channelId=966333440; 
SCname=14G_F4; channelId=966334464; 
SCname=13H_F1; channelId=966327808; 
SCname=13H_F2; channelId=966328832; 
SCname=13H_F3; channelId=966329856; 
SCname=13H_F4; channelId=966330880; 
SCname=14H_F1; channelId=966331904; 
SCname=14H_F2; channelId=966332928; 
SCname=14H_F3; channelId=966333952; 
SCname=14H_F4; channelId=966334976; 
SCname=9G_B1; channelId=966405120; 
SCname=10G_B1; channelId=966406144; 
SCname=11G_B1; channelId=966407168; 
SCname=12G_B1; channelId=966408192; 
SCname=13G_B1; channelId=966409216; 
SCname=14G_B1; channelId=966410240; 
SCname=15G_B1; channelId=966335488; 
SCname=15G_B2; channelId=966336512; 
SCname=15G_B3; channelId=966337536; 
SCname=15G_B4; channelId=966395904; 
SCname=9H_B1; channelId=966405632; 
SCname=10H_B1; channelId=966406656; 
SCname=11H_B1; channelId=966407680; 
SCname=12H_B1; channelId=966408704; 
SCname=13H_B1; channelId=966409728; 
SCname=14H_B1; channelId=966410752; 
SCname=15H_B1; channelId=966336000; 
SCname=15H_B2; channelId=966337024; 
SCname=15H_B3; channelId=966338048; 
SCname=15H_B4; channelId=966396416; 
SCname=9G_M1; channelId=966371328; 
SCname=9G_M2; channelId=966372352; 
SCname=9G_M3; channelId=966373376; 
SCname=9G_M4; channelId=966374400; 
SCname=10G_M1; channelId=966375424; 
SCname=10G_M2; channelId=966376448; 
SCname=10G_M3; channelId=966377472; 
SCname=10G_M4; channelId=966378496; 
SCname=11G_M1; channelId=966379520; 
SCname=11G_M2; channelId=966380544; 
SCname=11G_M3; channelId=966381568; 
SCname=11G_M4; channelId=966382592; 
SCname=12G_M1; channelId=966383616; 
SCname=12G_M2; channelId=966384640; 
SCname=12G_M3; channelId=966385664; 
SCname=12G_M4; channelId=966386688; 
SCname=9H_M1; channelId=966371840; 
SCname=9H_M2; channelId=966372864; 
SCname=9H_M3; channelId=966373888; 
SCname=9H_M4; channelId=966374912; 
SCname=10H_M1; channelId=966375936; 
SCname=10H_M2; channelId=966376960; 
SCname=10H_M3; channelId=966377984; 
SCname=10H_M4; channelId=966379008; 
SCname=11H_M1; channelId=966380032; 
SCname=11H_M2; channelId=966381056; 
SCname=11H_M3; channelId=966382080; 
SCname=11H_M4; channelId=966383104; 
SCname=12H_M1; channelId=966384128; 
SCname=12H_M2; channelId=966385152; 
SCname=12H_M3; channelId=966386176; 
SCname=12H_M4; channelId=966387200; 
SCname=13G_M1; channelId=966387712; 
SCname=13G_M2; channelId=966388736; 
SCname=13G_M3; channelId=966389760; 
SCname=13G_M4; channelId=966390784; 
SCname=13H_M1; channelId=966388224; 
SCname=13H_M2; channelId=966389248; 
SCname=13H_M3; channelId=966390272; 
SCname=13H_M4; channelId=966391296; 
SCname=14G_M1; channelId=966391808; 
SCname=14G_M2; channelId=966392832; 
SCname=14G_M3; channelId=966393856; 
SCname=14G_M4; channelId=966394880; 
SCname=14H_M1; channelId=966392320; 
SCname=14H_M2; channelId=966393344; 
SCname=14H_M3; channelId=966394368; 
SCname=14H_M4; channelId=966395392; 
SCname=2E_P1; channelId=997722112; 
SCname=2F_P1; channelId=997722624; 
SCname=2G_P1; channelId=997723136; 
SCname=2H_P1; channelId=997723648; 
SCname=1E_F1; channelId=997730304; 
SCname=1F_F1; channelId=997730816; 
SCname=1G_F1; channelId=997731328; 
SCname=1H_F1; channelId=997731840; 
SCname=1E_M1; channelId=997771264; 
SCname=1E_M2; channelId=997779456; 
SCname=1E_M3; channelId=997787648; 
SCname=1E_M4; channelId=997795840; 
SCname=1F_M1; channelId=997771776; 
SCname=1F_M2; channelId=997779968; 
SCname=1F_M3; channelId=997788160; 
SCname=1F_M4; channelId=997796352; 
SCname=1G_M1; channelId=997772288; 
SCname=1G_M2; channelId=997780480; 
SCname=1G_M3; channelId=997788672; 
SCname=1G_M4; channelId=997796864; 
SCname=1H_M1; channelId=997772800; 
SCname=1H_M2; channelId=997780992; 
SCname=1H_M3; channelId=997789184; 
SCname=1H_M4; channelId=997797376; 
SCname=2E_F1; channelId=997738496; 
SCname=2E_F2; channelId=997746688; 
SCname=2E_F3; channelId=997754880; 
SCname=2E_F4; channelId=997763072; 
SCname=2F_F1; channelId=997739008; 
SCname=2F_F2; channelId=997747200; 
SCname=2F_F3; channelId=997755392; 
SCname=2F_F4; channelId=997763584; 
SCname=2G_F1; channelId=997739520; 
SCname=2G_F2; channelId=997747712; 
SCname=2G_F3; channelId=997755904; 
SCname=2G_F4; channelId=997764096; 
SCname=2H_F1; channelId=997740032; 
SCname=2H_F2; channelId=997748224; 
SCname=2H_F3; channelId=997756416; 
SCname=2H_F4; channelId=997764608; 
SCname=2E_B1; channelId=997836800; 
SCname=2F_B1; channelId=997837312; 
SCname=2G_B1; channelId=997837824; 
SCname=2H_B1; channelId=997838336; 
SCname=2E_M1; channelId=997804032; 
SCname=2E_M2; channelId=997812224; 
SCname=2E_M3; channelId=997820416; 
SCname=2E_M4; channelId=997828608; 
SCname=2F_M1; channelId=997804544; 
SCname=2F_M2; channelId=997812736; 
SCname=2F_M3; channelId=997820928; 
SCname=2F_M4; channelId=997829120; 
SCname=2G_M1; channelId=997805056; 
SCname=2G_M2; channelId=997813248; 
SCname=2G_M3; channelId=997821440; 
SCname=2G_M4; channelId=997829632; 
SCname=2H_M1; channelId=997805568; 
SCname=2H_M2; channelId=997813760; 
SCname=2H_M3; channelId=997821952; 
SCname=2H_M4; channelId=997830144; 
320 SCs are read!  LATOME is EMBA_EMECA_10

******************** Start to read SCs info per fiber: ********************
IN F1 2H_F2 2H_F1 2H_F4 2H_F3 2G_F4 2G_F3 2G_F2 2G_F1
IN F2 2H_M2 2H_M1 2H_M4 2H_M3 2G_M1 2G_M2 2G_M4 2G_M3
IN F4 GND 15F_P1 13F_P1 14F_P1 9F_P1 10F_P1 12F_P1 11F_P1
IN F5 13F_M1 13F_M2 13F_M4 13F_M3 14F_M3 14F_M4 14F_M1 14F_M2
IN F6 10F_M1 10F_M2 10F_M3 10F_M4 9F_M4 9F_M3 9F_M2 9F_M1
IN F7 11F_M3 11F_M4 11F_M1 11F_M2 12F_M1 12F_M2 12F_M4 12F_M3
IN F8 12F_F1 12F_F2 12F_F3 12F_F4 11F_F1 11F_F2 11F_F3 11F_F4
IN F9 9F_F2 9F_F1 9F_F4 9F_F3 10F_F2 10F_F1 10F_F4 10F_F3
IN F10 13E_B1 14E_B1 GND GND 9E_B1 10E_B1 11E_B1 12E_B1
IN F11 13F_F4 13F_F3 13F_F1 13F_F2 14F_F1 14F_F2 14F_F4 14F_F3
IN F12 15E_B4 15E_B3 15E_B1 15E_B2 GND GND GND GND
IN F13 1G_M4 1G_M3 1G_M1 1G_M2 1H_M4 1H_M3 1H_M1 1H_M2
IN F14 2E_P1 2F_P1 2H_P1 2G_P1 2F_B1 2E_B1 2H_B1 2G_B1
IN F15 12H_B1 11H_B1 10H_B1 9H_B1 GND GND 13H_B1 14H_B1
IN F16 14G_F2 14G_F1 14G_F4 14G_F3 13G_F4 13G_F3 13G_F1 13G_F2
IN F17 15H_B1 15H_B2 15H_B3 15H_B4 GND GND GND GND
IN F18 14G_P1 13G_P1 GND 15G_P1 11G_P1 12G_P1 9G_P1 10G_P1
IN F19 11G_F2 11G_F1 11G_F3 11G_F4 12G_F1 12G_F2 12G_F4 12G_F3
IN F20 9G_M1 9G_M2 9G_M3 9G_M4 10G_M1 10G_M2 10G_M4 10G_M3
IN F21 9G_F2 9G_F1 9G_F4 9G_F3 10G_F1 10G_F2 10G_F4 10G_F3
IN F22 14G_M4 14G_M3 14G_M1 14G_M2 13G_M4 13G_M3 13G_M1 13G_M2
IN F23 11G_M1 11G_M2 11G_M3 11G_M4 12G_M4 12G_M3 12G_M1 12G_M2
IN F25 1F_F1 1E_F1 1H_F1 1G_F1 GND GND GND GND
IN F26 1F_M1 1F_M2 1F_M4 1F_M3 1E_M4 1E_M3 1E_M2 1E_M1
IN F28 GND 15H_P1 13H_P1 14H_P1 9H_P1 10H_P1 12H_P1 11H_P1
IN F29 13H_M1 13H_M2 13H_M4 13H_M3 14H_M3 14H_M4 14H_M1 14H_M2
IN F30 10H_M1 10H_M2 10H_M3 10H_M4 9H_M4 9H_M3 9H_M2 9H_M1
IN F31 11H_M3 11H_M4 11H_M1 11H_M2 12H_M1 12H_M2 12H_M4 12H_M3
IN F32 12H_F1 12H_F2 12H_F3 12H_F4 11H_F1 11H_F2 11H_F3 11H_F4
IN F33 9H_F2 9H_F1 9H_F4 9H_F3 10H_F2 10H_F1 10H_F4 10H_F3
IN F34 13G_B1 14G_B1 GND GND 9G_B1 10G_B1 11G_B1 12G_B1
IN F35 13H_F4 13H_F3 13H_F1 13H_F2 14H_F1 14H_F2 14H_F4 14H_F3
IN F36 15G_B4 15G_B3 15G_B1 15G_B2 GND GND GND GND
IN F37 2F_M2 2F_M1 2F_M4 2F_M3 2E_M3 2E_M4 2E_M1 2E_M2
IN F38 2F_F2 2F_F1 2F_F3 2F_F4 2E_F1 2E_F2 2E_F4 2E_F3
IN F39 12F_B1 11F_B1 10F_B1 9F_B1 GND GND 13F_B1 14F_B1
IN F40 14E_F2 14E_F1 14E_F4 14E_F3 13E_F4 13E_F3 13E_F1 13E_F2
IN F41 15F_B1 15F_B2 15F_B3 15F_B4 GND GND GND GND
IN F42 14E_P1 13E_P1 GND 15E_P1 11E_P1 12E_P1 9E_P1 10E_P1
IN F43 11E_F2 11E_F1 11E_F3 11E_F4 12E_F1 12E_F2 12E_F4 12E_F3
IN F44 9E_M1 9E_M2 9E_M3 9E_M4 10E_M1 10E_M2 10E_M4 10E_M3
IN F45 9E_F2 9E_F1 9E_F4 9E_F3 10E_F1 10E_F2 10E_F4 10E_F3
IN F46 14E_M4 14E_M3 14E_M1 14E_M2 13E_M4 13E_M3 13E_M1 13E_M2
IN F47 11E_M1 11E_M2 11E_M3 11E_M4 12E_M4 12E_M3 12E_M1 12E_M2
44 fibers are connected!

******************** Start to search BCID of peak sampling: ********************
IN F0; 2H_F2=0; 2H_F1=0; 2H_F4=0; 2H_F3=0; 2G_F4=0; 2G_F3=0; 2G_F2=0; 2G_F1=0;  BCID_rms=0; height=302
IN F1; 2H_M2=0; 2H_M1=0; 2H_M4=0; 2H_M3=0; 2G_M1=0; 2G_M2=0; 2G_M4=0; 2G_M3=0;  BCID_rms=0; height=461
IN F3; GND; 15F_P1=0; 13F_P1=0; 14F_P1=0; 9F_P1=0; 10F_P1=0; 12F_P1=0; 11F_P1=0;  BCID_rms=0; height=25
IN F4; 13F_M1=0; 13F_M2=0; 13F_M4=0; 13F_M3=0; 14F_M3=-1; 14F_M4=-1; 14F_M1=0; 14F_M2=0;  BCID_rms=0.433013; height=341
IN F5; 10F_M1=0; 10F_M2=0; 10F_M3=0; 10F_M4=0; 9F_M4=0; 9F_M3=0; 9F_M2=-1; 9F_M1=0;  BCID_rms=0.330719; height=302
IN F6; 11F_M3=0; 11F_M4=0; 11F_M1=0; 11F_M2=0; 12F_M1=0; 12F_M2=0; 12F_M4=0; 12F_M3=0;  BCID_rms=0; height=318
IN F7; 12F_F1=0; 12F_F2=0; 12F_F3=0; 12F_F4=0; 11F_F1=0; 11F_F2=0; 11F_F3=0; 11F_F4=0;  BCID_rms=0; height=286
IN F8; 9F_F2=0; 9F_F1=0; 9F_F4=0; 9F_F3=0; 10F_F2=0; 10F_F1=0; 10F_F4=0; 10F_F3=0;  BCID_rms=0; height=311
IN F9; 13E_B1=0; 14E_B1=0; GND; GND; 9E_B1=0; 10E_B1=0; 11E_B1=0; 12E_B1=0;  BCID_rms=0; height=197
IN F10; 13F_F4=0; 13F_F3=0; 13F_F1=0; 13F_F2=0; 14F_F1=0; 14F_F2=0; 14F_F4=0; 14F_F3=0;  BCID_rms=0; height=316
IN F11; 15E_B4=0; 15E_B3=0; 15E_B1=0; 15E_B2=0; GND; GND; GND; GND;  BCID_rms=0; height=47
IN F12; 1G_M4=0; 1G_M3=0; 1G_M1=0; 1G_M2=0; 1H_M4=0; 1H_M3=0; 1H_M1=0; 1H_M2=0;  BCID_rms=0; height=111
IN F13; 2E_P1=-1; 2F_P1=-1; 2H_P1=-1; 2G_P1=-1; 2F_B1=-1; 2E_B1=-1; 2H_B1=-1; 2G_B1=-1;  BCID_rms=0; height=442
IN F14; 12H_B1=0; 11H_B1=0; 10H_B1=0; 9H_B1=0; GND; GND; 13H_B1=0; 14H_B1=0;  BCID_rms=0; height=195
IN F15; 14G_F2=0; 14G_F1=0; 14G_F4=0; 14G_F3=0; 13G_F4=0; 13G_F3=0; 13G_F1=0; 13G_F2=0;  BCID_rms=0; height=316
IN F16; 15H_B1=0; 15H_B2=0; 15H_B3=0; 15H_B4=0; GND; GND; GND; GND;  BCID_rms=0; height=48
IN F17; 14G_P1=0; 13G_P1=0; GND; 15G_P1=0; 11G_P1=0; 12G_P1=0; 9G_P1=0; 10G_P1=0;  BCID_rms=0; height=28
IN F18; 11G_F2=0; 11G_F1=0; 11G_F3=0; 11G_F4=0; 12G_F1=0; 12G_F2=0; 12G_F4=0; 12G_F3=0;  BCID_rms=0; height=310
IN F19; 9G_M1=0; 9G_M2=0; 9G_M3=0; 9G_M4=0; 10G_M1=0; 10G_M2=0; 10G_M4=0; 10G_M3=0;  BCID_rms=0; height=323
IN F20; 9G_F2=0; 9G_F1=0; 9G_F4=0; 9G_F3=0; 10G_F1=0; 10G_F2=0; 10G_F4=0; 10G_F3=0;  BCID_rms=0; height=307
IN F21; 14G_M4=0; 14G_M3=0; 14G_M1=0; 14G_M2=0; 13G_M4=0; 13G_M3=0; 13G_M1=0; 13G_M2=0;  BCID_rms=0; height=327
IN F22; 11G_M1=0; 11G_M2=0; 11G_M3=0; 11G_M4=0; 12G_M4=0; 12G_M3=0; 12G_M1=0; 12G_M2=0;  BCID_rms=0; height=320
IN F24; 1F_F1=0; 1E_F1=0; 1H_F1=0; 1G_F1=0; GND; GND; GND; GND;  BCID_rms=0; height=206
IN F25; 1F_M1=0; 1F_M2=0; 1F_M4=0; 1F_M3=0; 1E_M4=0; 1E_M3=0; 1E_M2=0; 1E_M1=0;  BCID_rms=0; height=110
IN F27; GND; 15H_P1=0; 13H_P1=0; 14H_P1=0; 9H_P1=0; 10H_P1=0; 12H_P1=0; 11H_P1=0;  BCID_rms=0; height=28
IN F28; 13H_M1=0; 13H_M2=0; 13H_M4=0; 13H_M3=0; 14H_M3=0; 14H_M4=0; 14H_M1=0; 14H_M2=0;  BCID_rms=0; height=339
IN F29; 10H_M1=0; 10H_M2=0; 10H_M3=0; 10H_M4=0; 9H_M4=0; 9H_M3=0; 9H_M2=0; 9H_M1=0;  BCID_rms=0; height=316
IN F30; 11H_M3=0; 11H_M4=0; 11H_M1=0; 11H_M2=0; 12H_M1=0; 12H_M2=0; 12H_M4=0; 12H_M3=0;  BCID_rms=0; height=310
IN F31; 12H_F1=0; 12H_F2=0; 12H_F3=0; 12H_F4=0; 11H_F1=0; 11H_F2=0; 11H_F3=0; 11H_F4=0;  BCID_rms=0; height=307
IN F32; 9H_F2=0; 9H_F1=0; 9H_F4=0; 9H_F3=0; 10H_F2=0; 10H_F1=0; 10H_F4=0; 10H_F3=0;  BCID_rms=0; height=317
IN F33; 13G_B1=0; 14G_B1=0; GND; GND; 9G_B1=0; 10G_B1=0; 11G_B1=0; 12G_B1=0;  BCID_rms=0; height=195
IN F34; 13H_F4=0; 13H_F3=0; 13H_F1=0; 13H_F2=0; 14H_F1=0; 14H_F2=0; 14H_F4=0; 14H_F3=0;  BCID_rms=0; height=314
IN F35; 15G_B4=0; 15G_B3=-1; 15G_B1=-1; 15G_B2=-1; GND; GND; GND; GND;  BCID_rms=0.433013; height=50
IN F36; 2F_M2=0; 2F_M1=0; 2F_M4=0; 2F_M3=0; 2E_M3=0; 2E_M4=0; 2E_M1=0; 2E_M2=0;  BCID_rms=0; height=451
IN F37; 2F_F2=-1; 2F_F1=-1; 2F_F3=-1; 2F_F4=-1; 2E_F1=-1; 2E_F2=-1; 2E_F4=-1; 2E_F3=-1;  BCID_rms=0; height=299
IN F38; 12F_B1=0; 11F_B1=0; 10F_B1=0; 9F_B1=0; GND; GND; 13F_B1=0; 14F_B1=0;  BCID_rms=0; height=194
IN F39; 14E_F2=0; 14E_F1=0; 14E_F4=0; 14E_F3=0; 13E_F4=0; 13E_F3=0; 13E_F1=0; 13E_F2=0;  BCID_rms=0; height=304
IN F40; 15F_B1=0; 15F_B2=0; 15F_B3=0; 15F_B4=0; GND; GND; GND; GND;  BCID_rms=0; height=47
IN F41; 14E_P1=0; 13E_P1=0; GND; 15E_P1=0; 11E_P1=0; 12E_P1=0; 9E_P1=0; 10E_P1=0;  BCID_rms=0; height=26
IN F42; 11E_F2=0; 11E_F1=0; 11E_F3=0; 11E_F4=0; 12E_F1=0; 12E_F2=0; 12E_F4=0; 12E_F3=0;  BCID_rms=0; height=314
IN F43; 9E_M1=0; 9E_M2=0; 9E_M3=0; 9E_M4=0; 10E_M1=0; 10E_M2=0; 10E_M4=0; 10E_M3=0;  BCID_rms=0; height=308
IN F44; 9E_F2=0; 9E_F1=0; 9E_F4=0; 9E_F3=0; 10E_F1=0; 10E_F2=0; 10E_F4=0; 10E_F3=0;  BCID_rms=0; height=309
IN F45; 14E_M4=0; 14E_M3=0; 14E_M1=0; 14E_M2=0; 13E_M4=0; 13E_M3=0; 13E_M1=0; 13E_M2=0;  BCID_rms=0; height=340
IN F46; 11E_M1=0; 11E_M2=0; 11E_M3=1; 11E_M4=0; 12E_M4=0; 12E_M3=0; 12E_M1=0; 12E_M2=0;  BCID_rms=0.330719; height=310
