
Processing macro.C+("inputfile/LArDigits_pusleall_408520.root","EMBA_4","outputs/hist/LArDigits_pusleall_408520_hist.root","results/LArDigits_pusleall_408520/latome102.ini","LATOME_ini_file/latome102.ini",false)...

******************** Start to read ini BCID: ********************
input file: LATOME_ini_file/latome102.ini
F0  BCID=0; 
F1  BCID=0; 
F2  BCID=3460; 
F3  BCID=3460; 
F4  BCID=3460; 
F5  BCID=3460; 
F6  BCID=3460; 
F7  BCID=3460; 
F8  BCID=3460; 
F9  BCID=3460; 
F10  BCID=3460; 
F11  BCID=3460; 
F12  BCID=0; 
F13  BCID=0; 
F14  BCID=3460; 
F15  BCID=3460; 
F16  BCID=3460; 
F17  BCID=3460; 
F18  BCID=3460; 
F19  BCID=3460; 
F20  BCID=3460; 
F21  BCID=3460; 
F22  BCID=3460; 
F23  BCID=3460; 
F24  BCID=0; 
F25  BCID=0; 
F26  BCID=3460; 
F27  BCID=3460; 
F28  BCID=3460; 
F29  BCID=3460; 
F30  BCID=3460; 
F31  BCID=3460; 
F32  BCID=3460; 
F33  BCID=3460; 
F34  BCID=3460; 
F35  BCID=3460; 
F36  BCID=0; 
F37  BCID=0; 
F38  BCID=3460; 
F39  BCID=3460; 
F40  BCID=3460; 
F41  BCID=3460; 
F42  BCID=3460; 
F43  BCID=3460; 
F44  BCID=3460; 
F45  BCID=3460; 
F46  BCID=3460; 
F47  BCID=3460; 
48 fibers are read!

******************** Start to read LArId info: ********************
SCname=1M_P1; channelId=959447040; 
SCname=1N_P1; channelId=959447552; 
SCname=2M_P1; channelId=959448064; 
SCname=2N_P1; channelId=959448576; 
SCname=3M_P1; channelId=959449088; 
SCname=3N_P1; channelId=959449600; 
SCname=4M_P1; channelId=959450112; 
SCname=4N_P1; channelId=959450624; 
SCname=5M_P1; channelId=959451136; 
SCname=5N_P1; channelId=959451648; 
SCname=6M_P1; channelId=959452160; 
SCname=6N_P1; channelId=959452672; 
SCname=7M_P1; channelId=959453184; 
SCname=7N_P1; channelId=959453696; 
SCname=8M_P1; channelId=959454208; 
SCname=8N_P1; channelId=959454720; 
SCname=1M_F1; channelId=959462400; 
SCname=1M_F2; channelId=959463424; 
SCname=1M_F3; channelId=959464448; 
SCname=1M_F4; channelId=959465472; 
SCname=2M_F1; channelId=959466496; 
SCname=2M_F2; channelId=959467520; 
SCname=2M_F3; channelId=959468544; 
SCname=2M_F4; channelId=959469568; 
SCname=1N_F1; channelId=959462912; 
SCname=1N_F2; channelId=959463936; 
SCname=1N_F3; channelId=959464960; 
SCname=1N_F4; channelId=959465984; 
SCname=2N_F1; channelId=959467008; 
SCname=2N_F2; channelId=959468032; 
SCname=2N_F4; channelId=959470080; 
SCname=2N_F3; channelId=959469056; 
SCname=3M_F1; channelId=959470592; 
SCname=3M_F2; channelId=959471616; 
SCname=3M_F3; channelId=959472640; 
SCname=3M_F4; channelId=959473664; 
SCname=4M_F1; channelId=959474688; 
SCname=4M_F2; channelId=959475712; 
SCname=4M_F3; channelId=959476736; 
SCname=4M_F4; channelId=959477760; 
SCname=3N_F1; channelId=959471104; 
SCname=3N_F2; channelId=959472128; 
SCname=3N_F3; channelId=959473152; 
SCname=3N_F4; channelId=959474176; 
SCname=4N_F1; channelId=959475200; 
SCname=4N_F2; channelId=959476224; 
SCname=4N_F3; channelId=959477248; 
SCname=4N_F4; channelId=959478272; 
SCname=5M_F1; channelId=959478784; 
SCname=5M_F2; channelId=959479808; 
SCname=5M_F3; channelId=959480832; 
SCname=5M_F4; channelId=959481856; 
SCname=6M_F1; channelId=959482880; 
SCname=6M_F2; channelId=959483904; 
SCname=6M_F3; channelId=959484928; 
SCname=6M_F4; channelId=959485952; 
SCname=5N_F1; channelId=959479296; 
SCname=5N_F2; channelId=959480320; 
SCname=5N_F3; channelId=959481344; 
SCname=5N_F4; channelId=959482368; 
SCname=6N_F1; channelId=959483392; 
SCname=6N_F2; channelId=959484416; 
SCname=6N_F3; channelId=959485440; 
SCname=6N_F4; channelId=959486464; 
SCname=7M_F1; channelId=959486976; 
SCname=7M_F2; channelId=959488000; 
SCname=7M_F3; channelId=959489024; 
SCname=7M_F4; channelId=959490048; 
SCname=8M_F1; channelId=959491072; 
SCname=8M_F2; channelId=959492096; 
SCname=8M_F3; channelId=959493120; 
SCname=8M_F4; channelId=959494144; 
SCname=7N_F1; channelId=959487488; 
SCname=7N_F2; channelId=959488512; 
SCname=7N_F3; channelId=959489536; 
SCname=7N_F4; channelId=959490560; 
SCname=8N_F1; channelId=959491584; 
SCname=8N_F2; channelId=959492608; 
SCname=8N_F3; channelId=959493632; 
SCname=8N_F4; channelId=959494656; 
SCname=1M_B1; channelId=959581184; 
SCname=2M_B1; channelId=959582208; 
SCname=3M_B1; channelId=959583232; 
SCname=4M_B1; channelId=959584256; 
SCname=5M_B1; channelId=959585280; 
SCname=6M_B1; channelId=959586304; 
SCname=7M_B1; channelId=959587328; 
SCname=8M_B1; channelId=959588352; 
SCname=1N_B1; channelId=959581696; 
SCname=2N_B1; channelId=959582720; 
SCname=3N_B1; channelId=959583744; 
SCname=4N_B1; channelId=959584768; 
SCname=5N_B1; channelId=959585792; 
SCname=6N_B1; channelId=959586816; 
SCname=7N_B1; channelId=959587840; 
SCname=8N_B1; channelId=959588864; 
SCname=1M_M1; channelId=959522816; 
SCname=1M_M2; channelId=959523840; 
SCname=1M_M3; channelId=959524864; 
SCname=1M_M4; channelId=959525888; 
SCname=2M_M1; channelId=959526912; 
SCname=2M_M2; channelId=959527936; 
SCname=2M_M3; channelId=959528960; 
SCname=2M_M4; channelId=959529984; 
SCname=3M_M1; channelId=959531008; 
SCname=3M_M2; channelId=959532032; 
SCname=3M_M3; channelId=959533056; 
SCname=3M_M4; channelId=959534080; 
SCname=4M_M1; channelId=959535104; 
SCname=4M_M2; channelId=959536128; 
SCname=4M_M3; channelId=959537152; 
SCname=4M_M4; channelId=959538176; 
SCname=1N_M1; channelId=959523328; 
SCname=1N_M2; channelId=959524352; 
SCname=1N_M3; channelId=959525376; 
SCname=1N_M4; channelId=959526400; 
SCname=2N_M1; channelId=959527424; 
SCname=2N_M2; channelId=959528448; 
SCname=2N_M3; channelId=959529472; 
SCname=2N_M4; channelId=959530496; 
SCname=3N_M1; channelId=959531520; 
SCname=3N_M2; channelId=959532544; 
SCname=3N_M3; channelId=959533568; 
SCname=3N_M4; channelId=959534592; 
SCname=4N_M1; channelId=959535616; 
SCname=4N_M2; channelId=959536640; 
SCname=4N_M3; channelId=959537664; 
SCname=4N_M4; channelId=959538688; 
SCname=5M_M1; channelId=959539200; 
SCname=5M_M2; channelId=959540224; 
SCname=5M_M3; channelId=959541248; 
SCname=5M_M4; channelId=959542272; 
SCname=6M_M1; channelId=959543296; 
SCname=6M_M2; channelId=959544320; 
SCname=6M_M3; channelId=959545344; 
SCname=6M_M4; channelId=959546368; 
SCname=7M_M1; channelId=959547392; 
SCname=7M_M2; channelId=959548416; 
SCname=7M_M3; channelId=959549440; 
SCname=7M_M4; channelId=959550464; 
SCname=8M_M1; channelId=959551488; 
SCname=8M_M2; channelId=959552512; 
SCname=8M_M3; channelId=959553536; 
SCname=8M_M4; channelId=959554560; 
SCname=5N_M1; channelId=959539712; 
SCname=5N_M2; channelId=959540736; 
SCname=5N_M3; channelId=959541760; 
SCname=5N_M4; channelId=959542784; 
SCname=6N_M1; channelId=959543808; 
SCname=6N_M2; channelId=959544832; 
SCname=6N_M3; channelId=959545856; 
SCname=6N_M4; channelId=959546880; 
SCname=7N_M1; channelId=959547904; 
SCname=7N_M2; channelId=959548928; 
SCname=7N_M3; channelId=959549952; 
SCname=7N_M4; channelId=959550976; 
SCname=8N_M1; channelId=959552000; 
SCname=8N_M2; channelId=959553024; 
SCname=8N_M3; channelId=959554048; 
SCname=8N_M4; channelId=959555072; 
SCname=1O_P1; channelId=959971328; 
SCname=1P_P1; channelId=959971840; 
SCname=2O_P1; channelId=959972352; 
SCname=2P_P1; channelId=959972864; 
SCname=3O_P1; channelId=959973376; 
SCname=3P_P1; channelId=959973888; 
SCname=4O_P1; channelId=959974400; 
SCname=4P_P1; channelId=959974912; 
SCname=5O_P1; channelId=959975424; 
SCname=5P_P1; channelId=959975936; 
SCname=6O_P1; channelId=959976448; 
SCname=6P_P1; channelId=959976960; 
SCname=7O_P1; channelId=959977472; 
SCname=7P_P1; channelId=959977984; 
SCname=8O_P1; channelId=959978496; 
SCname=8P_P1; channelId=959979008; 
SCname=1O_F1; channelId=959986688; 
SCname=1O_F2; channelId=959987712; 
SCname=1O_F3; channelId=959988736; 
SCname=1O_F4; channelId=959989760; 
SCname=2O_F1; channelId=959990784; 
SCname=2O_F2; channelId=959991808; 
SCname=2O_F3; channelId=959992832; 
SCname=2O_F4; channelId=959993856; 
SCname=1P_F1; channelId=959987200; 
SCname=1P_F2; channelId=959988224; 
SCname=1P_F3; channelId=959989248; 
SCname=1P_F4; channelId=959990272; 
SCname=2P_F1; channelId=959991296; 
SCname=2P_F2; channelId=959992320; 
SCname=2P_F3; channelId=959993344; 
SCname=2P_F4; channelId=959994368; 
SCname=3O_F1; channelId=959994880; 
SCname=3O_F2; channelId=959995904; 
SCname=3O_F3; channelId=959996928; 
SCname=3O_F4; channelId=959997952; 
SCname=4O_F1; channelId=959998976; 
SCname=4O_F2; channelId=960000000; 
SCname=4O_F3; channelId=960001024; 
SCname=4O_F4; channelId=960002048; 
SCname=3P_F1; channelId=959995392; 
SCname=3P_F2; channelId=959996416; 
SCname=3P_F3; channelId=959997440; 
SCname=3P_F4; channelId=959998464; 
SCname=4P_F1; channelId=959999488; 
SCname=4P_F2; channelId=960000512; 
SCname=4P_F3; channelId=960001536; 
SCname=4P_F4; channelId=960002560; 
SCname=5O_F1; channelId=960003072; 
SCname=5O_F2; channelId=960004096; 
SCname=5O_F3; channelId=960005120; 
SCname=5O_F4; channelId=960006144; 
SCname=6O_F1; channelId=960007168; 
SCname=6O_F2; channelId=960008192; 
SCname=6O_F3; channelId=960009216; 
SCname=6O_F4; channelId=960010240; 
SCname=5P_F1; channelId=960003584; 
SCname=5P_F2; channelId=960004608; 
SCname=5P_F3; channelId=960005632; 
SCname=5P_F4; channelId=960006656; 
SCname=6P_F1; channelId=960007680; 
SCname=6P_F2; channelId=960008704; 
SCname=6P_F3; channelId=960009728; 
SCname=6P_F4; channelId=960010752; 
SCname=7O_F1; channelId=960011264; 
SCname=7O_F2; channelId=960012288; 
SCname=7O_F3; channelId=960013312; 
SCname=7O_F4; channelId=960014336; 
SCname=8O_F1; channelId=960015360; 
SCname=8O_F2; channelId=960016384; 
SCname=8O_F3; channelId=960017408; 
SCname=8O_F4; channelId=960018432; 
SCname=7P_F1; channelId=960011776; 
SCname=7P_F2; channelId=960012800; 
SCname=7P_F3; channelId=960013824; 
SCname=7P_F4; channelId=960014848; 
SCname=8P_F1; channelId=960015872; 
SCname=8P_F2; channelId=960016896; 
SCname=8P_F3; channelId=960017920; 
SCname=8P_F4; channelId=960018944; 
SCname=1O_B1; channelId=960105472; 
SCname=2O_B1; channelId=960106496; 
SCname=3O_B1; channelId=960107520; 
SCname=4O_B1; channelId=960108544; 
SCname=5O_B1; channelId=960109568; 
SCname=6O_B1; channelId=960110592; 
SCname=7O_B1; channelId=960111616; 
SCname=8O_B1; channelId=960112640; 
SCname=1P_B1; channelId=960105984; 
SCname=2P_B1; channelId=960107008; 
SCname=3P_B1; channelId=960108032; 
SCname=4P_B1; channelId=960109056; 
SCname=5P_B1; channelId=960110080; 
SCname=6P_B1; channelId=960111104; 
SCname=7P_B1; channelId=960112128; 
SCname=8P_B1; channelId=960113152; 
SCname=1O_M1; channelId=960047104; 
SCname=1O_M2; channelId=960048128; 
SCname=1O_M3; channelId=960049152; 
SCname=1O_M4; channelId=960050176; 
SCname=2O_M1; channelId=960051200; 
SCname=2O_M2; channelId=960052224; 
SCname=2O_M3; channelId=960053248; 
SCname=2O_M4; channelId=960054272; 
SCname=3O_M1; channelId=960055296; 
SCname=3O_M2; channelId=960056320; 
SCname=3O_M3; channelId=960057344; 
SCname=3O_M4; channelId=960058368; 
SCname=4O_M1; channelId=960059392; 
SCname=4O_M2; channelId=960060416; 
SCname=4O_M3; channelId=960061440; 
SCname=4O_M4; channelId=960062464; 
SCname=1P_M1; channelId=960047616; 
SCname=1P_M2; channelId=960048640; 
SCname=1P_M3; channelId=960049664; 
SCname=1P_M4; channelId=960050688; 
SCname=2P_M1; channelId=960051712; 
SCname=2P_M2; channelId=960052736; 
SCname=2P_M3; channelId=960053760; 
SCname=2P_M4; channelId=960054784; 
SCname=3P_M1; channelId=960055808; 
SCname=3P_M2; channelId=960056832; 
SCname=3P_M3; channelId=960057856; 
SCname=3P_M4; channelId=960058880; 
SCname=4P_M1; channelId=960059904; 
SCname=4P_M2; channelId=960060928; 
SCname=4P_M3; channelId=960061952; 
SCname=4P_M4; channelId=960062976; 
SCname=5O_M1; channelId=960063488; 
SCname=5O_M2; channelId=960064512; 
SCname=5O_M3; channelId=960065536; 
SCname=5O_M4; channelId=960066560; 
SCname=6O_M1; channelId=960067584; 
SCname=6O_M2; channelId=960068608; 
SCname=6O_M3; channelId=960069632; 
SCname=6O_M4; channelId=960070656; 
SCname=7O_M1; channelId=960071680; 
SCname=7O_M2; channelId=960072704; 
SCname=7O_M3; channelId=960073728; 
SCname=7O_M4; channelId=960074752; 
SCname=8O_M1; channelId=960075776; 
SCname=8O_M2; channelId=960076800; 
SCname=8O_M3; channelId=960077824; 
SCname=8O_M4; channelId=960078848; 
SCname=5P_M1; channelId=960064000; 
SCname=5P_M2; channelId=960065024; 
SCname=5P_M3; channelId=960066048; 
SCname=5P_M4; channelId=960067072; 
SCname=6P_M1; channelId=960068096; 
SCname=6P_M2; channelId=960069120; 
SCname=6P_M3; channelId=960070144; 
SCname=6P_M4; channelId=960071168; 
SCname=7P_M1; channelId=960072192; 
SCname=7P_M2; channelId=960073216; 
SCname=7P_M3; channelId=960074240; 
SCname=7P_M4; channelId=960075264; 
SCname=8P_M1; channelId=960076288; 
SCname=8P_M2; channelId=960077312; 
SCname=8P_M3; channelId=960078336; 
SCname=8P_M4; channelId=960079360; 
320 SCs are read!  LATOME is EMBA_4

******************** Start to read SCs info per fiber: ********************
IN F3 1M_B1 2M_B1 4M_B1 3M_B1 6M_B1 5M_B1 8M_B1 7M_B1
IN F4 2M_M2 2M_M1 2M_M4 2M_M3 1M_M3 1M_M4 1M_M1 1M_M2
IN F5 3M_M1 3M_M2 3M_M4 3M_M3 4M_M4 4M_M3 4M_M2 4M_M1
IN F6 6M_F4 6M_F3 6M_F2 6M_F1 5M_F1 5M_F2 5M_F3 5M_F4
IN F7 7M_M1 7M_M2 7M_M3 7M_M4 8M_M3 8M_M4 8M_M2 8M_M1
IN F8 8M_P1 7M_P1 5M_P1 6M_P1 4M_P1 3M_P1 2M_P1 1M_P1
IN F9 5M_M1 5M_M2 5M_M3 5M_M4 6M_M4 6M_M3 6M_M1 6M_M2
IN F10 4M_F1 4M_F2 4M_F4 4M_F3 3M_F4 3M_F3 3M_F2 3M_F1
IN F11 7M_F1 7M_F2 7M_F3 7M_F4 8M_F1 8M_F2 8M_F4 8M_F3
IN F12 2M_F3 2M_F4 2M_F2 2M_F1 1M_F4 1M_F3 1M_F2 1M_F1
IN F15 1N_F2 1N_F1 1N_F4 1N_F3 2N_F1 2N_F2 2N_F4 2N_F3
IN F16 8N_M2 8N_M1 8N_M4 8N_M3 7N_M4 7N_M3 7N_M1 7N_M2
IN F17 3N_F1 3N_F2 3N_F3 3N_F4 4N_F1 4N_F2 4N_F4 4N_F3
IN F18 6N_M3 6N_M4 6N_M1 6N_M2 5N_M2 5N_M1 5N_M4 5N_M3
IN F19 5N_F2 5N_F1 5N_F3 5N_F4 6N_F4 6N_F3 6N_F1 6N_F2
IN F20 3N_M1 3N_M2 3N_M3 3N_M4 4N_M4 4N_M3 4N_M1 4N_M2
IN F21 7N_F2 7N_F1 7N_F3 7N_F4 8N_F2 8N_F1 8N_F4 8N_F3
IN F22 7N_P1 8N_P1 6N_P1 5N_P1 2N_P1 1N_P1 3N_P1 4N_P1
IN F23 1N_M2 1N_M1 1N_M3 1N_M4 2N_M4 2N_M3 2N_M1 2N_M2
IN F24 7N_B1 8N_B1 6N_B1 5N_B1 1N_B1 2N_B1 3N_B1 4N_B1
IN F27 1O_B1 2O_B1 4O_B1 3O_B1 6O_B1 5O_B1 8O_B1 7O_B1
IN F28 2O_M2 2O_M1 2O_M4 2O_M3 1O_M3 1O_M4 1O_M1 1O_M2
IN F29 3O_M1 3O_M2 3O_M4 3O_M3 4O_M4 4O_M3 4O_M2 4O_M1
IN F30 6O_F4 6O_F3 6O_F2 6O_F1 5O_F1 5O_F2 5O_F3 5O_F4
IN F31 7O_M1 7O_M2 7O_M3 7O_M4 8O_M3 8O_M4 8O_M2 8O_M1
IN F32 8O_P1 7O_P1 5O_P1 6O_P1 4O_P1 3O_P1 2O_P1 1O_P1
IN F33 5O_M1 5O_M2 5O_M3 5O_M4 6O_M4 6O_M3 6O_M1 6O_M2
IN F34 4O_F1 4O_F2 4O_F4 4O_F3 3O_F4 3O_F3 3O_F2 3O_F1
IN F35 7O_F1 7O_F2 7O_F3 7O_F4 8O_F1 8O_F2 8O_F4 8O_F3
IN F36 2O_F3 2O_F4 2O_F2 2O_F1 1O_F4 1O_F3 1O_F2 1O_F1
IN F39 1P_F2 1P_F1 1P_F4 1P_F3 2P_F1 2P_F2 2P_F3 2P_F4
IN F40 8P_M2 8P_M1 8P_M4 8P_M3 7P_M4 7P_M3 7P_M1 7P_M2
IN F41 3P_F1 3P_F2 3P_F3 3P_F4 4P_F1 4P_F2 4P_F4 4P_F3
IN F42 6P_M3 6P_M4 6P_M1 6P_M2 5P_M2 5P_M1 5P_M4 5P_M3
IN F43 5P_F2 5P_F1 5P_F3 5P_F4 6P_F4 6P_F3 6P_F1 6P_F2
IN F44 3P_M1 3P_M2 3P_M3 3P_M4 4P_M4 4P_M3 4P_M1 4P_M2
IN F45 7P_F2 7P_F1 7P_F3 7P_F4 8P_F2 8P_F1 8P_F4 8P_F3
IN F46 7P_P1 8P_P1 6P_P1 5P_P1 2P_P1 1P_P1 3P_P1 4P_P1
IN F47 1P_M2 1P_M1 1P_M3 1P_M4 2P_M4 2P_M3 2P_M1 2P_M2
IN F48 7P_B1 8P_B1 6P_B1 5P_B1 1P_B1 2P_B1 3P_B1 4P_B1
40 fibers are connected!
max_event=999

******************** Start to search BCID of peak sampling: ********************
IN F2; 1M_B1=0; 2M_B1=0; 4M_B1=0; 3M_B1=0; 6M_B1=0; 5M_B1=0; 8M_B1=0; 7M_B1=0;  BCID_rms=0; height=2058
IN F3; 2M_M2=0; 2M_M1=0; 2M_M4=0; 2M_M3=0; 1M_M3=0; 1M_M4=0; 1M_M1=0; 1M_M2=0;  BCID_rms=0; height=784
IN F4; 3M_M1=0; 3M_M2=0; 3M_M4=0; 3M_M3=0; 4M_M4=0; 4M_M3=0; 4M_M2=0; 4M_M1=0;  BCID_rms=0; height=790
IN F5; 6M_F4=0; 6M_F3=0; 6M_F2=0; 6M_F1=0; 5M_F1=0; 5M_F2=0; 5M_F3=0; 5M_F4=0;  BCID_rms=0; height=755
IN F6; 7M_M1=0; 7M_M2=0; 7M_M3=0; 7M_M4=0; 8M_M3=0; 8M_M4=0; 8M_M2=0; 8M_M1=0;  BCID_rms=0; height=745
IN F7; 8M_P1=0; 7M_P1=0; 5M_P1=0; 6M_P1=0; 4M_P1=0; 3M_P1=0; 2M_P1=0; 1M_P1=0;  BCID_rms=0; height=64
IN F8; 5M_M1=0; 5M_M2=0; 5M_M3=0; 5M_M4=0; 6M_M4=0; 6M_M3=0; 6M_M1=0; 6M_M2=0;  BCID_rms=0; height=736
IN F9; 4M_F1=0; 4M_F2=0; 4M_F4=0; 4M_F3=0; 3M_F4=0; 3M_F3=0; 3M_F2=0; 3M_F1=0;  BCID_rms=0; height=734
IN F10; 7M_F1=0; 7M_F2=0; 7M_F3=0; 7M_F4=0; 8M_F1=0; 8M_F2=0; 8M_F4=0; 8M_F3=0;  BCID_rms=0; height=742
IN F11; 2M_F3=0; 2M_F4=0; 2M_F2=0; 2M_F1=0; 1M_F4=0; 1M_F3=0; 1M_F2=0; 1M_F1=0;  BCID_rms=0; height=726
IN F14; 1N_F2=0; 1N_F1=0; 1N_F4=0; 1N_F3=0; 2N_F1=0; 2N_F2=0; 2N_F4=0; 2N_F3=0;  BCID_rms=0; height=753
IN F15; 8N_M2=0; 8N_M1=0; 8N_M4=0; 8N_M3=0; 7N_M4=0; 7N_M3=0; 7N_M1=0; 7N_M2=0;  BCID_rms=0; height=750
IN F16; 3N_F1=0; 3N_F2=0; 3N_F3=0; 3N_F4=0; 4N_F1=0; 4N_F2=0; 4N_F4=0; 4N_F3=0;  BCID_rms=0; height=748
IN F17; 6N_M3=0; 6N_M4=0; 6N_M1=0; 6N_M2=0; 5N_M2=0; 5N_M1=0; 5N_M4=0; 5N_M3=0;  BCID_rms=0; height=758
IN F18; 5N_F2=0; 5N_F1=0; 5N_F3=0; 5N_F4=0; 6N_F4=0; 6N_F3=0; 6N_F1=0; 6N_F2=0;  BCID_rms=0; height=756
IN F19; 3N_M1=0; 3N_M2=0; 3N_M3=0; 3N_M4=0; 4N_M4=0; 4N_M3=0; 4N_M1=0; 4N_M2=0;  BCID_rms=0; height=770
IN F20; 7N_F2=0; 7N_F1=0; 7N_F3=0; 7N_F4=0; 8N_F2=0; 8N_F1=0; 8N_F4=0; 8N_F3=0;  BCID_rms=0; height=732
IN F21; 7N_P1=0; 8N_P1=0; 6N_P1=0; 5N_P1=0; 2N_P1=0; 1N_P1=0; 3N_P1=0; 4N_P1=0;  BCID_rms=0; height=66
IN F22; 1N_M2=0; 1N_M1=0; 1N_M3=0; 1N_M4=0; 2N_M4=0; 2N_M3=0; 2N_M1=0; 2N_M2=0;  BCID_rms=0; height=804
IN F23; 7N_B1=0; 8N_B1=0; 6N_B1=0; 5N_B1=0; 1N_B1=0; 2N_B1=0; 3N_B1=0; 4N_B1=0;  BCID_rms=0; height=2041
IN F26; 1O_B1=0; 2O_B1=0; 4O_B1=0; 3O_B1=0; 6O_B1=0; 5O_B1=0; 8O_B1=0; 7O_B1=0;  BCID_rms=0; height=2118
IN F27; 2O_M2=0; 2O_M1=0; 2O_M4=0; 2O_M3=0; 1O_M3=0; 1O_M4=0; 1O_M1=0; 1O_M2=0;  BCID_rms=0; height=765
IN F28; 3O_M1=0; 3O_M2=0; 3O_M4=0; 3O_M3=0; 4O_M4=0; 4O_M3=0; 4O_M2=0; 4O_M1=0;  BCID_rms=0; height=751
IN F29; 6O_F4=0; 6O_F3=0; 6O_F2=0; 6O_F1=0; 5O_F1=0; 5O_F2=0; 5O_F3=0; 5O_F4=0;  BCID_rms=0; height=758
IN F30; 7O_M1=0; 7O_M2=0; 7O_M3=0; 7O_M4=0; 8O_M3=0; 8O_M4=0; 8O_M2=0; 8O_M1=0;  BCID_rms=0; height=788
IN F31; 8O_P1=0; 7O_P1=0; 5O_P1=0; 6O_P1=0; 4O_P1=0; 3O_P1=0; 2O_P1=0; 1O_P1=0;  BCID_rms=0; height=70
IN F32; 5O_M1=0; 5O_M2=0; 5O_M3=0; 5O_M4=0; 6O_M4=0; 6O_M3=0; 6O_M1=0; 6O_M2=0;  BCID_rms=0; height=766
IN F33; 4O_F1=0; 4O_F2=0; 4O_F4=0; 4O_F3=0; 3O_F4=0; 3O_F3=0; 3O_F2=0; 3O_F1=0;  BCID_rms=0; height=740
IN F34; 7O_F1=0; 7O_F2=0; 7O_F3=0; 7O_F4=0; 8O_F1=0; 8O_F2=0; 8O_F4=0; 8O_F3=0;  BCID_rms=0; height=755
IN F35; 2O_F3=0; 2O_F4=0; 2O_F2=0; 2O_F1=0; 1O_F4=0; 1O_F3=0; 1O_F2=0; 1O_F1=0;  BCID_rms=0; height=732
IN F38; 1P_F2=0; 1P_F1=0; 1P_F4=0; 1P_F3=0; 2P_F1=0; 2P_F2=0; 2P_F3=0; 2P_F4=0;  BCID_rms=0; height=739
IN F39; 8P_M2=0; 8P_M1=0; 8P_M4=0; 8P_M3=0; 7P_M4=0; 7P_M3=0; 7P_M1=0; 7P_M2=0;  BCID_rms=0; height=751
IN F40; 3P_F1=0; 3P_F2=0; 3P_F3=0; 3P_F4=0; 4P_F1=0; 4P_F2=0; 4P_F4=0; 4P_F3=0;  BCID_rms=0; height=746
IN F41; 6P_M3=0; 6P_M4=0; 6P_M1=0; 6P_M2=0; 5P_M2=0; 5P_M1=0; 5P_M4=0; 5P_M3=0;  BCID_rms=0; height=766
IN F42; 5P_F2=0; 5P_F1=0; 5P_F3=0; 5P_F4=0; 6P_F4=0; 6P_F3=0; 6P_F1=0; 6P_F2=0;  BCID_rms=0; height=751
IN F43; 3P_M1=0; 3P_M2=0; 3P_M3=0; 3P_M4=0; 4P_M4=0; 4P_M3=0; 4P_M1=0; 4P_M2=0;  BCID_rms=0; height=754
IN F44; 7P_F2=0; 7P_F1=0; 7P_F3=0; 7P_F4=0; 8P_F2=0; 8P_F1=0; 8P_F4=0; 8P_F3=0;  BCID_rms=0; height=740
IN F45; 7P_P1=0; 8P_P1=0; 6P_P1=0; 5P_P1=0; 2P_P1=0; 1P_P1=0; 3P_P1=0; 4P_P1=0;  BCID_rms=0; height=71
IN F46; 1P_M2=0; 1P_M1=0; 1P_M3=0; 1P_M4=0; 2P_M4=0; 2P_M3=0; 2P_M1=0; 2P_M2=0;  BCID_rms=0; height=791
IN F47; 7P_B1=0; 8P_B1=0; 6P_B1=0; 5P_B1=0; 1P_B1=0; 2P_B1=0; 3P_B1=0; 4P_B1=0;  BCID_rms=0; height=2182
