
Processing macro.C+("inputfile/LArDigits_pusleall_408520.root","EMBA-EMECA_1","outputs/hist/LArDigits_pusleall_408520_hist.root","results/LArDigits_pusleall_408520/latome136.ini","LATOME_ini_file/latome136.ini",false)...

******************** Start to read ini BCID: ********************
input file: LATOME_ini_file/latome136.ini
F0  BCID=3462; 
F1  BCID=3462; 
F2  BCID=0; 
F3  BCID=3460; 
F4  BCID=3460; 
F5  BCID=3460; 
F6  BCID=3461; 
F7  BCID=3460; 
F8  BCID=3460; 
F9  BCID=3460; 
F10  BCID=3460; 
F11  BCID=3460; 
F12  BCID=3462; 
F13  BCID=3463; 
F14  BCID=3460; 
F15  BCID=3460; 
F16  BCID=3460; 
F17  BCID=3460; 
F18  BCID=3460; 
F19  BCID=3460; 
F20  BCID=3460; 
F21  BCID=3460; 
F22  BCID=3460; 
F23  BCID=0; 
F24  BCID=3463; 
F25  BCID=3463; 
F26  BCID=0; 
F27  BCID=3460; 
F28  BCID=3460; 
F29  BCID=3460; 
F30  BCID=3461; 
F31  BCID=3460; 
F32  BCID=3460; 
F33  BCID=3460; 
F34  BCID=3460; 
F35  BCID=3460; 
F36  BCID=3462; 
F37  BCID=3462; 
F38  BCID=3460; 
F39  BCID=3460; 
F40  BCID=3460; 
F41  BCID=3460; 
F42  BCID=3460; 
F43  BCID=3460; 
F44  BCID=3460; 
F45  BCID=3460; 
F46  BCID=3460; 
F47  BCID=0; 
48 fibers are read!

******************** Start to read LArId info: ********************
SCname=9A_P1; channelId=956309504; 
SCname=9B_P1; channelId=956310016; 
SCname=10A_P1; channelId=956310528; 
SCname=10B_P1; channelId=956311040; 
SCname=11A_P1; channelId=956311552; 
SCname=11B_P1; channelId=956312064; 
SCname=12A_P1; channelId=956312576; 
SCname=12B_P1; channelId=956313088; 
SCname=13A_P1; channelId=956313600; 
SCname=13B_P1; channelId=956314112; 
SCname=14A_P1; channelId=956314624; 
SCname=14B_P1; channelId=956315136; 
SCname=15A_P1; channelId=956315648; 
SCname=15B_P1; channelId=956316160; 
SCname=9A_F1; channelId=956349440; 
SCname=9A_F2; channelId=956350464; 
SCname=9A_F3; channelId=956351488; 
SCname=9A_F4; channelId=956352512; 
SCname=10A_F1; channelId=956353536; 
SCname=10A_F2; channelId=956354560; 
SCname=10A_F3; channelId=956355584; 
SCname=10A_F4; channelId=956356608; 
SCname=9B_F1; channelId=956349952; 
SCname=9B_F2; channelId=956350976; 
SCname=9B_F3; channelId=956352000; 
SCname=9B_F4; channelId=956353024; 
SCname=10B_F1; channelId=956354048; 
SCname=10B_F2; channelId=956355072; 
SCname=10B_F3; channelId=956356096; 
SCname=10B_F4; channelId=956357120; 
SCname=11A_F1; channelId=956357632; 
SCname=11A_F2; channelId=956358656; 
SCname=11A_F3; channelId=956359680; 
SCname=11A_F4; channelId=956360704; 
SCname=12A_F1; channelId=956361728; 
SCname=12A_F2; channelId=956362752; 
SCname=12A_F3; channelId=956363776; 
SCname=12A_F4; channelId=956364800; 
SCname=11B_F1; channelId=956358144; 
SCname=11B_F2; channelId=956359168; 
SCname=11B_F3; channelId=956360192; 
SCname=11B_F4; channelId=956361216; 
SCname=12B_F1; channelId=956362240; 
SCname=12B_F2; channelId=956363264; 
SCname=12B_F3; channelId=956364288; 
SCname=12B_F4; channelId=956365312; 
SCname=13A_F1; channelId=956365824; 
SCname=13A_F2; channelId=956366848; 
SCname=13A_F3; channelId=956367872; 
SCname=13A_F4; channelId=956368896; 
SCname=14A_F1; channelId=956369920; 
SCname=14A_F2; channelId=956370944; 
SCname=14A_F3; channelId=956371968; 
SCname=14A_F4; channelId=956372992; 
SCname=13B_F1; channelId=956366336; 
SCname=13B_F2; channelId=956367360; 
SCname=13B_F3; channelId=956368384; 
SCname=13B_F4; channelId=956369408; 
SCname=14B_F1; channelId=956370432; 
SCname=14B_F2; channelId=956371456; 
SCname=14B_F3; channelId=956372480; 
SCname=14B_F4; channelId=956373504; 
SCname=9A_B1; channelId=956443648; 
SCname=10A_B1; channelId=956444672; 
SCname=11A_B1; channelId=956445696; 
SCname=12A_B1; channelId=956446720; 
SCname=13A_B1; channelId=956447744; 
SCname=14A_B1; channelId=956448768; 
SCname=15A_B1; channelId=956374016; 
SCname=15A_B2; channelId=956375040; 
SCname=15A_B3; channelId=956376064; 
SCname=15A_B4; channelId=956434432; 
SCname=9B_B1; channelId=956444160; 
SCname=10B_B1; channelId=956445184; 
SCname=11B_B1; channelId=956446208; 
SCname=12B_B1; channelId=956447232; 
SCname=13B_B1; channelId=956448256; 
SCname=14B_B1; channelId=956449280; 
SCname=15B_B1; channelId=956374528; 
SCname=15B_B2; channelId=956375552; 
SCname=15B_B3; channelId=956376576; 
SCname=15B_B4; channelId=956434944; 
SCname=9A_M1; channelId=956409856; 
SCname=9A_M2; channelId=956410880; 
SCname=9A_M3; channelId=956411904; 
SCname=9A_M4; channelId=956412928; 
SCname=10A_M1; channelId=956413952; 
SCname=10A_M2; channelId=956414976; 
SCname=10A_M3; channelId=956416000; 
SCname=10A_M4; channelId=956417024; 
SCname=11A_M1; channelId=956418048; 
SCname=11A_M2; channelId=956419072; 
SCname=11A_M3; channelId=956420096; 
SCname=11A_M4; channelId=956421120; 
SCname=12A_M1; channelId=956422144; 
SCname=12A_M2; channelId=956423168; 
SCname=12A_M3; channelId=956424192; 
SCname=12A_M4; channelId=956425216; 
SCname=9B_M1; channelId=956410368; 
SCname=9B_M2; channelId=956411392; 
SCname=9B_M3; channelId=956412416; 
SCname=9B_M4; channelId=956413440; 
SCname=10B_M1; channelId=956414464; 
SCname=10B_M2; channelId=956415488; 
SCname=10B_M3; channelId=956416512; 
SCname=10B_M4; channelId=956417536; 
SCname=11B_M1; channelId=956418560; 
SCname=11B_M2; channelId=956419584; 
SCname=11B_M3; channelId=956420608; 
SCname=11B_M4; channelId=956421632; 
SCname=12B_M1; channelId=956422656; 
SCname=12B_M2; channelId=956423680; 
SCname=12B_M3; channelId=956424704; 
SCname=12B_M4; channelId=956425728; 
SCname=13A_M1; channelId=956426240; 
SCname=13A_M2; channelId=956427264; 
SCname=13A_M3; channelId=956428288; 
SCname=13A_M4; channelId=956429312; 
SCname=13B_M1; channelId=956426752; 
SCname=13B_M2; channelId=956427776; 
SCname=13B_M3; channelId=956428800; 
SCname=13B_M4; channelId=956429824; 
SCname=14A_M1; channelId=956430336; 
SCname=14A_M2; channelId=956431360; 
SCname=14A_M3; channelId=956432384; 
SCname=14A_M4; channelId=956433408; 
SCname=14B_M1; channelId=956430848; 
SCname=14B_M2; channelId=956431872; 
SCname=14B_M3; channelId=956432896; 
SCname=14B_M4; channelId=956433920; 
SCname=9C_P1; channelId=956833792; 
SCname=9D_P1; channelId=956834304; 
SCname=10C_P1; channelId=956834816; 
SCname=10D_P1; channelId=956835328; 
SCname=11C_P1; channelId=956835840; 
SCname=11D_P1; channelId=956836352; 
SCname=12C_P1; channelId=956836864; 
SCname=12D_P1; channelId=956837376; 
SCname=13C_P1; channelId=956837888; 
SCname=13D_P1; channelId=956838400; 
SCname=14C_P1; channelId=956838912; 
SCname=14D_P1; channelId=956839424; 
SCname=15C_P1; channelId=956839936; 
SCname=15D_P1; channelId=956840448; 
SCname=9C_F1; channelId=956873728; 
SCname=9C_F2; channelId=956874752; 
SCname=9C_F3; channelId=956875776; 
SCname=9C_F4; channelId=956876800; 
SCname=10C_F1; channelId=956877824; 
SCname=10C_F2; channelId=956878848; 
SCname=10C_F3; channelId=956879872; 
SCname=10C_F4; channelId=956880896; 
SCname=9D_F1; channelId=956874240; 
SCname=9D_F2; channelId=956875264; 
SCname=9D_F3; channelId=956876288; 
SCname=9D_F4; channelId=956877312; 
SCname=10D_F1; channelId=956878336; 
SCname=10D_F2; channelId=956879360; 
SCname=10D_F3; channelId=956880384; 
SCname=10D_F4; channelId=956881408; 
SCname=11C_F1; channelId=956881920; 
SCname=11C_F2; channelId=956882944; 
SCname=11C_F3; channelId=956883968; 
SCname=11C_F4; channelId=956884992; 
SCname=12C_F1; channelId=956886016; 
SCname=12C_F2; channelId=956887040; 
SCname=12C_F3; channelId=956888064; 
SCname=12C_F4; channelId=956889088; 
SCname=11D_F1; channelId=956882432; 
SCname=11D_F2; channelId=956883456; 
SCname=11D_F3; channelId=956884480; 
SCname=11D_F4; channelId=956885504; 
SCname=12D_F1; channelId=956886528; 
SCname=12D_F2; channelId=956887552; 
SCname=12D_F3; channelId=956888576; 
SCname=12D_F4; channelId=956889600; 
SCname=13C_F1; channelId=956890112; 
SCname=13C_F2; channelId=956891136; 
SCname=13C_F3; channelId=956892160; 
SCname=13C_F4; channelId=956893184; 
SCname=14C_F1; channelId=956894208; 
SCname=14C_F2; channelId=956895232; 
SCname=14C_F3; channelId=956896256; 
SCname=14C_F4; channelId=956897280; 
SCname=13D_F1; channelId=956890624; 
SCname=13D_F2; channelId=956891648; 
SCname=13D_F3; channelId=956892672; 
SCname=13D_F4; channelId=956893696; 
SCname=14D_F1; channelId=956894720; 
SCname=14D_F2; channelId=956895744; 
SCname=14D_F3; channelId=956896768; 
SCname=14D_F4; channelId=956897792; 
SCname=9C_B1; channelId=956967936; 
SCname=10C_B1; channelId=956968960; 
SCname=11C_B1; channelId=956969984; 
SCname=12C_B1; channelId=956971008; 
SCname=13C_B1; channelId=956972032; 
SCname=14C_B1; channelId=956973056; 
SCname=15C_B1; channelId=956898304; 
SCname=15C_B2; channelId=956899328; 
SCname=15C_B3; channelId=956900352; 
SCname=15C_B4; channelId=956958720; 
SCname=9D_B1; channelId=956968448; 
SCname=10D_B1; channelId=956969472; 
SCname=11D_B1; channelId=956970496; 
SCname=12D_B1; channelId=956971520; 
SCname=13D_B1; channelId=956972544; 
SCname=14D_B1; channelId=956973568; 
SCname=15D_B1; channelId=956898816; 
SCname=15D_B2; channelId=956899840; 
SCname=15D_B3; channelId=956900864; 
SCname=15D_B4; channelId=956959232; 
SCname=9C_M1; channelId=956934144; 
SCname=9C_M2; channelId=956935168; 
SCname=9C_M3; channelId=956936192; 
SCname=9C_M4; channelId=956937216; 
SCname=10C_M1; channelId=956938240; 
SCname=10C_M2; channelId=956939264; 
SCname=10C_M3; channelId=956940288; 
SCname=10C_M4; channelId=956941312; 
SCname=11C_M1; channelId=956942336; 
SCname=11C_M2; channelId=956943360; 
SCname=11C_M3; channelId=956944384; 
SCname=11C_M4; channelId=956945408; 
SCname=12C_M1; channelId=956946432; 
SCname=12C_M2; channelId=956947456; 
SCname=12C_M3; channelId=956948480; 
SCname=12C_M4; channelId=956949504; 
SCname=9D_M1; channelId=956934656; 
SCname=9D_M2; channelId=956935680; 
SCname=9D_M3; channelId=956936704; 
SCname=9D_M4; channelId=956937728; 
SCname=10D_M1; channelId=956938752; 
SCname=10D_M2; channelId=956939776; 
SCname=10D_M3; channelId=956940800; 
SCname=10D_M4; channelId=956941824; 
SCname=11D_M1; channelId=956942848; 
SCname=11D_M2; channelId=956943872; 
SCname=11D_M3; channelId=956944896; 
SCname=11D_M4; channelId=956945920; 
SCname=12D_M1; channelId=956946944; 
SCname=12D_M2; channelId=956947968; 
SCname=12D_M3; channelId=956948992; 
SCname=12D_M4; channelId=956950016; 
SCname=13C_M1; channelId=956950528; 
SCname=13C_M2; channelId=956951552; 
SCname=13C_M3; channelId=956952576; 
SCname=13C_M4; channelId=956953600; 
SCname=13D_M1; channelId=956951040; 
SCname=13D_M2; channelId=956952064; 
SCname=13D_M3; channelId=956953088; 
SCname=13D_M4; channelId=956954112; 
SCname=14C_M1; channelId=956954624; 
SCname=14C_M2; channelId=956955648; 
SCname=14C_M3; channelId=956956672; 
SCname=14C_M4; channelId=956957696; 
SCname=14D_M1; channelId=956955136; 
SCname=14D_M2; channelId=956956160; 
SCname=14D_M3; channelId=956957184; 
SCname=14D_M4; channelId=956958208; 
SCname=2A_P1; channelId=990904320; 
SCname=2B_P1; channelId=990904832; 
SCname=2C_P1; channelId=990905344; 
SCname=2D_P1; channelId=990905856; 
SCname=1A_F1; channelId=990912512; 
SCname=1B_F1; channelId=990913024; 
SCname=1C_F1; channelId=990913536; 
SCname=1D_F1; channelId=990914048; 
SCname=1A_M1; channelId=990953472; 
SCname=1A_M2; channelId=990961664; 
SCname=1A_M3; channelId=990969856; 
SCname=1A_M4; channelId=990978048; 
SCname=1B_M1; channelId=990953984; 
SCname=1B_M2; channelId=990962176; 
SCname=1B_M3; channelId=990970368; 
SCname=1B_M4; channelId=990978560; 
SCname=1C_M1; channelId=990954496; 
SCname=1C_M2; channelId=990962688; 
SCname=1C_M3; channelId=990970880; 
SCname=1C_M4; channelId=990979072; 
SCname=1D_M1; channelId=990955008; 
SCname=1D_M2; channelId=990963200; 
SCname=1D_M3; channelId=990971392; 
SCname=1D_M4; channelId=990979584; 
SCname=2A_F1; channelId=990920704; 
SCname=2A_F2; channelId=990928896; 
SCname=2A_F3; channelId=990937088; 
SCname=2A_F4; channelId=990945280; 
SCname=2B_F1; channelId=990921216; 
SCname=2B_F2; channelId=990929408; 
SCname=2B_F3; channelId=990937600; 
SCname=2B_F4; channelId=990945792; 
SCname=2C_F1; channelId=990921728; 
SCname=2C_F2; channelId=990929920; 
SCname=2C_F3; channelId=990938112; 
SCname=2C_F4; channelId=990946304; 
SCname=2D_F1; channelId=990922240; 
SCname=2D_F2; channelId=990930432; 
SCname=2D_F3; channelId=990938624; 
SCname=2D_F4; channelId=990946816; 
SCname=2A_B1; channelId=991019008; 
SCname=2B_B1; channelId=991019520; 
SCname=2C_B1; channelId=991020032; 
SCname=2D_B1; channelId=991020544; 
SCname=2A_M1; channelId=990986240; 
SCname=2A_M2; channelId=990994432; 
SCname=2A_M3; channelId=991002624; 
SCname=2A_M4; channelId=991010816; 
SCname=2B_M1; channelId=990986752; 
SCname=2B_M2; channelId=990994944; 
SCname=2B_M3; channelId=991003136; 
SCname=2B_M4; channelId=991011328; 
SCname=2C_M1; channelId=990987264; 
SCname=2C_M2; channelId=990995456; 
SCname=2C_M3; channelId=991003648; 
SCname=2C_M4; channelId=991011840; 
SCname=2D_M1; channelId=990987776; 
SCname=2D_M2; channelId=990995968; 
SCname=2D_M3; channelId=991004160; 
SCname=2D_M4; channelId=991012352; 
320 SCs are read!  LATOME is EMBA_EMECA_1

******************** Start to read SCs info per fiber: ********************
IN F1 2C_M1 2C_M2 2C_M3 2C_M4 2D_M4 2D_M3 2D_M1 2D_M2
IN F2 2C_B1 2D_B1 2B_B1 2A_B1 2B_P1 2A_P1 2C_P1 2D_P1
IN F4 GND 15B_P1 13B_P1 14B_P1 9B_P1 10B_P1 12B_P1 11B_P1
IN F5 13B_M1 13B_M2 13B_M4 13B_M3 14B_M3 14B_M4 14B_M1 14B_M2
IN F6 10B_M1 10B_M2 10B_M3 10B_M4 9B_M4 9B_M3 9B_M2 9B_M1
IN F7 11B_M3 11B_M4 11B_M1 11B_M2 12B_M1 12B_M2 12B_M4 12B_M3
IN F8 12B_F1 12B_F2 12B_F3 12B_F4 11B_F1 11B_F2 11B_F3 11B_F4
IN F9 9B_F2 9B_F1 9B_F4 9B_F3 10B_F2 10B_F1 10B_F4 10B_F3
IN F10 13A_B1 14A_B1 GND GND 9A_B1 10A_B1 11A_B1 12A_B1
IN F11 13B_F4 13B_F3 13B_F1 13B_F2 14B_F1 14B_F2 14B_F4 14B_F3
IN F12 15A_B4 15A_B3 15A_B1 15A_B2 GND GND GND GND
IN F13 2C_F4 2C_F3 2C_F2 2C_F1 2D_F1 2D_F2 2D_F3 2D_F4
IN F14 1D_M2 1D_M1 1D_M4 1D_M3 1C_M4 1C_M3 1C_M1 1C_M2
IN F15 12D_B1 11D_B1 10D_B1 9D_B1 GND GND 13D_B1 14D_B1
IN F16 14C_F2 14C_F1 14C_F4 14C_F3 13C_F4 13C_F3 13C_F1 13C_F2
IN F17 15D_B1 15D_B2 15D_B3 15D_B4 GND GND GND GND
IN F18 14C_P1 13C_P1 GND 15C_P1 11C_P1 12C_P1 9C_P1 10C_P1
IN F19 11C_F2 11C_F1 11C_F3 11C_F4 12C_F1 12C_F2 12C_F4 12C_F3
IN F20 9C_M1 9C_M2 9C_M3 9C_M4 10C_M1 10C_M2 10C_M4 10C_M3
IN F21 9C_F2 9C_F1 9C_F4 9C_F3 10C_F1 10C_F2 10C_F4 10C_F3
IN F22 14C_M4 14C_M3 14C_M1 14C_M2 13C_M4 13C_M3 13C_M1 13C_M2
IN F23 11C_M1 11C_M2 11C_M3 11C_M4 12C_M4 12C_M3 12C_M1 12C_M2
IN F25 GND GND GND GND 1D_F1 1C_F1 1A_F1 1B_F1
IN F26 1B_M2 1B_M1 1B_M3 1B_M4 1A_M4 1A_M3 1A_M2 1A_M1
IN F28 GND 15D_P1 13D_P1 14D_P1 9D_P1 10D_P1 12D_P1 11D_P1
IN F29 13D_M1 13D_M2 13D_M4 13D_M3 14D_M3 14D_M4 14D_M1 14D_M2
IN F30 10D_M1 10D_M2 10D_M3 10D_M4 9D_M4 9D_M3 9D_M2 9D_M1
IN F31 11D_M3 11D_M4 11D_M1 11D_M2 12D_M1 12D_M2 12D_M4 12D_M3
IN F32 12D_F1 12D_F2 12D_F3 12D_F4 11D_F1 11D_F2 11D_F3 11D_F4
IN F33 9D_F2 9D_F1 9D_F4 9D_F3 10D_F2 10D_F1 10D_F4 10D_F3
IN F34 13C_B1 14C_B1 GND GND 9C_B1 10C_B1 11C_B1 12C_B1
IN F35 13D_F4 13D_F3 13D_F1 13D_F2 14D_F1 14D_F2 14D_F4 14D_F3
IN F36 15C_B4 15C_B3 15C_B1 15C_B2 GND GND GND GND
IN F37 2A_M2 2A_M1 2A_M3 2A_M4 2B_M1 2B_M2 2B_M4 2B_M3
IN F38 2B_F1 2B_F2 2B_F4 2B_F3 2A_F4 2A_F3 2A_F1 2A_F2
IN F39 12B_B1 11B_B1 10B_B1 9B_B1 GND GND 13B_B1 14B_B1
IN F40 14A_F2 14A_F1 14A_F4 14A_F3 13A_F4 13A_F3 13A_F1 13A_F2
IN F41 15B_B1 15B_B2 15B_B3 15B_B4 GND GND GND GND
IN F42 14A_P1 13A_P1 GND 15A_P1 11A_P1 12A_P1 9A_P1 10A_P1
IN F43 11A_F2 11A_F1 11A_F3 11A_F4 12A_F1 12A_F2 12A_F4 12A_F3
IN F44 9A_M1 9A_M2 9A_M3 9A_M4 10A_M1 10A_M2 10A_M4 10A_M3
IN F45 9A_F2 9A_F1 9A_F4 9A_F3 10A_F1 10A_F2 10A_F4 10A_F3
IN F46 14A_M4 14A_M3 14A_M1 14A_M2 13A_M4 13A_M3 13A_M1 13A_M2
IN F47 11A_M1 11A_M2 11A_M3 11A_M4 12A_M4 12A_M3 12A_M1 12A_M2
44 fibers are connected!
max_event=999

******************** Start to search BCID of peak sampling: ********************
IN F0; 2C_M1=0; 2C_M2=0; 2C_M3=0; 2C_M4=0; 2D_M4=0; 2D_M3=0; 2D_M1=0; 2D_M2=0;  BCID_rms=0; height=1077
IN F1; 2C_B1=0; 2D_B1=0; 2B_B1=0; 2A_B1=0; 2B_P1=0; 2A_P1=0; 2C_P1=0; 2D_P1=0;  BCID_rms=0; height=596
IN F3; GND; 15B_P1=0; 13B_P1=0; 14B_P1=0; 9B_P1=0; 10B_P1=0; 12B_P1=0; 11B_P1=0;  BCID_rms=0; height=68
IN F4; 13B_M1=0; 13B_M2=0; 13B_M4=0; 13B_M3=0; 14B_M3=0; 14B_M4=0; 14B_M1=0; 14B_M2=0;  BCID_rms=0; height=866
IN F5; 10B_M1=0; 10B_M2=0; 10B_M3=0; 10B_M4=0; 9B_M4=0; 9B_M3=0; 9B_M2=0; 9B_M1=0;  BCID_rms=0; height=772
IN F6; 11B_M3=-1; 11B_M4=-1; 11B_M1=-1; 11B_M2=-1; 12B_M1=-1; 12B_M2=-1; 12B_M4=-1; 12B_M3=-1;  BCID_rms=0; height=770
IN F7; 12B_F1=0; 12B_F2=0; 12B_F3=0; 12B_F4=0; 11B_F1=0; 11B_F2=0; 11B_F3=0; 11B_F4=0;  BCID_rms=0; height=755
IN F8; 9B_F2=0; 9B_F1=0; 9B_F4=0; 9B_F3=0; 10B_F2=0; 10B_F1=0; 10B_F4=0; 10B_F3=0;  BCID_rms=0; height=779
IN F9; 13A_B1=0; 14A_B1=0; GND; GND; 9A_B1=0; 10A_B1=0; 11A_B1=0; 12A_B1=0;  BCID_rms=0; height=504
IN F10; 13B_F4=0; 13B_F3=0; 13B_F1=0; 13B_F2=0; 14B_F1=0; 14B_F2=0; 14B_F4=0; 14B_F3=0;  BCID_rms=0; height=780
IN F11; 15A_B4=0; 15A_B3=0; 15A_B1=0; 15A_B2=0; GND; GND; GND; GND;  BCID_rms=0; height=124
IN F12; 2C_F4=0; 2C_F3=0; 2C_F2=0; 2C_F1=0; 2D_F1=0; 2D_F2=0; 2D_F3=0; 2D_F4=0;  BCID_rms=0; height=775
IN F13; 1D_M2=-1; 1D_M1=-1; 1D_M4=-1; 1D_M3=0; 1C_M4=-1; 1C_M3=0; 1C_M1=-1; 1C_M2=-1;  BCID_rms=0.433013; height=269
IN F14; 12D_B1=0; 11D_B1=0; 10D_B1=0; 9D_B1=0; GND; GND; 13D_B1=0; 14D_B1=0;  BCID_rms=0; height=494
IN F15; 14C_F2=0; 14C_F1=0; 14C_F4=0; 14C_F3=0; 13C_F4=0; 13C_F3=0; 13C_F1=0; 13C_F2=0;  BCID_rms=0; height=813
IN F16; 15D_B1=0; 15D_B2=0; 15D_B3=0; 15D_B4=0; GND; GND; GND; GND;  BCID_rms=0; height=115
IN F17; 14C_P1=0; 13C_P1=0; GND; 15C_P1=0; 11C_P1=0; 12C_P1=0; 9C_P1=0; 10C_P1=0;  BCID_rms=0; height=69
IN F18; 11C_F2=0; 11C_F1=0; 11C_F3=0; 11C_F4=0; 12C_F1=0; 12C_F2=0; 12C_F4=0; 12C_F3=0;  BCID_rms=0; height=785
IN F19; 9C_M1=0; 9C_M2=0; 9C_M3=0; 9C_M4=0; 10C_M1=0; 10C_M2=0; 10C_M4=0; 10C_M3=0;  BCID_rms=0; height=805
IN F20; 9C_F2=0; 9C_F1=0; 9C_F4=0; 9C_F3=0; 10C_F1=0; 10C_F2=0; 10C_F4=0; 10C_F3=0;  BCID_rms=0; height=776
IN F21; 14C_M4=0; 14C_M3=0; 14C_M1=0; 14C_M2=0; 13C_M4=0; 13C_M3=0; 13C_M1=0; 13C_M2=0;  BCID_rms=0; height=862
IN F22; 11C_M1=0; 11C_M2=0; 11C_M3=0; 11C_M4=0; 12C_M4=0; 12C_M3=0; 12C_M1=0; 12C_M2=0;  BCID_rms=0; height=770
IN F24; GND; GND; GND; GND; 1D_F1=0; 1C_F1=0; 1A_F1=0; 1B_F1=0;  BCID_rms=0; height=514
IN F25; 1B_M2=-1; 1B_M1=-1; 1B_M3=0; 1B_M4=-1; 1A_M4=-1; 1A_M3=0; 1A_M2=-1; 1A_M1=-1;  BCID_rms=0.433013; height=268
IN F27; GND; 15D_P1=0; 13D_P1=0; 14D_P1=0; 9D_P1=0; 10D_P1=0; 12D_P1=0; 11D_P1=0;  BCID_rms=0; height=71
IN F28; 13D_M1=0; 13D_M2=0; 13D_M4=0; 13D_M3=0; 14D_M3=0; 14D_M4=0; 14D_M1=0; 14D_M2=0;  BCID_rms=0; height=875
IN F29; 10D_M1=0; 10D_M2=0; 10D_M3=0; 10D_M4=0; 9D_M4=0; 9D_M3=0; 9D_M2=0; 9D_M1=0;  BCID_rms=0; height=798
IN F30; 11D_M3=-1; 11D_M4=-1; 11D_M1=-1; 11D_M2=-1; 12D_M1=-1; 12D_M2=-1; 12D_M4=-1; 12D_M3=-1;  BCID_rms=0; height=800
IN F31; 12D_F1=0; 12D_F2=0; 12D_F3=0; 12D_F4=0; 11D_F1=0; 11D_F2=0; 11D_F3=0; 11D_F4=0;  BCID_rms=0; height=774
IN F32; 9D_F2=0; 9D_F1=0; 9D_F4=0; 9D_F3=0; 10D_F2=0; 10D_F1=0; 10D_F4=0; 10D_F3=0;  BCID_rms=0; height=779
IN F33; 13C_B1=0; 14C_B1=0; GND; GND; 9C_B1=0; 10C_B1=0; 11C_B1=0; 12C_B1=0;  BCID_rms=0; height=492
IN F34; 13D_F4=0; 13D_F3=0; 13D_F1=0; 13D_F2=0; 14D_F1=0; 14D_F2=0; 14D_F4=0; 14D_F3=0;  BCID_rms=0; height=801
IN F35; 15C_B4=0; 15C_B3=-1; 15C_B1=0; 15C_B2=-1; GND; GND; GND; GND;  BCID_rms=0.5; height=119
IN F36; 2A_M2=0; 2A_M1=0; 2A_M3=0; 2A_M4=0; 2B_M1=0; 2B_M2=0; 2B_M4=0; 2B_M3=0;  BCID_rms=0; height=1095
IN F37; 2B_F1=0; 2B_F2=0; 2B_F4=0; 2B_F3=0; 2A_F4=0; 2A_F3=0; 2A_F1=0; 2A_F2=0;  BCID_rms=0; height=808
IN F38; 12B_B1=0; 11B_B1=0; 10B_B1=0; 9B_B1=0; GND; GND; 13B_B1=0; 14B_B1=0;  BCID_rms=0; height=505
IN F39; 14A_F2=0; 14A_F1=0; 14A_F4=0; 14A_F3=0; 13A_F4=0; 13A_F3=0; 13A_F1=0; 13A_F2=0;  BCID_rms=0; height=793
IN F40; 15B_B1=0; 15B_B2=0; 15B_B3=0; 15B_B4=0; GND; GND; GND; GND;  BCID_rms=0; height=122
IN F41; 14A_P1=0; 13A_P1=0; GND; 15A_P1=0; 11A_P1=0; 12A_P1=0; 9A_P1=0; 10A_P1=0;  BCID_rms=0; height=68
IN F42; 11A_F2=0; 11A_F1=0; 11A_F3=0; 11A_F4=0; 12A_F1=0; 12A_F2=0; 12A_F4=0; 12A_F3=0;  BCID_rms=0; height=784
IN F43; 9A_M1=0; 9A_M2=0; 9A_M3=0; 9A_M4=0; 10A_M1=0; 10A_M2=0; 10A_M4=0; 10A_M3=0;  BCID_rms=0; height=772
IN F44; 9A_F2=0; 9A_F1=0; 9A_F4=0; 9A_F3=0; 10A_F1=0; 10A_F2=0; 10A_F4=0; 10A_F3=0;  BCID_rms=0; height=763
IN F45; 14A_M4=0; 14A_M3=0; 14A_M1=0; 14A_M2=0; 13A_M4=0; 13A_M3=0; 13A_M1=0; 13A_M2=0;  BCID_rms=0; height=868
IN F46; 11A_M1=0; 11A_M2=0; 11A_M3=0; 11A_M4=0; 12A_M4=0; 12A_M3=0; 12A_M1=0; 12A_M2=0;  BCID_rms=0; height=774
