
Processing macro.C+("inputfile/LArDigits_v8_new.root","EMBA-EMECA_5","outputs/hist/LArDigits_v8_new_hist.root","results/LArDigits_v8_new/latome140.ini","LATOME_ini_file/latome140.ini",false)...

******************** Start to read ini BCID: ********************
input file: LATOME_ini_file/latome140.ini
F0  BCID=3463; 
F1  BCID=3463; 
F2  BCID=0; 
F3  BCID=3460; 
F4  BCID=3460; 
F5  BCID=3460; 
F6  BCID=3461; 
F7  BCID=3460; 
F8  BCID=3460; 
F9  BCID=3460; 
F10  BCID=3460; 
F11  BCID=3460; 
F12  BCID=3463; 
F13  BCID=3463; 
F14  BCID=3460; 
F15  BCID=3460; 
F16  BCID=3460; 
F17  BCID=3460; 
F18  BCID=3460; 
F19  BCID=3460; 
F20  BCID=3460; 
F21  BCID=3460; 
F22  BCID=3460; 
F23  BCID=0; 
F24  BCID=3463; 
F25  BCID=3463; 
F26  BCID=0; 
F27  BCID=3460; 
F28  BCID=3460; 
F29  BCID=3460; 
F30  BCID=3460; 
F31  BCID=3460; 
F32  BCID=3460; 
F33  BCID=3460; 
F34  BCID=3460; 
F35  BCID=3460; 
F36  BCID=3463; 
F37  BCID=3463; 
F38  BCID=3460; 
F39  BCID=3460; 
F40  BCID=3460; 
F41  BCID=3460; 
F42  BCID=3460; 
F43  BCID=3460; 
F44  BCID=3460; 
F45  BCID=3460; 
F46  BCID=3460; 
F47  BCID=0; 
48 fibers are read!

******************** Start to read LArId info: ********************
SCname=9A_P1; channelId=960503808; 
SCname=9B_P1; channelId=960504320; 
SCname=10A_P1; channelId=960504832; 
SCname=10B_P1; channelId=960505344; 
SCname=11A_P1; channelId=960505856; 
SCname=11B_P1; channelId=960506368; 
SCname=12A_P1; channelId=960506880; 
SCname=12B_P1; channelId=960507392; 
SCname=13A_P1; channelId=960507904; 
SCname=13B_P1; channelId=960508416; 
SCname=14A_P1; channelId=960508928; 
SCname=14B_P1; channelId=960509440; 
SCname=15A_P1; channelId=960509952; 
SCname=15B_P1; channelId=960510464; 
SCname=9A_F1; channelId=960543744; 
SCname=9A_F2; channelId=960544768; 
SCname=9A_F3; channelId=960545792; 
SCname=9A_F4; channelId=960546816; 
SCname=10A_F1; channelId=960547840; 
SCname=10A_F2; channelId=960548864; 
SCname=10A_F3; channelId=960549888; 
SCname=10A_F4; channelId=960550912; 
SCname=9B_F1; channelId=960544256; 
SCname=9B_F2; channelId=960545280; 
SCname=9B_F3; channelId=960546304; 
SCname=9B_F4; channelId=960547328; 
SCname=10B_F1; channelId=960548352; 
SCname=10B_F2; channelId=960549376; 
SCname=10B_F3; channelId=960550400; 
SCname=10B_F4; channelId=960551424; 
SCname=11A_F1; channelId=960551936; 
SCname=11A_F2; channelId=960552960; 
SCname=11A_F3; channelId=960553984; 
SCname=11A_F4; channelId=960555008; 
SCname=12A_F1; channelId=960556032; 
SCname=12A_F2; channelId=960557056; 
SCname=12A_F3; channelId=960558080; 
SCname=12A_F4; channelId=960559104; 
SCname=11B_F1; channelId=960552448; 
SCname=11B_F2; channelId=960553472; 
SCname=11B_F3; channelId=960554496; 
SCname=11B_F4; channelId=960555520; 
SCname=12B_F1; channelId=960556544; 
SCname=12B_F2; channelId=960557568; 
SCname=12B_F3; channelId=960558592; 
SCname=12B_F4; channelId=960559616; 
SCname=13A_F1; channelId=960560128; 
SCname=13A_F2; channelId=960561152; 
SCname=13A_F3; channelId=960562176; 
SCname=13A_F4; channelId=960563200; 
SCname=14A_F1; channelId=960564224; 
SCname=14A_F2; channelId=960565248; 
SCname=14A_F3; channelId=960566272; 
SCname=14A_F4; channelId=960567296; 
SCname=13B_F1; channelId=960560640; 
SCname=13B_F2; channelId=960561664; 
SCname=13B_F3; channelId=960562688; 
SCname=13B_F4; channelId=960563712; 
SCname=14B_F1; channelId=960564736; 
SCname=14B_F2; channelId=960565760; 
SCname=14B_F3; channelId=960566784; 
SCname=14B_F4; channelId=960567808; 
SCname=9A_B1; channelId=960637952; 
SCname=10A_B1; channelId=960638976; 
SCname=11A_B1; channelId=960640000; 
SCname=12A_B1; channelId=960641024; 
SCname=13A_B1; channelId=960642048; 
SCname=14A_B1; channelId=960643072; 
SCname=15A_B1; channelId=960568320; 
SCname=15A_B2; channelId=960569344; 
SCname=15A_B3; channelId=960570368; 
SCname=15A_B4; channelId=960628736; 
SCname=9B_B1; channelId=960638464; 
SCname=10B_B1; channelId=960639488; 
SCname=11B_B1; channelId=960640512; 
SCname=12B_B1; channelId=960641536; 
SCname=13B_B1; channelId=960642560; 
SCname=14B_B1; channelId=960643584; 
SCname=15B_B1; channelId=960568832; 
SCname=15B_B2; channelId=960569856; 
SCname=15B_B3; channelId=960570880; 
SCname=15B_B4; channelId=960629248; 
SCname=9A_M1; channelId=960604160; 
SCname=9A_M2; channelId=960605184; 
SCname=9A_M3; channelId=960606208; 
SCname=9A_M4; channelId=960607232; 
SCname=10A_M1; channelId=960608256; 
SCname=10A_M2; channelId=960609280; 
SCname=10A_M3; channelId=960610304; 
SCname=10A_M4; channelId=960611328; 
SCname=11A_M1; channelId=960612352; 
SCname=11A_M2; channelId=960613376; 
SCname=11A_M3; channelId=960614400; 
SCname=11A_M4; channelId=960615424; 
SCname=12A_M1; channelId=960616448; 
SCname=12A_M2; channelId=960617472; 
SCname=12A_M3; channelId=960618496; 
SCname=12A_M4; channelId=960619520; 
SCname=9B_M1; channelId=960604672; 
SCname=9B_M2; channelId=960605696; 
SCname=9B_M3; channelId=960606720; 
SCname=9B_M4; channelId=960607744; 
SCname=10B_M1; channelId=960608768; 
SCname=10B_M2; channelId=960609792; 
SCname=10B_M3; channelId=960610816; 
SCname=10B_M4; channelId=960611840; 
SCname=11B_M1; channelId=960612864; 
SCname=11B_M2; channelId=960613888; 
SCname=11B_M3; channelId=960614912; 
SCname=11B_M4; channelId=960615936; 
SCname=12B_M1; channelId=960616960; 
SCname=12B_M2; channelId=960617984; 
SCname=12B_M3; channelId=960619008; 
SCname=12B_M4; channelId=960620032; 
SCname=13A_M1; channelId=960620544; 
SCname=13A_M2; channelId=960621568; 
SCname=13A_M3; channelId=960622592; 
SCname=13A_M4; channelId=960623616; 
SCname=13B_M1; channelId=960621056; 
SCname=13B_M2; channelId=960622080; 
SCname=13B_M3; channelId=960623104; 
SCname=13B_M4; channelId=960624128; 
SCname=14A_M1; channelId=960624640; 
SCname=14A_M2; channelId=960625664; 
SCname=14A_M3; channelId=960626688; 
SCname=14A_M4; channelId=960627712; 
SCname=14B_M1; channelId=960625152; 
SCname=14B_M2; channelId=960626176; 
SCname=14B_M3; channelId=960627200; 
SCname=14B_M4; channelId=960628224; 
SCname=9C_P1; channelId=961028096; 
SCname=9D_P1; channelId=961028608; 
SCname=10C_P1; channelId=961029120; 
SCname=10D_P1; channelId=961029632; 
SCname=11C_P1; channelId=961030144; 
SCname=11D_P1; channelId=961030656; 
SCname=12C_P1; channelId=961031168; 
SCname=12D_P1; channelId=961031680; 
SCname=13C_P1; channelId=961032192; 
SCname=13D_P1; channelId=961032704; 
SCname=14C_P1; channelId=961033216; 
SCname=14D_P1; channelId=961033728; 
SCname=15C_P1; channelId=961034240; 
SCname=15D_P1; channelId=961034752; 
SCname=9C_F1; channelId=961068032; 
SCname=9C_F2; channelId=961069056; 
SCname=9C_F3; channelId=961070080; 
SCname=9C_F4; channelId=961071104; 
SCname=10C_F1; channelId=961072128; 
SCname=10C_F2; channelId=961073152; 
SCname=10C_F3; channelId=961074176; 
SCname=10C_F4; channelId=961075200; 
SCname=9D_F1; channelId=961068544; 
SCname=9D_F2; channelId=961069568; 
SCname=9D_F3; channelId=961070592; 
SCname=9D_F4; channelId=961071616; 
SCname=10D_F1; channelId=961072640; 
SCname=10D_F2; channelId=961073664; 
SCname=10D_F3; channelId=961074688; 
SCname=10D_F4; channelId=961075712; 
SCname=11C_F1; channelId=961076224; 
SCname=11C_F2; channelId=961077248; 
SCname=11C_F3; channelId=961078272; 
SCname=11C_F4; channelId=961079296; 
SCname=12C_F1; channelId=961080320; 
SCname=12C_F2; channelId=961081344; 
SCname=12C_F3; channelId=961082368; 
SCname=12C_F4; channelId=961083392; 
SCname=11D_F1; channelId=961076736; 
SCname=11D_F2; channelId=961077760; 
SCname=11D_F3; channelId=961078784; 
SCname=11D_F4; channelId=961079808; 
SCname=12D_F1; channelId=961080832; 
SCname=12D_F2; channelId=961081856; 
SCname=12D_F3; channelId=961082880; 
SCname=12D_F4; channelId=961083904; 
SCname=13C_F1; channelId=961084416; 
SCname=13C_F2; channelId=961085440; 
SCname=13C_F3; channelId=961086464; 
SCname=13C_F4; channelId=961087488; 
SCname=14C_F1; channelId=961088512; 
SCname=14C_F2; channelId=961089536; 
SCname=14C_F3; channelId=961090560; 
SCname=14C_F4; channelId=961091584; 
SCname=13D_F1; channelId=961084928; 
SCname=13D_F2; channelId=961085952; 
SCname=13D_F3; channelId=961086976; 
SCname=13D_F4; channelId=961088000; 
SCname=14D_F1; channelId=961089024; 
SCname=14D_F2; channelId=961090048; 
SCname=14D_F3; channelId=961091072; 
SCname=14D_F4; channelId=961092096; 
SCname=9C_B1; channelId=961162240; 
SCname=10C_B1; channelId=961163264; 
SCname=11C_B1; channelId=961164288; 
SCname=12C_B1; channelId=961165312; 
SCname=13C_B1; channelId=961166336; 
SCname=14C_B1; channelId=961167360; 
SCname=15C_B1; channelId=961092608; 
SCname=15C_B2; channelId=961093632; 
SCname=15C_B3; channelId=961094656; 
SCname=15C_B4; channelId=961153024; 
SCname=9D_B1; channelId=961162752; 
SCname=10D_B1; channelId=961163776; 
SCname=11D_B1; channelId=961164800; 
SCname=12D_B1; channelId=961165824; 
SCname=13D_B1; channelId=961166848; 
SCname=14D_B1; channelId=961167872; 
SCname=15D_B1; channelId=961093120; 
SCname=15D_B2; channelId=961094144; 
SCname=15D_B3; channelId=961095168; 
SCname=15D_B4; channelId=961153536; 
SCname=9C_M1; channelId=961128448; 
SCname=9C_M2; channelId=961129472; 
SCname=9C_M3; channelId=961130496; 
SCname=9C_M4; channelId=961131520; 
SCname=10C_M1; channelId=961132544; 
SCname=10C_M2; channelId=961133568; 
SCname=10C_M3; channelId=961134592; 
SCname=10C_M4; channelId=961135616; 
SCname=11C_M1; channelId=961136640; 
SCname=11C_M2; channelId=961137664; 
SCname=11C_M3; channelId=961138688; 
SCname=11C_M4; channelId=961139712; 
SCname=12C_M1; channelId=961140736; 
SCname=12C_M2; channelId=961141760; 
SCname=12C_M3; channelId=961142784; 
SCname=12C_M4; channelId=961143808; 
SCname=9D_M1; channelId=961128960; 
SCname=9D_M2; channelId=961129984; 
SCname=9D_M3; channelId=961131008; 
SCname=9D_M4; channelId=961132032; 
SCname=10D_M1; channelId=961133056; 
SCname=10D_M2; channelId=961134080; 
SCname=10D_M3; channelId=961135104; 
SCname=10D_M4; channelId=961136128; 
SCname=11D_M1; channelId=961137152; 
SCname=11D_M2; channelId=961138176; 
SCname=11D_M3; channelId=961139200; 
SCname=11D_M4; channelId=961140224; 
SCname=12D_M1; channelId=961141248; 
SCname=12D_M2; channelId=961142272; 
SCname=12D_M3; channelId=961143296; 
SCname=12D_M4; channelId=961144320; 
SCname=13C_M1; channelId=961144832; 
SCname=13C_M2; channelId=961145856; 
SCname=13C_M3; channelId=961146880; 
SCname=13C_M4; channelId=961147904; 
SCname=13D_M1; channelId=961145344; 
SCname=13D_M2; channelId=961146368; 
SCname=13D_M3; channelId=961147392; 
SCname=13D_M4; channelId=961148416; 
SCname=14C_M1; channelId=961148928; 
SCname=14C_M2; channelId=961149952; 
SCname=14C_M3; channelId=961150976; 
SCname=14C_M4; channelId=961152000; 
SCname=14D_M1; channelId=961149440; 
SCname=14D_M2; channelId=961150464; 
SCname=14D_M3; channelId=961151488; 
SCname=14D_M4; channelId=961152512; 
SCname=2A_P1; channelId=994574336; 
SCname=2B_P1; channelId=994574848; 
SCname=2C_P1; channelId=994575360; 
SCname=2D_P1; channelId=994575872; 
SCname=1A_F1; channelId=994582528; 
SCname=1B_F1; channelId=994583040; 
SCname=1C_F1; channelId=994583552; 
SCname=1D_F1; channelId=994584064; 
SCname=1A_M1; channelId=994623488; 
SCname=1A_M2; channelId=994631680; 
SCname=1A_M3; channelId=994639872; 
SCname=1A_M4; channelId=994648064; 
SCname=1B_M1; channelId=994624000; 
SCname=1B_M2; channelId=994632192; 
SCname=1B_M3; channelId=994640384; 
SCname=1B_M4; channelId=994648576; 
SCname=1C_M1; channelId=994624512; 
SCname=1C_M2; channelId=994632704; 
SCname=1C_M3; channelId=994640896; 
SCname=1C_M4; channelId=994649088; 
SCname=1D_M1; channelId=994625024; 
SCname=1D_M2; channelId=994633216; 
SCname=1D_M3; channelId=994641408; 
SCname=1D_M4; channelId=994649600; 
SCname=2A_F1; channelId=994590720; 
SCname=2A_F2; channelId=994598912; 
SCname=2A_F3; channelId=994607104; 
SCname=2A_F4; channelId=994615296; 
SCname=2B_F1; channelId=994591232; 
SCname=2B_F2; channelId=994599424; 
SCname=2B_F3; channelId=994607616; 
SCname=2B_F4; channelId=994615808; 
SCname=2C_F1; channelId=994591744; 
SCname=2C_F2; channelId=994599936; 
SCname=2C_F3; channelId=994608128; 
SCname=2C_F4; channelId=994616320; 
SCname=2D_F1; channelId=994592256; 
SCname=2D_F2; channelId=994600448; 
SCname=2D_F3; channelId=994608640; 
SCname=2D_F4; channelId=994616832; 
SCname=2A_B1; channelId=994689024; 
SCname=2B_B1; channelId=994689536; 
SCname=2C_B1; channelId=994690048; 
SCname=2D_B1; channelId=994690560; 
SCname=2A_M1; channelId=994656256; 
SCname=2A_M2; channelId=994664448; 
SCname=2A_M3; channelId=994672640; 
SCname=2A_M4; channelId=994680832; 
SCname=2B_M1; channelId=994656768; 
SCname=2B_M2; channelId=994664960; 
SCname=2B_M3; channelId=994673152; 
SCname=2B_M4; channelId=994681344; 
SCname=2C_M1; channelId=994657280; 
SCname=2C_M2; channelId=994665472; 
SCname=2C_M3; channelId=994673664; 
SCname=2C_M4; channelId=994681856; 
SCname=2D_M1; channelId=994657792; 
SCname=2D_M2; channelId=994665984; 
SCname=2D_M3; channelId=994674176; 
SCname=2D_M4; channelId=994682368; 
320 SCs are read!  LATOME is EMBA_EMECA_5

******************** Start to read SCs info per fiber: ********************
IN F1 2C_M1 2C_M2 2C_M3 2C_M4 2D_M4 2D_M3 2D_M1 2D_M2
IN F2 2C_B1 2D_B1 2B_B1 2A_B1 2B_P1 2A_P1 2C_P1 2D_P1
IN F4 GND 15B_P1 13B_P1 14B_P1 9B_P1 10B_P1 12B_P1 11B_P1
IN F5 13B_M1 13B_M2 13B_M4 13B_M3 14B_M3 14B_M4 14B_M1 14B_M2
IN F6 10B_M1 10B_M2 10B_M3 10B_M4 9B_M4 9B_M3 9B_M2 9B_M1
IN F7 11B_M3 11B_M4 11B_M1 11B_M2 12B_M1 12B_M2 12B_M4 12B_M3
IN F8 12B_F1 12B_F2 12B_F3 12B_F4 11B_F1 11B_F2 11B_F3 11B_F4
IN F9 9B_F2 9B_F1 9B_F4 9B_F3 10B_F2 10B_F1 10B_F4 10B_F3
IN F10 13A_B1 14A_B1 GND GND 9A_B1 10A_B1 11A_B1 12A_B1
IN F11 13B_F4 13B_F3 13B_F1 13B_F2 14B_F1 14B_F2 14B_F4 14B_F3
IN F12 15A_B4 15A_B3 15A_B1 15A_B2 GND GND GND GND
IN F13 2C_F4 2C_F3 2C_F2 2C_F1 2D_F1 2D_F2 2D_F3 2D_F4
IN F14 1D_M2 1D_M1 1D_M4 1D_M3 1C_M4 1C_M3 1C_M1 1C_M2
IN F15 12D_B1 11D_B1 10D_B1 9D_B1 GND GND 13D_B1 14D_B1
IN F16 14C_F2 14C_F1 14C_F4 14C_F3 13C_F4 13C_F3 13C_F1 13C_F2
IN F17 15D_B1 15D_B2 15D_B3 15D_B4 GND GND GND GND
IN F18 14C_P1 13C_P1 GND 15C_P1 11C_P1 12C_P1 9C_P1 10C_P1
IN F19 11C_F2 11C_F1 11C_F3 11C_F4 12C_F1 12C_F2 12C_F4 12C_F3
IN F20 9C_M1 9C_M2 9C_M3 9C_M4 10C_M1 10C_M2 10C_M4 10C_M3
IN F21 9C_F2 9C_F1 9C_F4 9C_F3 10C_F1 10C_F2 10C_F4 10C_F3
IN F22 14C_M4 14C_M3 14C_M1 14C_M2 13C_M4 13C_M3 13C_M1 13C_M2
IN F23 11C_M1 11C_M2 11C_M3 11C_M4 12C_M4 12C_M3 12C_M1 12C_M2
IN F25 GND GND GND GND 1D_F1 1C_F1 1A_F1 1B_F1
IN F26 1B_M2 1B_M1 1B_M3 1B_M4 1A_M4 1A_M3 1A_M2 1A_M1
IN F28 GND 15D_P1 13D_P1 14D_P1 9D_P1 10D_P1 12D_P1 11D_P1
IN F29 13D_M1 13D_M2 13D_M4 13D_M3 14D_M3 14D_M4 14D_M1 14D_M2
IN F30 10D_M1 10D_M2 10D_M3 10D_M4 9D_M4 9D_M3 9D_M2 9D_M1
IN F31 11D_M3 11D_M4 11D_M1 11D_M2 12D_M1 12D_M2 12D_M4 12D_M3
IN F32 12D_F1 12D_F2 12D_F3 12D_F4 11D_F1 11D_F2 11D_F3 11D_F4
IN F33 9D_F2 9D_F1 9D_F4 9D_F3 10D_F2 10D_F1 10D_F4 10D_F3
IN F34 13C_B1 14C_B1 GND GND 9C_B1 10C_B1 11C_B1 12C_B1
IN F35 13D_F4 13D_F3 13D_F1 13D_F2 14D_F1 14D_F2 14D_F4 14D_F3
IN F36 15C_B4 15C_B3 15C_B1 15C_B2 GND GND GND GND
IN F37 2A_M2 2A_M1 2A_M3 2A_M4 2B_M1 2B_M2 2B_M4 2B_M3
IN F38 2B_F1 2B_F2 2B_F4 2B_F3 2A_F4 2A_F3 2A_F1 2A_F2
IN F39 12B_B1 11B_B1 10B_B1 9B_B1 GND GND 13B_B1 14B_B1
IN F40 14A_F2 14A_F1 14A_F4 14A_F3 13A_F4 13A_F3 13A_F1 13A_F2
IN F41 15B_B1 15B_B2 15B_B3 15B_B4 GND GND GND GND
IN F42 14A_P1 13A_P1 GND 15A_P1 11A_P1 12A_P1 9A_P1 10A_P1
IN F43 11A_F2 11A_F1 11A_F3 11A_F4 12A_F1 12A_F2 12A_F4 12A_F3
IN F44 9A_M1 9A_M2 9A_M3 9A_M4 10A_M1 10A_M2 10A_M4 10A_M3
IN F45 9A_F2 9A_F1 9A_F4 9A_F3 10A_F1 10A_F2 10A_F4 10A_F3
IN F46 14A_M4 14A_M3 14A_M1 14A_M2 13A_M4 13A_M3 13A_M1 13A_M2
IN F47 11A_M1 11A_M2 11A_M3 11A_M4 12A_M4 12A_M3 12A_M1 12A_M2
44 fibers are connected!

******************** Start to search BCID of peak sampling: ********************
IN F0; 2C_M1=0; 2C_M2=0; 2C_M3=0; 2C_M4=0; 2D_M4=0; 2D_M3=0; 2D_M1=0; 2D_M2=0;  BCID_rms=0
IN F1; 2C_B1=0; 2D_B1=0; 2B_B1=0; 2A_B1=0; 2B_P1=-1; 2A_P1=-1; 2C_P1=-1; 2D_P1=-1;  BCID_rms=0.5
IN F3; GND; 15B_P1=0; 13B_P1=0; 14B_P1=0; 9B_P1=0; 10B_P1=0; 12B_P1=0; 11B_P1=0;  BCID_rms=0
IN F4; 13B_M1=0; 13B_M2=0; 13B_M4=0; 13B_M3=0; 14B_M3=0; 14B_M4=0; 14B_M1=0; 14B_M2=0;  BCID_rms=0
IN F5; 10B_M1=0; 10B_M2=0; 10B_M3=0; 10B_M4=0; 9B_M4=0; 9B_M3=0; 9B_M2=0; 9B_M1=0;  BCID_rms=0
IN F6; 11B_M3=-1; 11B_M4=-1; 11B_M1=-1; 11B_M2=-1; 12B_M1=0; 12B_M2=0; 12B_M4=0; 12B_M3=0;  BCID_rms=0.5
IN F7; 12B_F1=0; 12B_F2=0; 12B_F3=0; 12B_F4=0; 11B_F1=0; 11B_F2=0; 11B_F3=0; 11B_F4=0;  BCID_rms=0
IN F8; 9B_F2=0; 9B_F1=0; 9B_F4=0; 9B_F3=0; 10B_F2=0; 10B_F1=0; 10B_F4=0; 10B_F3=0;  BCID_rms=0
IN F9; 13A_B1=0; 14A_B1=0; GND; GND; 9A_B1=0; 10A_B1=0; 11A_B1=0; 12A_B1=0;  BCID_rms=0
IN F10; 13B_F4=0; 13B_F3=0; 13B_F1=0; 13B_F2=0; 14B_F1=0; 14B_F2=0; 14B_F4=0; 14B_F3=0;  BCID_rms=0
IN F11; 15A_B4=0; 15A_B3=0; 15A_B1=0; 15A_B2=0; GND; GND; GND; GND;  BCID_rms=0
IN F12; 2C_F4=0; 2C_F3=0; 2C_F2=0; 2C_F1=0; 2D_F1=0; 2D_F2=0; 2D_F3=0; 2D_F4=0;  BCID_rms=0
IN F13; 1D_M2=0; 1D_M1=0; 1D_M4=0; 1D_M3=0; 1C_M4=0; 1C_M3=0; 1C_M1=0; 1C_M2=0;  BCID_rms=0
IN F14; 12D_B1=0; 11D_B1=0; 10D_B1=0; 9D_B1=0; GND; GND; 13D_B1=0; 14D_B1=0;  BCID_rms=0
IN F15; 14C_F2=0; 14C_F1=0; 14C_F4=0; 14C_F3=0; 13C_F4=0; 13C_F3=0; 13C_F1=0; 13C_F2=0;  BCID_rms=0
IN F16; 15D_B1=0; 15D_B2=0; 15D_B3=0; 15D_B4=0; GND; GND; GND; GND;  BCID_rms=0
IN F17; 14C_P1=0; 13C_P1=0; GND; 15C_P1=0; 11C_P1=0; 12C_P1=0; 9C_P1=0; 10C_P1=0;  BCID_rms=0
IN F18; 11C_F2=0; 11C_F1=0; 11C_F3=0; 11C_F4=0; 12C_F1=0; 12C_F2=0; 12C_F4=0; 12C_F3=0;  BCID_rms=0
IN F19; 9C_M1=0; 9C_M2=0; 9C_M3=0; 9C_M4=0; 10C_M1=0; 10C_M2=0; 10C_M4=0; 10C_M3=0;  BCID_rms=0
IN F20; 9C_F2=0; 9C_F1=0; 9C_F4=0; 9C_F3=0; 10C_F1=0; 10C_F2=0; 10C_F4=0; 10C_F3=0;  BCID_rms=0
IN F21; 14C_M4=0; 14C_M3=0; 14C_M1=0; 14C_M2=0; 13C_M4=0; 13C_M3=0; 13C_M1=0; 13C_M2=0;  BCID_rms=0
IN F22; 11C_M1=0; 11C_M2=0; 11C_M3=0; 11C_M4=0; 12C_M4=0; 12C_M3=0; 12C_M1=0; 12C_M2=0;  BCID_rms=0
IN F24; GND; GND; GND; GND; 1D_F1=0; 1C_F1=0; 1A_F1=0; 1B_F1=0;  BCID_rms=0
IN F25; 1B_M2=0; 1B_M1=0; 1B_M3=0; 1B_M4=0; 1A_M4=0; 1A_M3=0; 1A_M2=0; 1A_M1=0;  BCID_rms=0
IN F27; GND; 15D_P1=0; 13D_P1=0; 14D_P1=0; 9D_P1=0; 10D_P1=0; 12D_P1=0; 11D_P1=0;  BCID_rms=0
IN F28; 13D_M1=0; 13D_M2=0; 13D_M4=0; 13D_M3=0; 14D_M3=0; 14D_M4=0; 14D_M1=0; 14D_M2=0;  BCID_rms=0
IN F29; 10D_M1=0; 10D_M2=0; 10D_M3=0; 10D_M4=0; 9D_M4=0; 9D_M3=0; 9D_M2=0; 9D_M1=0;  BCID_rms=0
IN F30; 11D_M3=0; 11D_M4=0; 11D_M1=0; 11D_M2=0; 12D_M1=0; 12D_M2=0; 12D_M4=0; 12D_M3=0;  BCID_rms=0
IN F31; 12D_F1=0; 12D_F2=0; 12D_F3=0; 12D_F4=0; 11D_F1=0; 11D_F2=0; 11D_F3=0; 11D_F4=0;  BCID_rms=0
IN F32; 9D_F2=0; 9D_F1=0; 9D_F4=0; 9D_F3=0; 10D_F2=0; 10D_F1=0; 10D_F4=0; 10D_F3=0;  BCID_rms=0
IN F33; 13C_B1=0; 14C_B1=0; GND; GND; 9C_B1=0; 10C_B1=0; 11C_B1=0; 12C_B1=0;  BCID_rms=0
IN F34; 13D_F4=0; 13D_F3=0; 13D_F1=0; 13D_F2=0; 14D_F1=0; 14D_F2=0; 14D_F4=0; 14D_F3=0;  BCID_rms=0
IN F35; 15C_B4=0; 15C_B3=0; 15C_B1=0; 15C_B2=0; GND; GND; GND; GND;  BCID_rms=0
IN F36; 2A_M2=0; 2A_M1=0; 2A_M3=0; 2A_M4=0; 2B_M1=0; 2B_M2=0; 2B_M4=0; 2B_M3=0;  BCID_rms=0
IN F37; 2B_F1=0; 2B_F2=0; 2B_F4=0; 2B_F3=0; 2A_F4=0; 2A_F3=0; 2A_F1=0; 2A_F2=0;  BCID_rms=0
IN F38; 12B_B1=0; 11B_B1=0; 10B_B1=0; 9B_B1=0; GND; GND; 13B_B1=0; 14B_B1=0;  BCID_rms=0
IN F39; 14A_F2=0; 14A_F1=0; 14A_F4=0; 14A_F3=0; 13A_F4=0; 13A_F3=0; 13A_F1=0; 13A_F2=0;  BCID_rms=0
IN F40; 15B_B1=0; 15B_B2=0; 15B_B3=0; 15B_B4=0; GND; GND; GND; GND;  BCID_rms=0
IN F41; 14A_P1=0; 13A_P1=0; GND; 15A_P1=0; 11A_P1=0; 12A_P1=0; 9A_P1=0; 10A_P1=0;  BCID_rms=0
IN F42; 11A_F2=0; 11A_F1=0; 11A_F3=0; 11A_F4=0; 12A_F1=0; 12A_F2=0; 12A_F4=0; 12A_F3=0;  BCID_rms=0
IN F43; 9A_M1=0; 9A_M2=0; 9A_M3=0; 9A_M4=0; 10A_M1=0; 10A_M2=0; 10A_M4=0; 10A_M3=0;  BCID_rms=0
IN F44; 9A_F2=0; 9A_F1=0; 9A_F4=0; 9A_F3=0; 10A_F1=0; 10A_F2=0; 10A_F4=0; 10A_F3=0;  BCID_rms=0
IN F45; 14A_M4=0; 14A_M3=0; 14A_M1=0; 14A_M2=0; 13A_M4=0; 13A_M3=0; 13A_M1=0; 13A_M2=0;  BCID_rms=0
IN F46; 11A_M1=0; 11A_M2=0; 11A_M3=0; 11A_M4=0; 12A_M4=0; 12A_M3=0; 12A_M1=0; 12A_M2=0;  BCID_rms=0
