
Processing macro.C+("inputfile/LArDigits_v8_new.root","EMBC-EMECC_16","outputs/hist/LArDigits_v8_new_hist.root","results/LArDigits_v8_new/latome167.ini","LATOME_ini_file/latome167.ini",false)...

******************** Start to read ini BCID: ********************
input file: LATOME_ini_file/latome167.ini
F0  BCID=3462; 
F1  BCID=3462; 
F2  BCID=0; 
F3  BCID=3459; 
F4  BCID=3459; 
F5  BCID=3459; 
F6  BCID=3460; 
F7  BCID=3459; 
F8  BCID=3459; 
F9  BCID=3459; 
F10  BCID=3459; 
F11  BCID=3459; 
F12  BCID=3462; 
F13  BCID=3462; 
F14  BCID=3459; 
F15  BCID=3459; 
F16  BCID=3459; 
F17  BCID=3459; 
F18  BCID=3459; 
F19  BCID=3459; 
F20  BCID=3459; 
F21  BCID=3459; 
F22  BCID=3459; 
F23  BCID=0; 
F24  BCID=3463; 
F25  BCID=3463; 
F26  BCID=0; 
F27  BCID=3459; 
F28  BCID=3459; 
F29  BCID=3459; 
F30  BCID=3460; 
F31  BCID=3459; 
F32  BCID=3459; 
F33  BCID=3459; 
F34  BCID=3459; 
F35  BCID=3459; 
F36  BCID=3462; 
F37  BCID=3462; 
F38  BCID=3459; 
F39  BCID=3459; 
F40  BCID=3459; 
F41  BCID=3459; 
F42  BCID=3459; 
F43  BCID=3459; 
F44  BCID=3459; 
F45  BCID=3459; 
F46  BCID=3459; 
F47  BCID=0; 
48 fibers are read!

******************** Start to read LArId info: ********************
SCname=9P_P1; channelId=947921408; 
SCname=9O_P1; channelId=947920896; 
SCname=10P_P1; channelId=947922432; 
SCname=10O_P1; channelId=947921920; 
SCname=11P_P1; channelId=947923456; 
SCname=11O_P1; channelId=947922944; 
SCname=12P_P1; channelId=947924480; 
SCname=12O_P1; channelId=947923968; 
SCname=13P_P1; channelId=947925504; 
SCname=13O_P1; channelId=947924992; 
SCname=14P_P1; channelId=947926528; 
SCname=14O_P1; channelId=947926016; 
SCname=15P_P1; channelId=947927552; 
SCname=15O_P1; channelId=947927040; 
SCname=9P_F1; channelId=947961344; 
SCname=9P_F2; channelId=947962368; 
SCname=9P_F3; channelId=947963392; 
SCname=9P_F4; channelId=947964416; 
SCname=10P_F1; channelId=947965440; 
SCname=10P_F2; channelId=947966464; 
SCname=10P_F3; channelId=947967488; 
SCname=10P_F4; channelId=947968512; 
SCname=9O_F1; channelId=947960832; 
SCname=9O_F2; channelId=947961856; 
SCname=9O_F3; channelId=947962880; 
SCname=9O_F4; channelId=947963904; 
SCname=10O_F1; channelId=947964928; 
SCname=10O_F2; channelId=947965952; 
SCname=10O_F3; channelId=947966976; 
SCname=10O_F4; channelId=947968000; 
SCname=11P_F1; channelId=947969536; 
SCname=11P_F2; channelId=947970560; 
SCname=11P_F3; channelId=947971584; 
SCname=11P_F4; channelId=947972608; 
SCname=12P_F1; channelId=947973632; 
SCname=12P_F2; channelId=947974656; 
SCname=12P_F3; channelId=947975680; 
SCname=12P_F4; channelId=947976704; 
SCname=11O_F1; channelId=947969024; 
SCname=11O_F2; channelId=947970048; 
SCname=11O_F3; channelId=947971072; 
SCname=11O_F4; channelId=947972096; 
SCname=12O_F1; channelId=947973120; 
SCname=12O_F2; channelId=947974144; 
SCname=12O_F3; channelId=947975168; 
SCname=12O_F4; channelId=947976192; 
SCname=13P_F1; channelId=947977728; 
SCname=13P_F2; channelId=947978752; 
SCname=13P_F3; channelId=947979776; 
SCname=13P_F4; channelId=947980800; 
SCname=14P_F1; channelId=947981824; 
SCname=14P_F2; channelId=947982848; 
SCname=14P_F3; channelId=947983872; 
SCname=14P_F4; channelId=947984896; 
SCname=13O_F1; channelId=947977216; 
SCname=13O_F2; channelId=947978240; 
SCname=13O_F3; channelId=947979264; 
SCname=13O_F4; channelId=947980288; 
SCname=14O_F1; channelId=947981312; 
SCname=14O_F2; channelId=947982336; 
SCname=14O_F3; channelId=947983360; 
SCname=14O_F4; channelId=947984384; 
SCname=9P_B1; channelId=948055552; 
SCname=10P_B1; channelId=948056576; 
SCname=11P_B1; channelId=948057600; 
SCname=12P_B1; channelId=948058624; 
SCname=13P_B1; channelId=948059648; 
SCname=14P_B1; channelId=948060672; 
SCname=15P_B1; channelId=947985920; 
SCname=15P_B2; channelId=947986944; 
SCname=15P_B3; channelId=947987968; 
SCname=15P_B4; channelId=948046336; 
SCname=9O_B1; channelId=948055040; 
SCname=10O_B1; channelId=948056064; 
SCname=11O_B1; channelId=948057088; 
SCname=12O_B1; channelId=948058112; 
SCname=13O_B1; channelId=948059136; 
SCname=14O_B1; channelId=948060160; 
SCname=15O_B1; channelId=947985408; 
SCname=15O_B2; channelId=947986432; 
SCname=15O_B3; channelId=947987456; 
SCname=15O_B4; channelId=948045824; 
SCname=9P_M1; channelId=948021760; 
SCname=9P_M2; channelId=948022784; 
SCname=9P_M3; channelId=948023808; 
SCname=9P_M4; channelId=948024832; 
SCname=10P_M1; channelId=948025856; 
SCname=10P_M2; channelId=948026880; 
SCname=10P_M3; channelId=948027904; 
SCname=10P_M4; channelId=948028928; 
SCname=11P_M1; channelId=948029952; 
SCname=11P_M2; channelId=948030976; 
SCname=11P_M3; channelId=948032000; 
SCname=11P_M4; channelId=948033024; 
SCname=12P_M1; channelId=948034048; 
SCname=12P_M2; channelId=948035072; 
SCname=12P_M3; channelId=948036096; 
SCname=12P_M4; channelId=948037120; 
SCname=9O_M1; channelId=948021248; 
SCname=9O_M2; channelId=948022272; 
SCname=9O_M3; channelId=948023296; 
SCname=9O_M4; channelId=948024320; 
SCname=10O_M1; channelId=948025344; 
SCname=10O_M2; channelId=948026368; 
SCname=10O_M3; channelId=948027392; 
SCname=10O_M4; channelId=948028416; 
SCname=11O_M1; channelId=948029440; 
SCname=11O_M2; channelId=948030464; 
SCname=11O_M3; channelId=948031488; 
SCname=11O_M4; channelId=948032512; 
SCname=12O_M1; channelId=948033536; 
SCname=12O_M2; channelId=948034560; 
SCname=12O_M3; channelId=948035584; 
SCname=12O_M4; channelId=948036608; 
SCname=13P_M1; channelId=948038144; 
SCname=13P_M2; channelId=948039168; 
SCname=13P_M3; channelId=948040192; 
SCname=13P_M4; channelId=948041216; 
SCname=13O_M1; channelId=948037632; 
SCname=13O_M2; channelId=948038656; 
SCname=13O_M3; channelId=948039680; 
SCname=13O_M4; channelId=948040704; 
SCname=14P_M1; channelId=948042240; 
SCname=14P_M2; channelId=948043264; 
SCname=14P_M3; channelId=948044288; 
SCname=14P_M4; channelId=948045312; 
SCname=14O_M1; channelId=948041728; 
SCname=14O_M2; channelId=948042752; 
SCname=14O_M3; channelId=948043776; 
SCname=14O_M4; channelId=948044800; 
SCname=9N_P1; channelId=948445696; 
SCname=9M_P1; channelId=948445184; 
SCname=10N_P1; channelId=948446720; 
SCname=10M_P1; channelId=948446208; 
SCname=11N_P1; channelId=948447744; 
SCname=11M_P1; channelId=948447232; 
SCname=12N_P1; channelId=948448768; 
SCname=12M_P1; channelId=948448256; 
SCname=13N_P1; channelId=948449792; 
SCname=13M_P1; channelId=948449280; 
SCname=14N_P1; channelId=948450816; 
SCname=14M_P1; channelId=948450304; 
SCname=15N_P1; channelId=948451840; 
SCname=15M_P1; channelId=948451328; 
SCname=9N_F1; channelId=948485632; 
SCname=9N_F2; channelId=948486656; 
SCname=9N_F3; channelId=948487680; 
SCname=9N_F4; channelId=948488704; 
SCname=10N_F1; channelId=948489728; 
SCname=10N_F2; channelId=948490752; 
SCname=10N_F3; channelId=948491776; 
SCname=10N_F4; channelId=948492800; 
SCname=9M_F1; channelId=948485120; 
SCname=9M_F2; channelId=948486144; 
SCname=9M_F3; channelId=948487168; 
SCname=9M_F4; channelId=948488192; 
SCname=10M_F1; channelId=948489216; 
SCname=10M_F2; channelId=948490240; 
SCname=10M_F3; channelId=948491264; 
SCname=10M_F4; channelId=948492288; 
SCname=11N_F1; channelId=948493824; 
SCname=11N_F2; channelId=948494848; 
SCname=11N_F3; channelId=948495872; 
SCname=11N_F4; channelId=948496896; 
SCname=12N_F1; channelId=948497920; 
SCname=12N_F2; channelId=948498944; 
SCname=12N_F3; channelId=948499968; 
SCname=12N_F4; channelId=948500992; 
SCname=11M_F1; channelId=948493312; 
SCname=11M_F2; channelId=948494336; 
SCname=11M_F3; channelId=948495360; 
SCname=11M_F4; channelId=948496384; 
SCname=12M_F1; channelId=948497408; 
SCname=12M_F2; channelId=948498432; 
SCname=12M_F3; channelId=948499456; 
SCname=12M_F4; channelId=948500480; 
SCname=13N_F1; channelId=948502016; 
SCname=13N_F2; channelId=948503040; 
SCname=13N_F3; channelId=948504064; 
SCname=13N_F4; channelId=948505088; 
SCname=14N_F1; channelId=948506112; 
SCname=14N_F2; channelId=948507136; 
SCname=14N_F3; channelId=948508160; 
SCname=14N_F4; channelId=948509184; 
SCname=13M_F1; channelId=948501504; 
SCname=13M_F2; channelId=948502528; 
SCname=13M_F3; channelId=948503552; 
SCname=13M_F4; channelId=948504576; 
SCname=14M_F1; channelId=948505600; 
SCname=14M_F2; channelId=948506624; 
SCname=14M_F3; channelId=948507648; 
SCname=14M_F4; channelId=948508672; 
SCname=9N_B1; channelId=948579840; 
SCname=10N_B1; channelId=948580864; 
SCname=11N_B1; channelId=948581888; 
SCname=12N_B1; channelId=948582912; 
SCname=13N_B1; channelId=948583936; 
SCname=14N_B1; channelId=948584960; 
SCname=15N_B1; channelId=948510208; 
SCname=15N_B2; channelId=948511232; 
SCname=15N_B3; channelId=948512256; 
SCname=15N_B4; channelId=948570624; 
SCname=9M_B1; channelId=948579328; 
SCname=10M_B1; channelId=948580352; 
SCname=11M_B1; channelId=948581376; 
SCname=12M_B1; channelId=948582400; 
SCname=13M_B1; channelId=948583424; 
SCname=14M_B1; channelId=948584448; 
SCname=15M_B1; channelId=948509696; 
SCname=15M_B2; channelId=948510720; 
SCname=15M_B3; channelId=948511744; 
SCname=15M_B4; channelId=948570112; 
SCname=9N_M1; channelId=948546048; 
SCname=9N_M2; channelId=948547072; 
SCname=9N_M3; channelId=948548096; 
SCname=9N_M4; channelId=948549120; 
SCname=10N_M1; channelId=948550144; 
SCname=10N_M2; channelId=948551168; 
SCname=10N_M3; channelId=948552192; 
SCname=10N_M4; channelId=948553216; 
SCname=11N_M1; channelId=948554240; 
SCname=11N_M2; channelId=948555264; 
SCname=11N_M3; channelId=948556288; 
SCname=11N_M4; channelId=948557312; 
SCname=12N_M1; channelId=948558336; 
SCname=12N_M2; channelId=948559360; 
SCname=12N_M3; channelId=948560384; 
SCname=12N_M4; channelId=948561408; 
SCname=9M_M1; channelId=948545536; 
SCname=9M_M2; channelId=948546560; 
SCname=9M_M3; channelId=948547584; 
SCname=9M_M4; channelId=948548608; 
SCname=10M_M1; channelId=948549632; 
SCname=10M_M2; channelId=948550656; 
SCname=10M_M3; channelId=948551680; 
SCname=10M_M4; channelId=948552704; 
SCname=11M_M1; channelId=948553728; 
SCname=11M_M2; channelId=948554752; 
SCname=11M_M3; channelId=948555776; 
SCname=11M_M4; channelId=948556800; 
SCname=12M_M1; channelId=948557824; 
SCname=12M_M2; channelId=948558848; 
SCname=12M_M3; channelId=948559872; 
SCname=12M_M4; channelId=948560896; 
SCname=13N_M1; channelId=948562432; 
SCname=13N_M2; channelId=948563456; 
SCname=13N_M3; channelId=948564480; 
SCname=13N_M4; channelId=948565504; 
SCname=13M_M1; channelId=948561920; 
SCname=13M_M2; channelId=948562944; 
SCname=13M_M3; channelId=948563968; 
SCname=13M_M4; channelId=948564992; 
SCname=14N_M1; channelId=948566528; 
SCname=14N_M2; channelId=948567552; 
SCname=14N_M3; channelId=948568576; 
SCname=14N_M4; channelId=948569600; 
SCname=14M_M1; channelId=948566016; 
SCname=14M_M2; channelId=948567040; 
SCname=14M_M3; channelId=948568064; 
SCname=14M_M4; channelId=948569088; 
SCname=2P_P1; channelId=980950528; 
SCname=2O_P1; channelId=980950016; 
SCname=2N_P1; channelId=980949504; 
SCname=2M_P1; channelId=980948992; 
SCname=1P_F1; channelId=980958720; 
SCname=1O_F1; channelId=980958208; 
SCname=1N_F1; channelId=980957696; 
SCname=1M_F1; channelId=980957184; 
SCname=1P_M1; channelId=980999680; 
SCname=1P_M2; channelId=981007872; 
SCname=1P_M3; channelId=981016064; 
SCname=1P_M4; channelId=981024256; 
SCname=1O_M1; channelId=980999168; 
SCname=1O_M2; channelId=981007360; 
SCname=1O_M3; channelId=981015552; 
SCname=1O_M4; channelId=981023744; 
SCname=1N_M1; channelId=980998656; 
SCname=1N_M2; channelId=981006848; 
SCname=1N_M3; channelId=981015040; 
SCname=1N_M4; channelId=981023232; 
SCname=1M_M1; channelId=980998144; 
SCname=1M_M2; channelId=981006336; 
SCname=1M_M3; channelId=981014528; 
SCname=1M_M4; channelId=981022720; 
SCname=2P_F1; channelId=980966912; 
SCname=2P_F2; channelId=980975104; 
SCname=2P_F3; channelId=980983296; 
SCname=2P_F4; channelId=980991488; 
SCname=2O_F1; channelId=980966400; 
SCname=2O_F2; channelId=980974592; 
SCname=2O_F3; channelId=980982784; 
SCname=2O_F4; channelId=980990976; 
SCname=2N_F1; channelId=980965888; 
SCname=2N_F2; channelId=980974080; 
SCname=2N_F3; channelId=980982272; 
SCname=2N_F4; channelId=980990464; 
SCname=2M_F1; channelId=980965376; 
SCname=2M_F2; channelId=980973568; 
SCname=2M_F3; channelId=980981760; 
SCname=2M_F4; channelId=980989952; 
SCname=2P_B1; channelId=981065216; 
SCname=2O_B1; channelId=981064704; 
SCname=2N_B1; channelId=981064192; 
SCname=2M_B1; channelId=981063680; 
SCname=2P_M1; channelId=981032448; 
SCname=2P_M2; channelId=981040640; 
SCname=2P_M3; channelId=981048832; 
SCname=2P_M4; channelId=981057024; 
SCname=2O_M1; channelId=981031936; 
SCname=2O_M2; channelId=981040128; 
SCname=2O_M3; channelId=981048320; 
SCname=2O_M4; channelId=981056512; 
SCname=2N_M1; channelId=981031424; 
SCname=2N_M2; channelId=981039616; 
SCname=2N_M3; channelId=981047808; 
SCname=2N_M4; channelId=981056000; 
SCname=2M_M1; channelId=981030912; 
SCname=2M_M2; channelId=981039104; 
SCname=2M_M3; channelId=981047296; 
SCname=2M_M4; channelId=981055488; 
320 SCs are read!  LATOME is EMBC_EMECC_16

******************** Start to read SCs info per fiber: ********************
IN F1 2N_M1 2N_M2 2N_M3 2N_M4 2M_M4 2M_M3 2M_M1 2M_M2
IN F2 2N_B1 2M_B1 2O_B1 2P_B1 2O_P1 2P_P1 2N_P1 2M_P1
IN F4 GND 15M_P1 13M_P1 14M_P1 9M_P1 10M_P1 12M_P1 11M_P1
IN F5 13M_M1 13M_M2 13M_M4 13M_M3 14M_M3 14M_M4 14M_M1 14M_M2
IN F6 10M_M1 10M_M2 10M_M3 10M_M4 9M_M4 9M_M3 9M_M2 9M_M1
IN F7 11M_M3 11M_M4 11M_M1 11M_M2 12M_M1 12M_M2 12M_M4 12M_M3
IN F8 12M_F1 12M_F2 12M_F3 12M_F4 11M_F1 11M_F2 11M_F3 11M_F4
IN F9 9M_F2 9M_F1 9M_F4 9M_F3 10M_F2 10M_F1 10M_F4 10M_F3
IN F10 13N_B1 14N_B1 GND GND 9N_B1 10N_B1 11N_B1 12N_B1
IN F11 13M_F4 13M_F3 13M_F1 13M_F2 14M_F1 14M_F2 14M_F4 14M_F3
IN F12 15N_B4 15N_B3 15N_B1 15N_B2 GND GND GND GND
IN F13 2N_F4 2N_F3 2N_F2 2N_F1 2M_F1 2M_F2 2M_F3 2M_F4
IN F14 1M_M2 1M_M1 1M_M4 1M_M3 1N_M4 1N_M3 1N_M1 1N_M2
IN F15 12O_B1 11O_B1 10O_B1 9O_B1 GND GND 13O_B1 14O_B1
IN F16 14P_F2 14P_F1 14P_F4 14P_F3 13P_F4 13P_F3 13P_F1 13P_F2
IN F17 15O_B1 15O_B2 15O_B3 15O_B4 GND GND GND GND
IN F18 14P_P1 13P_P1 GND 15P_P1 11P_P1 12P_P1 9P_P1 10P_P1
IN F19 11P_F2 11P_F1 11P_F3 11P_F4 12P_F1 12P_F2 12P_F4 12P_F3
IN F20 9P_M1 9P_M2 9P_M3 9P_M4 10P_M1 10P_M2 10P_M4 10P_M3
IN F21 9P_F2 9P_F1 9P_F4 9P_F3 10P_F1 10P_F2 10P_F4 10P_F3
IN F22 14P_M4 14P_M3 14P_M1 14P_M2 13P_M4 13P_M3 13P_M1 13P_M2
IN F23 11P_M1 11P_M2 11P_M3 11P_M4 12P_M4 12P_M3 12P_M1 12P_M2
IN F25 GND GND GND GND 1M_F1 1N_F1 1P_F1 1O_F1
IN F26 1O_M2 1O_M1 1O_M3 1O_M4 1P_M4 1P_M3 1P_M2 1P_M1
IN F28 GND 15O_P1 13O_P1 14O_P1 9O_P1 10O_P1 12O_P1 11O_P1
IN F29 13O_M1 13O_M2 13O_M4 13O_M3 14O_M3 14O_M4 14O_M1 14O_M2
IN F30 10O_M1 10O_M2 10O_M3 10O_M4 9O_M4 9O_M3 9O_M2 9O_M1
IN F31 11O_M3 11O_M4 11O_M1 11O_M2 12O_M1 12O_M2 12O_M4 12O_M3
IN F32 12O_F1 12O_F2 12O_F3 12O_F4 11O_F1 11O_F2 11O_F3 11O_F4
IN F33 9O_F2 9O_F1 9O_F4 9O_F3 10O_F2 10O_F1 10O_F4 10O_F3
IN F34 13P_B1 14P_B1 GND GND 9P_B1 10P_B1 11P_B1 12P_B1
IN F35 13O_F4 13O_F3 13O_F1 13O_F2 14O_F1 14O_F2 14O_F4 14O_F3
IN F36 15P_B4 15P_B3 15P_B1 15P_B2 GND GND GND GND
IN F37 2P_M2 2P_M1 2P_M3 2P_M4 2O_M1 2O_M2 2O_M4 2O_M3
IN F38 2O_F1 2O_F2 2O_F4 2O_F3 2P_F4 2P_F3 2P_F1 2P_F2
IN F39 12M_B1 11M_B1 10M_B1 9M_B1 GND GND 13M_B1 14M_B1
IN F40 14N_F2 14N_F1 14N_F4 14N_F3 13N_F4 13N_F3 13N_F1 13N_F2
IN F41 15M_B1 15M_B2 15M_B3 15M_B4 GND GND GND GND
IN F42 14N_P1 13N_P1 GND 15N_P1 11N_P1 12N_P1 9N_P1 10N_P1
IN F43 11N_F2 11N_F1 11N_F3 11N_F4 12N_F1 12N_F2 12N_F4 12N_F3
IN F44 9N_M1 9N_M2 9N_M3 9N_M4 10N_M1 10N_M2 10N_M4 10N_M3
IN F45 9N_F2 9N_F1 9N_F4 9N_F3 10N_F1 10N_F2 10N_F4 10N_F3
IN F46 14N_M4 14N_M3 14N_M1 14N_M2 13N_M4 13N_M3 13N_M1 13N_M2
IN F47 11N_M1 11N_M2 11N_M3 11N_M4 12N_M4 12N_M3 12N_M1 12N_M2
44 fibers are connected!

******************** Start to search BCID of peak sampling: ********************
IN F0; 2N_M1=1; 2N_M2=1; 2N_M3=1; 2N_M4=1; 2M_M4=0; 2M_M3=1; 2M_M1=1; 2M_M2=0;  BCID_rms=0.433013
IN F1; 2N_B1=0; 2M_B1=0; 2O_B1=0; 2P_B1=0; 2O_P1=0; 2P_P1=0; 2N_P1=0; 2M_P1=0;  BCID_rms=0
IN F3; GND; 15M_P1=0; 13M_P1=0; 14M_P1=0; 9M_P1=0; 10M_P1=0; 12M_P1=0; 11M_P1=0;  BCID_rms=0
IN F4; 13M_M1=0; 13M_M2=0; 13M_M4=0; 13M_M3=0; 14M_M3=0; 14M_M4=0; 14M_M1=0; 14M_M2=0;  BCID_rms=0
IN F5; 10M_M1=0; 10M_M2=0; 10M_M3=0; 10M_M4=0; 9M_M4=0; 9M_M3=0; 9M_M2=0; 9M_M1=0;  BCID_rms=0
IN F6; 11M_M3=-1; 11M_M4=0; 11M_M1=-1; 11M_M2=-1; 12M_M1=0; 12M_M2=0; 12M_M4=0; 12M_M3=0;  BCID_rms=0.484123
IN F7; 12M_F1=0; 12M_F2=0; 12M_F3=0; 12M_F4=0; 11M_F1=0; 11M_F2=0; 11M_F3=0; 11M_F4=0;  BCID_rms=0
IN F8; 9M_F2=0; 9M_F1=0; 9M_F4=0; 9M_F3=0; 10M_F2=0; 10M_F1=0; 10M_F4=0; 10M_F3=0;  BCID_rms=0
IN F9; 13N_B1=0; 14N_B1=0; GND; GND; 9N_B1=0; 10N_B1=0; 11N_B1=0; 12N_B1=0;  BCID_rms=0
IN F10; 13M_F4=0; 13M_F3=0; 13M_F1=0; 13M_F2=0; 14M_F1=0; 14M_F2=0; 14M_F4=0; 14M_F3=0;  BCID_rms=0
IN F11; 15N_B4=0; 15N_B3=0; 15N_B1=0; 15N_B2=0; GND; GND; GND; GND;  BCID_rms=0
IN F12; 2N_F4=0; 2N_F3=0; 2N_F2=0; 2N_F1=0; 2M_F1=0; 2M_F2=0; 2M_F3=0; 2M_F4=0;  BCID_rms=0
IN F13; 1M_M2=1; 1M_M1=1; 1M_M4=1; 1M_M3=1; 1N_M4=1; 1N_M3=1; 1N_M1=1; 1N_M2=1;  BCID_rms=0
IN F14; 12O_B1=0; 11O_B1=0; 10O_B1=0; 9O_B1=0; GND; GND; 13O_B1=0; 14O_B1=0;  BCID_rms=0
IN F15; 14P_F2=0; 14P_F1=0; 14P_F4=0; 14P_F3=0; 13P_F4=0; 13P_F3=0; 13P_F1=0; 13P_F2=0;  BCID_rms=0
IN F16; 15O_B1=0; 15O_B2=0; 15O_B3=0; 15O_B4=0; GND; GND; GND; GND;  BCID_rms=0
IN F17; 14P_P1=0; 13P_P1=0; GND; 15P_P1=0; 11P_P1=0; 12P_P1=0; 9P_P1=0; 10P_P1=0;  BCID_rms=0
IN F18; 11P_F2=0; 11P_F1=0; 11P_F3=0; 11P_F4=0; 12P_F1=0; 12P_F2=0; 12P_F4=0; 12P_F3=0;  BCID_rms=0
IN F19; 9P_M1=0; 9P_M2=0; 9P_M3=0; 9P_M4=0; 10P_M1=0; 10P_M2=0; 10P_M4=0; 10P_M3=0;  BCID_rms=0
IN F20; 9P_F2=0; 9P_F1=0; 9P_F4=0; 9P_F3=0; 10P_F1=0; 10P_F2=0; 10P_F4=0; 10P_F3=0;  BCID_rms=0
IN F21; 14P_M4=0; 14P_M3=0; 14P_M1=0; 14P_M2=0; 13P_M4=0; 13P_M3=0; 13P_M1=0; 13P_M2=0;  BCID_rms=0
IN F22; 11P_M1=0; 11P_M2=0; 11P_M3=0; 11P_M4=0; 12P_M4=0; 12P_M3=0; 12P_M1=0; 12P_M2=0;  BCID_rms=0
IN F24; GND; GND; GND; GND; 1M_F1=0; 1N_F1=0; 1P_F1=0; 1O_F1=0;  BCID_rms=0
IN F25; 1O_M2=0; 1O_M1=0; 1O_M3=0; 1O_M4=0; 1P_M4=0; 1P_M3=0; 1P_M2=0; 1P_M1=0;  BCID_rms=0
IN F27; GND; 15O_P1=0; 13O_P1=0; 14O_P1=0; 9O_P1=0; 10O_P1=0; 12O_P1=0; 11O_P1=0;  BCID_rms=0
IN F28; 13O_M1=0; 13O_M2=0; 13O_M4=0; 13O_M3=0; 14O_M3=0; 14O_M4=0; 14O_M1=0; 14O_M2=0;  BCID_rms=0
IN F29; 10O_M1=0; 10O_M2=0; 10O_M3=0; 10O_M4=0; 9O_M4=0; 9O_M3=0; 9O_M2=0; 9O_M1=0;  BCID_rms=0
IN F30; 11O_M3=0; 11O_M4=-1; 11O_M1=0; 11O_M2=-1; 12O_M1=0; 12O_M2=0; 12O_M4=0; 12O_M3=0;  BCID_rms=0.433013
IN F31; 12O_F1=0; 12O_F2=0; 12O_F3=0; 12O_F4=0; 11O_F1=0; 11O_F2=0; 11O_F3=0; 11O_F4=0;  BCID_rms=0
IN F32; 9O_F2=0; 9O_F1=0; 9O_F4=0; 9O_F3=0; 10O_F2=0; 10O_F1=0; 10O_F4=0; 10O_F3=0;  BCID_rms=0
IN F33; 13P_B1=0; 14P_B1=0; GND; GND; 9P_B1=0; 10P_B1=0; 11P_B1=0; 12P_B1=0;  BCID_rms=0
IN F34; 13O_F4=0; 13O_F3=0; 13O_F1=0; 13O_F2=0; 14O_F1=0; 14O_F2=0; 14O_F4=0; 14O_F3=0;  BCID_rms=0
IN F35; 15P_B4=0; 15P_B3=0; 15P_B1=0; 15P_B2=0; GND; GND; GND; GND;  BCID_rms=0
IN F36; 2P_M2=1; 2P_M1=1; 2P_M3=1; 2P_M4=0; 2O_M1=1; 2O_M2=1; 2O_M4=0; 2O_M3=1;  BCID_rms=0.433013
IN F37; 2O_F1=0; 2O_F2=0; 2O_F4=0; 2O_F3=0; 2P_F4=0; 2P_F3=0; 2P_F1=0; 2P_F2=0;  BCID_rms=0
IN F38; 12M_B1=0; 11M_B1=0; 10M_B1=0; 9M_B1=0; GND; GND; 13M_B1=0; 14M_B1=0;  BCID_rms=0
IN F39; 14N_F2=0; 14N_F1=0; 14N_F4=0; 14N_F3=0; 13N_F4=0; 13N_F3=0; 13N_F1=0; 13N_F2=0;  BCID_rms=0
IN F40; 15M_B1=0; 15M_B2=0; 15M_B3=0; 15M_B4=0; GND; GND; GND; GND;  BCID_rms=0
IN F41; 14N_P1=0; 13N_P1=0; GND; 15N_P1=0; 11N_P1=0; 12N_P1=0; 9N_P1=0; 10N_P1=0;  BCID_rms=0
IN F42; 11N_F2=0; 11N_F1=0; 11N_F3=0; 11N_F4=0; 12N_F1=0; 12N_F2=0; 12N_F4=0; 12N_F3=0;  BCID_rms=0
IN F43; 9N_M1=0; 9N_M2=0; 9N_M3=0; 9N_M4=0; 10N_M1=0; 10N_M2=0; 10N_M4=0; 10N_M3=0;  BCID_rms=0
IN F44; 9N_F2=0; 9N_F1=0; 9N_F4=0; 9N_F3=0; 10N_F1=0; 10N_F2=0; 10N_F4=0; 10N_F3=0;  BCID_rms=0
IN F45; 14N_M4=0; 14N_M3=0; 14N_M1=0; 14N_M2=0; 13N_M4=0; 13N_M3=0; 13N_M1=0; 13N_M2=0;  BCID_rms=0
IN F46; 11N_M1=0; 11N_M2=0; 11N_M3=0; 11N_M4=0; 12N_M4=0; 12N_M3=0; 12N_M1=0; 12N_M2=0;  BCID_rms=0
