
Processing macro.C+("inputfile/LArDigits_Cside.root","EMBA_15","outputs/hist/LArDigits_Cside_hist.root","results/LArDigits_Cside/latome49.ini","LATOME_ini_file/latome49.ini",false)...
Info in <TUnixSystem::ACLiC>: creating shared library /home/zang/BCID_adjustment/./macro_C.so
input_line_10:1:10: fatal error: '/home/zang/BCID_adjustment/macro_C_ACLiC_linkdef.h' file not found
#include "/home/zang/BCID_adjustment/macro_C_ACLiC_linkdef.h"
         ^~~~~~~~~~~~~~~~~~~~~~~~~~~~~~~~~~~~~~~~~~~~~~~~~~~~
Error in <ACLiC>: Executing '/usr/bin/rootcling -v0 "--lib-list-prefix=/home/zang/BCID_adjustment/macro_C_ACLiC_map" -f "/home/zang/BCID_adjustment/macro_C_ACLiC_dict.cxx" -I/usr/include/root -I"/usr/share/root" -I"/usr/share/root/cling" -I"/usr/include/root" -D__ACLIC__  "/home/zang/BCID_adjustment/./macro.C" "/home/zang/BCID_adjustment/macro_C_ACLiC_linkdef.h"' failed!
