
Processing macro.C+("inputfile/LArDigits_pusleall_00407551.root","EMBA-EMECA_3","outputs/hist/LArDigits_pusleall_00407551_hist.root","results/LArDigits_pusleall_00407551/latome138.ini","LATOME_ini_file/latome138.ini",false)...
input_line_11:2:3: error: use of undeclared identifier 'macro'
 (macro("inputfile/LArDigits_pusleall_00407551.root", "EMBA-EMECA_3", "outputs/hist/LArDigits_pusleall_00407551_hist.root", "results/LArDigits_pusleall_00407551/latome138.ini", "LATOME_ini_file/latome138.ini", false))
  ^
Error in <HandleInterpreterException>: Error evaluating expression (macro("inputfile/LArDigits_pusleall_00407551.root", "EMBA-EMECA_3", "outputs/hist/LArDigits_pusleall_00407551_hist.root", "results/LArDigits_pusleall_00407551/latome138.ini", "LATOME_ini_file/latome138.ini", false)).
Execution of your code was aborted.
