
Processing macro.C+("inputfile/LArDigits_pusleall_00407551.root","EMECC_7","outputs/hist/LArDigits_pusleall_00407551_hist.root","results/LArDigits_pusleall_00407551/latome85.ini","LATOME_ini_file/latome85.ini",false)...
input_line_11:2:3: error: use of undeclared identifier 'macro'
 (macro("inputfile/LArDigits_pusleall_00407551.root", "EMECC_7", "outputs/hist/LArDigits_pusleall_00407551_hist.root", "results/LArDigits_pusleall_00407551/latome85.ini", "LATOME_ini_file/latome85.ini", false))
  ^
Error in <HandleInterpreterException>: Error evaluating expression (macro("inputfile/LArDigits_pusleall_00407551.root", "EMECC_7", "outputs/hist/LArDigits_pusleall_00407551_hist.root", "results/LArDigits_pusleall_00407551/latome85.ini", "LATOME_ini_file/latome85.ini", false)).
Execution of your code was aborted.
