
Processing macro.C+("inputfile/LArDigits_pusleall_408524.root","EMECA_9","outputs/hist/LArDigits_pusleall_408524_hist.root","results/LArDigits_pusleall_408524/latome91.ini","LATOME_ini_file/latome91.ini",false)...

******************** Start to read ini BCID: ********************
input file: LATOME_ini_file/latome91.ini
F0  BCID=0; 
F1  BCID=0; 
F2  BCID=3463; 
F3  BCID=3463; 
F4  BCID=3463; 
F5  BCID=3462; 
F6  BCID=3462; 
F7  BCID=3463; 
F8  BCID=3462; 
F9  BCID=3463; 
F10  BCID=3462; 
F11  BCID=3463; 
F12  BCID=0; 
F13  BCID=0; 
F14  BCID=3462; 
F15  BCID=3462; 
F16  BCID=3463; 
F17  BCID=3462; 
F18  BCID=3462; 
F19  BCID=3462; 
F20  BCID=3463; 
F21  BCID=3462; 
F22  BCID=3462; 
F23  BCID=3462; 
F24  BCID=0; 
F25  BCID=0; 
F26  BCID=3462; 
F27  BCID=3463; 
F28  BCID=3463; 
F29  BCID=3462; 
F30  BCID=3462; 
F31  BCID=3463; 
F32  BCID=3463; 
F33  BCID=3462; 
F34  BCID=3462; 
F35  BCID=3462; 
F36  BCID=0; 
F37  BCID=0; 
F38  BCID=3463; 
F39  BCID=3462; 
F40  BCID=3463; 
F41  BCID=3462; 
F42  BCID=3462; 
F43  BCID=3463; 
F44  BCID=3462; 
F45  BCID=3463; 
F46  BCID=3463; 
F47  BCID=3463; 
48 fibers are read!

******************** Start to read LArId info: ********************
SCname=3A_P1; channelId=996671488; 
SCname=3B_P1; channelId=996672000; 
SCname=4A_P1; channelId=996673536; 
SCname=4B_P1; channelId=996674048; 
SCname=3C_P1; channelId=996672512; 
SCname=3D_P1; channelId=996673024; 
SCname=4C_P1; channelId=996674560; 
SCname=4D_P1; channelId=996675072; 
SCname=3A_F1; channelId=996675584; 
SCname=3A_F2; channelId=996677632; 
SCname=3A_F3; channelId=996679680; 
SCname=3A_F4; channelId=996681728; 
SCname=3B_F1; channelId=996676096; 
SCname=3B_F2; channelId=996678144; 
SCname=3B_F3; channelId=996680192; 
SCname=3B_F4; channelId=996682240; 
SCname=3C_F1; channelId=996676608; 
SCname=3C_F2; channelId=996678656; 
SCname=3C_F3; channelId=996680704; 
SCname=3C_F4; channelId=996682752; 
SCname=3D_F1; channelId=996677120; 
SCname=3D_F2; channelId=996679168; 
SCname=3D_F3; channelId=996681216; 
SCname=3D_F4; channelId=996683264; 
SCname=4A_F1; channelId=996683776; 
SCname=4A_F2; channelId=996685824; 
SCname=4A_F3; channelId=996687872; 
SCname=4A_F4; channelId=996689920; 
SCname=4B_F1; channelId=996684288; 
SCname=4B_F2; channelId=996686336; 
SCname=4B_F3; channelId=996688384; 
SCname=4B_F4; channelId=996690432; 
SCname=4C_F1; channelId=996684800; 
SCname=4C_F2; channelId=996686848; 
SCname=4C_F3; channelId=996688896; 
SCname=4C_F4; channelId=996690944; 
SCname=4D_F1; channelId=996685312; 
SCname=4D_F2; channelId=996687360; 
SCname=4D_F3; channelId=996689408; 
SCname=4D_F4; channelId=996691456; 
SCname=5A_F1; channelId=996691968; 
SCname=5A_F2; channelId=996694016; 
SCname=5A_F3; channelId=996696064; 
SCname=5A_F4; channelId=996698112; 
SCname=5A_F5; channelId=996700160; 
SCname=5A_F6; channelId=996702208; 
SCname=5B_F1; channelId=996692480; 
SCname=5B_F2; channelId=996694528; 
SCname=5B_F3; channelId=996696576; 
SCname=5B_F4; channelId=996698624; 
SCname=5B_F5; channelId=996700672; 
SCname=5B_F6; channelId=996702720; 
SCname=5C_F1; channelId=996692992; 
SCname=5C_F2; channelId=996695040; 
SCname=5C_F3; channelId=996697088; 
SCname=5C_F4; channelId=996699136; 
SCname=5C_F5; channelId=996701184; 
SCname=5C_F6; channelId=996703232; 
SCname=5D_F1; channelId=996693504; 
SCname=5D_F2; channelId=996695552; 
SCname=5D_F3; channelId=996697600; 
SCname=5D_F4; channelId=996699648; 
SCname=5D_F5; channelId=996701696; 
SCname=5D_F6; channelId=996703744; 
SCname=6A_F1; channelId=996704256; 
SCname=6A_F2; channelId=996706304; 
SCname=6A_F3; channelId=996708352; 
SCname=6A_F4; channelId=996710400; 
SCname=6A_F5; channelId=996712448; 
SCname=6A_F6; channelId=996714496; 
SCname=6B_F1; channelId=996704768; 
SCname=6B_F2; channelId=996706816; 
SCname=6B_F3; channelId=996708864; 
SCname=6B_F4; channelId=996710912; 
SCname=6B_F5; channelId=996712960; 
SCname=6B_F6; channelId=996715008; 
SCname=6C_F1; channelId=996705280; 
SCname=6C_F2; channelId=996707328; 
SCname=6C_F3; channelId=996709376; 
SCname=6C_F4; channelId=996711424; 
SCname=6C_F5; channelId=996713472; 
SCname=6C_F6; channelId=996715520; 
SCname=6D_F1; channelId=996705792; 
SCname=6D_F2; channelId=996707840; 
SCname=6D_F3; channelId=996709888; 
SCname=6D_F4; channelId=996711936; 
SCname=6D_F5; channelId=996713984; 
SCname=6D_F6; channelId=996716032; 
SCname=7A_F1; channelId=996716544; 
SCname=7A_F2; channelId=996718592; 
SCname=7A_F3; channelId=996720640; 
SCname=7A_F4; channelId=996722688; 
SCname=7B_F1; channelId=996717056; 
SCname=7B_F2; channelId=996719104; 
SCname=7B_F3; channelId=996721152; 
SCname=7B_F4; channelId=996723200; 
SCname=8A_F1; channelId=996724736; 
SCname=8A_F2; channelId=996726784; 
SCname=8A_F3; channelId=996728832; 
SCname=8A_F4; channelId=996730880; 
SCname=8B_F1; channelId=996725248; 
SCname=8B_F2; channelId=996727296; 
SCname=8B_F3; channelId=996729344; 
SCname=8B_F4; channelId=996731392; 
SCname=7C_F1; channelId=996717568; 
SCname=7C_F2; channelId=996719616; 
SCname=7C_F3; channelId=996721664; 
SCname=7C_F4; channelId=996723712; 
SCname=7D_F1; channelId=996718080; 
SCname=7D_F2; channelId=996720128; 
SCname=7D_F3; channelId=996722176; 
SCname=7D_F4; channelId=996724224; 
SCname=8C_F1; channelId=996725760; 
SCname=8C_F2; channelId=996727808; 
SCname=8C_F3; channelId=996729856; 
SCname=8C_F4; channelId=996731904; 
SCname=8D_F1; channelId=996726272; 
SCname=8D_F2; channelId=996728320; 
SCname=8D_F3; channelId=996730368; 
SCname=8D_F4; channelId=996732416; 
SCname=9A_F1; channelId=996732928; 
SCname=9A_F2; channelId=996734976; 
SCname=9A_F3; channelId=996737024; 
SCname=9A_F4; channelId=996739072; 
SCname=9B_F1; channelId=996733440; 
SCname=9B_F2; channelId=996735488; 
SCname=9B_F3; channelId=996737536; 
SCname=9B_F4; channelId=996739584; 
SCname=10A_F1; channelId=996741120; 
SCname=10A_F2; channelId=996743168; 
SCname=10A_F3; channelId=996745216; 
SCname=10A_F4; channelId=996747264; 
SCname=10B_F1; channelId=996741632; 
SCname=10B_F2; channelId=996743680; 
SCname=10B_F3; channelId=996745728; 
SCname=10B_F4; channelId=996747776; 
SCname=9C_F1; channelId=996733952; 
SCname=9C_F2; channelId=996736000; 
SCname=9C_F3; channelId=996738048; 
SCname=9C_F4; channelId=996740096; 
SCname=9D_F1; channelId=996734464; 
SCname=9D_F2; channelId=996736512; 
SCname=9D_F3; channelId=996738560; 
SCname=9D_F4; channelId=996740608; 
SCname=10C_F1; channelId=996742144; 
SCname=10C_F2; channelId=996744192; 
SCname=10C_F3; channelId=996746240; 
SCname=10C_F4; channelId=996748288; 
SCname=10D_F1; channelId=996742656; 
SCname=10D_F2; channelId=996744704; 
SCname=10D_F3; channelId=996746752; 
SCname=10D_F4; channelId=996748800; 
SCname=3A_B1; channelId=996814848; 
SCname=3B_B1; channelId=996815360; 
SCname=3C_B1; channelId=996815872; 
SCname=3D_B1; channelId=996816384; 
SCname=4A_B1; channelId=996816896; 
SCname=4B_B1; channelId=996817408; 
SCname=4C_B1; channelId=996817920; 
SCname=4D_B1; channelId=996818432; 
SCname=5A_B1; channelId=996818944; 
SCname=5B_B1; channelId=996819456; 
SCname=5C_B1; channelId=996819968; 
SCname=5D_B1; channelId=996820480; 
SCname=6A_B1; channelId=996820992; 
SCname=6B_B1; channelId=996821504; 
SCname=6C_B1; channelId=996822016; 
SCname=6D_B1; channelId=996822528; 
SCname=7A_B1; channelId=996823040; 
SCname=7B_B1; channelId=996823552; 
SCname=7C_B1; channelId=996824064; 
SCname=7D_B1; channelId=996824576; 
SCname=8A_B1; channelId=996825088; 
SCname=8B_B1; channelId=996825600; 
SCname=8C_B1; channelId=996826112; 
SCname=8D_B1; channelId=996826624; 
SCname=9A_B1; channelId=996827136; 
SCname=9B_B1; channelId=996827648; 
SCname=9C_B1; channelId=996828160; 
SCname=9D_B1; channelId=996828672; 
SCname=10A_B1; channelId=996829184; 
SCname=10B_B1; channelId=996829696; 
SCname=10C_B1; channelId=996830208; 
SCname=10D_B1; channelId=996830720; 
SCname=3A_M1; channelId=996749312; 
SCname=3A_M2; channelId=996751360; 
SCname=3A_M3; channelId=996753408; 
SCname=3A_M4; channelId=996755456; 
SCname=3B_M1; channelId=996749824; 
SCname=3B_M2; channelId=996751872; 
SCname=3B_M3; channelId=996753920; 
SCname=3B_M4; channelId=996755968; 
SCname=3C_M1; channelId=996750336; 
SCname=3C_M2; channelId=996752384; 
SCname=3C_M3; channelId=996754432; 
SCname=3C_M4; channelId=996756480; 
SCname=3D_M1; channelId=996750848; 
SCname=3D_M2; channelId=996752896; 
SCname=3D_M3; channelId=996754944; 
SCname=3D_M4; channelId=996756992; 
SCname=4A_M1; channelId=996757504; 
SCname=4A_M2; channelId=996759552; 
SCname=4A_M3; channelId=996761600; 
SCname=4A_M4; channelId=996763648; 
SCname=4B_M1; channelId=996758016; 
SCname=4B_M2; channelId=996760064; 
SCname=4B_M3; channelId=996762112; 
SCname=4B_M4; channelId=996764160; 
SCname=4C_M1; channelId=996758528; 
SCname=4C_M2; channelId=996760576; 
SCname=4C_M3; channelId=996762624; 
SCname=4C_M4; channelId=996764672; 
SCname=4D_M1; channelId=996759040; 
SCname=4D_M2; channelId=996761088; 
SCname=4D_M3; channelId=996763136; 
SCname=4D_M4; channelId=996765184; 
SCname=5A_M1; channelId=996765696; 
SCname=5A_M2; channelId=996767744; 
SCname=5A_M3; channelId=996769792; 
SCname=5A_M4; channelId=996771840; 
SCname=5B_M1; channelId=996766208; 
SCname=5B_M2; channelId=996768256; 
SCname=5B_M3; channelId=996770304; 
SCname=5B_M4; channelId=996772352; 
SCname=5C_M1; channelId=996766720; 
SCname=5C_M2; channelId=996768768; 
SCname=5C_M3; channelId=996770816; 
SCname=5C_M4; channelId=996772864; 
SCname=5D_M1; channelId=996767232; 
SCname=5D_M2; channelId=996769280; 
SCname=5D_M3; channelId=996771328; 
SCname=5D_M4; channelId=996773376; 
SCname=6A_M1; channelId=996773888; 
SCname=6A_M2; channelId=996775936; 
SCname=6A_M3; channelId=996777984; 
SCname=6A_M4; channelId=996780032; 
SCname=6B_M1; channelId=996774400; 
SCname=6B_M2; channelId=996776448; 
SCname=6B_M3; channelId=996778496; 
SCname=6B_M4; channelId=996780544; 
SCname=6C_M1; channelId=996774912; 
SCname=6C_M2; channelId=996776960; 
SCname=6C_M3; channelId=996779008; 
SCname=6C_M4; channelId=996781056; 
SCname=6D_M1; channelId=996775424; 
SCname=6D_M2; channelId=996777472; 
SCname=6D_M3; channelId=996779520; 
SCname=6D_M4; channelId=996781568; 
SCname=7A_M1; channelId=996782080; 
SCname=7A_M2; channelId=996784128; 
SCname=7A_M3; channelId=996786176; 
SCname=7A_M4; channelId=996788224; 
SCname=7B_M1; channelId=996782592; 
SCname=7B_M2; channelId=996784640; 
SCname=7B_M3; channelId=996786688; 
SCname=7B_M4; channelId=996788736; 
SCname=7C_M1; channelId=996783104; 
SCname=7C_M2; channelId=996785152; 
SCname=7C_M3; channelId=996787200; 
SCname=7C_M4; channelId=996789248; 
SCname=7D_M1; channelId=996783616; 
SCname=7D_M2; channelId=996785664; 
SCname=7D_M3; channelId=996787712; 
SCname=7D_M4; channelId=996789760; 
SCname=8A_M1; channelId=996790272; 
SCname=8A_M2; channelId=996792320; 
SCname=8A_M3; channelId=996794368; 
SCname=8A_M4; channelId=996796416; 
SCname=8B_M1; channelId=996790784; 
SCname=8B_M2; channelId=996792832; 
SCname=8B_M3; channelId=996794880; 
SCname=8B_M4; channelId=996796928; 
SCname=8C_M1; channelId=996791296; 
SCname=8C_M2; channelId=996793344; 
SCname=8C_M3; channelId=996795392; 
SCname=8C_M4; channelId=996797440; 
SCname=8D_M1; channelId=996791808; 
SCname=8D_M2; channelId=996793856; 
SCname=8D_M3; channelId=996795904; 
SCname=8D_M4; channelId=996797952; 
SCname=9A_M1; channelId=996798464; 
SCname=9A_M2; channelId=996800512; 
SCname=9A_M3; channelId=996802560; 
SCname=9A_M4; channelId=996804608; 
SCname=9B_M1; channelId=996798976; 
SCname=9B_M2; channelId=996801024; 
SCname=9B_M3; channelId=996803072; 
SCname=9B_M4; channelId=996805120; 
SCname=9C_M1; channelId=996799488; 
SCname=9C_M2; channelId=996801536; 
SCname=9C_M3; channelId=996803584; 
SCname=9C_M4; channelId=996805632; 
SCname=9D_M1; channelId=996800000; 
SCname=9D_M2; channelId=996802048; 
SCname=9D_M3; channelId=996804096; 
SCname=9D_M4; channelId=996806144; 
SCname=10A_M1; channelId=996806656; 
SCname=10A_M2; channelId=996808704; 
SCname=10A_M3; channelId=996810752; 
SCname=10A_M4; channelId=996812800; 
SCname=10B_M1; channelId=996807168; 
SCname=10B_M2; channelId=996809216; 
SCname=10B_M3; channelId=996811264; 
SCname=10B_M4; channelId=996813312; 
SCname=10C_M1; channelId=996807680; 
SCname=10C_M2; channelId=996809728; 
SCname=10C_M3; channelId=996811776; 
SCname=10C_M4; channelId=996813824; 
SCname=10D_M1; channelId=996808192; 
SCname=10D_M2; channelId=996810240; 
SCname=10D_M3; channelId=996812288; 
SCname=10D_M4; channelId=996814336; 
312 SCs are read!  LATOME is EMECA_9

******************** Start to read SCs info per fiber: ********************
IN F3 7A_B1 8A_B1 8B_B1 7B_B1 10A_B1 9A_B1 10B_B1 9B_B1
IN F4 4A_M2 4A_M1 4A_M4 4A_M3 4B_M3 4B_M4 4B_M1 4B_M2
IN F5 3B_M1 3B_M2 3B_M4 3B_M3 3A_M4 3A_M3 3A_M2 3A_M1
IN F6 5B_F4 5B_F3 5B_F2 5B_F1 5A_F4 5A_F3 5A_F2 5A_F1
IN F7 6A_M1 6A_M2 6A_M3 6A_M4 6B_M3 6B_M4 6B_M2 6B_M1
IN F8 GND GND GND GND 4B_P1 4A_P1 3B_P1 3A_P1
IN F9 5A_M1 5A_M2 5A_M3 5A_M4 5B_M4 5B_M3 5B_M1 5B_M2
IN F10 4B_F1 4B_F2 4B_F4 4B_F3 4A_F4 4A_F3 4A_F2 4A_F1
IN F11 6A_F2 6A_F1 5A_F6 5A_F5 5B_F5 5B_F6 6B_F2 6B_F1
IN F12 3B_F3 3B_F4 3B_F2 3B_F1 3A_F4 3A_F3 3A_F2 3A_F1
IN F15 4D_B1 3D_B1 4C_B1 3C_B1 6D_B1 5D_B1 5C_B1 6C_B1
IN F16 9B_F2 9B_F1 9B_F4 9B_F3 9A_F4 9A_F3 9A_F1 9A_F2
IN F17 10D_F4 10D_F3 10D_F2 10D_F1 10C_F4 10C_F3 10C_F2 10C_F1
IN F18 6B_F4 6B_F3 6B_F6 6B_F5 6A_F5 6A_F6 6A_F3 6A_F4
IN F19 8A_F3 8A_F4 8A_F2 8A_F1 8B_F1 8B_F2 8B_F4 8B_F3
IN F20 10B_M4 10B_M3 10B_M2 10B_M1 10A_M4 10A_M3 10A_M1 10A_M2
IN F21 7A_F2 7A_F1 7A_F4 7A_F3 7B_F1 7B_F2 7B_F4 7B_F3
IN F22 8A_M4 8A_M3 8A_M1 8A_M2 8B_M4 8B_M3 8B_M1 8B_M2
IN F23 9B_M4 9B_M3 9B_M2 9B_M1 9A_M1 9A_M2 9A_M4 9A_M3
IN F24 7B_M2 7B_M1 7B_M4 7B_M3 7A_M4 7A_M3 7A_M1 7A_M2
IN F27 9D_M1 9D_M2 9D_M4 9D_M3 9C_M3 9C_M4 9C_M1 9C_M2
IN F28 5C_F1 5C_F2 5C_F4 5C_F3 5D_F4 5D_F3 5D_F1 5D_F2
IN F29 10C_M4 10C_M3 10C_M1 10C_M2 10D_M2 10D_M1 10D_M4 10D_M3
IN F30 8D_M4 8D_M3 8D_M2 8D_M1 8C_M1 8C_M2 8C_M3 8C_M4
IN F31 7C_M3 7C_M4 7C_M1 7C_M2 7D_M1 7D_M2 7D_M4 7D_M3
IN F32 8D_F1 8D_F2 8D_F3 8D_F4 8C_F1 8C_F2 8C_F3 8C_F4
IN F33 7C_F2 7C_F1 7C_F4 7C_F3 7D_F2 7D_F1 7D_F4 7D_F3
IN F34 5A_B1 6A_B1 5B_B1 6B_B1 3A_B1 4A_B1 3B_B1 4B_B1
IN F35 9C_F4 9C_F3 9C_F1 9C_F2 9D_F1 9D_F2 9D_F4 9D_F3
IN F36 10B_F4 10B_F3 10B_F1 10B_F2 10A_F1 10A_F2 10A_F4 10A_F3
IN F39 3C_F2 3C_F1 3C_F4 3C_F3 3D_F1 3D_F2 3D_F3 3D_F4
IN F40 5D_M3 5D_M4 5D_M1 5D_M2 5C_M1 5C_M2 5C_M4 5C_M3
IN F41 4C_F1 4C_F2 4C_F3 4C_F4 4D_F1 4D_F2 4D_F4 4D_F3
IN F42 6D_M2 6D_M1 6D_M4 6D_M3 6C_M3 6C_M4 6C_M1 6C_M2
IN F43 5C_F6 5C_F5 6C_F1 6C_F2 5D_F5 5D_F6 6D_F2 6D_F1
IN F44 4C_M4 4C_M3 4C_M2 4C_M1 4D_M4 4D_M3 4D_M1 4D_M2
IN F45 6C_F4 6C_F3 6C_F5 6C_F6 6D_F5 6D_F6 6D_F3 6D_F4
IN F46 GND GND GND GND 3D_P1 3C_P1 4C_P1 4D_P1
IN F47 3C_M2 3C_M1 3C_M3 3C_M4 3D_M4 3D_M3 3D_M1 3D_M2
IN F48 9D_B1 10D_B1 10C_B1 9C_B1 7C_B1 8C_B1 7D_B1 8D_B1
40 fibers are connected!
max_event=999

******************** Start to search BCID of peak sampling: ********************
IN F2; 7A_B1=-1; 8A_B1=-1; 8B_B1=-1; 7B_B1=-1; 10A_B1=-1; 9A_B1=-1; 10B_B1=-1; 9B_B1=-1;  BCID_rms=0; height=692
IN F3; 4A_M2=-1; 4A_M1=-1; 4A_M4=-1; 4A_M3=-1; 4B_M3=-1; 4B_M4=-1; 4B_M1=-1; 4B_M2=-1;  BCID_rms=0; height=1107
IN F4; 3B_M1=-1; 3B_M2=-1; 3B_M4=-1; 3B_M3=-1; 3A_M4=-1; 3A_M3=-1; 3A_M2=-1; 3A_M1=-1;  BCID_rms=0; height=1095
IN F5; 5B_F4=0; 5B_F3=0; 5B_F2=0; 5B_F1=0; 5A_F4=0; 5A_F3=0; 5A_F2=0; 5A_F1=0;  BCID_rms=0; height=381
IN F6; 6A_M1=0; 6A_M2=0; 6A_M3=0; 6A_M4=0; 6B_M3=0; 6B_M4=0; 6B_M2=0; 6B_M1=0;  BCID_rms=0; height=403
IN F7; GND; GND; GND; GND; 4B_P1=-1; 4A_P1=-1; 3B_P1=-1; 3A_P1=-1;  BCID_rms=0; height=710
IN F8; 5A_M1=0; 5A_M2=0; 5A_M3=0; 5A_M4=0; 5B_M4=0; 5B_M3=0; 5B_M1=0; 5B_M2=0;  BCID_rms=0; height=392
IN F9; 4B_F1=-1; 4B_F2=-1; 4B_F4=-1; 4B_F3=-1; 4A_F4=-1; 4A_F3=-1; 4A_F2=-1; 4A_F1=-1;  BCID_rms=0; height=757
IN F10; 6A_F2=0; 6A_F1=0; 5A_F6=0; 5A_F5=0; 5B_F5=0; 5B_F6=0; 6B_F2=0; 6B_F1=0;  BCID_rms=0; height=380
IN F11; 3B_F3=-1; 3B_F4=-1; 3B_F2=-1; 3B_F1=-1; 3A_F4=-1; 3A_F3=-1; 3A_F2=-1; 3A_F1=-1;  BCID_rms=0; height=739
IN F14; 4D_B1=0; 3D_B1=0; 4C_B1=0; 3C_B1=0; 6D_B1=0; 5D_B1=0; 5C_B1=0; 6C_B1=0;  BCID_rms=0; height=747
IN F15; 9B_F2=0; 9B_F1=0; 9B_F4=0; 9B_F3=0; 9A_F4=0; 9A_F3=0; 9A_F1=0; 9A_F2=0;  BCID_rms=0; height=356
IN F16; 10D_F4=-1; 10D_F3=-1; 10D_F2=-1; 10D_F1=-1; 10C_F4=-1; 10C_F3=-1; 10C_F2=-1; 10C_F1=-1;  BCID_rms=0; height=332
IN F17; 6B_F4=0; 6B_F3=0; 6B_F6=0; 6B_F5=0; 6A_F5=0; 6A_F6=0; 6A_F3=0; 6A_F4=0;  BCID_rms=0; height=394
IN F18; 8A_F3=0; 8A_F4=0; 8A_F2=0; 8A_F1=0; 8B_F1=0; 8B_F2=0; 8B_F4=0; 8B_F3=0;  BCID_rms=0; height=374
IN F19; 10B_M4=0; 10B_M3=0; 10B_M2=0; 10B_M1=0; 10A_M4=0; 10A_M3=0; 10A_M1=0; 10A_M2=0;  BCID_rms=0; height=382
IN F20; 7A_F2=-1; 7A_F1=-1; 7A_F4=-1; 7A_F3=-1; 7B_F1=-1; 7B_F2=-1; 7B_F4=-1; 7B_F3=-1;  BCID_rms=0; height=350
IN F21; 8A_M4=0; 8A_M3=0; 8A_M1=0; 8A_M2=0; 8B_M4=0; 8B_M3=0; 8B_M1=0; 8B_M2=0;  BCID_rms=0; height=408
IN F22; 9B_M4=0; 9B_M3=0; 9B_M2=0; 9B_M1=0; 9A_M1=0; 9A_M2=0; 9A_M4=0; 9A_M3=0;  BCID_rms=0; height=394
IN F23; 7B_M2=0; 7B_M1=0; 7B_M4=0; 7B_M3=0; 7A_M4=0; 7A_M3=0; 7A_M1=0; 7A_M2=0;  BCID_rms=0; height=377
IN F26; 9D_M1=0; 9D_M2=0; 9D_M4=0; 9D_M3=0; 9C_M3=0; 9C_M4=0; 9C_M1=0; 9C_M2=0;  BCID_rms=0; height=401
IN F27; 5C_F1=-1; 5C_F2=-1; 5C_F4=-1; 5C_F3=-1; 5D_F4=-1; 5D_F3=-1; 5D_F1=-1; 5D_F2=-1;  BCID_rms=0; height=388
IN F28; 10C_M4=-1; 10C_M3=-1; 10C_M1=-1; 10C_M2=-1; 10D_M2=-1; 10D_M1=-1; 10D_M4=-1; 10D_M3=-1;  BCID_rms=0; height=375
IN F29; 8D_M4=0; 8D_M3=0; 8D_M2=0; 8D_M1=0; 8C_M1=0; 8C_M2=0; 8C_M3=0; 8C_M4=0;  BCID_rms=0; height=400
IN F30; 7C_M3=0; 7C_M4=0; 7C_M1=0; 7C_M2=0; 7D_M1=0; 7D_M2=0; 7D_M4=0; 7D_M3=0;  BCID_rms=0; height=386
IN F31; 8D_F1=0; 8D_F2=-1; 8D_F3=-1; 8D_F4=-1; 8C_F1=-1; 8C_F2=-1; 8C_F3=-1; 8C_F4=-1;  BCID_rms=0.330719; height=343
IN F32; 7C_F2=-1; 7C_F1=-1; 7C_F4=-1; 7C_F3=-1; 7D_F2=-1; 7D_F1=-1; 7D_F4=-1; 7D_F3=-1;  BCID_rms=0; height=368
IN F33; 5A_B1=0; 6A_B1=0; 5B_B1=0; 6B_B1=0; 3A_B1=0; 4A_B1=0; 3B_B1=0; 4B_B1=0;  BCID_rms=0; height=775
IN F34; 9C_F4=0; 9C_F3=0; 9C_F1=0; 9C_F2=0; 9D_F1=0; 9D_F2=0; 9D_F4=0; 9D_F3=0;  BCID_rms=0; height=348
IN F35; 10B_F4=0; 10B_F3=0; 10B_F1=0; 10B_F2=0; 10A_F1=0; 10A_F2=0; 10A_F4=0; 10A_F3=0;  BCID_rms=0; height=361
IN F38; 3C_F2=-1; 3C_F1=-1; 3C_F4=-1; 3C_F3=-1; 3D_F1=-1; 3D_F2=-1; 3D_F3=-1; 3D_F4=-1;  BCID_rms=0; height=748
IN F39; 5D_M3=0; 5D_M4=0; 5D_M1=0; 5D_M2=0; 5C_M1=0; 5C_M2=0; 5C_M4=0; 5C_M3=0;  BCID_rms=0; height=388
IN F40; 4C_F1=-1; 4C_F2=-1; 4C_F3=-1; 4C_F4=-1; 4D_F1=-1; 4D_F2=-1; 4D_F4=-1; 4D_F3=-1;  BCID_rms=0; height=736
IN F41; 6D_M2=0; 6D_M1=0; 6D_M4=0; 6D_M3=0; 6C_M3=0; 6C_M4=0; 6C_M1=0; 6C_M2=0;  BCID_rms=0; height=382
IN F42; 5C_F6=0; 5C_F5=0; 6C_F1=0; 6C_F2=0; 5D_F5=0; 5D_F6=0; 6D_F2=0; 6D_F1=0;  BCID_rms=0; height=366
IN F43; 4C_M4=0; 4C_M3=-1; 4C_M2=0; 4C_M1=0; 4D_M4=0; 4D_M3=0; 4D_M1=0; 4D_M2=0;  BCID_rms=0.330719; height=1104
IN F44; 6C_F4=0; 6C_F3=0; 6C_F5=0; 6C_F6=0; 6D_F5=0; 6D_F6=0; 6D_F3=0; 6D_F4=0;  BCID_rms=0; height=371
IN F45; GND; GND; GND; GND; 3D_P1=-1; 3C_P1=-1; 4C_P1=-1; 4D_P1=-1;  BCID_rms=0; height=700
IN F46; 3C_M2=-1; 3C_M1=-1; 3C_M3=-1; 3C_M4=-1; 3D_M4=-1; 3D_M3=-1; 3D_M1=-1; 3D_M2=-1;  BCID_rms=0; height=1074
IN F47; 9D_B1=-1; 10D_B1=-1; 10C_B1=-1; 9C_B1=-1; 7C_B1=-1; 8C_B1=-1; 7D_B1=-1; 8D_B1=-1;  BCID_rms=0; height=715
