
Processing macro.C+("inputfile/LArDigits_pulseall_408670.root","EMBA_1","outputs/hist/LArDigits_pulseall_408670_hist.root","results/LArDigits_pulseall_408670/latome99.ini","LATOME_ini_file/latome99.ini",false)...
Info in <TUnixSystem::ACLiC>: creating shared library /home/zang/BCID_adjustment/./macro_C.so
In file included from input_line_12:6:
In file included from ././macro.C:1:
/home/zang/BCID_adjustment/tree.C:10:1: error: no template named 'include'
include <iomanip>
^
/home/zang/BCID_adjustment/tree.C:10:10: error: use of undeclared identifier 'iomanip'
include <iomanip>
         ^
In file included from input_line_12:6:
In file included from ././macro.C:1:
In file included from /home/zang/BCID_adjustment/tree.C:11:
/usr/lib/gcc/x86_64-redhat-linux/4.8.5/../../../../include/c++/4.8.5/sstream:41:1: error: expected unqualified-id
namespace std _GLIBCXX_VISIBILITY(default)
^
Error in <ACLiC>: Executing '/usr/bin/rootcling -v0 "--lib-list-prefix=/home/zang/BCID_adjustment/macro_C_ACLiC_map" -f "/home/zang/BCID_adjustment/macro_C_ACLiC_dict.cxx" -I/usr/include/root -I"/usr/share/root" -I"/usr/share/root/cling" -I"/usr/include/root" -D__ACLIC__  "/home/zang/BCID_adjustment/./macro.C" "/home/zang/BCID_adjustment/macro_C_ACLiC_linkdef.h"' failed!
