
Processing macro.C+("inputfile/LArDigits_pusleall_408522.root","EMBC_9","outputs/hist/LArDigits_pusleall_408522_hist.root","results/LArDigits_pusleall_408522/latome115.ini","LATOME_ini_file/latome115.ini",false)...

******************** Start to read ini BCID: ********************
input file: LATOME_ini_file/latome115.ini
F0  BCID=0; 
F1  BCID=0; 
F2  BCID=3459; 
F3  BCID=3459; 
F4  BCID=3459; 
F5  BCID=3459; 
F6  BCID=3459; 
F7  BCID=3459; 
F8  BCID=3459; 
F9  BCID=3460; 
F10  BCID=3459; 
F11  BCID=3460; 
F12  BCID=0; 
F13  BCID=0; 
F14  BCID=3460; 
F15  BCID=3459; 
F16  BCID=3459; 
F17  BCID=3459; 
F18  BCID=3459; 
F19  BCID=3460; 
F20  BCID=3459; 
F21  BCID=3459; 
F22  BCID=3459; 
F23  BCID=3459; 
F24  BCID=0; 
F25  BCID=0; 
F26  BCID=3459; 
F27  BCID=3459; 
F28  BCID=3459; 
F29  BCID=3459; 
F30  BCID=3459; 
F31  BCID=3459; 
F32  BCID=3459; 
F33  BCID=3459; 
F34  BCID=3459; 
F35  BCID=3460; 
F36  BCID=0; 
F37  BCID=0; 
F38  BCID=3459; 
F39  BCID=3459; 
F40  BCID=3459; 
F41  BCID=3459; 
F42  BCID=3459; 
F43  BCID=3460; 
F44  BCID=3459; 
F45  BCID=3459; 
F46  BCID=3459; 
F47  BCID=3459; 
48 fibers are read!

******************** Start to read LArId info: ********************
SCname=1D_P1; channelId=955253248; 
SCname=1C_P1; channelId=955252736; 
SCname=2D_P1; channelId=955254272; 
SCname=2C_P1; channelId=955253760; 
SCname=3D_P1; channelId=955255296; 
SCname=3C_P1; channelId=955254784; 
SCname=4D_P1; channelId=955256320; 
SCname=4C_P1; channelId=955255808; 
SCname=5D_P1; channelId=955257344; 
SCname=5C_P1; channelId=955256832; 
SCname=6D_P1; channelId=955258368; 
SCname=6C_P1; channelId=955257856; 
SCname=7D_P1; channelId=955259392; 
SCname=7C_P1; channelId=955258880; 
SCname=8D_P1; channelId=955260416; 
SCname=8C_P1; channelId=955259904; 
SCname=1D_F1; channelId=955268608; 
SCname=1D_F2; channelId=955269632; 
SCname=1D_F3; channelId=955270656; 
SCname=1D_F4; channelId=955271680; 
SCname=2D_F1; channelId=955272704; 
SCname=2D_F2; channelId=955273728; 
SCname=2D_F3; channelId=955274752; 
SCname=2D_F4; channelId=955275776; 
SCname=1C_F1; channelId=955268096; 
SCname=1C_F2; channelId=955269120; 
SCname=1C_F3; channelId=955270144; 
SCname=1C_F4; channelId=955271168; 
SCname=2C_F1; channelId=955272192; 
SCname=2C_F2; channelId=955273216; 
SCname=2C_F3; channelId=955274240; 
SCname=2C_F4; channelId=955275264; 
SCname=3D_F1; channelId=955276800; 
SCname=3D_F2; channelId=955277824; 
SCname=3D_F3; channelId=955278848; 
SCname=3D_F4; channelId=955279872; 
SCname=4D_F1; channelId=955280896; 
SCname=4D_F2; channelId=955281920; 
SCname=4D_F3; channelId=955282944; 
SCname=4D_F4; channelId=955283968; 
SCname=3C_F1; channelId=955276288; 
SCname=3C_F2; channelId=955277312; 
SCname=3C_F3; channelId=955278336; 
SCname=3C_F4; channelId=955279360; 
SCname=4C_F1; channelId=955280384; 
SCname=4C_F2; channelId=955281408; 
SCname=4C_F3; channelId=955282432; 
SCname=4C_F4; channelId=955283456; 
SCname=5D_F1; channelId=955284992; 
SCname=5D_F2; channelId=955286016; 
SCname=5D_F3; channelId=955287040; 
SCname=5D_F4; channelId=955288064; 
SCname=6D_F1; channelId=955289088; 
SCname=6D_F2; channelId=955290112; 
SCname=6D_F3; channelId=955291136; 
SCname=6D_F4; channelId=955292160; 
SCname=5C_F1; channelId=955284480; 
SCname=5C_F2; channelId=955285504; 
SCname=5C_F3; channelId=955286528; 
SCname=5C_F4; channelId=955287552; 
SCname=6C_F1; channelId=955288576; 
SCname=6C_F2; channelId=955289600; 
SCname=6C_F3; channelId=955290624; 
SCname=6C_F4; channelId=955291648; 
SCname=7D_F1; channelId=955293184; 
SCname=7D_F2; channelId=955294208; 
SCname=7D_F3; channelId=955295232; 
SCname=7D_F4; channelId=955296256; 
SCname=8D_F1; channelId=955297280; 
SCname=8D_F2; channelId=955298304; 
SCname=8D_F3; channelId=955299328; 
SCname=8D_F4; channelId=955300352; 
SCname=7C_F1; channelId=955292672; 
SCname=7C_F2; channelId=955293696; 
SCname=7C_F3; channelId=955294720; 
SCname=7C_F4; channelId=955295744; 
SCname=8C_F1; channelId=955296768; 
SCname=8C_F2; channelId=955297792; 
SCname=8C_F3; channelId=955298816; 
SCname=8C_F4; channelId=955299840; 
SCname=1D_B1; channelId=955387392; 
SCname=2D_B1; channelId=955388416; 
SCname=3D_B1; channelId=955389440; 
SCname=4D_B1; channelId=955390464; 
SCname=5D_B1; channelId=955391488; 
SCname=6D_B1; channelId=955392512; 
SCname=7D_B1; channelId=955393536; 
SCname=8D_B1; channelId=955394560; 
SCname=1C_B1; channelId=955386880; 
SCname=2C_B1; channelId=955387904; 
SCname=3C_B1; channelId=955388928; 
SCname=4C_B1; channelId=955389952; 
SCname=5C_B1; channelId=955390976; 
SCname=6C_B1; channelId=955392000; 
SCname=7C_B1; channelId=955393024; 
SCname=8C_B1; channelId=955394048; 
SCname=1D_M1; channelId=955329024; 
SCname=1D_M2; channelId=955330048; 
SCname=1D_M3; channelId=955331072; 
SCname=1D_M4; channelId=955332096; 
SCname=2D_M1; channelId=955333120; 
SCname=2D_M2; channelId=955334144; 
SCname=2D_M3; channelId=955335168; 
SCname=2D_M4; channelId=955336192; 
SCname=3D_M1; channelId=955337216; 
SCname=3D_M2; channelId=955338240; 
SCname=3D_M3; channelId=955339264; 
SCname=3D_M4; channelId=955340288; 
SCname=4D_M1; channelId=955341312; 
SCname=4D_M2; channelId=955342336; 
SCname=4D_M3; channelId=955343360; 
SCname=4D_M4; channelId=955344384; 
SCname=1C_M1; channelId=955328512; 
SCname=1C_M2; channelId=955329536; 
SCname=1C_M3; channelId=955330560; 
SCname=1C_M4; channelId=955331584; 
SCname=2C_M1; channelId=955332608; 
SCname=2C_M2; channelId=955333632; 
SCname=2C_M3; channelId=955334656; 
SCname=2C_M4; channelId=955335680; 
SCname=3C_M1; channelId=955336704; 
SCname=3C_M2; channelId=955337728; 
SCname=3C_M3; channelId=955338752; 
SCname=3C_M4; channelId=955339776; 
SCname=4C_M1; channelId=955340800; 
SCname=4C_M2; channelId=955341824; 
SCname=4C_M3; channelId=955342848; 
SCname=4C_M4; channelId=955343872; 
SCname=5D_M1; channelId=955345408; 
SCname=5D_M2; channelId=955346432; 
SCname=5D_M3; channelId=955347456; 
SCname=5D_M4; channelId=955348480; 
SCname=6D_M1; channelId=955349504; 
SCname=6D_M2; channelId=955350528; 
SCname=6D_M3; channelId=955351552; 
SCname=6D_M4; channelId=955352576; 
SCname=7D_M1; channelId=955353600; 
SCname=7D_M2; channelId=955354624; 
SCname=7D_M3; channelId=955355648; 
SCname=7D_M4; channelId=955356672; 
SCname=8D_M1; channelId=955357696; 
SCname=8D_M2; channelId=955358720; 
SCname=8D_M3; channelId=955359744; 
SCname=8D_M4; channelId=955360768; 
SCname=5C_M1; channelId=955344896; 
SCname=5C_M2; channelId=955345920; 
SCname=5C_M3; channelId=955346944; 
SCname=5C_M4; channelId=955347968; 
SCname=6C_M1; channelId=955348992; 
SCname=6C_M2; channelId=955350016; 
SCname=6C_M3; channelId=955351040; 
SCname=6C_M4; channelId=955352064; 
SCname=7C_M1; channelId=955353088; 
SCname=7C_M2; channelId=955354112; 
SCname=7C_M3; channelId=955355136; 
SCname=7C_M4; channelId=955356160; 
SCname=8C_M1; channelId=955357184; 
SCname=8C_M2; channelId=955358208; 
SCname=8C_M3; channelId=955359232; 
SCname=8C_M4; channelId=955360256; 
SCname=1B_P1; channelId=955777536; 
SCname=1A_P1; channelId=955777024; 
SCname=2B_P1; channelId=955778560; 
SCname=2A_P1; channelId=955778048; 
SCname=3B_P1; channelId=955779584; 
SCname=3A_P1; channelId=955779072; 
SCname=4B_P1; channelId=955780608; 
SCname=4A_P1; channelId=955780096; 
SCname=5B_P1; channelId=955781632; 
SCname=5A_P1; channelId=955781120; 
SCname=6B_P1; channelId=955782656; 
SCname=6A_P1; channelId=955782144; 
SCname=7B_P1; channelId=955783680; 
SCname=7A_P1; channelId=955783168; 
SCname=8B_P1; channelId=955784704; 
SCname=8A_P1; channelId=955784192; 
SCname=1B_F1; channelId=955792896; 
SCname=1B_F2; channelId=955793920; 
SCname=1B_F3; channelId=955794944; 
SCname=1B_F4; channelId=955795968; 
SCname=2B_F1; channelId=955796992; 
SCname=2B_F2; channelId=955798016; 
SCname=2B_F3; channelId=955799040; 
SCname=2B_F4; channelId=955800064; 
SCname=1A_F1; channelId=955792384; 
SCname=1A_F2; channelId=955793408; 
SCname=1A_F3; channelId=955794432; 
SCname=1A_F4; channelId=955795456; 
SCname=2A_F1; channelId=955796480; 
SCname=2A_F2; channelId=955797504; 
SCname=2A_F3; channelId=955798528; 
SCname=2A_F4; channelId=955799552; 
SCname=3B_F1; channelId=955801088; 
SCname=3B_F2; channelId=955802112; 
SCname=3B_F3; channelId=955803136; 
SCname=3B_F4; channelId=955804160; 
SCname=4B_F1; channelId=955805184; 
SCname=4B_F2; channelId=955806208; 
SCname=4B_F3; channelId=955807232; 
SCname=4B_F4; channelId=955808256; 
SCname=3A_F1; channelId=955800576; 
SCname=3A_F2; channelId=955801600; 
SCname=3A_F3; channelId=955802624; 
SCname=3A_F4; channelId=955803648; 
SCname=4A_F1; channelId=955804672; 
SCname=4A_F2; channelId=955805696; 
SCname=4A_F3; channelId=955806720; 
SCname=4A_F4; channelId=955807744; 
SCname=5B_F1; channelId=955809280; 
SCname=5B_F2; channelId=955810304; 
SCname=5B_F3; channelId=955811328; 
SCname=5B_F4; channelId=955812352; 
SCname=6B_F1; channelId=955813376; 
SCname=6B_F2; channelId=955814400; 
SCname=6B_F3; channelId=955815424; 
SCname=6B_F4; channelId=955816448; 
SCname=5A_F1; channelId=955808768; 
SCname=5A_F2; channelId=955809792; 
SCname=5A_F3; channelId=955810816; 
SCname=5A_F4; channelId=955811840; 
SCname=6A_F1; channelId=955812864; 
SCname=6A_F2; channelId=955813888; 
SCname=6A_F3; channelId=955814912; 
SCname=6A_F4; channelId=955815936; 
SCname=7B_F1; channelId=955817472; 
SCname=7B_F2; channelId=955818496; 
SCname=7B_F3; channelId=955819520; 
SCname=7B_F4; channelId=955820544; 
SCname=8B_F1; channelId=955821568; 
SCname=8B_F2; channelId=955822592; 
SCname=8B_F3; channelId=955823616; 
SCname=8B_F4; channelId=955824640; 
SCname=7A_F1; channelId=955816960; 
SCname=7A_F2; channelId=955817984; 
SCname=7A_F3; channelId=955819008; 
SCname=7A_F4; channelId=955820032; 
SCname=8A_F1; channelId=955821056; 
SCname=8A_F2; channelId=955822080; 
SCname=8A_F3; channelId=955823104; 
SCname=8A_F4; channelId=955824128; 
SCname=1B_B1; channelId=955911680; 
SCname=2B_B1; channelId=955912704; 
SCname=3B_B1; channelId=955913728; 
SCname=4B_B1; channelId=955914752; 
SCname=5B_B1; channelId=955915776; 
SCname=6B_B1; channelId=955916800; 
SCname=7B_B1; channelId=955917824; 
SCname=8B_B1; channelId=955918848; 
SCname=1A_B1; channelId=955911168; 
SCname=2A_B1; channelId=955912192; 
SCname=3A_B1; channelId=955913216; 
SCname=4A_B1; channelId=955914240; 
SCname=5A_B1; channelId=955915264; 
SCname=6A_B1; channelId=955916288; 
SCname=7A_B1; channelId=955917312; 
SCname=8A_B1; channelId=955918336; 
SCname=1B_M1; channelId=955853312; 
SCname=1B_M2; channelId=955854336; 
SCname=1B_M3; channelId=955855360; 
SCname=1B_M4; channelId=955856384; 
SCname=2B_M1; channelId=955857408; 
SCname=2B_M2; channelId=955858432; 
SCname=2B_M3; channelId=955859456; 
SCname=2B_M4; channelId=955860480; 
SCname=3B_M1; channelId=955861504; 
SCname=3B_M2; channelId=955862528; 
SCname=3B_M3; channelId=955863552; 
SCname=3B_M4; channelId=955864576; 
SCname=4B_M1; channelId=955865600; 
SCname=4B_M2; channelId=955866624; 
SCname=4B_M3; channelId=955867648; 
SCname=4B_M4; channelId=955868672; 
SCname=1A_M1; channelId=955852800; 
SCname=1A_M2; channelId=955853824; 
SCname=1A_M3; channelId=955854848; 
SCname=1A_M4; channelId=955855872; 
SCname=2A_M1; channelId=955856896; 
SCname=2A_M2; channelId=955857920; 
SCname=2A_M3; channelId=955858944; 
SCname=2A_M4; channelId=955859968; 
SCname=3A_M1; channelId=955860992; 
SCname=3A_M2; channelId=955862016; 
SCname=3A_M3; channelId=955863040; 
SCname=3A_M4; channelId=955864064; 
SCname=4A_M1; channelId=955865088; 
SCname=4A_M2; channelId=955866112; 
SCname=4A_M3; channelId=955867136; 
SCname=4A_M4; channelId=955868160; 
SCname=5B_M1; channelId=955869696; 
SCname=5B_M2; channelId=955870720; 
SCname=5B_M3; channelId=955871744; 
SCname=5B_M4; channelId=955872768; 
SCname=6B_M1; channelId=955873792; 
SCname=6B_M2; channelId=955874816; 
SCname=6B_M3; channelId=955875840; 
SCname=6B_M4; channelId=955876864; 
SCname=7B_M1; channelId=955877888; 
SCname=7B_M2; channelId=955878912; 
SCname=7B_M3; channelId=955879936; 
SCname=7B_M4; channelId=955880960; 
SCname=8B_M1; channelId=955881984; 
SCname=8B_M2; channelId=955883008; 
SCname=8B_M3; channelId=955884032; 
SCname=8B_M4; channelId=955885056; 
SCname=5A_M1; channelId=955869184; 
SCname=5A_M2; channelId=955870208; 
SCname=5A_M3; channelId=955871232; 
SCname=5A_M4; channelId=955872256; 
SCname=6A_M1; channelId=955873280; 
SCname=6A_M2; channelId=955874304; 
SCname=6A_M3; channelId=955875328; 
SCname=6A_M4; channelId=955876352; 
SCname=7A_M1; channelId=955877376; 
SCname=7A_M2; channelId=955878400; 
SCname=7A_M3; channelId=955879424; 
SCname=7A_M4; channelId=955880448; 
SCname=8A_M1; channelId=955881472; 
SCname=8A_M2; channelId=955882496; 
SCname=8A_M3; channelId=955883520; 
SCname=8A_M4; channelId=955884544; 
320 SCs are read!  LATOME is EMBC_9

******************** Start to read SCs info per fiber: ********************
IN F3 1B_B1 2B_B1 4B_B1 3B_B1 6B_B1 5B_B1 8B_B1 7B_B1
IN F4 2B_M2 2B_M1 2B_M4 2B_M3 1B_M3 1B_M4 1B_M1 1B_M2
IN F5 3B_M1 3B_M2 3B_M4 3B_M3 4B_M4 4B_M3 4B_M2 4B_M1
IN F6 6B_F4 6B_F3 6B_F2 6B_F1 5B_F1 5B_F2 5B_F3 5B_F4
IN F7 7B_M1 7B_M2 7B_M3 7B_M4 8B_M3 8B_M4 8B_M2 8B_M1
IN F8 8B_P1 7B_P1 5B_P1 6B_P1 4B_P1 3B_P1 2B_P1 1B_P1
IN F9 5B_M1 5B_M2 5B_M3 5B_M4 6B_M4 6B_M3 6B_M1 6B_M2
IN F10 4B_F1 4B_F2 4B_F4 4B_F3 3B_F4 3B_F3 3B_F2 3B_F1
IN F11 7B_F1 7B_F2 7B_F3 7B_F4 8B_F1 8B_F2 8B_F4 8B_F3
IN F12 2B_F3 2B_F4 2B_F2 2B_F1 1B_F4 1B_F3 1B_F2 1B_F1
IN F15 1A_F2 1A_F1 1A_F4 1A_F3 2A_F1 2A_F2 2A_F3 2A_F4
IN F16 8A_M2 8A_M1 8A_M4 8A_M3 7A_M4 7A_M3 7A_M1 7A_M2
IN F17 3A_F1 3A_F2 3A_F3 3A_F4 4A_F1 4A_F2 4A_F4 4A_F3
IN F18 6A_M3 6A_M4 6A_M1 6A_M2 5A_M2 5A_M1 5A_M4 5A_M3
IN F19 5A_F2 5A_F1 5A_F3 5A_F4 6A_F4 6A_F3 6A_F1 6A_F2
IN F20 3A_M1 3A_M2 3A_M3 3A_M4 4A_M4 4A_M3 4A_M1 4A_M2
IN F21 7A_F2 7A_F1 7A_F3 7A_F4 8A_F2 8A_F1 8A_F4 8A_F3
IN F22 7A_P1 8A_P1 6A_P1 5A_P1 2A_P1 1A_P1 3A_P1 4A_P1
IN F23 1A_M2 1A_M1 1A_M3 1A_M4 2A_M4 2A_M3 2A_M1 2A_M2
IN F24 7A_B1 8A_B1 6A_B1 5A_B1 1A_B1 2A_B1 3A_B1 4A_B1
IN F27 1D_B1 2D_B1 4D_B1 3D_B1 6D_B1 5D_B1 8D_B1 7D_B1
IN F28 2D_M2 2D_M1 2D_M4 2D_M3 1D_M3 1D_M4 1D_M1 1D_M2
IN F29 3D_M1 3D_M2 3D_M4 3D_M3 4D_M4 4D_M3 4D_M2 4D_M1
IN F30 6D_F4 6D_F3 6D_F2 6D_F1 5D_F1 5D_F2 5D_F3 5D_F4
IN F31 7D_M1 7D_M2 7D_M3 7D_M4 8D_M3 8D_M4 8D_M2 8D_M1
IN F32 8D_P1 7D_P1 5D_P1 6D_P1 4D_P1 3D_P1 2D_P1 1D_P1
IN F33 5D_M1 5D_M2 5D_M3 5D_M4 6D_M4 6D_M3 6D_M1 6D_M2
IN F34 4D_F1 4D_F2 4D_F4 4D_F3 3D_F4 3D_F3 3D_F2 3D_F1
IN F35 7D_F1 7D_F2 7D_F3 7D_F4 8D_F1 8D_F2 8D_F4 8D_F3
IN F36 2D_F3 2D_F4 2D_F2 2D_F1 1D_F4 1D_F3 1D_F2 1D_F1
IN F39 1C_F2 1C_F1 1C_F4 1C_F3 2C_F1 2C_F2 2C_F3 2C_F4
IN F40 8C_M2 8C_M1 8C_M4 8C_M3 7C_M4 7C_M3 7C_M1 7C_M2
IN F41 3C_F1 3C_F2 3C_F3 3C_F4 4C_F1 4C_F2 4C_F4 4C_F3
IN F42 6C_M3 6C_M4 6C_M1 6C_M2 5C_M2 5C_M1 5C_M4 5C_M3
IN F43 5C_F2 5C_F1 5C_F3 5C_F4 6C_F4 6C_F3 6C_F1 6C_F2
IN F44 3C_M1 3C_M2 3C_M3 3C_M4 4C_M4 4C_M3 4C_M1 4C_M2
IN F45 7C_F2 7C_F1 7C_F3 7C_F4 8C_F2 8C_F1 8C_F4 8C_F3
IN F46 7C_P1 8C_P1 6C_P1 5C_P1 2C_P1 1C_P1 3C_P1 4C_P1
IN F47 1C_M2 1C_M1 1C_M3 1C_M4 2C_M4 2C_M3 2C_M1 2C_M2
IN F48 7C_B1 8C_B1 6C_B1 5C_B1 1C_B1 2C_B1 3C_B1 4C_B1
40 fibers are connected!
max_event=999

******************** Start to search BCID of peak sampling: ********************
IN F2; 1B_B1=0; 2B_B1=0; 4B_B1=0; 3B_B1=0; 6B_B1=0; 5B_B1=0; 8B_B1=0; 7B_B1=0;  BCID_rms=0; height=2081
IN F3; 2B_M2=0; 2B_M1=0; 2B_M4=0; 2B_M3=0; 1B_M3=0; 1B_M4=0; 1B_M1=0; 1B_M2=0;  BCID_rms=0; height=769
IN F4; 3B_M1=0; 3B_M2=0; 3B_M4=0; 3B_M3=0; 4B_M4=0; 4B_M3=0; 4B_M2=0; 4B_M1=0;  BCID_rms=0; height=751
IN F5; 6B_F4=0; 6B_F3=0; 6B_F2=0; 6B_F1=0; 5B_F1=0; 5B_F2=0; 5B_F3=0; 5B_F4=0;  BCID_rms=0; height=722
IN F6; 7B_M1=0; 7B_M2=0; 7B_M3=0; 7B_M4=0; 8B_M3=0; 8B_M4=0; 8B_M2=0; 8B_M1=0;  BCID_rms=0; height=743
IN F7; 8B_P1=0; 7B_P1=0; 5B_P1=0; 6B_P1=0; 4B_P1=0; 3B_P1=0; 2B_P1=0; 1B_P1=0;  BCID_rms=0; height=66
IN F8; 5B_M1=0; 5B_M2=0; 5B_M3=0; 5B_M4=0; 6B_M4=0; 6B_M3=0; 6B_M1=0; 6B_M2=0;  BCID_rms=0; height=722
IN F9; 4B_F1=-1; 4B_F2=-1; 4B_F4=-1; 4B_F3=-1; 3B_F4=-1; 3B_F3=-1; 3B_F2=-1; 3B_F1=-1;  BCID_rms=0; height=682
IN F10; 7B_F1=0; 7B_F2=0; 7B_F3=0; 7B_F4=0; 8B_F1=0; 8B_F2=0; 8B_F4=0; 8B_F3=0;  BCID_rms=0; height=721
IN F11; 2B_F3=-1; 2B_F4=-1; 2B_F2=-1; 2B_F1=-1; 1B_F4=-1; 1B_F3=-1; 1B_F2=-1; 1B_F1=-1;  BCID_rms=0; height=668
IN F14; 1A_F2=-1; 1A_F1=-1; 1A_F4=-1; 1A_F3=-1; 2A_F1=-1; 2A_F2=-1; 2A_F3=-1; 2A_F4=-1;  BCID_rms=0; height=678
IN F15; 8A_M2=0; 8A_M1=0; 8A_M4=0; 8A_M3=0; 7A_M4=0; 7A_M3=0; 7A_M1=0; 7A_M2=0;  BCID_rms=0; height=741
IN F16; 3A_F1=0; 3A_F2=0; 3A_F3=0; 3A_F4=0; 4A_F1=0; 4A_F2=0; 4A_F4=0; 4A_F3=0;  BCID_rms=0; height=686
IN F17; 6A_M3=0; 6A_M4=0; 6A_M1=0; 6A_M2=0; 5A_M2=0; 5A_M1=0; 5A_M4=0; 5A_M3=0;  BCID_rms=0; height=725
IN F18; 5A_F2=0; 5A_F1=0; 5A_F3=0; 5A_F4=0; 6A_F4=0; 6A_F3=0; 6A_F1=0; 6A_F2=0;  BCID_rms=0; height=700
IN F19; 3A_M1=-1; 3A_M2=-1; 3A_M3=-1; 3A_M4=-1; 4A_M4=-1; 4A_M3=-1; 4A_M1=-1; 4A_M2=-1;  BCID_rms=0; height=733
IN F20; 7A_F2=0; 7A_F1=0; 7A_F3=0; 7A_F4=0; 8A_F2=0; 8A_F1=0; 8A_F4=0; 8A_F3=0;  BCID_rms=0; height=710
IN F21; 7A_P1=0; 8A_P1=0; 6A_P1=0; 5A_P1=0; 2A_P1=0; 1A_P1=0; 3A_P1=0; 4A_P1=0;  BCID_rms=0; height=66
IN F22; 1A_M2=0; 1A_M1=0; 1A_M3=0; 1A_M4=0; 2A_M4=0; 2A_M3=0; 2A_M1=0; 2A_M2=0;  BCID_rms=0; height=785
IN F23; 7A_B1=0; 8A_B1=0; 6A_B1=0; 5A_B1=0; 1A_B1=0; 2A_B1=0; 3A_B1=0; 4A_B1=0;  BCID_rms=0; height=2099
IN F26; 1D_B1=0; 2D_B1=0; 4D_B1=0; 3D_B1=0; 6D_B1=0; 5D_B1=0; 8D_B1=0; 7D_B1=0;  BCID_rms=0; height=2059
IN F27; 2D_M2=0; 2D_M1=0; 2D_M4=0; 2D_M3=0; 1D_M3=0; 1D_M4=0; 1D_M1=0; 1D_M2=0;  BCID_rms=0; height=753
IN F28; 3D_M1=0; 3D_M2=0; 3D_M4=0; 3D_M3=0; 4D_M4=0; 4D_M3=0; 4D_M2=0; 4D_M1=0;  BCID_rms=0; height=785
IN F29; 6D_F4=0; 6D_F3=0; 6D_F2=0; 6D_F1=0; 5D_F1=0; 5D_F2=0; 5D_F3=0; 5D_F4=0;  BCID_rms=0; height=752
IN F30; 7D_M1=0; 7D_M2=0; 7D_M3=0; 7D_M4=0; 8D_M3=0; 8D_M4=0; 8D_M2=0; 8D_M1=0;  BCID_rms=0; height=730
IN F31; 8D_P1=0; 7D_P1=0; 5D_P1=0; 6D_P1=0; 4D_P1=0; 3D_P1=0; 2D_P1=0; 1D_P1=0;  BCID_rms=0; height=64
IN F32; 5D_M1=0; 5D_M2=0; 5D_M3=0; 5D_M4=0; 6D_M4=0; 6D_M3=0; 6D_M1=0; 6D_M2=0;  BCID_rms=0; height=717
IN F33; 4D_F1=0; 4D_F2=0; 4D_F4=0; 4D_F3=0; 3D_F4=0; 3D_F3=0; 3D_F2=0; 3D_F1=0;  BCID_rms=0; height=701
IN F34; 7D_F1=0; 7D_F2=0; 7D_F3=0; 7D_F4=0; 8D_F1=0; 8D_F2=0; 8D_F4=0; 8D_F3=0;  BCID_rms=0; height=723
IN F35; 2D_F3=-1; 2D_F4=-1; 2D_F2=-1; 2D_F1=-1; 1D_F4=-1; 1D_F3=-1; 1D_F2=-1; 1D_F1=-1;  BCID_rms=0; height=669
IN F38; 1C_F2=0; 1C_F1=0; 1C_F4=0; 1C_F3=0; 2C_F1=0; 2C_F2=0; 2C_F3=0; 2C_F4=0;  BCID_rms=0; height=667
IN F39; 8C_M2=0; 8C_M1=0; 8C_M4=0; 8C_M3=0; 7C_M4=0; 7C_M3=0; 7C_M1=0; 7C_M2=0;  BCID_rms=0; height=711
IN F40; 3C_F1=0; 3C_F2=0; 3C_F3=0; 3C_F4=0; 4C_F1=0; 4C_F2=0; 4C_F4=0; 4C_F3=0;  BCID_rms=0; height=696
IN F41; 6C_M3=0; 6C_M4=0; 6C_M1=0; 6C_M2=0; 5C_M2=0; 5C_M1=0; 5C_M4=0; 5C_M3=0;  BCID_rms=0; height=723
IN F42; 5C_F2=0; 5C_F1=0; 5C_F3=0; 5C_F4=0; 6C_F4=0; 6C_F3=0; 6C_F1=0; 6C_F2=0;  BCID_rms=0; height=718
IN F43; 3C_M1=-1; 3C_M2=-1; 3C_M3=-1; 3C_M4=-1; 4C_M4=-1; 4C_M3=-1; 4C_M1=-1; 4C_M2=-1;  BCID_rms=0; height=705
IN F44; 7C_F2=0; 7C_F1=0; 7C_F3=0; 7C_F4=0; 8C_F2=0; 8C_F1=0; 8C_F4=0; 8C_F3=0;  BCID_rms=0; height=712
IN F45; 7C_P1=0; 8C_P1=0; 6C_P1=0; 5C_P1=0; 2C_P1=0; 1C_P1=0; 3C_P1=0; 4C_P1=0;  BCID_rms=0; height=65
IN F46; 1C_M2=0; 1C_M1=0; 1C_M3=0; 1C_M4=0; 2C_M4=0; 2C_M3=0; 2C_M1=0; 2C_M2=0;  BCID_rms=0; height=754
IN F47; 7C_B1=0; 8C_B1=0; 6C_B1=0; 5C_B1=0; 1C_B1=0; 2C_B1=0; 3C_B1=0; 4C_B1=0;  BCID_rms=0; height=2047
