
Processing macro.C+("inputfile/LArDigits_pusleall_408522.root","EMBC_14","outputs/hist/LArDigits_pusleall_408522_hist.root","results/LArDigits_pusleall_408522/latome64.ini","LATOME_ini_file/latome64.ini",false)...

******************** Start to read ini BCID: ********************
input file: LATOME_ini_file/latome64.ini
F0  BCID=0; 
F1  BCID=0; 
F2  BCID=3459; 
F3  BCID=3459; 
F4  BCID=3459; 
F5  BCID=3459; 
F6  BCID=3459; 
F7  BCID=3459; 
F8  BCID=3459; 
F9  BCID=3459; 
F10  BCID=3459; 
F11  BCID=3459; 
F12  BCID=0; 
F13  BCID=0; 
F14  BCID=3459; 
F15  BCID=3459; 
F16  BCID=3459; 
F17  BCID=3459; 
F18  BCID=3459; 
F19  BCID=3459; 
F20  BCID=3459; 
F21  BCID=3459; 
F22  BCID=3459; 
F23  BCID=3459; 
F24  BCID=0; 
F25  BCID=0; 
F26  BCID=3459; 
F27  BCID=3459; 
F28  BCID=3459; 
F29  BCID=3459; 
F30  BCID=3459; 
F31  BCID=3459; 
F32  BCID=3459; 
F33  BCID=3459; 
F34  BCID=3459; 
F35  BCID=3459; 
F36  BCID=0; 
F37  BCID=0; 
F38  BCID=3459; 
F39  BCID=3459; 
F40  BCID=3459; 
F41  BCID=3459; 
F42  BCID=3459; 
F43  BCID=3459; 
F44  BCID=3459; 
F45  BCID=3459; 
F46  BCID=3459; 
F47  BCID=3459; 
48 fibers are read!

******************** Start to read LArId info: ********************
SCname=1H_P1; channelId=950010368; 
SCname=1G_P1; channelId=950009856; 
SCname=2H_P1; channelId=950011392; 
SCname=2G_P1; channelId=950010880; 
SCname=3H_P1; channelId=950012416; 
SCname=3G_P1; channelId=950011904; 
SCname=4H_P1; channelId=950013440; 
SCname=4G_P1; channelId=950012928; 
SCname=5H_P1; channelId=950014464; 
SCname=5G_P1; channelId=950013952; 
SCname=6H_P1; channelId=950015488; 
SCname=6G_P1; channelId=950014976; 
SCname=7H_P1; channelId=950016512; 
SCname=7G_P1; channelId=950016000; 
SCname=8H_P1; channelId=950017536; 
SCname=8G_P1; channelId=950017024; 
SCname=1H_F1; channelId=950025728; 
SCname=1H_F2; channelId=950026752; 
SCname=1H_F3; channelId=950027776; 
SCname=1H_F4; channelId=950028800; 
SCname=2H_F1; channelId=950029824; 
SCname=2H_F2; channelId=950030848; 
SCname=2H_F3; channelId=950031872; 
SCname=2H_F4; channelId=950032896; 
SCname=1G_F1; channelId=950025216; 
SCname=1G_F2; channelId=950026240; 
SCname=1G_F3; channelId=950027264; 
SCname=1G_F4; channelId=950028288; 
SCname=2G_F1; channelId=950029312; 
SCname=2G_F2; channelId=950030336; 
SCname=2G_F3; channelId=950031360; 
SCname=2G_F4; channelId=950032384; 
SCname=3H_F1; channelId=950033920; 
SCname=3H_F2; channelId=950034944; 
SCname=3H_F3; channelId=950035968; 
SCname=3H_F4; channelId=950036992; 
SCname=4H_F1; channelId=950038016; 
SCname=4H_F2; channelId=950039040; 
SCname=4H_F3; channelId=950040064; 
SCname=4H_F4; channelId=950041088; 
SCname=3G_F1; channelId=950033408; 
SCname=3G_F2; channelId=950034432; 
SCname=3G_F3; channelId=950035456; 
SCname=3G_F4; channelId=950036480; 
SCname=4G_F1; channelId=950037504; 
SCname=4G_F2; channelId=950038528; 
SCname=4G_F3; channelId=950039552; 
SCname=4G_F4; channelId=950040576; 
SCname=5H_F1; channelId=950042112; 
SCname=5H_F2; channelId=950043136; 
SCname=5H_F3; channelId=950044160; 
SCname=5H_F4; channelId=950045184; 
SCname=6H_F1; channelId=950046208; 
SCname=6H_F2; channelId=950047232; 
SCname=6H_F3; channelId=950048256; 
SCname=6H_F4; channelId=950049280; 
SCname=5G_F1; channelId=950041600; 
SCname=5G_F2; channelId=950042624; 
SCname=5G_F3; channelId=950043648; 
SCname=5G_F4; channelId=950044672; 
SCname=6G_F1; channelId=950045696; 
SCname=6G_F2; channelId=950046720; 
SCname=6G_F3; channelId=950047744; 
SCname=6G_F4; channelId=950048768; 
SCname=7H_F1; channelId=950050304; 
SCname=7H_F2; channelId=950051328; 
SCname=7H_F3; channelId=950052352; 
SCname=7H_F4; channelId=950053376; 
SCname=8H_F1; channelId=950054400; 
SCname=8H_F2; channelId=950055424; 
SCname=8H_F3; channelId=950056448; 
SCname=8H_F4; channelId=950057472; 
SCname=7G_F1; channelId=950049792; 
SCname=7G_F2; channelId=950050816; 
SCname=7G_F3; channelId=950051840; 
SCname=7G_F4; channelId=950052864; 
SCname=8G_F1; channelId=950053888; 
SCname=8G_F2; channelId=950054912; 
SCname=8G_F3; channelId=950055936; 
SCname=8G_F4; channelId=950056960; 
SCname=1H_B1; channelId=950144512; 
SCname=2H_B1; channelId=950145536; 
SCname=3H_B1; channelId=950146560; 
SCname=4H_B1; channelId=950147584; 
SCname=5H_B1; channelId=950148608; 
SCname=6H_B1; channelId=950149632; 
SCname=7H_B1; channelId=950150656; 
SCname=8H_B1; channelId=950151680; 
SCname=1G_B1; channelId=950144000; 
SCname=2G_B1; channelId=950145024; 
SCname=3G_B1; channelId=950146048; 
SCname=4G_B1; channelId=950147072; 
SCname=5G_B1; channelId=950148096; 
SCname=6G_B1; channelId=950149120; 
SCname=7G_B1; channelId=950150144; 
SCname=8G_B1; channelId=950151168; 
SCname=1H_M1; channelId=950086144; 
SCname=1H_M2; channelId=950087168; 
SCname=1H_M3; channelId=950088192; 
SCname=1H_M4; channelId=950089216; 
SCname=2H_M1; channelId=950090240; 
SCname=2H_M2; channelId=950091264; 
SCname=2H_M3; channelId=950092288; 
SCname=2H_M4; channelId=950093312; 
SCname=3H_M1; channelId=950094336; 
SCname=3H_M2; channelId=950095360; 
SCname=3H_M3; channelId=950096384; 
SCname=3H_M4; channelId=950097408; 
SCname=4H_M1; channelId=950098432; 
SCname=4H_M2; channelId=950099456; 
SCname=4H_M3; channelId=950100480; 
SCname=4H_M4; channelId=950101504; 
SCname=1G_M1; channelId=950085632; 
SCname=1G_M2; channelId=950086656; 
SCname=1G_M3; channelId=950087680; 
SCname=1G_M4; channelId=950088704; 
SCname=2G_M1; channelId=950089728; 
SCname=2G_M2; channelId=950090752; 
SCname=2G_M3; channelId=950091776; 
SCname=2G_M4; channelId=950092800; 
SCname=3G_M1; channelId=950093824; 
SCname=3G_M2; channelId=950094848; 
SCname=3G_M3; channelId=950095872; 
SCname=3G_M4; channelId=950096896; 
SCname=4G_M1; channelId=950097920; 
SCname=4G_M2; channelId=950098944; 
SCname=4G_M3; channelId=950099968; 
SCname=4G_M4; channelId=950100992; 
SCname=5H_M1; channelId=950102528; 
SCname=5H_M2; channelId=950103552; 
SCname=5H_M3; channelId=950104576; 
SCname=5H_M4; channelId=950105600; 
SCname=6H_M1; channelId=950106624; 
SCname=6H_M2; channelId=950107648; 
SCname=6H_M3; channelId=950108672; 
SCname=6H_M4; channelId=950109696; 
SCname=7H_M1; channelId=950110720; 
SCname=7H_M2; channelId=950111744; 
SCname=7H_M3; channelId=950112768; 
SCname=7H_M4; channelId=950113792; 
SCname=8H_M1; channelId=950114816; 
SCname=8H_M2; channelId=950115840; 
SCname=8H_M3; channelId=950116864; 
SCname=8H_M4; channelId=950117888; 
SCname=5G_M1; channelId=950102016; 
SCname=5G_M2; channelId=950103040; 
SCname=5G_M3; channelId=950104064; 
SCname=5G_M4; channelId=950105088; 
SCname=6G_M1; channelId=950106112; 
SCname=6G_M2; channelId=950107136; 
SCname=6G_M3; channelId=950108160; 
SCname=6G_M4; channelId=950109184; 
SCname=7G_M1; channelId=950110208; 
SCname=7G_M2; channelId=950111232; 
SCname=7G_M3; channelId=950112256; 
SCname=7G_M4; channelId=950113280; 
SCname=8G_M1; channelId=950114304; 
SCname=8G_M2; channelId=950115328; 
SCname=8G_M3; channelId=950116352; 
SCname=8G_M4; channelId=950117376; 
SCname=1F_P1; channelId=950534656; 
SCname=1E_P1; channelId=950534144; 
SCname=2F_P1; channelId=950535680; 
SCname=2E_P1; channelId=950535168; 
SCname=3F_P1; channelId=950536704; 
SCname=3E_P1; channelId=950536192; 
SCname=4F_P1; channelId=950537728; 
SCname=4E_P1; channelId=950537216; 
SCname=5F_P1; channelId=950538752; 
SCname=5E_P1; channelId=950538240; 
SCname=6F_P1; channelId=950539776; 
SCname=6E_P1; channelId=950539264; 
SCname=7F_P1; channelId=950540800; 
SCname=7E_P1; channelId=950540288; 
SCname=8F_P1; channelId=950541824; 
SCname=8E_P1; channelId=950541312; 
SCname=1F_F1; channelId=950550016; 
SCname=1F_F2; channelId=950551040; 
SCname=1F_F3; channelId=950552064; 
SCname=1F_F4; channelId=950553088; 
SCname=2F_F1; channelId=950554112; 
SCname=2F_F2; channelId=950555136; 
SCname=2F_F3; channelId=950556160; 
SCname=2F_F4; channelId=950557184; 
SCname=1E_F1; channelId=950549504; 
SCname=1E_F2; channelId=950550528; 
SCname=1E_F3; channelId=950551552; 
SCname=1E_F4; channelId=950552576; 
SCname=2E_F1; channelId=950553600; 
SCname=2E_F2; channelId=950554624; 
SCname=2E_F3; channelId=950555648; 
SCname=2E_F4; channelId=950556672; 
SCname=3F_F1; channelId=950558208; 
SCname=3F_F2; channelId=950559232; 
SCname=3F_F3; channelId=950560256; 
SCname=3F_F4; channelId=950561280; 
SCname=4F_F1; channelId=950562304; 
SCname=4F_F2; channelId=950563328; 
SCname=4F_F3; channelId=950564352; 
SCname=4F_F4; channelId=950565376; 
SCname=3E_F1; channelId=950557696; 
SCname=3E_F2; channelId=950558720; 
SCname=3E_F3; channelId=950559744; 
SCname=3E_F4; channelId=950560768; 
SCname=4E_F1; channelId=950561792; 
SCname=4E_F2; channelId=950562816; 
SCname=4E_F3; channelId=950563840; 
SCname=4E_F4; channelId=950564864; 
SCname=5F_F1; channelId=950566400; 
SCname=5F_F2; channelId=950567424; 
SCname=5F_F3; channelId=950568448; 
SCname=5F_F4; channelId=950569472; 
SCname=6F_F1; channelId=950570496; 
SCname=6F_F2; channelId=950571520; 
SCname=6F_F3; channelId=950572544; 
SCname=6F_F4; channelId=950573568; 
SCname=5E_F1; channelId=950565888; 
SCname=5E_F2; channelId=950566912; 
SCname=5E_F3; channelId=950567936; 
SCname=5E_F4; channelId=950568960; 
SCname=6E_F1; channelId=950569984; 
SCname=6E_F2; channelId=950571008; 
SCname=6E_F3; channelId=950572032; 
SCname=6E_F4; channelId=950573056; 
SCname=7F_F1; channelId=950574592; 
SCname=7F_F2; channelId=950575616; 
SCname=7F_F3; channelId=950576640; 
SCname=7F_F4; channelId=950577664; 
SCname=8F_F1; channelId=950578688; 
SCname=8F_F2; channelId=950579712; 
SCname=8F_F3; channelId=950580736; 
SCname=8F_F4; channelId=950581760; 
SCname=7E_F1; channelId=950574080; 
SCname=7E_F2; channelId=950575104; 
SCname=7E_F3; channelId=950576128; 
SCname=7E_F4; channelId=950577152; 
SCname=8E_F1; channelId=950578176; 
SCname=8E_F2; channelId=950579200; 
SCname=8E_F3; channelId=950580224; 
SCname=8E_F4; channelId=950581248; 
SCname=1F_B1; channelId=950668800; 
SCname=2F_B1; channelId=950669824; 
SCname=3F_B1; channelId=950670848; 
SCname=4F_B1; channelId=950671872; 
SCname=5F_B1; channelId=950672896; 
SCname=6F_B1; channelId=950673920; 
SCname=7F_B1; channelId=950674944; 
SCname=8F_B1; channelId=950675968; 
SCname=1E_B1; channelId=950668288; 
SCname=2E_B1; channelId=950669312; 
SCname=3E_B1; channelId=950670336; 
SCname=4E_B1; channelId=950671360; 
SCname=5E_B1; channelId=950672384; 
SCname=6E_B1; channelId=950673408; 
SCname=7E_B1; channelId=950674432; 
SCname=8E_B1; channelId=950675456; 
SCname=1F_M1; channelId=950610432; 
SCname=1F_M2; channelId=950611456; 
SCname=1F_M3; channelId=950612480; 
SCname=1F_M4; channelId=950613504; 
SCname=2F_M1; channelId=950614528; 
SCname=2F_M2; channelId=950615552; 
SCname=2F_M3; channelId=950616576; 
SCname=2F_M4; channelId=950617600; 
SCname=3F_M1; channelId=950618624; 
SCname=3F_M2; channelId=950619648; 
SCname=3F_M3; channelId=950620672; 
SCname=3F_M4; channelId=950621696; 
SCname=4F_M1; channelId=950622720; 
SCname=4F_M2; channelId=950623744; 
SCname=4F_M3; channelId=950624768; 
SCname=4F_M4; channelId=950625792; 
SCname=1E_M1; channelId=950609920; 
SCname=1E_M2; channelId=950610944; 
SCname=1E_M3; channelId=950611968; 
SCname=1E_M4; channelId=950612992; 
SCname=2E_M1; channelId=950614016; 
SCname=2E_M2; channelId=950615040; 
SCname=2E_M3; channelId=950616064; 
SCname=2E_M4; channelId=950617088; 
SCname=3E_M1; channelId=950618112; 
SCname=3E_M2; channelId=950619136; 
SCname=3E_M3; channelId=950620160; 
SCname=3E_M4; channelId=950621184; 
SCname=4E_M1; channelId=950622208; 
SCname=4E_M2; channelId=950623232; 
SCname=4E_M3; channelId=950624256; 
SCname=4E_M4; channelId=950625280; 
SCname=5F_M1; channelId=950626816; 
SCname=5F_M2; channelId=950627840; 
SCname=5F_M3; channelId=950628864; 
SCname=5F_M4; channelId=950629888; 
SCname=6F_M1; channelId=950630912; 
SCname=6F_M2; channelId=950631936; 
SCname=6F_M3; channelId=950632960; 
SCname=6F_M4; channelId=950633984; 
SCname=7F_M1; channelId=950635008; 
SCname=7F_M2; channelId=950636032; 
SCname=7F_M3; channelId=950637056; 
SCname=7F_M4; channelId=950638080; 
SCname=8F_M1; channelId=950639104; 
SCname=8F_M2; channelId=950640128; 
SCname=8F_M3; channelId=950641152; 
SCname=8F_M4; channelId=950642176; 
SCname=5E_M1; channelId=950626304; 
SCname=5E_M2; channelId=950627328; 
SCname=5E_M3; channelId=950628352; 
SCname=5E_M4; channelId=950629376; 
SCname=6E_M1; channelId=950630400; 
SCname=6E_M2; channelId=950631424; 
SCname=6E_M3; channelId=950632448; 
SCname=6E_M4; channelId=950633472; 
SCname=7E_M1; channelId=950634496; 
SCname=7E_M2; channelId=950635520; 
SCname=7E_M3; channelId=950636544; 
SCname=7E_M4; channelId=950637568; 
SCname=8E_M1; channelId=950638592; 
SCname=8E_M2; channelId=950639616; 
SCname=8E_M3; channelId=950640640; 
SCname=8E_M4; channelId=950641664; 
320 SCs are read!  LATOME is EMBC_14

******************** Start to read SCs info per fiber: ********************
IN F3 1F_B1 2F_B1 4F_B1 3F_B1 6F_B1 5F_B1 8F_B1 7F_B1
IN F4 2F_M2 2F_M1 2F_M4 2F_M3 1F_M3 1F_M4 1F_M1 1F_M2
IN F5 3F_M1 3F_M2 3F_M4 3F_M3 4F_M4 4F_M3 4F_M2 4F_M1
IN F6 6F_F4 6F_F3 6F_F2 6F_F1 5F_F1 5F_F2 5F_F3 5F_F4
IN F7 7F_M1 7F_M2 7F_M3 7F_M4 8F_M3 8F_M4 8F_M2 8F_M1
IN F8 8F_P1 7F_P1 5F_P1 6F_P1 4F_P1 3F_P1 2F_P1 1F_P1
IN F9 5F_M1 5F_M2 5F_M3 5F_M4 6F_M4 6F_M3 6F_M1 6F_M2
IN F10 4F_F1 4F_F2 4F_F4 4F_F3 3F_F4 3F_F3 3F_F2 3F_F1
IN F11 7F_F1 7F_F2 7F_F3 7F_F4 8F_F1 8F_F2 8F_F4 8F_F3
IN F12 2F_F3 2F_F4 2F_F2 2F_F1 1F_F4 1F_F3 1F_F2 1F_F1
IN F15 1E_F2 1E_F1 1E_F4 1E_F3 2E_F1 2E_F2 2E_F3 2E_F4
IN F16 8E_M2 8E_M1 8E_M4 8E_M3 7E_M4 7E_M3 7E_M1 7E_M2
IN F17 3E_F1 3E_F2 3E_F3 3E_F4 4E_F1 4E_F2 4E_F4 4E_F3
IN F18 6E_M3 6E_M4 6E_M1 6E_M2 5E_M2 5E_M1 5E_M4 5E_M3
IN F19 5E_F2 5E_F1 5E_F3 5E_F4 6E_F4 6E_F3 6E_F1 6E_F2
IN F20 3E_M1 3E_M2 3E_M3 3E_M4 4E_M4 4E_M3 4E_M1 4E_M2
IN F21 7E_F2 7E_F1 7E_F3 7E_F4 8E_F2 8E_F1 8E_F4 8E_F3
IN F22 7E_P1 8E_P1 6E_P1 5E_P1 2E_P1 1E_P1 3E_P1 4E_P1
IN F23 1E_M2 1E_M1 1E_M3 1E_M4 2E_M4 2E_M3 2E_M1 2E_M2
IN F24 7E_B1 8E_B1 6E_B1 5E_B1 1E_B1 2E_B1 3E_B1 4E_B1
IN F27 1H_B1 2H_B1 4H_B1 3H_B1 6H_B1 5H_B1 8H_B1 7H_B1
IN F28 2H_M2 2H_M1 2H_M4 2H_M3 1H_M3 1H_M4 1H_M1 1H_M2
IN F29 3H_M1 3H_M2 3H_M4 3H_M3 4H_M4 4H_M3 4H_M2 4H_M1
IN F30 6H_F4 6H_F3 6H_F2 6H_F1 5H_F1 5H_F2 5H_F3 5H_F4
IN F31 7H_M1 7H_M2 7H_M3 7H_M4 8H_M3 8H_M4 8H_M2 8H_M1
IN F32 8H_P1 7H_P1 5H_P1 6H_P1 4H_P1 3H_P1 2H_P1 1H_P1
IN F33 5H_M1 5H_M2 5H_M3 5H_M4 6H_M4 6H_M3 6H_M1 6H_M2
IN F34 4H_F1 4H_F2 4H_F4 4H_F3 3H_F4 3H_F3 3H_F2 3H_F1
IN F35 7H_F1 7H_F2 7H_F3 7H_F4 8H_F1 8H_F2 8H_F4 8H_F3
IN F36 2H_F3 2H_F4 2H_F2 2H_F1 1H_F4 1H_F3 1H_F2 1H_F1
IN F39 1G_F2 1G_F1 1G_F4 1G_F3 2G_F1 2G_F2 2G_F3 2G_F4
IN F40 8G_M2 8G_M1 8G_M4 8G_M3 7G_M4 7G_M3 7G_M1 7G_M2
IN F41 3G_F1 3G_F2 3G_F3 3G_F4 4G_F1 4G_F2 4G_F4 4G_F3
IN F42 6G_M3 6G_M4 6G_M1 6G_M2 5G_M2 5G_M1 5G_M4 5G_M3
IN F43 5G_F2 5G_F1 5G_F3 5G_F4 6G_F4 6G_F3 6G_F1 6G_F2
IN F44 3G_M1 3G_M2 3G_M3 3G_M4 4G_M4 4G_M3 4G_M1 4G_M2
IN F45 7G_F2 7G_F1 7G_F3 7G_F4 8G_F2 8G_F1 8G_F4 8G_F3
IN F46 7G_P1 8G_P1 6G_P1 5G_P1 2G_P1 1G_P1 3G_P1 4G_P1
IN F47 1G_M2 1G_M1 1G_M3 1G_M4 2G_M4 2G_M3 2G_M1 2G_M2
IN F48 7G_B1 8G_B1 6G_B1 5G_B1 1G_B1 2G_B1 3G_B1 4G_B1
40 fibers are connected!
max_event=999

******************** Start to search BCID of peak sampling: ********************
IN F2; 1F_B1=0; 2F_B1=0; 4F_B1=0; 3F_B1=0; 6F_B1=0; 5F_B1=0; 8F_B1=0; 7F_B1=0;  BCID_rms=0; height=1994
IN F3; 2F_M2=0; 2F_M1=0; 2F_M4=0; 2F_M3=0; 1F_M3=0; 1F_M4=0; 1F_M1=0; 1F_M2=0;  BCID_rms=0; height=774
IN F4; 3F_M1=0; 3F_M2=0; 3F_M4=0; 3F_M3=0; 4F_M4=0; 4F_M3=0; 4F_M2=0; 4F_M1=0;  BCID_rms=0; height=772
IN F5; 6F_F4=0; 6F_F3=0; 6F_F2=0; 6F_F1=0; 5F_F1=0; 5F_F2=0; 5F_F3=0; 5F_F4=0;  BCID_rms=0; height=777
IN F6; 7F_M1=0; 7F_M2=0; 7F_M3=0; 7F_M4=0; 8F_M3=0; 8F_M4=0; 8F_M2=0; 8F_M1=0;  BCID_rms=0; height=738
IN F7; 8F_P1=0; 7F_P1=0; 5F_P1=0; 6F_P1=0; 4F_P1=0; 3F_P1=0; 2F_P1=0; 1F_P1=0;  BCID_rms=0; height=66
IN F8; 5F_M1=0; 5F_M2=0; 5F_M3=0; 5F_M4=0; 6F_M4=0; 6F_M3=0; 6F_M1=0; 6F_M2=0;  BCID_rms=0; height=728
IN F9; 4F_F1=0; 4F_F2=0; 4F_F4=0; 4F_F3=0; 3F_F4=0; 3F_F3=0; 3F_F2=0; 3F_F1=0;  BCID_rms=0; height=731
IN F10; 7F_F1=0; 7F_F2=0; 7F_F3=0; 7F_F4=0; 8F_F1=0; 8F_F2=0; 8F_F4=0; 8F_F3=0;  BCID_rms=0; height=730
IN F11; 2F_F3=0; 2F_F4=0; 2F_F2=0; 2F_F1=0; 1F_F4=0; 1F_F3=0; 1F_F2=0; 1F_F1=0;  BCID_rms=0; height=679
IN F14; 1E_F2=0; 1E_F1=0; 1E_F4=0; 1E_F3=0; 2E_F1=0; 2E_F2=0; 2E_F3=0; 2E_F4=0;  BCID_rms=0; height=731
IN F15; 8E_M2=0; 8E_M1=0; 8E_M4=0; 8E_M3=0; 7E_M4=0; 7E_M3=0; 7E_M1=0; 7E_M2=0;  BCID_rms=0; height=734
IN F16; 3E_F1=0; 3E_F2=0; 3E_F3=0; 3E_F4=0; 4E_F1=0; 4E_F2=0; 4E_F4=0; 4E_F3=0;  BCID_rms=0; height=717
IN F17; 6E_M3=0; 6E_M4=0; 6E_M1=0; 6E_M2=0; 5E_M2=0; 5E_M1=0; 5E_M4=0; 5E_M3=0;  BCID_rms=0; height=727
IN F18; 5E_F2=0; 5E_F1=0; 5E_F3=0; 5E_F4=0; 6E_F4=0; 6E_F3=0; 6E_F1=0; 6E_F2=0;  BCID_rms=0; height=747
IN F19; 3E_M1=0; 3E_M2=0; 3E_M3=0; 3E_M4=0; 4E_M4=0; 4E_M3=0; 4E_M1=0; 4E_M2=0;  BCID_rms=0; height=708
IN F20; 7E_F2=0; 7E_F1=0; 7E_F3=0; 7E_F4=0; 8E_F2=0; 8E_F1=0; 8E_F4=0; 8E_F3=0;  BCID_rms=0; height=727
IN F21; 7E_P1=0; 8E_P1=0; 6E_P1=0; 5E_P1=0; 2E_P1=0; 1E_P1=0; 3E_P1=0; 4E_P1=0;  BCID_rms=0; height=68
IN F22; 1E_M2=0; 1E_M1=0; 1E_M3=0; 1E_M4=0; 2E_M4=0; 2E_M3=0; 2E_M1=0; 2E_M2=0;  BCID_rms=0; height=750
IN F23; 7E_B1=0; 8E_B1=0; 6E_B1=0; 5E_B1=0; 1E_B1=0; 2E_B1=0; 3E_B1=0; 4E_B1=0;  BCID_rms=0; height=2093
IN F26; 1H_B1=0; 2H_B1=0; 4H_B1=0; 3H_B1=0; 6H_B1=0; 5H_B1=0; 8H_B1=0; 7H_B1=0;  BCID_rms=0; height=2121
IN F27; 2H_M2=0; 2H_M1=0; 2H_M4=0; 2H_M3=0; 1H_M3=0; 1H_M4=0; 1H_M1=0; 1H_M2=0;  BCID_rms=0; height=797
IN F28; 3H_M1=0; 3H_M2=0; 3H_M4=0; 3H_M3=0; 4H_M4=0; 4H_M3=0; 4H_M2=0; 4H_M1=0;  BCID_rms=0; height=806
IN F29; 6H_F4=0; 6H_F3=0; 6H_F2=0; 6H_F1=0; 5H_F1=0; 5H_F2=0; 5H_F3=0; 5H_F4=0;  BCID_rms=0; height=755
IN F30; 7H_M1=0; 7H_M2=0; 7H_M3=0; 7H_M4=0; 8H_M3=0; 8H_M4=0; 8H_M2=0; 8H_M1=0;  BCID_rms=0; height=785
IN F31; 8H_P1=0; 7H_P1=0; 5H_P1=0; 6H_P1=0; 4H_P1=0; 3H_P1=0; 2H_P1=0; 1H_P1=0;  BCID_rms=0; height=62
IN F32; 5H_M1=0; 5H_M2=0; 5H_M3=0; 5H_M4=0; 6H_M4=0; 6H_M3=0; 6H_M1=0; 6H_M2=0;  BCID_rms=0; height=767
IN F33; 4H_F1=0; 4H_F2=0; 4H_F4=0; 4H_F3=0; 3H_F4=0; 3H_F3=0; 3H_F2=0; 3H_F1=0;  BCID_rms=0; height=756
IN F34; 7H_F1=0; 7H_F2=0; 7H_F3=0; 7H_F4=0; 8H_F1=0; 8H_F2=0; 8H_F4=0; 8H_F3=0;  BCID_rms=0; height=766
IN F35; 2H_F3=0; 2H_F4=0; 2H_F2=0; 2H_F1=0; 1H_F4=0; 1H_F3=0; 1H_F2=0; 1H_F1=0;  BCID_rms=0; height=735
IN F38; 1G_F2=0; 1G_F1=0; 1G_F4=0; 1G_F3=0; 2G_F1=0; 2G_F2=0; 2G_F3=0; 2G_F4=0;  BCID_rms=0; height=731
IN F39; 8G_M2=0; 8G_M1=0; 8G_M4=0; 8G_M3=0; 7G_M4=0; 7G_M3=0; 7G_M1=0; 7G_M2=0;  BCID_rms=0; height=761
IN F40; 3G_F1=0; 3G_F2=0; 3G_F3=0; 3G_F4=0; 4G_F1=0; 4G_F2=0; 4G_F4=0; 4G_F3=0;  BCID_rms=0; height=727
IN F41; 6G_M3=0; 6G_M4=0; 6G_M1=0; 6G_M2=0; 5G_M2=0; 5G_M1=0; 5G_M4=0; 5G_M3=0;  BCID_rms=0; height=772
IN F42; 5G_F2=0; 5G_F1=0; 5G_F3=0; 5G_F4=0; 6G_F4=0; 6G_F3=0; 6G_F1=0; 6G_F2=0;  BCID_rms=0; height=736
IN F43; 3G_M1=0; 3G_M2=0; 3G_M3=0; 3G_M4=0; 4G_M4=0; 4G_M3=0; 4G_M1=0; 4G_M2=0;  BCID_rms=0; height=746
IN F44; 7G_F2=0; 7G_F1=0; 7G_F3=0; 7G_F4=0; 8G_F2=0; 8G_F1=0; 8G_F4=0; 8G_F3=0;  BCID_rms=0; height=767
IN F45; 7G_P1=0; 8G_P1=0; 6G_P1=0; 5G_P1=0; 2G_P1=0; 1G_P1=0; 3G_P1=0; 4G_P1=0;  BCID_rms=0; height=65
IN F46; 1G_M2=0; 1G_M1=0; 1G_M3=0; 1G_M4=0; 2G_M4=0; 2G_M3=0; 2G_M1=0; 2G_M2=0;  BCID_rms=0; height=826
IN F47; 7G_B1=0; 8G_B1=0; 6G_B1=0; 5G_B1=0; 1G_B1=0; 2G_B1=0; 3G_B1=0; 4G_B1=0;  BCID_rms=0; height=2115
