
Processing macro.C+("inputfile/LArDigits_pusleall_408520.root","EMBC_5","outputs/hist/LArDigits_pusleall_408520_hist.root","results/LArDigits_pusleall_408520/latome111.ini","LATOME_ini_file/latome111.ini",false)...

******************** Start to read ini BCID: ********************
input file: LATOME_ini_file/latome111.ini
F0  BCID=0; 
F1  BCID=0; 
F2  BCID=3459; 
F3  BCID=3459; 
F4  BCID=3459; 
F5  BCID=3459; 
F6  BCID=3459; 
F7  BCID=3459; 
F8  BCID=3459; 
F9  BCID=3459; 
F10  BCID=3459; 
F11  BCID=3459; 
F12  BCID=0; 
F13  BCID=0; 
F14  BCID=3459; 
F15  BCID=3459; 
F16  BCID=3459; 
F17  BCID=3459; 
F18  BCID=3459; 
F19  BCID=3460; 
F20  BCID=3459; 
F21  BCID=3459; 
F22  BCID=3459; 
F23  BCID=3459; 
F24  BCID=0; 
F25  BCID=0; 
F26  BCID=3459; 
F27  BCID=3459; 
F28  BCID=3459; 
F29  BCID=3459; 
F30  BCID=3459; 
F31  BCID=3459; 
F32  BCID=3459; 
F33  BCID=3459; 
F34  BCID=3459; 
F35  BCID=3459; 
F36  BCID=0; 
F37  BCID=0; 
F38  BCID=3459; 
F39  BCID=3459; 
F40  BCID=3459; 
F41  BCID=3459; 
F42  BCID=3459; 
F43  BCID=3460; 
F44  BCID=3459; 
F45  BCID=3459; 
F46  BCID=3459; 
F47  BCID=3459; 
48 fibers are read!

******************** Start to read LArId info: ********************
SCname=1D_P1; channelId=942670336; 
SCname=1C_P1; channelId=942669824; 
SCname=2D_P1; channelId=942671360; 
SCname=2C_P1; channelId=942670848; 
SCname=3D_P1; channelId=942672384; 
SCname=3C_P1; channelId=942671872; 
SCname=4D_P1; channelId=942673408; 
SCname=4C_P1; channelId=942672896; 
SCname=5D_P1; channelId=942674432; 
SCname=5C_P1; channelId=942673920; 
SCname=6D_P1; channelId=942675456; 
SCname=6C_P1; channelId=942674944; 
SCname=7D_P1; channelId=942676480; 
SCname=7C_P1; channelId=942675968; 
SCname=8D_P1; channelId=942677504; 
SCname=8C_P1; channelId=942676992; 
SCname=1D_F1; channelId=942685696; 
SCname=1D_F2; channelId=942686720; 
SCname=1D_F3; channelId=942687744; 
SCname=1D_F4; channelId=942688768; 
SCname=2D_F1; channelId=942689792; 
SCname=2D_F2; channelId=942690816; 
SCname=2D_F3; channelId=942691840; 
SCname=2D_F4; channelId=942692864; 
SCname=1C_F1; channelId=942685184; 
SCname=1C_F2; channelId=942686208; 
SCname=1C_F3; channelId=942687232; 
SCname=1C_F4; channelId=942688256; 
SCname=2C_F1; channelId=942689280; 
SCname=2C_F2; channelId=942690304; 
SCname=2C_F3; channelId=942691328; 
SCname=2C_F4; channelId=942692352; 
SCname=3D_F1; channelId=942693888; 
SCname=3D_F2; channelId=942694912; 
SCname=3D_F3; channelId=942695936; 
SCname=3D_F4; channelId=942696960; 
SCname=4D_F1; channelId=942697984; 
SCname=4D_F2; channelId=942699008; 
SCname=4D_F3; channelId=942700032; 
SCname=4D_F4; channelId=942701056; 
SCname=3C_F1; channelId=942693376; 
SCname=3C_F2; channelId=942694400; 
SCname=3C_F3; channelId=942695424; 
SCname=3C_F4; channelId=942696448; 
SCname=4C_F1; channelId=942697472; 
SCname=4C_F2; channelId=942698496; 
SCname=4C_F3; channelId=942699520; 
SCname=4C_F4; channelId=942700544; 
SCname=5D_F1; channelId=942702080; 
SCname=5D_F2; channelId=942703104; 
SCname=5D_F3; channelId=942704128; 
SCname=5D_F4; channelId=942705152; 
SCname=6D_F1; channelId=942706176; 
SCname=6D_F2; channelId=942707200; 
SCname=6D_F3; channelId=942708224; 
SCname=6D_F4; channelId=942709248; 
SCname=5C_F1; channelId=942701568; 
SCname=5C_F2; channelId=942702592; 
SCname=5C_F3; channelId=942703616; 
SCname=5C_F4; channelId=942704640; 
SCname=6C_F1; channelId=942705664; 
SCname=6C_F2; channelId=942706688; 
SCname=6C_F3; channelId=942707712; 
SCname=6C_F4; channelId=942708736; 
SCname=7D_F1; channelId=942710272; 
SCname=7D_F2; channelId=942711296; 
SCname=7D_F3; channelId=942712320; 
SCname=7D_F4; channelId=942713344; 
SCname=8D_F1; channelId=942714368; 
SCname=8D_F2; channelId=942715392; 
SCname=8D_F3; channelId=942716416; 
SCname=8D_F4; channelId=942717440; 
SCname=7C_F1; channelId=942709760; 
SCname=7C_F2; channelId=942710784; 
SCname=7C_F3; channelId=942711808; 
SCname=7C_F4; channelId=942712832; 
SCname=8C_F1; channelId=942713856; 
SCname=8C_F2; channelId=942714880; 
SCname=8C_F3; channelId=942715904; 
SCname=8C_F4; channelId=942716928; 
SCname=1D_B1; channelId=942804480; 
SCname=2D_B1; channelId=942805504; 
SCname=3D_B1; channelId=942806528; 
SCname=4D_B1; channelId=942807552; 
SCname=5D_B1; channelId=942808576; 
SCname=6D_B1; channelId=942809600; 
SCname=7D_B1; channelId=942810624; 
SCname=8D_B1; channelId=942811648; 
SCname=1C_B1; channelId=942803968; 
SCname=2C_B1; channelId=942804992; 
SCname=3C_B1; channelId=942806016; 
SCname=4C_B1; channelId=942807040; 
SCname=5C_B1; channelId=942808064; 
SCname=6C_B1; channelId=942809088; 
SCname=7C_B1; channelId=942810112; 
SCname=8C_B1; channelId=942811136; 
SCname=1D_M1; channelId=942746112; 
SCname=1D_M2; channelId=942747136; 
SCname=1D_M3; channelId=942748160; 
SCname=1D_M4; channelId=942749184; 
SCname=2D_M1; channelId=942750208; 
SCname=2D_M2; channelId=942751232; 
SCname=2D_M3; channelId=942752256; 
SCname=2D_M4; channelId=942753280; 
SCname=3D_M1; channelId=942754304; 
SCname=3D_M2; channelId=942755328; 
SCname=3D_M3; channelId=942756352; 
SCname=3D_M4; channelId=942757376; 
SCname=4D_M1; channelId=942758400; 
SCname=4D_M2; channelId=942759424; 
SCname=4D_M3; channelId=942760448; 
SCname=4D_M4; channelId=942761472; 
SCname=1C_M1; channelId=942745600; 
SCname=1C_M2; channelId=942746624; 
SCname=1C_M3; channelId=942747648; 
SCname=1C_M4; channelId=942748672; 
SCname=2C_M1; channelId=942749696; 
SCname=2C_M2; channelId=942750720; 
SCname=2C_M3; channelId=942751744; 
SCname=2C_M4; channelId=942752768; 
SCname=3C_M1; channelId=942753792; 
SCname=3C_M2; channelId=942754816; 
SCname=3C_M3; channelId=942755840; 
SCname=3C_M4; channelId=942756864; 
SCname=4C_M1; channelId=942757888; 
SCname=4C_M2; channelId=942758912; 
SCname=4C_M3; channelId=942759936; 
SCname=4C_M4; channelId=942760960; 
SCname=5D_M1; channelId=942762496; 
SCname=5D_M2; channelId=942763520; 
SCname=5D_M3; channelId=942764544; 
SCname=5D_M4; channelId=942765568; 
SCname=6D_M1; channelId=942766592; 
SCname=6D_M2; channelId=942767616; 
SCname=6D_M3; channelId=942768640; 
SCname=6D_M4; channelId=942769664; 
SCname=7D_M1; channelId=942770688; 
SCname=7D_M2; channelId=942771712; 
SCname=7D_M3; channelId=942772736; 
SCname=7D_M4; channelId=942773760; 
SCname=8D_M1; channelId=942774784; 
SCname=8D_M2; channelId=942775808; 
SCname=8D_M3; channelId=942776832; 
SCname=8D_M4; channelId=942777856; 
SCname=5C_M1; channelId=942761984; 
SCname=5C_M2; channelId=942763008; 
SCname=5C_M3; channelId=942764032; 
SCname=5C_M4; channelId=942765056; 
SCname=6C_M1; channelId=942766080; 
SCname=6C_M2; channelId=942767104; 
SCname=6C_M3; channelId=942768128; 
SCname=6C_M4; channelId=942769152; 
SCname=7C_M1; channelId=942770176; 
SCname=7C_M2; channelId=942771200; 
SCname=7C_M3; channelId=942772224; 
SCname=7C_M4; channelId=942773248; 
SCname=8C_M1; channelId=942774272; 
SCname=8C_M2; channelId=942775296; 
SCname=8C_M3; channelId=942776320; 
SCname=8C_M4; channelId=942777344; 
SCname=1B_P1; channelId=943194624; 
SCname=1A_P1; channelId=943194112; 
SCname=2B_P1; channelId=943195648; 
SCname=2A_P1; channelId=943195136; 
SCname=3B_P1; channelId=943196672; 
SCname=3A_P1; channelId=943196160; 
SCname=4B_P1; channelId=943197696; 
SCname=4A_P1; channelId=943197184; 
SCname=5B_P1; channelId=943198720; 
SCname=5A_P1; channelId=943198208; 
SCname=6B_P1; channelId=943199744; 
SCname=6A_P1; channelId=943199232; 
SCname=7B_P1; channelId=943200768; 
SCname=7A_P1; channelId=943200256; 
SCname=8B_P1; channelId=943201792; 
SCname=8A_P1; channelId=943201280; 
SCname=1B_F1; channelId=943209984; 
SCname=1B_F2; channelId=943211008; 
SCname=1B_F3; channelId=943212032; 
SCname=1B_F4; channelId=943213056; 
SCname=2B_F1; channelId=943214080; 
SCname=2B_F2; channelId=943215104; 
SCname=2B_F3; channelId=943216128; 
SCname=2B_F4; channelId=943217152; 
SCname=1A_F1; channelId=943209472; 
SCname=1A_F2; channelId=943210496; 
SCname=1A_F3; channelId=943211520; 
SCname=1A_F4; channelId=943212544; 
SCname=2A_F1; channelId=943213568; 
SCname=2A_F2; channelId=943214592; 
SCname=2A_F3; channelId=943215616; 
SCname=2A_F4; channelId=943216640; 
SCname=3B_F1; channelId=943218176; 
SCname=3B_F2; channelId=943219200; 
SCname=3B_F3; channelId=943220224; 
SCname=3B_F4; channelId=943221248; 
SCname=4B_F1; channelId=943222272; 
SCname=4B_F2; channelId=943223296; 
SCname=4B_F3; channelId=943224320; 
SCname=4B_F4; channelId=943225344; 
SCname=3A_F1; channelId=943217664; 
SCname=3A_F2; channelId=943218688; 
SCname=3A_F3; channelId=943219712; 
SCname=3A_F4; channelId=943220736; 
SCname=4A_F1; channelId=943221760; 
SCname=4A_F2; channelId=943222784; 
SCname=4A_F3; channelId=943223808; 
SCname=4A_F4; channelId=943224832; 
SCname=5B_F1; channelId=943226368; 
SCname=5B_F2; channelId=943227392; 
SCname=5B_F3; channelId=943228416; 
SCname=5B_F4; channelId=943229440; 
SCname=6B_F1; channelId=943230464; 
SCname=6B_F2; channelId=943231488; 
SCname=6B_F3; channelId=943232512; 
SCname=6B_F4; channelId=943233536; 
SCname=5A_F1; channelId=943225856; 
SCname=5A_F2; channelId=943226880; 
SCname=5A_F3; channelId=943227904; 
SCname=5A_F4; channelId=943228928; 
SCname=6A_F1; channelId=943229952; 
SCname=6A_F2; channelId=943230976; 
SCname=6A_F3; channelId=943232000; 
SCname=6A_F4; channelId=943233024; 
SCname=7B_F1; channelId=943234560; 
SCname=7B_F2; channelId=943235584; 
SCname=7B_F3; channelId=943236608; 
SCname=7B_F4; channelId=943237632; 
SCname=8B_F1; channelId=943238656; 
SCname=8B_F2; channelId=943239680; 
SCname=8B_F3; channelId=943240704; 
SCname=8B_F4; channelId=943241728; 
SCname=7A_F1; channelId=943234048; 
SCname=7A_F2; channelId=943235072; 
SCname=7A_F3; channelId=943236096; 
SCname=7A_F4; channelId=943237120; 
SCname=8A_F1; channelId=943238144; 
SCname=8A_F2; channelId=943239168; 
SCname=8A_F3; channelId=943240192; 
SCname=8A_F4; channelId=943241216; 
SCname=1B_B1; channelId=943328768; 
SCname=2B_B1; channelId=943329792; 
SCname=3B_B1; channelId=943330816; 
SCname=4B_B1; channelId=943331840; 
SCname=5B_B1; channelId=943332864; 
SCname=6B_B1; channelId=943333888; 
SCname=7B_B1; channelId=943334912; 
SCname=8B_B1; channelId=943335936; 
SCname=1A_B1; channelId=943328256; 
SCname=2A_B1; channelId=943329280; 
SCname=3A_B1; channelId=943330304; 
SCname=4A_B1; channelId=943331328; 
SCname=5A_B1; channelId=943332352; 
SCname=6A_B1; channelId=943333376; 
SCname=7A_B1; channelId=943334400; 
SCname=8A_B1; channelId=943335424; 
SCname=1B_M1; channelId=943270400; 
SCname=1B_M2; channelId=943271424; 
SCname=1B_M3; channelId=943272448; 
SCname=1B_M4; channelId=943273472; 
SCname=2B_M1; channelId=943274496; 
SCname=2B_M2; channelId=943275520; 
SCname=2B_M3; channelId=943276544; 
SCname=2B_M4; channelId=943277568; 
SCname=3B_M1; channelId=943278592; 
SCname=3B_M2; channelId=943279616; 
SCname=3B_M3; channelId=943280640; 
SCname=3B_M4; channelId=943281664; 
SCname=4B_M1; channelId=943282688; 
SCname=4B_M2; channelId=943283712; 
SCname=4B_M3; channelId=943284736; 
SCname=4B_M4; channelId=943285760; 
SCname=1A_M1; channelId=943269888; 
SCname=1A_M2; channelId=943270912; 
SCname=1A_M3; channelId=943271936; 
SCname=1A_M4; channelId=943272960; 
SCname=2A_M1; channelId=943273984; 
SCname=2A_M2; channelId=943275008; 
SCname=2A_M3; channelId=943276032; 
SCname=2A_M4; channelId=943277056; 
SCname=3A_M1; channelId=943278080; 
SCname=3A_M2; channelId=943279104; 
SCname=3A_M3; channelId=943280128; 
SCname=3A_M4; channelId=943281152; 
SCname=4A_M1; channelId=943282176; 
SCname=4A_M2; channelId=943283200; 
SCname=4A_M3; channelId=943284224; 
SCname=4A_M4; channelId=943285248; 
SCname=5B_M1; channelId=943286784; 
SCname=5B_M2; channelId=943287808; 
SCname=5B_M3; channelId=943288832; 
SCname=5B_M4; channelId=943289856; 
SCname=6B_M1; channelId=943290880; 
SCname=6B_M2; channelId=943291904; 
SCname=6B_M3; channelId=943292928; 
SCname=6B_M4; channelId=943293952; 
SCname=7B_M1; channelId=943294976; 
SCname=7B_M2; channelId=943296000; 
SCname=7B_M3; channelId=943297024; 
SCname=7B_M4; channelId=943298048; 
SCname=8B_M1; channelId=943299072; 
SCname=8B_M2; channelId=943300096; 
SCname=8B_M3; channelId=943301120; 
SCname=8B_M4; channelId=943302144; 
SCname=5A_M1; channelId=943286272; 
SCname=5A_M2; channelId=943287296; 
SCname=5A_M3; channelId=943288320; 
SCname=5A_M4; channelId=943289344; 
SCname=6A_M1; channelId=943290368; 
SCname=6A_M2; channelId=943291392; 
SCname=6A_M3; channelId=943292416; 
SCname=6A_M4; channelId=943293440; 
SCname=7A_M1; channelId=943294464; 
SCname=7A_M2; channelId=943295488; 
SCname=7A_M3; channelId=943296512; 
SCname=7A_M4; channelId=943297536; 
SCname=8A_M1; channelId=943298560; 
SCname=8A_M2; channelId=943299584; 
SCname=8A_M3; channelId=943300608; 
SCname=8A_M4; channelId=943301632; 
320 SCs are read!  LATOME is EMBC_5

******************** Start to read SCs info per fiber: ********************
IN F3 1B_B1 2B_B1 4B_B1 3B_B1 6B_B1 5B_B1 8B_B1 7B_B1
IN F4 2B_M2 2B_M1 2B_M4 2B_M3 1B_M3 1B_M4 1B_M1 1B_M2
IN F5 3B_M1 3B_M2 3B_M4 3B_M3 4B_M4 4B_M3 4B_M2 4B_M1
IN F6 6B_F4 6B_F3 6B_F2 6B_F1 5B_F1 5B_F2 5B_F3 5B_F4
IN F7 7B_M1 7B_M2 7B_M3 7B_M4 8B_M3 8B_M4 8B_M2 8B_M1
IN F8 8B_P1 7B_P1 5B_P1 6B_P1 4B_P1 3B_P1 2B_P1 1B_P1
IN F9 5B_M1 5B_M2 5B_M3 5B_M4 6B_M4 6B_M3 6B_M1 6B_M2
IN F10 4B_F1 4B_F2 4B_F4 4B_F3 3B_F4 3B_F3 3B_F2 3B_F1
IN F11 7B_F1 7B_F2 7B_F3 7B_F4 8B_F1 8B_F2 8B_F4 8B_F3
IN F12 2B_F3 2B_F4 2B_F2 2B_F1 1B_F4 1B_F3 1B_F2 1B_F1
IN F15 1A_F2 1A_F1 1A_F4 1A_F3 2A_F1 2A_F2 2A_F3 2A_F4
IN F16 8A_M2 8A_M1 8A_M4 8A_M3 7A_M4 7A_M3 7A_M1 7A_M2
IN F17 3A_F1 3A_F2 3A_F3 3A_F4 4A_F1 4A_F2 4A_F4 4A_F3
IN F18 6A_M3 6A_M4 6A_M1 6A_M2 5A_M2 5A_M1 5A_M4 5A_M3
IN F19 5A_F2 5A_F1 5A_F3 5A_F4 6A_F4 6A_F3 6A_F1 6A_F2
IN F20 3A_M1 3A_M2 3A_M3 3A_M4 4A_M4 4A_M3 4A_M1 4A_M2
IN F21 7A_F2 7A_F1 7A_F3 7A_F4 8A_F2 8A_F1 8A_F4 8A_F3
IN F22 7A_P1 8A_P1 6A_P1 5A_P1 2A_P1 1A_P1 3A_P1 4A_P1
IN F23 1A_M2 1A_M1 1A_M3 1A_M4 2A_M4 2A_M3 2A_M1 2A_M2
IN F24 7A_B1 8A_B1 6A_B1 5A_B1 1A_B1 2A_B1 3A_B1 4A_B1
IN F27 1D_B1 2D_B1 4D_B1 3D_B1 6D_B1 5D_B1 8D_B1 7D_B1
IN F28 2D_M2 2D_M1 2D_M4 2D_M3 1D_M3 1D_M4 1D_M1 1D_M2
IN F29 3D_M1 3D_M2 3D_M4 3D_M3 4D_M4 4D_M3 4D_M2 4D_M1
IN F30 6D_F4 6D_F3 6D_F2 6D_F1 5D_F1 5D_F2 5D_F3 5D_F4
IN F31 7D_M1 7D_M2 7D_M3 7D_M4 8D_M3 8D_M4 8D_M2 8D_M1
IN F32 8D_P1 7D_P1 5D_P1 6D_P1 4D_P1 3D_P1 2D_P1 1D_P1
IN F33 5D_M1 5D_M2 5D_M3 5D_M4 6D_M4 6D_M3 6D_M1 6D_M2
IN F34 4D_F1 4D_F2 4D_F4 4D_F3 3D_F4 3D_F3 3D_F2 3D_F1
IN F35 7D_F1 7D_F2 7D_F3 7D_F4 8D_F1 8D_F2 8D_F4 8D_F3
IN F36 2D_F3 2D_F4 2D_F2 2D_F1 1D_F4 1D_F3 1D_F2 1D_F1
IN F39 1C_F2 1C_F1 1C_F4 1C_F3 2C_F1 2C_F2 2C_F3 2C_F4
IN F40 8C_M2 8C_M1 8C_M4 8C_M3 7C_M4 7C_M3 7C_M1 7C_M2
IN F41 3C_F1 3C_F2 3C_F3 3C_F4 4C_F1 4C_F2 4C_F4 4C_F3
IN F42 6C_M3 6C_M4 6C_M1 6C_M2 5C_M2 5C_M1 5C_M4 5C_M3
IN F43 5C_F2 5C_F1 5C_F3 5C_F4 6C_F4 6C_F3 6C_F1 6C_F2
IN F44 3C_M1 3C_M2 3C_M3 3C_M4 4C_M4 4C_M3 4C_M1 4C_M2
IN F45 7C_F2 7C_F1 7C_F3 7C_F4 8C_F2 8C_F1 8C_F4 8C_F3
IN F46 7C_P1 8C_P1 6C_P1 5C_P1 2C_P1 1C_P1 3C_P1 4C_P1
IN F47 1C_M2 1C_M1 1C_M3 1C_M4 2C_M4 2C_M3 2C_M1 2C_M2
IN F48 7C_B1 8C_B1 6C_B1 5C_B1 1C_B1 2C_B1 3C_B1 4C_B1
40 fibers are connected!
max_event=999

******************** Start to search BCID of peak sampling: ********************
IN F2; 1B_B1=0; 2B_B1=0; 4B_B1=0; 3B_B1=0; 6B_B1=0; 5B_B1=0; 8B_B1=0; 7B_B1=0;  BCID_rms=0; height=2080
IN F3; 2B_M2=0; 2B_M1=0; 2B_M4=0; 2B_M3=0; 1B_M3=0; 1B_M4=0; 1B_M1=0; 1B_M2=0;  BCID_rms=0; height=770
IN F4; 3B_M1=0; 3B_M2=0; 3B_M4=0; 3B_M3=0; 4B_M4=0; 4B_M3=0; 4B_M2=0; 4B_M1=0;  BCID_rms=0; height=756
IN F5; 6B_F4=0; 6B_F3=0; 6B_F2=0; 6B_F1=0; 5B_F1=0; 5B_F2=0; 5B_F3=0; 5B_F4=0;  BCID_rms=0; height=721
IN F6; 7B_M1=0; 7B_M2=0; 7B_M3=0; 7B_M4=0; 8B_M3=0; 8B_M4=0; 8B_M2=0; 8B_M1=0;  BCID_rms=0; height=740
IN F7; 8B_P1=0; 7B_P1=0; 5B_P1=0; 6B_P1=0; 4B_P1=0; 3B_P1=0; 2B_P1=0; 1B_P1=0;  BCID_rms=0; height=66
IN F8; 5B_M1=0; 5B_M2=0; 5B_M3=0; 5B_M4=0; 6B_M4=0; 6B_M3=0; 6B_M1=0; 6B_M2=0;  BCID_rms=0; height=721
IN F9; 4B_F1=0; 4B_F2=0; 4B_F4=0; 4B_F3=0; 3B_F4=0; 3B_F3=0; 3B_F2=0; 3B_F1=0;  BCID_rms=0; height=689
IN F10; 7B_F1=0; 7B_F2=0; 7B_F3=0; 7B_F4=0; 8B_F1=0; 8B_F2=0; 8B_F4=0; 8B_F3=0;  BCID_rms=0; height=734
IN F11; 2B_F3=0; 2B_F4=0; 2B_F2=0; 2B_F1=0; 1B_F4=0; 1B_F3=0; 1B_F2=0; 1B_F1=0;  BCID_rms=0; height=680
IN F14; 1A_F2=0; 1A_F1=0; 1A_F4=0; 1A_F3=0; 2A_F1=0; 2A_F2=0; 2A_F3=0; 2A_F4=0;  BCID_rms=0; height=690
IN F15; 8A_M2=0; 8A_M1=0; 8A_M4=0; 8A_M3=0; 7A_M4=0; 7A_M3=0; 7A_M1=0; 7A_M2=0;  BCID_rms=0; height=749
IN F16; 3A_F1=0; 3A_F2=0; 3A_F3=0; 3A_F4=0; 4A_F1=0; 4A_F2=0; 4A_F4=0; 4A_F3=0;  BCID_rms=0; height=700
IN F17; 6A_M3=0; 6A_M4=0; 6A_M1=0; 6A_M2=0; 5A_M2=0; 5A_M1=0; 5A_M4=0; 5A_M3=0;  BCID_rms=0; height=730
IN F18; 5A_F2=0; 5A_F1=0; 5A_F3=0; 5A_F4=0; 6A_F4=0; 6A_F3=0; 6A_F1=0; 6A_F2=0;  BCID_rms=0; height=702
IN F19; 3A_M1=-1; 3A_M2=-1; 3A_M3=-1; 3A_M4=-1; 4A_M4=-1; 4A_M3=-1; 4A_M1=-1; 4A_M2=-1;  BCID_rms=0; height=753
IN F20; 7A_F2=0; 7A_F1=0; 7A_F3=0; 7A_F4=0; 8A_F2=0; 8A_F1=0; 8A_F4=0; 8A_F3=0;  BCID_rms=0; height=714
IN F21; 7A_P1=0; 8A_P1=0; 6A_P1=0; 5A_P1=0; 2A_P1=0; 1A_P1=0; 3A_P1=0; 4A_P1=0;  BCID_rms=0; height=68
IN F22; 1A_M2=0; 1A_M1=0; 1A_M3=0; 1A_M4=0; 2A_M4=0; 2A_M3=0; 2A_M1=0; 2A_M2=0;  BCID_rms=0; height=779
IN F23; 7A_B1=0; 8A_B1=0; 6A_B1=0; 5A_B1=0; 1A_B1=0; 2A_B1=0; 3A_B1=0; 4A_B1=0;  BCID_rms=0; height=2112
IN F26; 1D_B1=0; 2D_B1=0; 4D_B1=0; 3D_B1=0; 6D_B1=0; 5D_B1=0; 8D_B1=0; 7D_B1=0;  BCID_rms=0; height=2079
IN F27; 2D_M2=0; 2D_M1=0; 2D_M4=0; 2D_M3=0; 1D_M3=0; 1D_M4=0; 1D_M1=0; 1D_M2=0;  BCID_rms=0; height=757
IN F28; 3D_M1=0; 3D_M2=0; 3D_M4=0; 3D_M3=0; 4D_M4=0; 4D_M3=0; 4D_M2=0; 4D_M1=0;  BCID_rms=0; height=781
IN F29; 6D_F4=0; 6D_F3=0; 6D_F2=0; 6D_F1=0; 5D_F1=0; 5D_F2=0; 5D_F3=0; 5D_F4=0;  BCID_rms=0; height=730
IN F30; 7D_M1=0; 7D_M2=0; 7D_M3=0; 7D_M4=0; 8D_M3=0; 8D_M4=0; 8D_M2=0; 8D_M1=0;  BCID_rms=0; height=762
IN F31; 8D_P1=0; 7D_P1=0; 5D_P1=0; 6D_P1=0; 4D_P1=0; 3D_P1=0; 2D_P1=0; 1D_P1=0;  BCID_rms=0; height=65
IN F32; 5D_M1=0; 5D_M2=0; 5D_M3=0; 5D_M4=0; 6D_M4=0; 6D_M3=0; 6D_M1=0; 6D_M2=0;  BCID_rms=0; height=761
IN F33; 4D_F1=0; 4D_F2=0; 4D_F4=0; 4D_F3=0; 3D_F4=0; 3D_F3=0; 3D_F2=0; 3D_F1=0;  BCID_rms=0; height=717
IN F34; 7D_F1=0; 7D_F2=0; 7D_F3=0; 7D_F4=0; 8D_F1=0; 8D_F2=0; 8D_F4=0; 8D_F3=0;  BCID_rms=0; height=731
IN F35; 2D_F3=0; 2D_F4=0; 2D_F2=0; 2D_F1=0; 1D_F4=0; 1D_F3=0; 1D_F2=0; 1D_F1=0;  BCID_rms=0; height=665
IN F38; 1C_F2=0; 1C_F1=0; 1C_F4=0; 1C_F3=0; 2C_F1=0; 2C_F2=0; 2C_F3=0; 2C_F4=0;  BCID_rms=0; height=696
IN F39; 8C_M2=0; 8C_M1=0; 8C_M4=0; 8C_M3=0; 7C_M4=0; 7C_M3=0; 7C_M1=0; 7C_M2=0;  BCID_rms=0; height=723
IN F40; 3C_F1=0; 3C_F2=0; 3C_F3=0; 3C_F4=0; 4C_F1=0; 4C_F2=0; 4C_F4=0; 4C_F3=0;  BCID_rms=0; height=707
IN F41; 6C_M3=0; 6C_M4=0; 6C_M1=0; 6C_M2=0; 5C_M2=0; 5C_M1=0; 5C_M4=0; 5C_M3=0;  BCID_rms=0; height=744
IN F42; 5C_F2=0; 5C_F1=0; 5C_F3=0; 5C_F4=0; 6C_F4=0; 6C_F3=0; 6C_F1=0; 6C_F2=0;  BCID_rms=0; height=729
IN F43; 3C_M1=-1; 3C_M2=-1; 3C_M3=-1; 3C_M4=-1; 4C_M4=-1; 4C_M3=-1; 4C_M1=-1; 4C_M2=-1;  BCID_rms=0; height=749
IN F44; 7C_F2=0; 7C_F1=0; 7C_F3=0; 7C_F4=0; 8C_F2=0; 8C_F1=0; 8C_F4=0; 8C_F3=0;  BCID_rms=0; height=721
IN F45; 7C_P1=0; 8C_P1=0; 6C_P1=0; 5C_P1=0; 2C_P1=0; 1C_P1=0; 3C_P1=0; 4C_P1=0;  BCID_rms=0; height=68
IN F46; 1C_M2=0; 1C_M1=0; 1C_M3=0; 1C_M4=0; 2C_M4=0; 2C_M3=0; 2C_M1=0; 2C_M2=0;  BCID_rms=0; height=806
IN F47; 7C_B1=0; 8C_B1=0; 6C_B1=0; 5C_B1=0; 1C_B1=0; 2C_B1=0; 3C_B1=0; 4C_B1=0;  BCID_rms=0; height=2111
