
Processing macro.C+("inputfile/LArDigits_pusleall_408520.root","EMECA-HECA_4","outputs/hist/LArDigits_pusleall_408520_hist.root","results/LArDigits_pusleall_408520/latome54.ini","LATOME_ini_file/latome54.ini",false)...

******************** Start to read ini BCID: ********************
input file: LATOME_ini_file/latome54.ini
F0  BCID=0; 
F1  BCID=0; 
F2  BCID=0; 
F3  BCID=0; 
F4  BCID=0; 
F5  BCID=0; 
F6  BCID=3465; 
F7  BCID=3465; 
F8  BCID=3465; 
F9  BCID=3465; 
F10  BCID=3465; 
F11  BCID=3465; 
F12  BCID=0; 
F13  BCID=0; 
F14  BCID=0; 
F15  BCID=0; 
F16  BCID=0; 
F17  BCID=0; 
F18  BCID=3465; 
F19  BCID=3465; 
F20  BCID=3465; 
F21  BCID=3465; 
F22  BCID=3465; 
F23  BCID=3465; 
F24  BCID=0; 
F25  BCID=0; 
F26  BCID=3462; 
F27  BCID=3462; 
F28  BCID=3462; 
F29  BCID=3462; 
F30  BCID=3463; 
F31  BCID=3462; 
F32  BCID=3463; 
F33  BCID=3462; 
F34  BCID=3462; 
F35  BCID=3462; 
F36  BCID=0; 
F37  BCID=0; 
F38  BCID=0; 
F39  BCID=0; 
F40  BCID=0; 
F41  BCID=0; 
F42  BCID=0; 
F43  BCID=0; 
F44  BCID=0; 
F45  BCID=0; 
F46  BCID=0; 
F47  BCID=0; 
48 fibers are read!

******************** Start to read LArId info: ********************
SCname=11I_F1; channelId=994840576; 
SCname=11J_F1; channelId=994841088; 
SCname=11K_F1; channelId=994841600; 
SCname=11L_F1; channelId=994842112; 
SCname=11M_F1; channelId=994842624; 
SCname=11N_F1; channelId=994843136; 
SCname=11O_F1; channelId=994843648; 
SCname=11P_F1; channelId=994844160; 
SCname=11I_B1; channelId=994881536; 
SCname=11J_B1; channelId=994882048; 
SCname=11K_B1; channelId=994882560; 
SCname=11L_B1; channelId=994883072; 
SCname=11M_B1; channelId=994883584; 
SCname=11N_B1; channelId=994884096; 
SCname=11O_B1; channelId=994884608; 
SCname=11P_B1; channelId=994885120; 
SCname=11I_M1; channelId=994848768; 
SCname=11I_M2; channelId=994856960; 
SCname=11I_M3; channelId=994865152; 
SCname=11I_M4; channelId=994873344; 
SCname=11J_M1; channelId=994849280; 
SCname=11J_M2; channelId=994857472; 
SCname=11J_M3; channelId=994865664; 
SCname=11J_M4; channelId=994873856; 
SCname=11K_M1; channelId=994849792; 
SCname=11K_M2; channelId=994857984; 
SCname=11K_M3; channelId=994866176; 
SCname=11K_M4; channelId=994874368; 
SCname=11L_M1; channelId=994850304; 
SCname=11L_M2; channelId=994858496; 
SCname=11L_M3; channelId=994866688; 
SCname=11L_M4; channelId=994874880; 
SCname=11M_M1; channelId=994850816; 
SCname=11M_M2; channelId=994859008; 
SCname=11M_M3; channelId=994867200; 
SCname=11M_M4; channelId=994875392; 
SCname=11N_M1; channelId=994851328; 
SCname=11N_M2; channelId=994859520; 
SCname=11N_M3; channelId=994867712; 
SCname=11N_M4; channelId=994875904; 
SCname=11O_M1; channelId=994851840; 
SCname=11O_M2; channelId=994860032; 
SCname=11O_M3; channelId=994868224; 
SCname=11O_M4; channelId=994876416; 
SCname=11P_M1; channelId=994852352; 
SCname=11P_M2; channelId=994860544; 
SCname=11P_M3; channelId=994868736; 
SCname=11P_M4; channelId=994876928; 
SCname=12E_F1; channelId=994887680; 
SCname=12F_F1; channelId=994888192; 
SCname=13E_F1; channelId=994891776; 
SCname=13F_F1; channelId=994892288; 
SCname=14E_F1; channelId=994895872; 
SCname=14F_F1; channelId=994896384; 
SCname=15E_F1; channelId=994899968; 
SCname=15F_F1; channelId=994900480; 
SCname=12G_F1; channelId=994888704; 
SCname=12H_F1; channelId=994889216; 
SCname=13G_F1; channelId=994892800; 
SCname=13H_F1; channelId=994893312; 
SCname=14G_F1; channelId=994896896; 
SCname=14H_F1; channelId=994897408; 
SCname=15G_F1; channelId=994900992; 
SCname=15H_F1; channelId=994901504; 
SCname=12E_M1; channelId=994904064; 
SCname=12F_M1; channelId=994904576; 
SCname=13E_M1; channelId=994908160; 
SCname=13F_M1; channelId=994908672; 
SCname=14E_M1; channelId=994912256; 
SCname=14F_M1; channelId=994912768; 
SCname=15E_M1; channelId=994916352; 
SCname=15F_M1; channelId=994916864; 
SCname=12G_M1; channelId=994905088; 
SCname=12H_M1; channelId=994905600; 
SCname=13G_M1; channelId=994909184; 
SCname=13H_M1; channelId=994909696; 
SCname=14G_M1; channelId=994913280; 
SCname=14H_M1; channelId=994913792; 
SCname=15G_M1; channelId=994917376; 
SCname=15H_M1; channelId=994917888; 
SCname=2I; channelId=995102720; 
SCname=2J; channelId=995103232; 
SCname=2K; channelId=995103744; 
SCname=2L; channelId=995104256; 
SCname=3I; channelId=995110912; 
SCname=3J; channelId=995111424; 
SCname=3K; channelId=995111936; 
SCname=3L; channelId=995112448; 
SCname=4I; channelId=995119104; 
SCname=4J; channelId=995119616; 
SCname=4K; channelId=995120128; 
SCname=4L; channelId=995120640; 
SCname=5I; channelId=995127296; 
SCname=5J; channelId=995127808; 
SCname=5K; channelId=995128320; 
SCname=5L; channelId=995128832; 
SCname=2M; channelId=995104768; 
SCname=2N; channelId=995105280; 
SCname=2O; channelId=995105792; 
SCname=2P; channelId=995106304; 
SCname=3M; channelId=995112960; 
SCname=3N; channelId=995113472; 
SCname=3O; channelId=995113984; 
SCname=3P; channelId=995114496; 
SCname=4M; channelId=995121152; 
SCname=4N; channelId=995121664; 
SCname=4O; channelId=995122176; 
SCname=4P; channelId=995122688; 
SCname=5M; channelId=995129344; 
SCname=5N; channelId=995129856; 
SCname=5O; channelId=995130368; 
SCname=5P; channelId=995130880; 
SCname=6I; channelId=995135488; 
SCname=6J; channelId=995136000; 
SCname=6K; channelId=995136512; 
SCname=6L; channelId=995137024; 
SCname=7I; channelId=995143680; 
SCname=7J; channelId=995144192; 
SCname=7K; channelId=995144704; 
SCname=7L; channelId=995145216; 
SCname=8I; channelId=995151872; 
SCname=8J; channelId=995152384; 
SCname=8K; channelId=995152896; 
SCname=8L; channelId=995153408; 
SCname=9I; channelId=995160064; 
SCname=9J; channelId=995160576; 
SCname=9K; channelId=995161088; 
SCname=9L; channelId=995161600; 
SCname=6M; channelId=995137536; 
SCname=6N; channelId=995138048; 
SCname=6O; channelId=995138560; 
SCname=6P; channelId=995139072; 
SCname=7M; channelId=995145728; 
SCname=7N; channelId=995146240; 
SCname=7O; channelId=995146752; 
SCname=7P; channelId=995147264; 
SCname=8M; channelId=995153920; 
SCname=8N; channelId=995154432; 
SCname=8O; channelId=995154944; 
SCname=8P; channelId=995155456; 
SCname=9M; channelId=995162112; 
SCname=9N; channelId=995162624; 
SCname=9O; channelId=995163136; 
SCname=9P; channelId=995163648; 
SCname=10I; channelId=995168256; 
SCname=10J; channelId=995168768; 
SCname=10K; channelId=995169280; 
SCname=10L; channelId=995169792; 
SCname=11I; channelId=995176448; 
SCname=11J; channelId=995176960; 
SCname=11K; channelId=995177472; 
SCname=11L; channelId=995177984; 
SCname=12E; channelId=995182592; 
SCname=12F; channelId=995183104; 
SCname=13E; channelId=995186688; 
SCname=13F; channelId=995187200; 
SCname=14E; channelId=995190784; 
SCname=14F; channelId=995191296; 
SCname=15E; channelId=995194880; 
SCname=15F; channelId=995195392; 
SCname=10M; channelId=995170304; 
SCname=10N; channelId=995170816; 
SCname=10O; channelId=995171328; 
SCname=10P; channelId=995171840; 
SCname=11M; channelId=995178496; 
SCname=11N; channelId=995179008; 
SCname=11O; channelId=995179520; 
SCname=11P; channelId=995180032; 
SCname=12G; channelId=995183616; 
SCname=12H; channelId=995184128; 
SCname=13G; channelId=995187712; 
SCname=13H; channelId=995188224; 
SCname=14G; channelId=995191808; 
SCname=14H; channelId=995192320; 
SCname=15G; channelId=995195904; 
SCname=15H; channelId=995196416; 
176 SCs are read!  LATOME is EMECA_HECA_4

******************** Start to read SCs info per fiber: ********************
IN F7 7O 7P 7M 7N 6M 6N 6O 6P
IN F8 7K 7L 7J 7I 6L 6K 6I 6J
IN F9 5O 5P 5N 5M 4N 4M 4O 4P
IN F10 11J 11I 11K 11L 11P 11O 11M 11N
IN F11 15H 15G 15E 15F 14F 14E 14H 14G
IN F12 12E 12F 12H 12G 13G 13H 13E 13F
IN F19 5J 5I 5L 5K 4L 4K 4I 4J
IN F20 3J 3I 3L 3K 3P 3O 3M 3N
IN F21 8L 8K 8I 8J 8P 8O 8M 8N
IN F22 10I 10J 10L 10K 10N 10M 10P 10O
IN F23 9L 9K 9J 9I 9N 9M 9O 9P
IN F24 2M 2N 2P 2O 2I 2J 2K 2L
IN F27 12G_F1 12H_F1 12E_F1 12F_F1 12E_M1 12F_M1 12G_M1 12H_M1
IN F28 13G_F1 13H_F1 13E_F1 13F_F1 13F_M1 13E_M1 13H_M1 13G_M1
IN F29 11P_M3 11P_M4 11P_M2 11P_M1 11O_M4 11O_M3 11O_M1 11O_M2
IN F30 11N_M3 11N_M4 11N_M2 11N_M1 11M_M2 11M_M1 11M_M4 11M_M3
IN F31 11O_B1 11P_B1 11N_B1 11M_B1 11N_F1 11M_F1 11O_F1 11P_F1
IN F32 15H_F1 15G_F1 15E_F1 15F_F1 15F_M1 15E_M1 15H_M1 15G_M1
IN F33 11L_F1 11K_F1 11I_F1 11J_F1 11I_B1 11J_B1 11L_B1 11K_B1
IN F34 14E_M1 14F_M1 14H_M1 14G_M1 14G_F1 14H_F1 14E_F1 14F_F1
IN F35 11J_M1 11J_M2 11J_M3 11J_M4 11I_M1 11I_M2 11I_M3 11I_M4
IN F36 11K_M1 11K_M2 11K_M3 11K_M4 11L_M1 11L_M2 11L_M4 11L_M3
22 fibers are connected!
max_event=999

******************** Start to search BCID of peak sampling: ********************
IN F6; 7O=0; 7P=0; 7M=0; 7N=0; 6M=0; 6N=0; 6O=0; 6P=0;  BCID_rms=0; height=733
IN F7; 7K=0; 7L=0; 7J=0; 7I=0; 6L=0; 6K=0; 6I=0; 6J=0;  BCID_rms=0; height=734
IN F8; 5O=0; 5P=0; 5N=0; 5M=0; 4N=0; 4M=0; 4O=0; 4P=0;  BCID_rms=0; height=1681
IN F9; 11J=0; 11I=0; 11K=0; 11L=0; 11P=0; 11O=0; 11M=0; 11N=0;  BCID_rms=0; height=732
IN F10; 15H=0; 15G=0; 15E=0; 15F=0; 14F=0; 14E=0; 14H=0; 14G=0;  BCID_rms=0; height=260
IN F11; 12E=0; 12F=0; 12H=0; 12G=0; 13G=0; 13H=0; 13E=0; 13F=0;  BCID_rms=0; height=345
IN F18; 5J=0; 5I=0; 5L=0; 5K=0; 4L=0; 4K=0; 4I=0; 4J=0;  BCID_rms=0; height=1674
IN F19; 3J=0; 3I=0; 3L=0; 3K=0; 3P=0; 3O=0; 3M=0; 3N=0;  BCID_rms=0; height=1069
IN F20; 8L=0; 8K=0; 8I=0; 8J=0; 8P=0; 8O=0; 8M=0; 8N=0;  BCID_rms=0; height=728
IN F21; 10I=0; 10J=0; 10L=0; 10K=0; 10N=0; 10M=0; 10P=0; 10O=0;  BCID_rms=0; height=731
IN F22; 9L=0; 9K=0; 9J=0; 9I=0; 9N=0; 9M=0; 9O=0; 9P=0;  BCID_rms=0; height=723
IN F23; 2M=0; 2N=0; 2P=0; 2O=0; 2I=0; 2J=0; 2K=0; 2L=0;  BCID_rms=0; height=481
IN F26; 12G_F1=1; 12H_F1=1; 12E_F1=1; 12F_F1=1; 12E_M1=0; 12F_M1=0; 12G_M1=0; 12H_M1=0;  BCID_rms=0.5; height=319
IN F27; 13G_F1=1; 13H_F1=1; 13E_F1=1; 13F_F1=1; 13F_M1=0; 13E_M1=0; 13H_M1=0; 13G_M1=0;  BCID_rms=0.5; height=330
IN F28; 11P_M3=0; 11P_M4=0; 11P_M2=0; 11P_M1=0; 11O_M4=0; 11O_M3=0; 11O_M1=0; 11O_M2=0;  BCID_rms=0; height=380
IN F29; 11N_M3=0; 11N_M4=0; 11N_M2=0; 11N_M1=0; 11M_M2=0; 11M_M1=0; 11M_M4=0; 11M_M3=0;  BCID_rms=0; height=392
IN F30; 11O_B1=0; 11P_B1=0; 11N_B1=0; 11M_B1=-1; 11N_F1=-1; 11M_F1=-1; 11O_F1=-1; 11P_F1=-1;  BCID_rms=0.484123; height=847
IN F31; 15H_F1=1; 15G_F1=1; 15E_F1=0; 15F_F1=0; 15F_M1=0; 15E_M1=0; 15H_M1=0; 15G_M1=0;  BCID_rms=0.433013; height=173
IN F32; 11L_F1=-1; 11K_F1=-1; 11I_F1=-1; 11J_F1=-1; 11I_B1=-1; 11J_B1=-1; 11L_B1=-1; 11K_B1=-1;  BCID_rms=0; height=860
IN F33; 14E_M1=0; 14F_M1=0; 14H_M1=0; 14G_M1=0; 14G_F1=1; 14H_F1=1; 14E_F1=1; 14F_F1=1;  BCID_rms=0.5; height=345
IN F34; 11J_M1=0; 11J_M2=0; 11J_M3=0; 11J_M4=0; 11I_M1=0; 11I_M2=0; 11I_M3=0; 11I_M4=0;  BCID_rms=0; height=430
IN F35; 11K_M1=0; 11K_M2=0; 11K_M3=0; 11K_M4=0; 11L_M1=0; 11L_M2=0; 11L_M4=0; 11L_M3=0;  BCID_rms=0; height=388
