
Processing macro.C+("inputfile/LArDigits_pusleall_408522.root","EMECA_14","outputs/hist/LArDigits_pusleall_408522_hist.root","results/LArDigits_pusleall_408522/latome76.ini","LATOME_ini_file/latome76.ini",false)...

******************** Start to read ini BCID: ********************
input file: LATOME_ini_file/latome76.ini
F0  BCID=0; 
F1  BCID=0; 
F2  BCID=3463; 
F3  BCID=3463; 
F4  BCID=3463; 
F5  BCID=3462; 
F6  BCID=3462; 
F7  BCID=3463; 
F8  BCID=3462; 
F9  BCID=3463; 
F10  BCID=3462; 
F11  BCID=3463; 
F12  BCID=0; 
F13  BCID=0; 
F14  BCID=3462; 
F15  BCID=3463; 
F16  BCID=3463; 
F17  BCID=3462; 
F18  BCID=3462; 
F19  BCID=3462; 
F20  BCID=3463; 
F21  BCID=3462; 
F22  BCID=3462; 
F23  BCID=3463; 
F24  BCID=0; 
F25  BCID=0; 
F26  BCID=3462; 
F27  BCID=3462; 
F28  BCID=3463; 
F29  BCID=3462; 
F30  BCID=3462; 
F31  BCID=3463; 
F32  BCID=3463; 
F33  BCID=3462; 
F34  BCID=3463; 
F35  BCID=3462; 
F36  BCID=0; 
F37  BCID=0; 
F38  BCID=3463; 
F39  BCID=3462; 
F40  BCID=3463; 
F41  BCID=3462; 
F42  BCID=3462; 
F43  BCID=3463; 
F44  BCID=3462; 
F45  BCID=3463; 
F46  BCID=3463; 
F47  BCID=3462; 
48 fibers are read!

******************** Start to read LArId info: ********************
SCname=3E_P1; channelId=1000341504; 
SCname=3F_P1; channelId=1000342016; 
SCname=4E_P1; channelId=1000343552; 
SCname=4F_P1; channelId=1000344064; 
SCname=3G_P1; channelId=1000342528; 
SCname=3H_P1; channelId=1000343040; 
SCname=4G_P1; channelId=1000344576; 
SCname=4H_P1; channelId=1000345088; 
SCname=3E_F1; channelId=1000345600; 
SCname=3E_F2; channelId=1000347648; 
SCname=3E_F3; channelId=1000349696; 
SCname=3E_F4; channelId=1000351744; 
SCname=3F_F1; channelId=1000346112; 
SCname=3F_F2; channelId=1000348160; 
SCname=3F_F3; channelId=1000350208; 
SCname=3F_F4; channelId=1000352256; 
SCname=3G_F1; channelId=1000346624; 
SCname=3G_F2; channelId=1000348672; 
SCname=3G_F3; channelId=1000350720; 
SCname=3G_F4; channelId=1000352768; 
SCname=3H_F1; channelId=1000347136; 
SCname=3H_F2; channelId=1000349184; 
SCname=3H_F3; channelId=1000351232; 
SCname=3H_F4; channelId=1000353280; 
SCname=4E_F1; channelId=1000353792; 
SCname=4E_F2; channelId=1000355840; 
SCname=4E_F3; channelId=1000357888; 
SCname=4E_F4; channelId=1000359936; 
SCname=4F_F1; channelId=1000354304; 
SCname=4F_F2; channelId=1000356352; 
SCname=4F_F3; channelId=1000358400; 
SCname=4F_F4; channelId=1000360448; 
SCname=4G_F1; channelId=1000354816; 
SCname=4G_F2; channelId=1000356864; 
SCname=4G_F3; channelId=1000358912; 
SCname=4G_F4; channelId=1000360960; 
SCname=4H_F1; channelId=1000355328; 
SCname=4H_F2; channelId=1000357376; 
SCname=4H_F3; channelId=1000359424; 
SCname=4H_F4; channelId=1000361472; 
SCname=5E_F1; channelId=1000361984; 
SCname=5E_F2; channelId=1000364032; 
SCname=5E_F3; channelId=1000366080; 
SCname=5E_F4; channelId=1000368128; 
SCname=5E_F5; channelId=1000370176; 
SCname=5E_F6; channelId=1000372224; 
SCname=5F_F1; channelId=1000362496; 
SCname=5F_F2; channelId=1000364544; 
SCname=5F_F3; channelId=1000366592; 
SCname=5F_F4; channelId=1000368640; 
SCname=5F_F5; channelId=1000370688; 
SCname=5F_F6; channelId=1000372736; 
SCname=5G_F1; channelId=1000363008; 
SCname=5G_F2; channelId=1000365056; 
SCname=5G_F3; channelId=1000367104; 
SCname=5G_F4; channelId=1000369152; 
SCname=5G_F5; channelId=1000371200; 
SCname=5G_F6; channelId=1000373248; 
SCname=5H_F1; channelId=1000363520; 
SCname=5H_F2; channelId=1000365568; 
SCname=5H_F3; channelId=1000367616; 
SCname=5H_F4; channelId=1000369664; 
SCname=5H_F5; channelId=1000371712; 
SCname=5H_F6; channelId=1000373760; 
SCname=6E_F1; channelId=1000374272; 
SCname=6E_F2; channelId=1000376320; 
SCname=6E_F3; channelId=1000378368; 
SCname=6E_F4; channelId=1000380416; 
SCname=6E_F5; channelId=1000382464; 
SCname=6E_F6; channelId=1000384512; 
SCname=6F_F1; channelId=1000374784; 
SCname=6F_F2; channelId=1000376832; 
SCname=6F_F3; channelId=1000378880; 
SCname=6F_F4; channelId=1000380928; 
SCname=6F_F5; channelId=1000382976; 
SCname=6F_F6; channelId=1000385024; 
SCname=6G_F1; channelId=1000375296; 
SCname=6G_F2; channelId=1000377344; 
SCname=6G_F3; channelId=1000379392; 
SCname=6G_F4; channelId=1000381440; 
SCname=6G_F5; channelId=1000383488; 
SCname=6G_F6; channelId=1000385536; 
SCname=6H_F1; channelId=1000375808; 
SCname=6H_F2; channelId=1000377856; 
SCname=6H_F3; channelId=1000379904; 
SCname=6H_F4; channelId=1000381952; 
SCname=6H_F5; channelId=1000384000; 
SCname=6H_F6; channelId=1000386048; 
SCname=7E_F1; channelId=1000386560; 
SCname=7E_F2; channelId=1000388608; 
SCname=7E_F3; channelId=1000390656; 
SCname=7E_F4; channelId=1000392704; 
SCname=7F_F1; channelId=1000387072; 
SCname=7F_F2; channelId=1000389120; 
SCname=7F_F3; channelId=1000391168; 
SCname=7F_F4; channelId=1000393216; 
SCname=8E_F1; channelId=1000394752; 
SCname=8E_F2; channelId=1000396800; 
SCname=8E_F3; channelId=1000398848; 
SCname=8E_F4; channelId=1000400896; 
SCname=8F_F1; channelId=1000395264; 
SCname=8F_F2; channelId=1000397312; 
SCname=8F_F3; channelId=1000399360; 
SCname=8F_F4; channelId=1000401408; 
SCname=7G_F1; channelId=1000387584; 
SCname=7G_F2; channelId=1000389632; 
SCname=7G_F3; channelId=1000391680; 
SCname=7G_F4; channelId=1000393728; 
SCname=7H_F1; channelId=1000388096; 
SCname=7H_F2; channelId=1000390144; 
SCname=7H_F3; channelId=1000392192; 
SCname=7H_F4; channelId=1000394240; 
SCname=8G_F1; channelId=1000395776; 
SCname=8G_F2; channelId=1000397824; 
SCname=8G_F3; channelId=1000399872; 
SCname=8G_F4; channelId=1000401920; 
SCname=8H_F1; channelId=1000396288; 
SCname=8H_F2; channelId=1000398336; 
SCname=8H_F3; channelId=1000400384; 
SCname=8H_F4; channelId=1000402432; 
SCname=9E_F1; channelId=1000402944; 
SCname=9E_F2; channelId=1000404992; 
SCname=9E_F3; channelId=1000407040; 
SCname=9E_F4; channelId=1000409088; 
SCname=9F_F1; channelId=1000403456; 
SCname=9F_F2; channelId=1000405504; 
SCname=9F_F3; channelId=1000407552; 
SCname=9F_F4; channelId=1000409600; 
SCname=10E_F1; channelId=1000411136; 
SCname=10E_F2; channelId=1000413184; 
SCname=10E_F3; channelId=1000415232; 
SCname=10E_F4; channelId=1000417280; 
SCname=10F_F1; channelId=1000411648; 
SCname=10F_F2; channelId=1000413696; 
SCname=10F_F3; channelId=1000415744; 
SCname=10F_F4; channelId=1000417792; 
SCname=9G_F1; channelId=1000403968; 
SCname=9G_F2; channelId=1000406016; 
SCname=9G_F3; channelId=1000408064; 
SCname=9G_F4; channelId=1000410112; 
SCname=9H_F1; channelId=1000404480; 
SCname=9H_F2; channelId=1000406528; 
SCname=9H_F3; channelId=1000408576; 
SCname=9H_F4; channelId=1000410624; 
SCname=10G_F1; channelId=1000412160; 
SCname=10G_F2; channelId=1000414208; 
SCname=10G_F3; channelId=1000416256; 
SCname=10G_F4; channelId=1000418304; 
SCname=10H_F1; channelId=1000412672; 
SCname=10H_F2; channelId=1000414720; 
SCname=10H_F3; channelId=1000416768; 
SCname=10H_F4; channelId=1000418816; 
SCname=3E_B1; channelId=1000484864; 
SCname=3F_B1; channelId=1000485376; 
SCname=3G_B1; channelId=1000485888; 
SCname=3H_B1; channelId=1000486400; 
SCname=4E_B1; channelId=1000486912; 
SCname=4F_B1; channelId=1000487424; 
SCname=4G_B1; channelId=1000487936; 
SCname=4H_B1; channelId=1000488448; 
SCname=5E_B1; channelId=1000488960; 
SCname=5F_B1; channelId=1000489472; 
SCname=5G_B1; channelId=1000489984; 
SCname=5H_B1; channelId=1000490496; 
SCname=6E_B1; channelId=1000491008; 
SCname=6F_B1; channelId=1000491520; 
SCname=6G_B1; channelId=1000492032; 
SCname=6H_B1; channelId=1000492544; 
SCname=7E_B1; channelId=1000493056; 
SCname=7F_B1; channelId=1000493568; 
SCname=7G_B1; channelId=1000494080; 
SCname=7H_B1; channelId=1000494592; 
SCname=8E_B1; channelId=1000495104; 
SCname=8F_B1; channelId=1000495616; 
SCname=8G_B1; channelId=1000496128; 
SCname=8H_B1; channelId=1000496640; 
SCname=9E_B1; channelId=1000497152; 
SCname=9F_B1; channelId=1000497664; 
SCname=9G_B1; channelId=1000498176; 
SCname=9H_B1; channelId=1000498688; 
SCname=10E_B1; channelId=1000499200; 
SCname=10F_B1; channelId=1000499712; 
SCname=10G_B1; channelId=1000500224; 
SCname=10H_B1; channelId=1000500736; 
SCname=3E_M1; channelId=1000419328; 
SCname=3E_M2; channelId=1000421376; 
SCname=3E_M3; channelId=1000423424; 
SCname=3E_M4; channelId=1000425472; 
SCname=3F_M1; channelId=1000419840; 
SCname=3F_M2; channelId=1000421888; 
SCname=3F_M3; channelId=1000423936; 
SCname=3F_M4; channelId=1000425984; 
SCname=3G_M1; channelId=1000420352; 
SCname=3G_M2; channelId=1000422400; 
SCname=3G_M3; channelId=1000424448; 
SCname=3G_M4; channelId=1000426496; 
SCname=3H_M1; channelId=1000420864; 
SCname=3H_M2; channelId=1000422912; 
SCname=3H_M3; channelId=1000424960; 
SCname=3H_M4; channelId=1000427008; 
SCname=4E_M1; channelId=1000427520; 
SCname=4E_M2; channelId=1000429568; 
SCname=4E_M3; channelId=1000431616; 
SCname=4E_M4; channelId=1000433664; 
SCname=4F_M1; channelId=1000428032; 
SCname=4F_M2; channelId=1000430080; 
SCname=4F_M3; channelId=1000432128; 
SCname=4F_M4; channelId=1000434176; 
SCname=4G_M1; channelId=1000428544; 
SCname=4G_M2; channelId=1000430592; 
SCname=4G_M3; channelId=1000432640; 
SCname=4G_M4; channelId=1000434688; 
SCname=4H_M1; channelId=1000429056; 
SCname=4H_M2; channelId=1000431104; 
SCname=4H_M3; channelId=1000433152; 
SCname=4H_M4; channelId=1000435200; 
SCname=5E_M1; channelId=1000435712; 
SCname=5E_M2; channelId=1000437760; 
SCname=5E_M3; channelId=1000439808; 
SCname=5E_M4; channelId=1000441856; 
SCname=5F_M1; channelId=1000436224; 
SCname=5F_M2; channelId=1000438272; 
SCname=5F_M3; channelId=1000440320; 
SCname=5F_M4; channelId=1000442368; 
SCname=5G_M1; channelId=1000436736; 
SCname=5G_M2; channelId=1000438784; 
SCname=5G_M3; channelId=1000440832; 
SCname=5G_M4; channelId=1000442880; 
SCname=5H_M1; channelId=1000437248; 
SCname=5H_M2; channelId=1000439296; 
SCname=5H_M3; channelId=1000441344; 
SCname=5H_M4; channelId=1000443392; 
SCname=6E_M1; channelId=1000443904; 
SCname=6E_M2; channelId=1000445952; 
SCname=6E_M3; channelId=1000448000; 
SCname=6E_M4; channelId=1000450048; 
SCname=6F_M1; channelId=1000444416; 
SCname=6F_M2; channelId=1000446464; 
SCname=6F_M3; channelId=1000448512; 
SCname=6F_M4; channelId=1000450560; 
SCname=6G_M1; channelId=1000444928; 
SCname=6G_M2; channelId=1000446976; 
SCname=6G_M3; channelId=1000449024; 
SCname=6G_M4; channelId=1000451072; 
SCname=6H_M1; channelId=1000445440; 
SCname=6H_M2; channelId=1000447488; 
SCname=6H_M3; channelId=1000449536; 
SCname=6H_M4; channelId=1000451584; 
SCname=7E_M1; channelId=1000452096; 
SCname=7E_M2; channelId=1000454144; 
SCname=7E_M3; channelId=1000456192; 
SCname=7E_M4; channelId=1000458240; 
SCname=7F_M1; channelId=1000452608; 
SCname=7F_M2; channelId=1000454656; 
SCname=7F_M3; channelId=1000456704; 
SCname=7F_M4; channelId=1000458752; 
SCname=7G_M1; channelId=1000453120; 
SCname=7G_M2; channelId=1000455168; 
SCname=7G_M3; channelId=1000457216; 
SCname=7G_M4; channelId=1000459264; 
SCname=7H_M1; channelId=1000453632; 
SCname=7H_M2; channelId=1000455680; 
SCname=7H_M3; channelId=1000457728; 
SCname=7H_M4; channelId=1000459776; 
SCname=8E_M1; channelId=1000460288; 
SCname=8E_M2; channelId=1000462336; 
SCname=8E_M3; channelId=1000464384; 
SCname=8E_M4; channelId=1000466432; 
SCname=8F_M1; channelId=1000460800; 
SCname=8F_M2; channelId=1000462848; 
SCname=8F_M3; channelId=1000464896; 
SCname=8F_M4; channelId=1000466944; 
SCname=8G_M1; channelId=1000461312; 
SCname=8G_M2; channelId=1000463360; 
SCname=8G_M3; channelId=1000465408; 
SCname=8G_M4; channelId=1000467456; 
SCname=8H_M1; channelId=1000461824; 
SCname=8H_M2; channelId=1000463872; 
SCname=8H_M3; channelId=1000465920; 
SCname=8H_M4; channelId=1000467968; 
SCname=9E_M1; channelId=1000468480; 
SCname=9E_M2; channelId=1000470528; 
SCname=9E_M3; channelId=1000472576; 
SCname=9E_M4; channelId=1000474624; 
SCname=9F_M1; channelId=1000468992; 
SCname=9F_M2; channelId=1000471040; 
SCname=9F_M3; channelId=1000473088; 
SCname=9F_M4; channelId=1000475136; 
SCname=9G_M1; channelId=1000469504; 
SCname=9G_M2; channelId=1000471552; 
SCname=9G_M3; channelId=1000473600; 
SCname=9G_M4; channelId=1000475648; 
SCname=9H_M1; channelId=1000470016; 
SCname=9H_M2; channelId=1000472064; 
SCname=9H_M3; channelId=1000474112; 
SCname=9H_M4; channelId=1000476160; 
SCname=10E_M1; channelId=1000476672; 
SCname=10E_M2; channelId=1000478720; 
SCname=10E_M3; channelId=1000480768; 
SCname=10E_M4; channelId=1000482816; 
SCname=10F_M1; channelId=1000477184; 
SCname=10F_M2; channelId=1000479232; 
SCname=10F_M3; channelId=1000481280; 
SCname=10F_M4; channelId=1000483328; 
SCname=10G_M1; channelId=1000477696; 
SCname=10G_M2; channelId=1000479744; 
SCname=10G_M3; channelId=1000481792; 
SCname=10G_M4; channelId=1000483840; 
SCname=10H_M1; channelId=1000478208; 
SCname=10H_M2; channelId=1000480256; 
SCname=10H_M3; channelId=1000482304; 
SCname=10H_M4; channelId=1000484352; 
312 SCs are read!  LATOME is EMECA_14

******************** Start to read SCs info per fiber: ********************
IN F3 7E_B1 8E_B1 8F_B1 7F_B1 10E_B1 9E_B1 10F_B1 9F_B1
IN F4 4E_M2 4E_M1 4E_M4 4E_M3 4F_M3 4F_M4 4F_M1 4F_M2
IN F5 3F_M1 3F_M2 3F_M4 3F_M3 3E_M4 3E_M3 3E_M2 3E_M1
IN F6 5F_F4 5F_F3 5F_F2 5F_F1 5E_F4 5E_F3 5E_F2 5E_F1
IN F7 6E_M1 6E_M2 6E_M3 6E_M4 6F_M3 6F_M4 6F_M2 6F_M1
IN F8 GND GND GND GND 4F_P1 4E_P1 3F_P1 3E_P1
IN F9 5E_M1 5E_M2 5E_M3 5E_M4 5F_M4 5F_M3 5F_M1 5F_M2
IN F10 4F_F1 4F_F2 4F_F4 4F_F3 4E_F4 4E_F3 4E_F2 4E_F1
IN F11 6E_F2 6E_F1 5E_F6 5E_F5 5F_F5 5F_F6 6F_F2 6F_F1
IN F12 3F_F3 3F_F4 3F_F2 3F_F1 3E_F4 3E_F3 3E_F2 3E_F1
IN F15 4H_B1 3H_B1 4G_B1 3G_B1 6H_B1 5H_B1 5G_B1 6G_B1
IN F16 9F_F2 9F_F1 9F_F4 9F_F3 9E_F4 9E_F3 9E_F1 9E_F2
IN F17 10H_F4 10H_F3 10H_F2 10H_F1 10G_F4 10G_F3 10G_F2 10G_F1
IN F18 6F_F4 6F_F3 6F_F6 6F_F5 6E_F5 6E_F6 6E_F3 6E_F4
IN F19 8E_F3 8E_F4 8E_F2 8E_F1 8F_F1 8F_F2 8F_F4 8F_F3
IN F20 10F_M4 10F_M3 10F_M2 10F_M1 10E_M4 10E_M3 10E_M1 10E_M2
IN F21 7E_F2 7E_F1 7E_F4 7E_F3 7F_F1 7F_F2 7F_F4 7F_F3
IN F22 8E_M4 8E_M3 8E_M1 8E_M2 8F_M4 8F_M3 8F_M1 8F_M2
IN F23 9F_M4 9F_M3 9F_M2 9F_M1 9E_M1 9E_M2 9E_M4 9E_M3
IN F24 7F_M2 7F_M1 7F_M4 7F_M3 7E_M4 7E_M3 7E_M1 7E_M2
IN F27 9H_M1 9H_M2 9H_M4 9H_M3 9G_M3 9G_M4 9G_M1 9G_M2
IN F28 5G_F1 5G_F2 5G_F4 5G_F3 5H_F4 5H_F3 5H_F1 5H_F2
IN F29 10G_M4 10G_M3 10G_M1 10G_M2 10H_M2 10H_M1 10H_M4 10H_M3
IN F30 8H_M4 8H_M3 8H_M2 8H_M1 8G_M1 8G_M2 8G_M3 8G_M4
IN F31 7G_M3 7G_M4 7G_M1 7G_M2 7H_M1 7H_M2 7H_M4 7H_M3
IN F32 8H_F1 8H_F2 8H_F3 8H_F4 8G_F1 8G_F2 8G_F3 8G_F4
IN F33 7G_F2 7G_F1 7G_F4 7G_F3 7H_F2 7H_F1 7H_F4 7H_F3
IN F34 5E_B1 6E_B1 5F_B1 6F_B1 3E_B1 4E_B1 3F_B1 4F_B1
IN F35 9G_F4 9G_F3 9G_F1 9G_F2 9H_F1 9H_F2 9H_F4 9H_F3
IN F36 10F_F4 10F_F3 10F_F1 10F_F2 10E_F1 10E_F2 10E_F4 10E_F3
IN F39 3G_F2 3G_F1 3G_F4 3G_F3 3H_F1 3H_F2 3H_F3 3H_F4
IN F40 5H_M3 5H_M4 5H_M1 5H_M2 5G_M1 5G_M2 5G_M4 5G_M3
IN F41 4G_F1 4G_F2 4G_F3 4G_F4 4H_F1 4H_F2 4H_F4 4H_F3
IN F42 6H_M2 6H_M1 6H_M4 6H_M3 6G_M3 6G_M4 6G_M1 6G_M2
IN F43 5G_F6 5G_F5 6G_F1 6G_F2 5H_F5 5H_F6 6H_F2 6H_F1
IN F44 4G_M4 4G_M3 4G_M2 4G_M1 4H_M4 4H_M3 4H_M1 4H_M2
IN F45 6G_F4 6G_F3 6G_F5 6G_F6 6H_F5 6H_F6 6H_F3 6H_F4
IN F46 GND GND GND GND 3H_P1 3G_P1 4G_P1 4H_P1
IN F47 3G_M2 3G_M1 3G_M3 3G_M4 3H_M4 3H_M3 3H_M1 3H_M2
IN F48 9H_B1 10H_B1 10G_B1 9G_B1 7G_B1 8G_B1 7H_B1 8H_B1
40 fibers are connected!
max_event=999

******************** Start to search BCID of peak sampling: ********************
IN F2; 7E_B1=-1; 8E_B1=-1; 8F_B1=-1; 7F_B1=-1; 10E_B1=-1; 9E_B1=-1; 10F_B1=-1; 9F_B1=-1;  BCID_rms=0; height=688
IN F3; 4E_M2=-1; 4E_M1=-1; 4E_M4=-1; 4E_M3=-1; 4F_M3=-1; 4F_M4=0; 4F_M1=0; 4F_M2=0;  BCID_rms=0.484123; height=1039
IN F4; 3F_M1=0; 3F_M2=0; 3F_M4=-1; 3F_M3=-1; 3E_M4=-1; 3E_M3=0; 3E_M2=0; 3E_M1=0;  BCID_rms=0.484123; height=1080
IN F5; 5F_F4=0; 5F_F3=0; 5F_F2=0; 5F_F1=0; 5E_F4=0; 5E_F3=0; 5E_F2=0; 5E_F1=0;  BCID_rms=0; height=397
IN F6; 6E_M1=0; 6E_M2=0; 6E_M3=0; 6E_M4=0; 6F_M3=0; 6F_M4=0; 6F_M2=0; 6F_M1=0;  BCID_rms=0; height=404
IN F7; GND; GND; GND; GND; 4F_P1=-1; 4E_P1=-1; 3F_P1=-1; 3E_P1=-1;  BCID_rms=0; height=704
IN F8; 5E_M1=0; 5E_M2=0; 5E_M3=0; 5E_M4=0; 5F_M4=0; 5F_M3=0; 5F_M1=0; 5F_M2=0;  BCID_rms=0; height=388
IN F9; 4F_F1=-1; 4F_F2=-1; 4F_F4=-1; 4F_F3=-1; 4E_F4=-1; 4E_F3=-1; 4E_F2=-1; 4E_F1=0;  BCID_rms=0.330719; height=737
IN F10; 6E_F2=0; 6E_F1=0; 5E_F6=0; 5E_F5=0; 5F_F5=0; 5F_F6=0; 6F_F2=0; 6F_F1=0;  BCID_rms=0; height=373
IN F11; 3F_F3=-1; 3F_F4=-1; 3F_F2=-1; 3F_F1=-1; 3E_F4=-1; 3E_F3=-1; 3E_F2=-1; 3E_F1=0;  BCID_rms=0.330719; height=726
IN F14; 4H_B1=0; 3H_B1=0; 4G_B1=0; 3G_B1=0; 6H_B1=0; 5H_B1=0; 5G_B1=0; 6G_B1=0;  BCID_rms=0; height=755
IN F15; 9F_F2=-1; 9F_F1=-1; 9F_F4=-1; 9F_F3=-1; 9E_F4=-1; 9E_F3=-1; 9E_F1=-1; 9E_F2=-1;  BCID_rms=0; height=351
IN F16; 10H_F4=-1; 10H_F3=-1; 10H_F2=-1; 10H_F1=-1; 10G_F4=-1; 10G_F3=-1; 10G_F2=-1; 10G_F1=-1;  BCID_rms=0; height=337
IN F17; 6F_F4=0; 6F_F3=0; 6F_F6=0; 6F_F5=0; 6E_F5=0; 6E_F6=0; 6E_F3=0; 6E_F4=0;  BCID_rms=0; height=385
IN F18; 8E_F3=0; 8E_F4=0; 8E_F2=0; 8E_F1=0; 8F_F1=0; 8F_F2=0; 8F_F4=0; 8F_F3=0;  BCID_rms=0; height=371
IN F19; 10F_M4=0; 10F_M3=0; 10F_M2=0; 10F_M1=0; 10E_M4=0; 10E_M3=0; 10E_M1=0; 10E_M2=0;  BCID_rms=0; height=400
IN F20; 7E_F2=-1; 7E_F1=-1; 7E_F4=-1; 7E_F3=-1; 7F_F1=-1; 7F_F2=-1; 7F_F4=-1; 7F_F3=-1;  BCID_rms=0; height=356
IN F21; 8E_M4=0; 8E_M3=0; 8E_M1=0; 8E_M2=0; 8F_M4=0; 8F_M3=0; 8F_M1=0; 8F_M2=0;  BCID_rms=0; height=406
IN F22; 9F_M4=0; 9F_M3=0; 9F_M2=0; 9F_M1=0; 9E_M1=0; 9E_M2=0; 9E_M4=0; 9E_M3=0;  BCID_rms=0; height=399
IN F23; 7F_M2=-1; 7F_M1=-1; 7F_M4=-1; 7F_M3=-1; 7E_M4=-1; 7E_M3=-1; 7E_M1=-1; 7E_M2=-1;  BCID_rms=0; height=385
IN F26; 9H_M1=0; 9H_M2=0; 9H_M4=0; 9H_M3=0; 9G_M3=0; 9G_M4=0; 9G_M1=0; 9G_M2=0;  BCID_rms=0; height=401
IN F27; 5G_F1=0; 5G_F2=0; 5G_F4=0; 5G_F3=0; 5H_F4=0; 5H_F3=0; 5H_F1=0; 5H_F2=0;  BCID_rms=0; height=391
IN F28; 10G_M4=-1; 10G_M3=-1; 10G_M1=-1; 10G_M2=-1; 10H_M2=-1; 10H_M1=-1; 10H_M4=-1; 10H_M3=-1;  BCID_rms=0; height=383
IN F29; 8H_M4=0; 8H_M3=0; 8H_M2=0; 8H_M1=0; 8G_M1=0; 8G_M2=0; 8G_M3=0; 8G_M4=0;  BCID_rms=0; height=405
IN F30; 7G_M3=0; 7G_M4=0; 7G_M1=0; 7G_M2=0; 7H_M1=0; 7H_M2=0; 7H_M4=0; 7H_M3=0;  BCID_rms=0; height=401
IN F31; 8H_F1=-1; 8H_F2=0; 8H_F3=-1; 8H_F4=0; 8G_F1=-1; 8G_F2=-1; 8G_F3=-1; 8G_F4=-1;  BCID_rms=0.433013; height=336
IN F32; 7G_F2=-1; 7G_F1=-1; 7G_F4=-1; 7G_F3=-1; 7H_F2=-1; 7H_F1=-1; 7H_F4=-1; 7H_F3=-1;  BCID_rms=0; height=361
IN F33; 5E_B1=0; 6E_B1=0; 5F_B1=0; 6F_B1=0; 3E_B1=0; 4E_B1=0; 3F_B1=0; 4F_B1=0;  BCID_rms=0; height=748
IN F34; 9G_F4=-1; 9G_F3=-1; 9G_F1=-1; 9G_F2=-1; 9H_F1=-1; 9H_F2=-1; 9H_F4=-1; 9H_F3=-1;  BCID_rms=0; height=352
IN F35; 10F_F4=0; 10F_F3=0; 10F_F1=0; 10F_F2=0; 10E_F1=0; 10E_F2=0; 10E_F4=0; 10E_F3=0;  BCID_rms=0; height=365
IN F38; 3G_F2=-1; 3G_F1=-1; 3G_F4=-1; 3G_F3=-1; 3H_F1=-1; 3H_F2=-1; 3H_F3=-1; 3H_F4=-1;  BCID_rms=0; height=729
IN F39; 5H_M3=0; 5H_M4=0; 5H_M1=0; 5H_M2=0; 5G_M1=0; 5G_M2=0; 5G_M4=0; 5G_M3=0;  BCID_rms=0; height=407
IN F40; 4G_F1=-1; 4G_F2=-1; 4G_F3=-1; 4G_F4=-1; 4H_F1=-1; 4H_F2=-1; 4H_F4=0; 4H_F3=-1;  BCID_rms=0.330719; height=772
IN F41; 6H_M2=0; 6H_M1=0; 6H_M4=0; 6H_M3=0; 6G_M3=0; 6G_M4=0; 6G_M1=0; 6G_M2=0;  BCID_rms=0; height=388
IN F42; 5G_F6=0; 5G_F5=0; 6G_F1=0; 6G_F2=0; 5H_F5=0; 5H_F6=0; 6H_F2=0; 6H_F1=0;  BCID_rms=0; height=374
IN F43; 4G_M4=0; 4G_M3=0; 4G_M2=0; 4G_M1=0; 4H_M4=0; 4H_M3=0; 4H_M1=0; 4H_M2=0;  BCID_rms=0; height=1096
IN F44; 6G_F4=0; 6G_F3=0; 6G_F5=0; 6G_F6=0; 6H_F5=0; 6H_F6=0; 6H_F3=0; 6H_F4=0;  BCID_rms=0; height=369
IN F45; GND; GND; GND; GND; 3H_P1=-1; 3G_P1=-1; 4G_P1=-1; 4H_P1=-1;  BCID_rms=0; height=718
IN F46; 3G_M2=0; 3G_M1=0; 3G_M3=-1; 3G_M4=-1; 3H_M4=-1; 3H_M3=-1; 3H_M1=-1; 3H_M2=-1;  BCID_rms=0.433013; height=1096
IN F47; 9H_B1=0; 10H_B1=0; 10G_B1=0; 9G_B1=0; 7G_B1=0; 8G_B1=0; 7H_B1=0; 8H_B1=0;  BCID_rms=0; height=690
