
Processing macro.C+("inputfile/LArDigits_pusleall_00407554.root","EMECA-HECA_4","outputs/hist/LArDigits_pusleall_00407554_hist.root","results/LArDigits_pusleall_00407554/latome54.ini","LATOME_ini_file/latome54.ini",false)...
Info in <TUnixSystem::ACLiC>: creating shared library /home/zang/BCID_adjustment/./macro_C.so
c++: error: /home/zang/BCID_adjustment/macro_C_ACLiC_dict.o: No such file or directory
Error in <ACLiC>: Executing 'cd "/home/zang/BCID_adjustment" ; c++ -fPIC -c -DNDEBUG -O2 -g -pipe -Wp,-D_FORTIFY_SOURCE=2 -fexceptions -fstack-protector-strong --param=ssp-buffer-size=4 -grecord-gcc-switches -m64 -mtune=generic -std=c++11 -pipe -W -Woverloaded-virtual -fsigned-char -pthread  -I/usr/include/root -I"/usr/share/root" -I"/usr/share/root/cling" -I"/usr/include/root"   -D__ACLIC__ "/home/zang/BCID_adjustment/macro_C_ACLiC_dict.cxx" ; c++ -DNDEBUG "/home/zang/BCID_adjustment/macro_C_ACLiC_dict.o" -shared   "/lib64/libm.so" "/lib64/libdl.so" "/lib64/libc.so" "/usr/lib64/root/libRint.so.6.22" "/usr/lib64/root/libCore.so.6.22" "/lib64/libpcre.so.1" "/lib64/liblzma.so.5" "/lib64/libxxhash.so.0" "/lib64/liblz4.so.1" "/lib64/libz.so.1" "/lib64/libzstd.so.1" "/lib64/libpthread.so.0" "/lib64/libnss_files.so.2" "/usr/lib64/root/libRIO.so" "/usr/lib64/root/libThread.so.6.22" "/usr/lib64/root/libCling.so" "/lib64/libtinfo.so.5" "/usr/lib64/ld-2.17.so" "/usr/lib64/root/libMathCore.so.6.22.08" "/usr/lib64/root/libTree.so.6.22.08" "/usr/lib64/root/libNet.so.6.22" "/lib64/libssl.so.10" "/lib64/libcrypto.so.10" "/lib64/libgssapi_krb5.so.2" "/lib64/libkrb5.so.3" "/lib64/libcom_err.so.2" "/lib64/libk5crypto.so.3" "/lib64/libkrb5support.so.0" "/lib64/libkeyutils.so.1" "/lib64/libresolv.so.2" "/lib64/libselinux.so.1" "/usr/lib64/root/libGpad.so.6.22.08" "/usr/lib64/root/libGraf.so.6.22" "/usr/lib64/root/libHist.so.6.22" "/lib64/libfreetype.so.6" "/lib64/libfontconfig.so.1" "/usr/lib64/root/libMatrix.so.6.22" "/lib64/libbz2.so.1" "/lib64/libpng15.so.15" "/lib64/libexpat.so.1" "/lib64/libuuid.so.1" "/usr/lib64/root/libTreePlayer.so.6.22.08" "/usr/lib64/root/libGraf3d.so.6.22" "/usr/lib64/root/libMultiProc.so.6.22" -o "/home/zang/BCID_adjustment/./macro_C.so"' failed!
